digraph g {

	s0 [shape="circle" label="s0"];
	s1 [shape="circle" label="s1"];
	s2 [shape="circle" label="s2"];
	s3 [shape="circle" label="s3"];
	s4 [shape="circle" label="s4"];
	s5 [shape="circle" label="s5"];
	s6 [shape="circle" label="s6"];
	s7 [shape="circle" label="s7"];
	s8 [shape="circle" label="s8"];
	s9 [shape="circle" label="s9"];
	s10 [shape="circle" label="s10"];
	s0 -> s7 [label="HELLO_VERIFY_REQUEST / CLIENT_HELLO+"];
	s0 -> s2 [label="PSK_SERVER_HELLO / CLIENT_HELLO"];
	s0 -> s1 [label="SERVER_HELLO_DONE / CLIENT_HELLO|Alert(FATAL,DECODE_ERROR)"];
	s0 -> s3 [label="CHANGE_CIPHER_SPEC / CLIENT_HELLO"];
	s0 -> s1 [label="FINISHED / CLIENT_HELLO|Alert(FATAL,DECODE_ERROR)"];
	s0 -> s1 [label="HELLO_REQUEST / CLIENT_HELLO|Alert(FATAL,DECODE_ERROR)"];
	s0 -> s4 [label="APPLICATION / CLIENT_HELLO"];
	s0 -> s1 [label="Alert(WARNING,CLOSE_NOTIFY) / CLIENT_HELLO"];
	s0 -> s1 [label="Alert(FATAL,UNEXPECTED_MESSAGE) / CLIENT_HELLO"];
	s1 -> s1 [label="HELLO_VERIFY_REQUEST / SOCKET_CLOSED"];
	s1 -> s1 [label="PSK_SERVER_HELLO / SOCKET_CLOSED"];
	s1 -> s1 [label="SERVER_HELLO_DONE / SOCKET_CLOSED"];
	s1 -> s1 [label="CHANGE_CIPHER_SPEC / SOCKET_CLOSED"];
	s1 -> s1 [label="FINISHED / SOCKET_CLOSED"];
	s1 -> s1 [label="HELLO_REQUEST / SOCKET_CLOSED"];
	s1 -> s1 [label="APPLICATION / SOCKET_CLOSED"];
	s1 -> s1 [label="Alert(WARNING,CLOSE_NOTIFY) / SOCKET_CLOSED"];
	s1 -> s1 [label="Alert(FATAL,UNEXPECTED_MESSAGE) / SOCKET_CLOSED"];
	s2 -> s1 [label="HELLO_VERIFY_REQUEST / Alert(FATAL,DECODE_ERROR)"];
	s2 -> s1 [label="PSK_SERVER_HELLO / Alert(FATAL,DECODE_ERROR)"];
	s2 -> s6 [label="SERVER_HELLO_DONE / PSK_CLIENT_KEY_EXCHANGE|CHANGE_CIPHER_SPEC|FINISHED"];
	s2 -> s3 [label="CHANGE_CIPHER_SPEC / TIMEOUT"];
	s2 -> s1 [label="FINISHED / Alert(FATAL,DECODE_ERROR)"];
	s2 -> s5 [label="HELLO_REQUEST / TIMEOUT"];
	s2 -> s2 [label="APPLICATION / TIMEOUT"];
	s2 -> s1 [label="Alert(WARNING,CLOSE_NOTIFY) / TIMEOUT"];
	s2 -> s1 [label="Alert(FATAL,UNEXPECTED_MESSAGE) / TIMEOUT"];
	s3 -> s3 [label="HELLO_VERIFY_REQUEST / TIMEOUT"];
	s3 -> s3 [label="PSK_SERVER_HELLO / TIMEOUT"];
	s3 -> s3 [label="SERVER_HELLO_DONE / TIMEOUT"];
	s3 -> s3 [label="CHANGE_CIPHER_SPEC / TIMEOUT"];
	s3 -> s3 [label="FINISHED / TIMEOUT"];
	s3 -> s5 [label="HELLO_REQUEST / TIMEOUT"];
	s3 -> s3 [label="APPLICATION / TIMEOUT"];
	s3 -> s3 [label="Alert(WARNING,CLOSE_NOTIFY) / TIMEOUT"];
	s3 -> s3 [label="Alert(FATAL,UNEXPECTED_MESSAGE) / TIMEOUT"];
	s4 -> s7 [label="HELLO_VERIFY_REQUEST / CLIENT_HELLO"];
	s4 -> s2 [label="PSK_SERVER_HELLO / TIMEOUT"];
	s4 -> s1 [label="SERVER_HELLO_DONE / Alert(FATAL,DECODE_ERROR)"];
	s4 -> s3 [label="CHANGE_CIPHER_SPEC / TIMEOUT"];
	s4 -> s1 [label="FINISHED / Alert(FATAL,DECODE_ERROR)"];
	s4 -> s1 [label="HELLO_REQUEST / Alert(FATAL,DECODE_ERROR)"];
	s4 -> s4 [label="APPLICATION / TIMEOUT"];
	s4 -> s1 [label="Alert(WARNING,CLOSE_NOTIFY) / TIMEOUT"];
	s4 -> s1 [label="Alert(FATAL,UNEXPECTED_MESSAGE) / TIMEOUT"];
	s5 -> s5 [label="HELLO_VERIFY_REQUEST / DISABLED"];
	s5 -> s5 [label="PSK_SERVER_HELLO / DISABLED"];
	s5 -> s5 [label="SERVER_HELLO_DONE / DISABLED"];
	s5 -> s5 [label="CHANGE_CIPHER_SPEC / DISABLED"];
	s5 -> s5 [label="FINISHED / DISABLED"];
	s5 -> s5 [label="HELLO_REQUEST / DISABLED"];
	s5 -> s5 [label="APPLICATION / DISABLED"];
	s5 -> s5 [label="Alert(WARNING,CLOSE_NOTIFY) / DISABLED"];
	s5 -> s5 [label="Alert(FATAL,UNEXPECTED_MESSAGE) / DISABLED"];
	s6 -> s1 [label="HELLO_VERIFY_REQUEST / Alert(FATAL,UNEXPECTED_MESSAGE)"];
	s6 -> s1 [label="PSK_SERVER_HELLO / Alert(FATAL,UNEXPECTED_MESSAGE)"];
	s6 -> s1 [label="SERVER_HELLO_DONE / Alert(FATAL,UNEXPECTED_MESSAGE)"];
	s6 -> s2 [label="CHANGE_CIPHER_SPEC / TIMEOUT"];
	s6 -> s1 [label="FINISHED / Alert(FATAL,UNEXPECTED_MESSAGE)"];
	s6 -> s5 [label="HELLO_REQUEST / TIMEOUT"];
	s6 -> s6 [label="APPLICATION / TIMEOUT"];
	s6 -> s1 [label="Alert(WARNING,CLOSE_NOTIFY) / TIMEOUT"];
	s6 -> s1 [label="Alert(FATAL,UNEXPECTED_MESSAGE) / TIMEOUT"];
	s7 -> s8 [label="HELLO_VERIFY_REQUEST / CLIENT_HELLO"];
	s7 -> s9 [label="PSK_SERVER_HELLO / TIMEOUT"];
	s7 -> s1 [label="SERVER_HELLO_DONE / Alert(FATAL,DECODE_ERROR)"];
	s7 -> s3 [label="CHANGE_CIPHER_SPEC / TIMEOUT"];
	s7 -> s1 [label="FINISHED / Alert(FATAL,DECODE_ERROR)"];
	s7 -> s7 [label="HELLO_REQUEST / CLIENT_HELLO"];
	s7 -> s7 [label="APPLICATION / TIMEOUT"];
	s7 -> s1 [label="Alert(WARNING,CLOSE_NOTIFY) / TIMEOUT"];
	s7 -> s1 [label="Alert(FATAL,UNEXPECTED_MESSAGE) / TIMEOUT"];
	s8 -> s8 [label="HELLO_VERIFY_REQUEST / CLIENT_HELLO"];
	s8 -> s2 [label="PSK_SERVER_HELLO / TIMEOUT"];
	s8 -> s1 [label="SERVER_HELLO_DONE / Alert(FATAL,DECODE_ERROR)"];
	s8 -> s3 [label="CHANGE_CIPHER_SPEC / TIMEOUT"];
	s8 -> s1 [label="FINISHED / Alert(FATAL,DECODE_ERROR)"];
	s8 -> s5 [label="HELLO_REQUEST / TIMEOUT"];
	s8 -> s8 [label="APPLICATION / TIMEOUT"];
	s8 -> s1 [label="Alert(WARNING,CLOSE_NOTIFY) / TIMEOUT"];
	s8 -> s1 [label="Alert(FATAL,UNEXPECTED_MESSAGE) / TIMEOUT"];
	s9 -> s1 [label="HELLO_VERIFY_REQUEST / Alert(FATAL,DECODE_ERROR)"];
	s9 -> s1 [label="PSK_SERVER_HELLO / Alert(FATAL,DECODE_ERROR)"];
	s9 -> s6 [label="SERVER_HELLO_DONE / PSK_CLIENT_KEY_EXCHANGE|CHANGE_CIPHER_SPEC|FINISHED"];
	s9 -> s3 [label="CHANGE_CIPHER_SPEC / TIMEOUT"];
	s9 -> s1 [label="FINISHED / Alert(FATAL,DECODE_ERROR)"];
	s9 -> s10 [label="HELLO_REQUEST / CLIENT_HELLO"];
	s9 -> s9 [label="APPLICATION / TIMEOUT"];
	s9 -> s1 [label="Alert(WARNING,CLOSE_NOTIFY) / TIMEOUT"];
	s9 -> s1 [label="Alert(FATAL,UNEXPECTED_MESSAGE) / TIMEOUT"];
	s10 -> s9 [label="HELLO_VERIFY_REQUEST / TIMEOUT"];
	s10 -> s9 [label="PSK_SERVER_HELLO / TIMEOUT"];
	s10 -> s9 [label="SERVER_HELLO_DONE / TIMEOUT"];
	s10 -> s3 [label="CHANGE_CIPHER_SPEC / TIMEOUT"];
	s10 -> s9 [label="FINISHED / TIMEOUT"];
	s10 -> s10 [label="HELLO_REQUEST / CLIENT_HELLO"];
	s10 -> s10 [label="APPLICATION / TIMEOUT"];
	s10 -> s1 [label="Alert(WARNING,CLOSE_NOTIFY) / TIMEOUT"];
	s10 -> s1 [label="Alert(FATAL,UNEXPECTED_MESSAGE) / TIMEOUT"];

__start0 [label="" shape="none" width="0" height="0"];
__start0 -> s0;

}
