digraph g {

	s0 [shape="circle" label="s0"];
	s1 [shape="circle" label="s1"];
	s2 [shape="circle" label="s2"];
	s3 [shape="circle" label="s3"];
	s4 [shape="circle" label="s4"];
	s5 [shape="circle" label="s5"];
	s6 [shape="circle" label="s6"];
	s7 [shape="circle" label="s7"];
	s8 [shape="circle" label="s8"];
	s9 [shape="circle" label="s9"];
	s10 [shape="circle" label="s10"];
	s11 [shape="circle" label="s11"];
	s12 [shape="circle" label="s12"];
	s13 [shape="circle" label="s13"];
	s14 [shape="circle" label="s14"];
	s15 [shape="circle" label="s15"];
	s16 [shape="circle" label="s16"];
	s17 [shape="circle" label="s17"];
	s18 [shape="circle" label="s18"];
	s19 [shape="circle" label="s19"];
	s20 [shape="circle" label="s20"];
	s21 [shape="circle" label="s21"];
	s22 [shape="circle" label="s22"];
	s23 [shape="circle" label="s23"];
	s24 [shape="circle" label="s24"];
	s25 [shape="circle" label="s25"];
	s26 [shape="circle" label="s26"];
	s27 [shape="circle" label="s27"];
	s28 [shape="circle" label="s28"];
	s29 [shape="circle" label="s29"];
	s30 [shape="circle" label="s30"];
	s31 [shape="circle" label="s31"];
	s32 [shape="circle" label="s32"];
	s33 [shape="circle" label="s33"];
	s34 [shape="circle" label="s34"];
	s35 [shape="circle" label="s35"];
	s36 [shape="circle" label="s36"];
	s37 [shape="circle" label="s37"];
	s38 [shape="circle" label="s38"];
	s39 [shape="circle" label="s39"];
	s40 [shape="circle" label="s40"];
	s41 [shape="circle" label="s41"];
	s42 [shape="circle" label="s42"];
	s43 [shape="circle" label="s43"];
	s44 [shape="circle" label="s44"];
	s45 [shape="circle" label="s45"];
	s46 [shape="circle" label="s46"];
	s47 [shape="circle" label="s47"];
	s48 [shape="circle" label="s48"];
	s49 [shape="circle" label="s49"];
	s50 [shape="circle" label="s50"];
	s51 [shape="circle" label="s51"];
	s52 [shape="circle" label="s52"];
	s53 [shape="circle" label="s53"];
	s54 [shape="circle" label="s54"];
	s55 [shape="circle" label="s55"];
	s56 [shape="circle" label="s56"];
	s57 [shape="circle" label="s57"];
	s58 [shape="circle" label="s58"];
	s59 [shape="circle" label="s59"];
	s60 [shape="circle" label="s60"];
	s61 [shape="circle" label="s61"];
	s62 [shape="circle" label="s62"];
	s63 [shape="circle" label="s63"];
	s64 [shape="circle" label="s64"];
	s65 [shape="circle" label="s65"];
	s66 [shape="circle" label="s66"];
	s67 [shape="circle" label="s67"];
	s68 [shape="circle" label="s68"];
	s69 [shape="circle" label="s69"];
	s70 [shape="circle" label="s70"];
	s71 [shape="circle" label="s71"];
	s72 [shape="circle" label="s72"];
	s73 [shape="circle" label="s73"];
	s74 [shape="circle" label="s74"];
	s75 [shape="circle" label="s75"];
	s76 [shape="circle" label="s76"];
	s77 [shape="circle" label="s77"];
	s78 [shape="circle" label="s78"];
	s79 [shape="circle" label="s79"];
	s80 [shape="circle" label="s80"];
	s81 [shape="circle" label="s81"];
	s82 [shape="circle" label="s82"];
	s83 [shape="circle" label="s83"];
	s84 [shape="circle" label="s84"];
	s85 [shape="circle" label="s85"];
	s86 [shape="circle" label="s86"];
	s87 [shape="circle" label="s87"];
	s88 [shape="circle" label="s88"];
	s89 [shape="circle" label="s89"];
	s90 [shape="circle" label="s90"];
	s91 [shape="circle" label="s91"];
	s92 [shape="circle" label="s92"];
	s93 [shape="circle" label="s93"];
	s94 [shape="circle" label="s94"];
	s95 [shape="circle" label="s95"];
	s96 [shape="circle" label="s96"];
	s97 [shape="circle" label="s97"];
	s98 [shape="circle" label="s98"];
	s99 [shape="circle" label="s99"];
	s100 [shape="circle" label="s100"];
	s101 [shape="circle" label="s101"];
	s102 [shape="circle" label="s102"];
	s103 [shape="circle" label="s103"];
	s104 [shape="circle" label="s104"];
	s105 [shape="circle" label="s105"];
	s106 [shape="circle" label="s106"];
	s107 [shape="circle" label="s107"];
	s108 [shape="circle" label="s108"];
	s109 [shape="circle" label="s109"];
	s110 [shape="circle" label="s110"];
	s111 [shape="circle" label="s111"];
	s112 [shape="circle" label="s112"];
	s113 [shape="circle" label="s113"];
	s114 [shape="circle" label="s114"];
	s115 [shape="circle" label="s115"];
	s116 [shape="circle" label="s116"];
	s117 [shape="circle" label="s117"];
	s118 [shape="circle" label="s118"];
	s119 [shape="circle" label="s119"];
	s120 [shape="circle" label="s120"];
	s121 [shape="circle" label="s121"];
	s122 [shape="circle" label="s122"];
	s123 [shape="circle" label="s123"];
	s124 [shape="circle" label="s124"];
	s125 [shape="circle" label="s125"];
	s126 [shape="circle" label="s126"];
	s127 [shape="circle" label="s127"];
	s128 [shape="circle" label="s128"];
	s129 [shape="circle" label="s129"];
	s130 [shape="circle" label="s130"];
	s131 [shape="circle" label="s131"];
	s132 [shape="circle" label="s132"];
	s133 [shape="circle" label="s133"];
	s134 [shape="circle" label="s134"];
	s135 [shape="circle" label="s135"];
	s136 [shape="circle" label="s136"];
	s137 [shape="circle" label="s137"];
	s138 [shape="circle" label="s138"];
	s139 [shape="circle" label="s139"];
	s140 [shape="circle" label="s140"];
	s141 [shape="circle" label="s141"];
	s142 [shape="circle" label="s142"];
	s143 [shape="circle" label="s143"];
	s144 [shape="circle" label="s144"];
	s145 [shape="circle" label="s145"];
	s146 [shape="circle" label="s146"];
	s147 [shape="circle" label="s147"];
	s148 [shape="circle" label="s148"];
	s0 -> s5 [label="HELLO_VERIFY_REQUEST / CLIENT_HELLO+"];
	s0 -> s1 [label="PSK_SERVER_HELLO / CLIENT_HELLO"];
	s0 -> s6 [label="PSK_SERVER_HELLO_EPOCH_1 / CLIENT_HELLO"];
	s0 -> s3 [label="SERVER_HELLO_DONE / CLIENT_HELLO,Alert(FATAL,UNEXPECTED_MESSAGE)"];
	s0 -> s15 [label="CHANGE_CIPHER_SPEC / CLIENT_HELLO"];
	s0 -> s3 [label="FINISHED / CLIENT_HELLO,Alert(FATAL,INTERNAL_ERROR)"];
	s0 -> s3 [label="FINISHED_EPOCH_0 / CLIENT_HELLO,Alert(FATAL,INTERNAL_ERROR)"];
	s0 -> s3 [label="APPLICATION_EPOCH_0 / CLIENT_HELLO,Alert(FATAL,UNEXPECTED_MESSAGE)"];
	s0 -> s3 [label="APPLICATION / CLIENT_HELLO,Alert(FATAL,UNEXPECTED_MESSAGE)"];
	s0 -> s3 [label="Alert(WARNING,CLOSE_NOTIFY) / CLIENT_HELLO"];
	s0 -> s3 [label="Alert(FATAL,UNEXPECTED_MESSAGE) / CLIENT_HELLO"];
	s1 -> s5 [label="HELLO_VERIFY_REQUEST / CLIENT_HELLO"];
	s1 -> s3 [label="PSK_SERVER_HELLO / Alert(FATAL,UNEXPECTED_MESSAGE)"];
	s1 -> s90 [label="PSK_SERVER_HELLO_EPOCH_1 / TIMEOUT"];
	s1 -> s2 [label="SERVER_HELLO_DONE / PSK_CLIENT_KEY_EXCHANGE,CHANGE_CIPHER_SPEC,FINISHED"];
	s1 -> s7 [label="CHANGE_CIPHER_SPEC / TIMEOUT"];
	s1 -> s3 [label="FINISHED / Alert(FATAL,INTERNAL_ERROR)"];
	s1 -> s3 [label="FINISHED_EPOCH_0 / Alert(FATAL,INTERNAL_ERROR)"];
	s1 -> s3 [label="APPLICATION_EPOCH_0 / Alert(FATAL,UNEXPECTED_MESSAGE)"];
	s1 -> s3 [label="APPLICATION / Alert(FATAL,UNEXPECTED_MESSAGE)"];
	s1 -> s3 [label="Alert(WARNING,CLOSE_NOTIFY) / TIMEOUT"];
	s1 -> s3 [label="Alert(FATAL,UNEXPECTED_MESSAGE) / TIMEOUT"];
	s2 -> s3 [label="HELLO_VERIFY_REQUEST / Alert(FATAL,UNEXPECTED_MESSAGE)"];
	s2 -> s3 [label="PSK_SERVER_HELLO / Alert(FATAL,UNEXPECTED_MESSAGE)"];
	s2 -> s37 [label="PSK_SERVER_HELLO_EPOCH_1 / TIMEOUT"];
	s2 -> s3 [label="SERVER_HELLO_DONE / Alert(FATAL,UNEXPECTED_MESSAGE)"];
	s2 -> s4 [label="CHANGE_CIPHER_SPEC / TIMEOUT"];
	s2 -> s3 [label="FINISHED / Alert(FATAL,UNEXPECTED_MESSAGE)"];
	s2 -> s3 [label="FINISHED_EPOCH_0 / Alert(FATAL,UNEXPECTED_MESSAGE)"];
	s2 -> s3 [label="APPLICATION_EPOCH_0 / Alert(FATAL,UNEXPECTED_MESSAGE)"];
	s2 -> s3 [label="APPLICATION / Alert(FATAL,UNEXPECTED_MESSAGE)"];
	s2 -> s3 [label="Alert(WARNING,CLOSE_NOTIFY) / TIMEOUT"];
	s2 -> s3 [label="Alert(FATAL,UNEXPECTED_MESSAGE) / TIMEOUT"];
	s3 -> s3 [label="HELLO_VERIFY_REQUEST / TIMEOUT"];
	s3 -> s3 [label="PSK_SERVER_HELLO / TIMEOUT"];
	s3 -> s3 [label="PSK_SERVER_HELLO_EPOCH_1 / TIMEOUT"];
	s3 -> s3 [label="SERVER_HELLO_DONE / TIMEOUT"];
	s3 -> s3 [label="CHANGE_CIPHER_SPEC / TIMEOUT"];
	s3 -> s3 [label="FINISHED / TIMEOUT"];
	s3 -> s3 [label="FINISHED_EPOCH_0 / TIMEOUT"];
	s3 -> s3 [label="APPLICATION_EPOCH_0 / TIMEOUT"];
	s3 -> s3 [label="APPLICATION / TIMEOUT"];
	s3 -> s3 [label="Alert(WARNING,CLOSE_NOTIFY) / TIMEOUT"];
	s3 -> s3 [label="Alert(FATAL,UNEXPECTED_MESSAGE) / TIMEOUT"];
	s4 -> s3 [label="HELLO_VERIFY_REQUEST / Alert(FATAL,UNEXPECTED_MESSAGE)"];
	s4 -> s3 [label="PSK_SERVER_HELLO / Alert(FATAL,UNEXPECTED_MESSAGE)"];
	s4 -> s3 [label="PSK_SERVER_HELLO_EPOCH_1 / Alert(FATAL,UNEXPECTED_MESSAGE)"];
	s4 -> s3 [label="SERVER_HELLO_DONE / Alert(FATAL,UNEXPECTED_MESSAGE)"];
	s4 -> s3 [label="CHANGE_CIPHER_SPEC / TIMEOUT"];
	s4 -> s3 [label="FINISHED / TIMEOUT"];
	s4 -> s3 [label="FINISHED_EPOCH_0 / TIMEOUT"];
	s4 -> s4 [label="APPLICATION_EPOCH_0 / TIMEOUT"];
	s4 -> s4 [label="APPLICATION / TIMEOUT"];
	s4 -> s4 [label="Alert(WARNING,CLOSE_NOTIFY) / TIMEOUT"];
	s4 -> s4 [label="Alert(FATAL,UNEXPECTED_MESSAGE) / TIMEOUT"];
	s5 -> s5 [label="HELLO_VERIFY_REQUEST / CLIENT_HELLO"];
	s5 -> s1 [label="PSK_SERVER_HELLO / TIMEOUT"];
	s5 -> s90 [label="PSK_SERVER_HELLO_EPOCH_1 / TIMEOUT"];
	s5 -> s3 [label="SERVER_HELLO_DONE / Alert(FATAL,UNEXPECTED_MESSAGE)"];
	s5 -> s7 [label="CHANGE_CIPHER_SPEC / TIMEOUT"];
	s5 -> s3 [label="FINISHED / Alert(FATAL,INTERNAL_ERROR)"];
	s5 -> s3 [label="FINISHED_EPOCH_0 / Alert(FATAL,INTERNAL_ERROR)"];
	s5 -> s3 [label="APPLICATION_EPOCH_0 / Alert(FATAL,UNEXPECTED_MESSAGE)"];
	s5 -> s3 [label="APPLICATION / Alert(FATAL,UNEXPECTED_MESSAGE)"];
	s5 -> s3 [label="Alert(WARNING,CLOSE_NOTIFY) / TIMEOUT"];
	s5 -> s3 [label="Alert(FATAL,UNEXPECTED_MESSAGE) / TIMEOUT"];
	s6 -> s57 [label="HELLO_VERIFY_REQUEST / TIMEOUT"];
	s6 -> s57 [label="PSK_SERVER_HELLO / TIMEOUT"];
	s6 -> s72 [label="PSK_SERVER_HELLO_EPOCH_1 / TIMEOUT"];
	s6 -> s57 [label="SERVER_HELLO_DONE / TIMEOUT"];
	s6 -> s9 [label="CHANGE_CIPHER_SPEC / TIMEOUT"];
	s6 -> s57 [label="FINISHED / TIMEOUT"];
	s6 -> s57 [label="FINISHED_EPOCH_0 / TIMEOUT"];
	s6 -> s3 [label="APPLICATION_EPOCH_0 / Alert(FATAL,UNEXPECTED_MESSAGE)"];
	s6 -> s3 [label="APPLICATION / Alert(FATAL,UNEXPECTED_MESSAGE)"];
	s6 -> s3 [label="Alert(WARNING,CLOSE_NOTIFY) / TIMEOUT"];
	s6 -> s3 [label="Alert(FATAL,UNEXPECTED_MESSAGE) / TIMEOUT"];
	s7 -> s8 [label="HELLO_VERIFY_REQUEST / TIMEOUT"];
	s7 -> s8 [label="PSK_SERVER_HELLO / TIMEOUT"];
	s7 -> s8 [label="PSK_SERVER_HELLO_EPOCH_1 / TIMEOUT"];
	s7 -> s8 [label="SERVER_HELLO_DONE / TIMEOUT"];
	s7 -> s7 [label="CHANGE_CIPHER_SPEC / TIMEOUT"];
	s7 -> s8 [label="FINISHED / TIMEOUT"];
	s7 -> s94 [label="FINISHED_EPOCH_0 / TIMEOUT"];
	s7 -> s7 [label="APPLICATION_EPOCH_0 / TIMEOUT"];
	s7 -> s11 [label="APPLICATION / TIMEOUT"];
	s7 -> s11 [label="Alert(WARNING,CLOSE_NOTIFY) / TIMEOUT"];
	s7 -> s11 [label="Alert(FATAL,UNEXPECTED_MESSAGE) / TIMEOUT"];
	s8 -> s10 [label="HELLO_VERIFY_REQUEST / TIMEOUT"];
	s8 -> s10 [label="PSK_SERVER_HELLO / TIMEOUT"];
	s8 -> s10 [label="PSK_SERVER_HELLO_EPOCH_1 / TIMEOUT"];
	s8 -> s10 [label="SERVER_HELLO_DONE / TIMEOUT"];
	s8 -> s94 [label="CHANGE_CIPHER_SPEC / TIMEOUT"];
	s8 -> s10 [label="FINISHED / TIMEOUT"];
	s8 -> s94 [label="FINISHED_EPOCH_0 / TIMEOUT"];
	s8 -> s94 [label="APPLICATION_EPOCH_0 / TIMEOUT"];
	s8 -> s10 [label="APPLICATION / TIMEOUT"];
	s8 -> s10 [label="Alert(WARNING,CLOSE_NOTIFY) / TIMEOUT"];
	s8 -> s10 [label="Alert(FATAL,UNEXPECTED_MESSAGE) / TIMEOUT"];
	s9 -> s18 [label="HELLO_VERIFY_REQUEST / TIMEOUT"];
	s9 -> s18 [label="PSK_SERVER_HELLO / TIMEOUT"];
	s9 -> s18 [label="PSK_SERVER_HELLO_EPOCH_1 / TIMEOUT"];
	s9 -> s18 [label="SERVER_HELLO_DONE / TIMEOUT"];
	s9 -> s9 [label="CHANGE_CIPHER_SPEC / TIMEOUT"];
	s9 -> s18 [label="FINISHED / TIMEOUT"];
	s9 -> s94 [label="FINISHED_EPOCH_0 / TIMEOUT"];
	s9 -> s3 [label="APPLICATION_EPOCH_0 / Alert(FATAL,UNEXPECTED_MESSAGE)"];
	s9 -> s18 [label="APPLICATION / TIMEOUT"];
	s9 -> s18 [label="Alert(WARNING,CLOSE_NOTIFY) / TIMEOUT"];
	s9 -> s18 [label="Alert(FATAL,UNEXPECTED_MESSAGE) / TIMEOUT"];
	s10 -> s13 [label="HELLO_VERIFY_REQUEST / TIMEOUT"];
	s10 -> s13 [label="PSK_SERVER_HELLO / TIMEOUT"];
	s10 -> s13 [label="PSK_SERVER_HELLO_EPOCH_1 / TIMEOUT"];
	s10 -> s13 [label="SERVER_HELLO_DONE / TIMEOUT"];
	s10 -> s94 [label="CHANGE_CIPHER_SPEC / TIMEOUT"];
	s10 -> s13 [label="FINISHED / TIMEOUT"];
	s10 -> s14 [label="FINISHED_EPOCH_0 / TIMEOUT"];
	s10 -> s3 [label="APPLICATION_EPOCH_0 / Alert(FATAL,UNEXPECTED_MESSAGE)"];
	s10 -> s13 [label="APPLICATION / TIMEOUT"];
	s10 -> s13 [label="Alert(WARNING,CLOSE_NOTIFY) / TIMEOUT"];
	s10 -> s13 [label="Alert(FATAL,UNEXPECTED_MESSAGE) / TIMEOUT"];
	s11 -> s10 [label="HELLO_VERIFY_REQUEST / TIMEOUT"];
	s11 -> s10 [label="PSK_SERVER_HELLO / TIMEOUT"];
	s11 -> s10 [label="PSK_SERVER_HELLO_EPOCH_1 / TIMEOUT"];
	s11 -> s10 [label="SERVER_HELLO_DONE / TIMEOUT"];
	s11 -> s7 [label="CHANGE_CIPHER_SPEC / TIMEOUT"];
	s11 -> s10 [label="FINISHED / TIMEOUT"];
	s11 -> s94 [label="FINISHED_EPOCH_0 / TIMEOUT"];
	s11 -> s7 [label="APPLICATION_EPOCH_0 / TIMEOUT"];
	s11 -> s12 [label="APPLICATION / TIMEOUT"];
	s11 -> s12 [label="Alert(WARNING,CLOSE_NOTIFY) / TIMEOUT"];
	s11 -> s12 [label="Alert(FATAL,UNEXPECTED_MESSAGE) / TIMEOUT"];
	s12 -> s13 [label="HELLO_VERIFY_REQUEST / TIMEOUT"];
	s12 -> s13 [label="PSK_SERVER_HELLO / TIMEOUT"];
	s12 -> s13 [label="PSK_SERVER_HELLO_EPOCH_1 / TIMEOUT"];
	s12 -> s13 [label="SERVER_HELLO_DONE / TIMEOUT"];
	s12 -> s7 [label="CHANGE_CIPHER_SPEC / TIMEOUT"];
	s12 -> s13 [label="FINISHED / TIMEOUT"];
	s12 -> s3 [label="FINISHED_EPOCH_0 / Alert(FATAL,INTERNAL_ERROR)"];
	s12 -> s3 [label="APPLICATION_EPOCH_0 / Alert(FATAL,UNEXPECTED_MESSAGE)"];
	s12 -> s12 [label="APPLICATION / TIMEOUT"];
	s12 -> s12 [label="Alert(WARNING,CLOSE_NOTIFY) / TIMEOUT"];
	s12 -> s12 [label="Alert(FATAL,UNEXPECTED_MESSAGE) / TIMEOUT"];
	s13 -> s95 [label="HELLO_VERIFY_REQUEST / TIMEOUT"];
	s13 -> s95 [label="PSK_SERVER_HELLO / TIMEOUT"];
	s13 -> s95 [label="PSK_SERVER_HELLO_EPOCH_1 / TIMEOUT"];
	s13 -> s95 [label="SERVER_HELLO_DONE / TIMEOUT"];
	s13 -> s94 [label="CHANGE_CIPHER_SPEC / TIMEOUT"];
	s13 -> s95 [label="FINISHED / TIMEOUT"];
	s13 -> s16 [label="FINISHED_EPOCH_0 / TIMEOUT"];
	s13 -> s3 [label="APPLICATION_EPOCH_0 / Alert(FATAL,UNEXPECTED_MESSAGE)"];
	s13 -> s95 [label="APPLICATION / TIMEOUT"];
	s13 -> s95 [label="Alert(WARNING,CLOSE_NOTIFY) / TIMEOUT"];
	s13 -> s95 [label="Alert(FATAL,UNEXPECTED_MESSAGE) / TIMEOUT"];
	s14 -> s23 [label="HELLO_VERIFY_REQUEST / TIMEOUT"];
	s14 -> s23 [label="PSK_SERVER_HELLO / TIMEOUT"];
	s14 -> s23 [label="PSK_SERVER_HELLO_EPOCH_1 / TIMEOUT"];
	s14 -> s23 [label="SERVER_HELLO_DONE / TIMEOUT"];
	s14 -> s14 [label="CHANGE_CIPHER_SPEC / TIMEOUT"];
	s14 -> s23 [label="FINISHED / TIMEOUT"];
	s14 -> s14 [label="FINISHED_EPOCH_0 / TIMEOUT"];
	s14 -> s14 [label="APPLICATION_EPOCH_0 / TIMEOUT"];
	s14 -> s23 [label="APPLICATION / TIMEOUT"];
	s14 -> s23 [label="Alert(WARNING,CLOSE_NOTIFY) / TIMEOUT"];
	s14 -> s23 [label="Alert(FATAL,UNEXPECTED_MESSAGE) / TIMEOUT"];
	s15 -> s27 [label="HELLO_VERIFY_REQUEST / TIMEOUT"];
	s15 -> s27 [label="PSK_SERVER_HELLO / TIMEOUT"];
	s15 -> s27 [label="PSK_SERVER_HELLO_EPOCH_1 / TIMEOUT"];
	s15 -> s27 [label="SERVER_HELLO_DONE / TIMEOUT"];
	s15 -> s15 [label="CHANGE_CIPHER_SPEC / TIMEOUT"];
	s15 -> s27 [label="FINISHED / TIMEOUT"];
	s15 -> s22 [label="FINISHED_EPOCH_0 / TIMEOUT"];
	s15 -> s15 [label="APPLICATION_EPOCH_0 / TIMEOUT"];
	s15 -> s17 [label="APPLICATION / TIMEOUT"];
	s15 -> s17 [label="Alert(WARNING,CLOSE_NOTIFY) / TIMEOUT"];
	s15 -> s17 [label="Alert(FATAL,UNEXPECTED_MESSAGE) / TIMEOUT"];
	s16 -> s92 [label="HELLO_VERIFY_REQUEST / TIMEOUT"];
	s16 -> s92 [label="PSK_SERVER_HELLO / TIMEOUT"];
	s16 -> s92 [label="PSK_SERVER_HELLO_EPOCH_1 / TIMEOUT"];
	s16 -> s92 [label="SERVER_HELLO_DONE / TIMEOUT"];
	s16 -> s16 [label="CHANGE_CIPHER_SPEC / TIMEOUT"];
	s16 -> s92 [label="FINISHED / TIMEOUT"];
	s16 -> s16 [label="FINISHED_EPOCH_0 / TIMEOUT"];
	s16 -> s16 [label="APPLICATION_EPOCH_0 / TIMEOUT"];
	s16 -> s92 [label="APPLICATION / TIMEOUT"];
	s16 -> s92 [label="Alert(WARNING,CLOSE_NOTIFY) / TIMEOUT"];
	s16 -> s92 [label="Alert(FATAL,UNEXPECTED_MESSAGE) / TIMEOUT"];
	s17 -> s28 [label="HELLO_VERIFY_REQUEST / TIMEOUT"];
	s17 -> s28 [label="PSK_SERVER_HELLO / TIMEOUT"];
	s17 -> s28 [label="PSK_SERVER_HELLO_EPOCH_1 / TIMEOUT"];
	s17 -> s28 [label="SERVER_HELLO_DONE / TIMEOUT"];
	s17 -> s15 [label="CHANGE_CIPHER_SPEC / TIMEOUT"];
	s17 -> s28 [label="FINISHED / TIMEOUT"];
	s17 -> s3 [label="FINISHED_EPOCH_0 / Alert(FATAL,INTERNAL_ERROR)"];
	s17 -> s3 [label="APPLICATION_EPOCH_0 / Alert(FATAL,UNEXPECTED_MESSAGE)"];
	s17 -> s17 [label="APPLICATION / TIMEOUT"];
	s17 -> s17 [label="Alert(WARNING,CLOSE_NOTIFY) / TIMEOUT"];
	s17 -> s17 [label="Alert(FATAL,UNEXPECTED_MESSAGE) / TIMEOUT"];
	s18 -> s19 [label="HELLO_VERIFY_REQUEST / TIMEOUT"];
	s18 -> s19 [label="PSK_SERVER_HELLO / TIMEOUT"];
	s18 -> s19 [label="PSK_SERVER_HELLO_EPOCH_1 / TIMEOUT"];
	s18 -> s19 [label="SERVER_HELLO_DONE / TIMEOUT"];
	s18 -> s9 [label="CHANGE_CIPHER_SPEC / TIMEOUT"];
	s18 -> s19 [label="FINISHED / TIMEOUT"];
	s18 -> s9 [label="FINISHED_EPOCH_0 / TIMEOUT"];
	s18 -> s9 [label="APPLICATION_EPOCH_0 / TIMEOUT"];
	s18 -> s19 [label="APPLICATION / TIMEOUT"];
	s18 -> s19 [label="Alert(WARNING,CLOSE_NOTIFY) / TIMEOUT"];
	s18 -> s19 [label="Alert(FATAL,UNEXPECTED_MESSAGE) / TIMEOUT"];
	s19 -> s21 [label="HELLO_VERIFY_REQUEST / TIMEOUT"];
	s19 -> s21 [label="PSK_SERVER_HELLO / TIMEOUT"];
	s19 -> s21 [label="PSK_SERVER_HELLO_EPOCH_1 / TIMEOUT"];
	s19 -> s21 [label="SERVER_HELLO_DONE / TIMEOUT"];
	s19 -> s9 [label="CHANGE_CIPHER_SPEC / TIMEOUT"];
	s19 -> s21 [label="FINISHED / TIMEOUT"];
	s19 -> s20 [label="FINISHED_EPOCH_0 / TIMEOUT"];
	s19 -> s3 [label="APPLICATION_EPOCH_0 / Alert(FATAL,UNEXPECTED_MESSAGE)"];
	s19 -> s21 [label="APPLICATION / TIMEOUT"];
	s19 -> s21 [label="Alert(WARNING,CLOSE_NOTIFY) / TIMEOUT"];
	s19 -> s21 [label="Alert(FATAL,UNEXPECTED_MESSAGE) / TIMEOUT"];
	s20 -> s38 [label="HELLO_VERIFY_REQUEST / TIMEOUT"];
	s20 -> s38 [label="PSK_SERVER_HELLO / TIMEOUT"];
	s20 -> s38 [label="PSK_SERVER_HELLO_EPOCH_1 / TIMEOUT"];
	s20 -> s38 [label="SERVER_HELLO_DONE / TIMEOUT"];
	s20 -> s20 [label="CHANGE_CIPHER_SPEC / TIMEOUT"];
	s20 -> s38 [label="FINISHED / TIMEOUT"];
	s20 -> s14 [label="FINISHED_EPOCH_0 / TIMEOUT"];
	s20 -> s3 [label="APPLICATION_EPOCH_0 / Alert(FATAL,UNEXPECTED_MESSAGE)"];
	s20 -> s38 [label="APPLICATION / TIMEOUT"];
	s20 -> s38 [label="Alert(WARNING,CLOSE_NOTIFY) / TIMEOUT"];
	s20 -> s38 [label="Alert(FATAL,UNEXPECTED_MESSAGE) / TIMEOUT"];
	s21 -> s127 [label="HELLO_VERIFY_REQUEST / TIMEOUT"];
	s21 -> s127 [label="PSK_SERVER_HELLO / TIMEOUT"];
	s21 -> s127 [label="PSK_SERVER_HELLO_EPOCH_1 / TIMEOUT"];
	s21 -> s127 [label="SERVER_HELLO_DONE / TIMEOUT"];
	s21 -> s9 [label="CHANGE_CIPHER_SPEC / TIMEOUT"];
	s21 -> s127 [label="FINISHED / TIMEOUT"];
	s21 -> s108 [label="FINISHED_EPOCH_0 / TIMEOUT"];
	s21 -> s3 [label="APPLICATION_EPOCH_0 / Alert(FATAL,UNEXPECTED_MESSAGE)"];
	s21 -> s127 [label="APPLICATION / TIMEOUT"];
	s21 -> s127 [label="Alert(WARNING,CLOSE_NOTIFY) / TIMEOUT"];
	s21 -> s127 [label="Alert(FATAL,UNEXPECTED_MESSAGE) / TIMEOUT"];
	s22 -> s27 [label="HELLO_VERIFY_REQUEST / TIMEOUT"];
	s22 -> s27 [label="PSK_SERVER_HELLO / TIMEOUT"];
	s22 -> s27 [label="PSK_SERVER_HELLO_EPOCH_1 / TIMEOUT"];
	s22 -> s27 [label="SERVER_HELLO_DONE / TIMEOUT"];
	s22 -> s22 [label="CHANGE_CIPHER_SPEC / TIMEOUT"];
	s22 -> s27 [label="FINISHED / TIMEOUT"];
	s22 -> s22 [label="FINISHED_EPOCH_0 / TIMEOUT"];
	s22 -> s22 [label="APPLICATION_EPOCH_0 / TIMEOUT"];
	s22 -> s27 [label="APPLICATION / TIMEOUT"];
	s22 -> s27 [label="Alert(WARNING,CLOSE_NOTIFY) / TIMEOUT"];
	s22 -> s27 [label="Alert(FATAL,UNEXPECTED_MESSAGE) / TIMEOUT"];
	s23 -> s24 [label="HELLO_VERIFY_REQUEST / TIMEOUT"];
	s23 -> s24 [label="PSK_SERVER_HELLO / TIMEOUT"];
	s23 -> s24 [label="PSK_SERVER_HELLO_EPOCH_1 / TIMEOUT"];
	s23 -> s24 [label="SERVER_HELLO_DONE / TIMEOUT"];
	s23 -> s14 [label="CHANGE_CIPHER_SPEC / TIMEOUT"];
	s23 -> s24 [label="FINISHED / TIMEOUT"];
	s23 -> s14 [label="FINISHED_EPOCH_0 / TIMEOUT"];
	s23 -> s14 [label="APPLICATION_EPOCH_0 / TIMEOUT"];
	s23 -> s24 [label="APPLICATION / TIMEOUT"];
	s23 -> s24 [label="Alert(WARNING,CLOSE_NOTIFY) / TIMEOUT"];
	s23 -> s24 [label="Alert(FATAL,UNEXPECTED_MESSAGE) / TIMEOUT"];
	s24 -> s25 [label="HELLO_VERIFY_REQUEST / TIMEOUT"];
	s24 -> s25 [label="PSK_SERVER_HELLO / TIMEOUT"];
	s24 -> s25 [label="PSK_SERVER_HELLO_EPOCH_1 / TIMEOUT"];
	s24 -> s25 [label="SERVER_HELLO_DONE / TIMEOUT"];
	s24 -> s14 [label="CHANGE_CIPHER_SPEC / TIMEOUT"];
	s24 -> s25 [label="FINISHED / TIMEOUT"];
	s24 -> s14 [label="FINISHED_EPOCH_0 / TIMEOUT"];
	s24 -> s14 [label="APPLICATION_EPOCH_0 / TIMEOUT"];
	s24 -> s25 [label="APPLICATION / TIMEOUT"];
	s24 -> s25 [label="Alert(WARNING,CLOSE_NOTIFY) / TIMEOUT"];
	s24 -> s25 [label="Alert(FATAL,UNEXPECTED_MESSAGE) / TIMEOUT"];
	s25 -> s26 [label="HELLO_VERIFY_REQUEST / TIMEOUT"];
	s25 -> s26 [label="PSK_SERVER_HELLO / TIMEOUT"];
	s25 -> s26 [label="PSK_SERVER_HELLO_EPOCH_1 / TIMEOUT"];
	s25 -> s26 [label="SERVER_HELLO_DONE / TIMEOUT"];
	s25 -> s14 [label="CHANGE_CIPHER_SPEC / TIMEOUT"];
	s25 -> s26 [label="FINISHED / TIMEOUT"];
	s25 -> s30 [label="FINISHED_EPOCH_0 / TIMEOUT"];
	s25 -> s3 [label="APPLICATION_EPOCH_0 / Alert(FATAL,UNEXPECTED_MESSAGE)"];
	s25 -> s26 [label="APPLICATION / TIMEOUT"];
	s25 -> s26 [label="Alert(WARNING,CLOSE_NOTIFY) / TIMEOUT"];
	s25 -> s26 [label="Alert(FATAL,UNEXPECTED_MESSAGE) / TIMEOUT"];
	s26 -> s26 [label="HELLO_VERIFY_REQUEST / TIMEOUT"];
	s26 -> s26 [label="PSK_SERVER_HELLO / TIMEOUT"];
	s26 -> s26 [label="PSK_SERVER_HELLO_EPOCH_1 / TIMEOUT"];
	s26 -> s26 [label="SERVER_HELLO_DONE / TIMEOUT"];
	s26 -> s14 [label="CHANGE_CIPHER_SPEC / TIMEOUT"];
	s26 -> s26 [label="FINISHED / TIMEOUT"];
	s26 -> s14 [label="FINISHED_EPOCH_0 / TIMEOUT"];
	s26 -> s3 [label="APPLICATION_EPOCH_0 / Alert(FATAL,UNEXPECTED_MESSAGE)"];
	s26 -> s26 [label="APPLICATION / TIMEOUT"];
	s26 -> s26 [label="Alert(WARNING,CLOSE_NOTIFY) / TIMEOUT"];
	s26 -> s26 [label="Alert(FATAL,UNEXPECTED_MESSAGE) / TIMEOUT"];
	s27 -> s28 [label="HELLO_VERIFY_REQUEST / TIMEOUT"];
	s27 -> s28 [label="PSK_SERVER_HELLO / TIMEOUT"];
	s27 -> s28 [label="PSK_SERVER_HELLO_EPOCH_1 / TIMEOUT"];
	s27 -> s28 [label="SERVER_HELLO_DONE / TIMEOUT"];
	s27 -> s22 [label="CHANGE_CIPHER_SPEC / TIMEOUT"];
	s27 -> s28 [label="FINISHED / TIMEOUT"];
	s27 -> s94 [label="FINISHED_EPOCH_0 / TIMEOUT"];
	s27 -> s3 [label="APPLICATION_EPOCH_0 / Alert(FATAL,UNEXPECTED_MESSAGE)"];
	s27 -> s28 [label="APPLICATION / TIMEOUT"];
	s27 -> s28 [label="Alert(WARNING,CLOSE_NOTIFY) / TIMEOUT"];
	s27 -> s28 [label="Alert(FATAL,UNEXPECTED_MESSAGE) / TIMEOUT"];
	s28 -> s36 [label="HELLO_VERIFY_REQUEST / TIMEOUT"];
	s28 -> s36 [label="PSK_SERVER_HELLO / TIMEOUT"];
	s28 -> s36 [label="PSK_SERVER_HELLO_EPOCH_1 / TIMEOUT"];
	s28 -> s36 [label="SERVER_HELLO_DONE / TIMEOUT"];
	s28 -> s22 [label="CHANGE_CIPHER_SPEC / TIMEOUT"];
	s28 -> s36 [label="FINISHED / TIMEOUT"];
	s28 -> s29 [label="FINISHED_EPOCH_0 / TIMEOUT"];
	s28 -> s3 [label="APPLICATION_EPOCH_0 / Alert(FATAL,UNEXPECTED_MESSAGE)"];
	s28 -> s36 [label="APPLICATION / TIMEOUT"];
	s28 -> s36 [label="Alert(WARNING,CLOSE_NOTIFY) / TIMEOUT"];
	s28 -> s36 [label="Alert(FATAL,UNEXPECTED_MESSAGE) / TIMEOUT"];
	s29 -> s31 [label="HELLO_VERIFY_REQUEST / TIMEOUT"];
	s29 -> s31 [label="PSK_SERVER_HELLO / TIMEOUT"];
	s29 -> s31 [label="PSK_SERVER_HELLO_EPOCH_1 / TIMEOUT"];
	s29 -> s31 [label="SERVER_HELLO_DONE / TIMEOUT"];
	s29 -> s29 [label="CHANGE_CIPHER_SPEC / TIMEOUT"];
	s29 -> s31 [label="FINISHED / TIMEOUT"];
	s29 -> s29 [label="FINISHED_EPOCH_0 / TIMEOUT"];
	s29 -> s29 [label="APPLICATION_EPOCH_0 / TIMEOUT"];
	s29 -> s31 [label="APPLICATION / TIMEOUT"];
	s29 -> s31 [label="Alert(WARNING,CLOSE_NOTIFY) / TIMEOUT"];
	s29 -> s31 [label="Alert(FATAL,UNEXPECTED_MESSAGE) / TIMEOUT"];
	s30 -> s51 [label="HELLO_VERIFY_REQUEST / TIMEOUT"];
	s30 -> s51 [label="PSK_SERVER_HELLO / TIMEOUT"];
	s30 -> s51 [label="PSK_SERVER_HELLO_EPOCH_1 / TIMEOUT"];
	s30 -> s51 [label="SERVER_HELLO_DONE / TIMEOUT"];
	s30 -> s30 [label="CHANGE_CIPHER_SPEC / TIMEOUT"];
	s30 -> s51 [label="FINISHED / TIMEOUT"];
	s30 -> s30 [label="FINISHED_EPOCH_0 / TIMEOUT"];
	s30 -> s30 [label="APPLICATION_EPOCH_0 / TIMEOUT"];
	s30 -> s51 [label="APPLICATION / TIMEOUT"];
	s30 -> s51 [label="Alert(WARNING,CLOSE_NOTIFY) / TIMEOUT"];
	s30 -> s51 [label="Alert(FATAL,UNEXPECTED_MESSAGE) / TIMEOUT"];
	s31 -> s32 [label="HELLO_VERIFY_REQUEST / TIMEOUT"];
	s31 -> s32 [label="PSK_SERVER_HELLO / TIMEOUT"];
	s31 -> s32 [label="PSK_SERVER_HELLO_EPOCH_1 / TIMEOUT"];
	s31 -> s32 [label="SERVER_HELLO_DONE / TIMEOUT"];
	s31 -> s29 [label="CHANGE_CIPHER_SPEC / TIMEOUT"];
	s31 -> s32 [label="FINISHED / TIMEOUT"];
	s31 -> s14 [label="FINISHED_EPOCH_0 / TIMEOUT"];
	s31 -> s3 [label="APPLICATION_EPOCH_0 / Alert(FATAL,UNEXPECTED_MESSAGE)"];
	s31 -> s32 [label="APPLICATION / TIMEOUT"];
	s31 -> s32 [label="Alert(WARNING,CLOSE_NOTIFY) / TIMEOUT"];
	s31 -> s32 [label="Alert(FATAL,UNEXPECTED_MESSAGE) / TIMEOUT"];
	s32 -> s33 [label="HELLO_VERIFY_REQUEST / TIMEOUT"];
	s32 -> s33 [label="PSK_SERVER_HELLO / TIMEOUT"];
	s32 -> s33 [label="PSK_SERVER_HELLO_EPOCH_1 / TIMEOUT"];
	s32 -> s33 [label="SERVER_HELLO_DONE / TIMEOUT"];
	s32 -> s29 [label="CHANGE_CIPHER_SPEC / TIMEOUT"];
	s32 -> s33 [label="FINISHED / TIMEOUT"];
	s32 -> s29 [label="FINISHED_EPOCH_0 / TIMEOUT"];
	s32 -> s29 [label="APPLICATION_EPOCH_0 / TIMEOUT"];
	s32 -> s33 [label="APPLICATION / TIMEOUT"];
	s32 -> s33 [label="Alert(WARNING,CLOSE_NOTIFY) / TIMEOUT"];
	s32 -> s33 [label="Alert(FATAL,UNEXPECTED_MESSAGE) / TIMEOUT"];
	s33 -> s35 [label="HELLO_VERIFY_REQUEST / TIMEOUT"];
	s33 -> s35 [label="PSK_SERVER_HELLO / TIMEOUT"];
	s33 -> s35 [label="PSK_SERVER_HELLO_EPOCH_1 / TIMEOUT"];
	s33 -> s35 [label="SERVER_HELLO_DONE / TIMEOUT"];
	s33 -> s29 [label="CHANGE_CIPHER_SPEC / TIMEOUT"];
	s33 -> s35 [label="FINISHED / TIMEOUT"];
	s33 -> s34 [label="FINISHED_EPOCH_0 / TIMEOUT"];
	s33 -> s3 [label="APPLICATION_EPOCH_0 / Alert(FATAL,UNEXPECTED_MESSAGE)"];
	s33 -> s35 [label="APPLICATION / TIMEOUT"];
	s33 -> s35 [label="Alert(WARNING,CLOSE_NOTIFY) / TIMEOUT"];
	s33 -> s35 [label="Alert(FATAL,UNEXPECTED_MESSAGE) / TIMEOUT"];
	s34 -> s43 [label="HELLO_VERIFY_REQUEST / TIMEOUT"];
	s34 -> s43 [label="PSK_SERVER_HELLO / TIMEOUT"];
	s34 -> s43 [label="PSK_SERVER_HELLO_EPOCH_1 / TIMEOUT"];
	s34 -> s43 [label="SERVER_HELLO_DONE / TIMEOUT"];
	s34 -> s34 [label="CHANGE_CIPHER_SPEC / TIMEOUT"];
	s34 -> s43 [label="FINISHED / TIMEOUT"];
	s34 -> s34 [label="FINISHED_EPOCH_0 / TIMEOUT"];
	s34 -> s34 [label="APPLICATION_EPOCH_0 / TIMEOUT"];
	s34 -> s43 [label="APPLICATION / TIMEOUT"];
	s34 -> s43 [label="Alert(WARNING,CLOSE_NOTIFY) / TIMEOUT"];
	s34 -> s43 [label="Alert(FATAL,UNEXPECTED_MESSAGE) / TIMEOUT"];
	s35 -> s136 [label="HELLO_VERIFY_REQUEST / TIMEOUT"];
	s35 -> s136 [label="PSK_SERVER_HELLO / TIMEOUT"];
	s35 -> s136 [label="PSK_SERVER_HELLO_EPOCH_1 / TIMEOUT"];
	s35 -> s136 [label="SERVER_HELLO_DONE / TIMEOUT"];
	s35 -> s29 [label="CHANGE_CIPHER_SPEC / TIMEOUT"];
	s35 -> s136 [label="FINISHED / TIMEOUT"];
	s35 -> s29 [label="FINISHED_EPOCH_0 / TIMEOUT"];
	s35 -> s3 [label="APPLICATION_EPOCH_0 / Alert(FATAL,UNEXPECTED_MESSAGE)"];
	s35 -> s136 [label="APPLICATION / TIMEOUT"];
	s35 -> s136 [label="Alert(WARNING,CLOSE_NOTIFY) / TIMEOUT"];
	s35 -> s136 [label="Alert(FATAL,UNEXPECTED_MESSAGE) / TIMEOUT"];
	s36 -> s68 [label="HELLO_VERIFY_REQUEST / TIMEOUT"];
	s36 -> s68 [label="PSK_SERVER_HELLO / TIMEOUT"];
	s36 -> s68 [label="PSK_SERVER_HELLO_EPOCH_1 / TIMEOUT"];
	s36 -> s68 [label="SERVER_HELLO_DONE / TIMEOUT"];
	s36 -> s22 [label="CHANGE_CIPHER_SPEC / TIMEOUT"];
	s36 -> s68 [label="FINISHED / TIMEOUT"];
	s36 -> s119 [label="FINISHED_EPOCH_0 / TIMEOUT"];
	s36 -> s3 [label="APPLICATION_EPOCH_0 / Alert(FATAL,UNEXPECTED_MESSAGE)"];
	s36 -> s68 [label="APPLICATION / TIMEOUT"];
	s36 -> s68 [label="Alert(WARNING,CLOSE_NOTIFY) / TIMEOUT"];
	s36 -> s68 [label="Alert(FATAL,UNEXPECTED_MESSAGE) / TIMEOUT"];
	s37 -> s37 [label="HELLO_VERIFY_REQUEST / TIMEOUT"];
	s37 -> s37 [label="PSK_SERVER_HELLO / TIMEOUT"];
	s37 -> s37 [label="PSK_SERVER_HELLO_EPOCH_1 / TIMEOUT"];
	s37 -> s37 [label="SERVER_HELLO_DONE / TIMEOUT"];
	s37 -> s3 [label="CHANGE_CIPHER_SPEC / TIMEOUT"];
	s37 -> s37 [label="FINISHED / TIMEOUT"];
	s37 -> s37 [label="FINISHED_EPOCH_0 / TIMEOUT"];
	s37 -> s3 [label="APPLICATION_EPOCH_0 / Alert(FATAL,UNEXPECTED_MESSAGE)"];
	s37 -> s3 [label="APPLICATION / Alert(FATAL,UNEXPECTED_MESSAGE)"];
	s37 -> s3 [label="Alert(WARNING,CLOSE_NOTIFY) / TIMEOUT"];
	s37 -> s3 [label="Alert(FATAL,UNEXPECTED_MESSAGE) / TIMEOUT"];
	s38 -> s39 [label="HELLO_VERIFY_REQUEST / TIMEOUT"];
	s38 -> s39 [label="PSK_SERVER_HELLO / TIMEOUT"];
	s38 -> s39 [label="PSK_SERVER_HELLO_EPOCH_1 / TIMEOUT"];
	s38 -> s39 [label="SERVER_HELLO_DONE / TIMEOUT"];
	s38 -> s20 [label="CHANGE_CIPHER_SPEC / TIMEOUT"];
	s38 -> s39 [label="FINISHED / TIMEOUT"];
	s38 -> s20 [label="FINISHED_EPOCH_0 / TIMEOUT"];
	s38 -> s20 [label="APPLICATION_EPOCH_0 / TIMEOUT"];
	s38 -> s39 [label="APPLICATION / TIMEOUT"];
	s38 -> s39 [label="Alert(WARNING,CLOSE_NOTIFY) / TIMEOUT"];
	s38 -> s39 [label="Alert(FATAL,UNEXPECTED_MESSAGE) / TIMEOUT"];
	s39 -> s40 [label="HELLO_VERIFY_REQUEST / TIMEOUT"];
	s39 -> s40 [label="PSK_SERVER_HELLO / TIMEOUT"];
	s39 -> s40 [label="PSK_SERVER_HELLO_EPOCH_1 / TIMEOUT"];
	s39 -> s40 [label="SERVER_HELLO_DONE / TIMEOUT"];
	s39 -> s20 [label="CHANGE_CIPHER_SPEC / TIMEOUT"];
	s39 -> s40 [label="FINISHED / TIMEOUT"];
	s39 -> s20 [label="FINISHED_EPOCH_0 / TIMEOUT"];
	s39 -> s20 [label="APPLICATION_EPOCH_0 / TIMEOUT"];
	s39 -> s40 [label="APPLICATION / TIMEOUT"];
	s39 -> s40 [label="Alert(WARNING,CLOSE_NOTIFY) / TIMEOUT"];
	s39 -> s40 [label="Alert(FATAL,UNEXPECTED_MESSAGE) / TIMEOUT"];
	s40 -> s44 [label="HELLO_VERIFY_REQUEST / TIMEOUT"];
	s40 -> s44 [label="PSK_SERVER_HELLO / TIMEOUT"];
	s40 -> s44 [label="PSK_SERVER_HELLO_EPOCH_1 / TIMEOUT"];
	s40 -> s44 [label="SERVER_HELLO_DONE / TIMEOUT"];
	s40 -> s20 [label="CHANGE_CIPHER_SPEC / TIMEOUT"];
	s40 -> s44 [label="FINISHED / TIMEOUT"];
	s40 -> s41 [label="FINISHED_EPOCH_0 / TIMEOUT"];
	s40 -> s3 [label="APPLICATION_EPOCH_0 / Alert(FATAL,UNEXPECTED_MESSAGE)"];
	s40 -> s44 [label="APPLICATION / TIMEOUT"];
	s40 -> s44 [label="Alert(WARNING,CLOSE_NOTIFY) / TIMEOUT"];
	s40 -> s44 [label="Alert(FATAL,UNEXPECTED_MESSAGE) / TIMEOUT"];
	s41 -> s42 [label="HELLO_VERIFY_REQUEST / TIMEOUT"];
	s41 -> s42 [label="PSK_SERVER_HELLO / TIMEOUT"];
	s41 -> s42 [label="PSK_SERVER_HELLO_EPOCH_1 / TIMEOUT"];
	s41 -> s42 [label="SERVER_HELLO_DONE / TIMEOUT"];
	s41 -> s41 [label="CHANGE_CIPHER_SPEC / TIMEOUT"];
	s41 -> s42 [label="FINISHED / TIMEOUT"];
	s41 -> s30 [label="FINISHED_EPOCH_0 / TIMEOUT"];
	s41 -> s3 [label="APPLICATION_EPOCH_0 / Alert(FATAL,UNEXPECTED_MESSAGE)"];
	s41 -> s42 [label="APPLICATION / TIMEOUT"];
	s41 -> s42 [label="Alert(WARNING,CLOSE_NOTIFY) / TIMEOUT"];
	s41 -> s42 [label="Alert(FATAL,UNEXPECTED_MESSAGE) / TIMEOUT"];
	s42 -> s49 [label="HELLO_VERIFY_REQUEST / TIMEOUT"];
	s42 -> s49 [label="PSK_SERVER_HELLO / TIMEOUT"];
	s42 -> s49 [label="PSK_SERVER_HELLO_EPOCH_1 / TIMEOUT"];
	s42 -> s49 [label="SERVER_HELLO_DONE / TIMEOUT"];
	s42 -> s41 [label="CHANGE_CIPHER_SPEC / TIMEOUT"];
	s42 -> s49 [label="FINISHED / TIMEOUT"];
	s42 -> s41 [label="FINISHED_EPOCH_0 / TIMEOUT"];
	s42 -> s41 [label="APPLICATION_EPOCH_0 / TIMEOUT"];
	s42 -> s49 [label="APPLICATION / TIMEOUT"];
	s42 -> s49 [label="Alert(WARNING,CLOSE_NOTIFY) / TIMEOUT"];
	s42 -> s49 [label="Alert(FATAL,UNEXPECTED_MESSAGE) / TIMEOUT"];
	s43 -> s54 [label="HELLO_VERIFY_REQUEST / TIMEOUT"];
	s43 -> s54 [label="PSK_SERVER_HELLO / TIMEOUT"];
	s43 -> s54 [label="PSK_SERVER_HELLO_EPOCH_1 / TIMEOUT"];
	s43 -> s54 [label="SERVER_HELLO_DONE / TIMEOUT"];
	s43 -> s34 [label="CHANGE_CIPHER_SPEC / TIMEOUT"];
	s43 -> s54 [label="FINISHED / TIMEOUT"];
	s43 -> s30 [label="FINISHED_EPOCH_0 / TIMEOUT"];
	s43 -> s3 [label="APPLICATION_EPOCH_0 / Alert(FATAL,UNEXPECTED_MESSAGE)"];
	s43 -> s54 [label="APPLICATION / TIMEOUT"];
	s43 -> s54 [label="Alert(WARNING,CLOSE_NOTIFY) / TIMEOUT"];
	s43 -> s54 [label="Alert(FATAL,UNEXPECTED_MESSAGE) / TIMEOUT"];
	s44 -> s44 [label="HELLO_VERIFY_REQUEST / TIMEOUT"];
	s44 -> s44 [label="PSK_SERVER_HELLO / TIMEOUT"];
	s44 -> s44 [label="PSK_SERVER_HELLO_EPOCH_1 / TIMEOUT"];
	s44 -> s44 [label="SERVER_HELLO_DONE / TIMEOUT"];
	s44 -> s20 [label="CHANGE_CIPHER_SPEC / TIMEOUT"];
	s44 -> s44 [label="FINISHED / TIMEOUT"];
	s44 -> s45 [label="FINISHED_EPOCH_0 / TIMEOUT"];
	s44 -> s3 [label="APPLICATION_EPOCH_0 / Alert(FATAL,UNEXPECTED_MESSAGE)"];
	s44 -> s44 [label="APPLICATION / TIMEOUT"];
	s44 -> s44 [label="Alert(WARNING,CLOSE_NOTIFY) / TIMEOUT"];
	s44 -> s44 [label="Alert(FATAL,UNEXPECTED_MESSAGE) / TIMEOUT"];
	s45 -> s46 [label="HELLO_VERIFY_REQUEST / TIMEOUT"];
	s45 -> s46 [label="PSK_SERVER_HELLO / TIMEOUT"];
	s45 -> s46 [label="PSK_SERVER_HELLO_EPOCH_1 / TIMEOUT"];
	s45 -> s46 [label="SERVER_HELLO_DONE / TIMEOUT"];
	s45 -> s45 [label="CHANGE_CIPHER_SPEC / TIMEOUT"];
	s45 -> s46 [label="FINISHED / TIMEOUT"];
	s45 -> s14 [label="FINISHED_EPOCH_0 / TIMEOUT"];
	s45 -> s3 [label="APPLICATION_EPOCH_0 / Alert(FATAL,UNEXPECTED_MESSAGE)"];
	s45 -> s46 [label="APPLICATION / TIMEOUT"];
	s45 -> s46 [label="Alert(WARNING,CLOSE_NOTIFY) / TIMEOUT"];
	s45 -> s46 [label="Alert(FATAL,UNEXPECTED_MESSAGE) / TIMEOUT"];
	s46 -> s47 [label="HELLO_VERIFY_REQUEST / TIMEOUT"];
	s46 -> s47 [label="PSK_SERVER_HELLO / TIMEOUT"];
	s46 -> s47 [label="PSK_SERVER_HELLO_EPOCH_1 / TIMEOUT"];
	s46 -> s47 [label="SERVER_HELLO_DONE / TIMEOUT"];
	s46 -> s45 [label="CHANGE_CIPHER_SPEC / TIMEOUT"];
	s46 -> s47 [label="FINISHED / TIMEOUT"];
	s46 -> s45 [label="FINISHED_EPOCH_0 / TIMEOUT"];
	s46 -> s45 [label="APPLICATION_EPOCH_0 / TIMEOUT"];
	s46 -> s47 [label="APPLICATION / TIMEOUT"];
	s46 -> s47 [label="Alert(WARNING,CLOSE_NOTIFY) / TIMEOUT"];
	s46 -> s47 [label="Alert(FATAL,UNEXPECTED_MESSAGE) / TIMEOUT"];
	s47 -> s48 [label="HELLO_VERIFY_REQUEST / TIMEOUT"];
	s47 -> s48 [label="PSK_SERVER_HELLO / TIMEOUT"];
	s47 -> s48 [label="PSK_SERVER_HELLO_EPOCH_1 / TIMEOUT"];
	s47 -> s48 [label="SERVER_HELLO_DONE / TIMEOUT"];
	s47 -> s45 [label="CHANGE_CIPHER_SPEC / TIMEOUT"];
	s47 -> s48 [label="FINISHED / TIMEOUT"];
	s47 -> s45 [label="FINISHED_EPOCH_0 / TIMEOUT"];
	s47 -> s45 [label="APPLICATION_EPOCH_0 / TIMEOUT"];
	s47 -> s48 [label="APPLICATION / TIMEOUT"];
	s47 -> s48 [label="Alert(WARNING,CLOSE_NOTIFY) / TIMEOUT"];
	s47 -> s48 [label="Alert(FATAL,UNEXPECTED_MESSAGE) / TIMEOUT"];
	s48 -> s148 [label="HELLO_VERIFY_REQUEST / TIMEOUT"];
	s48 -> s148 [label="PSK_SERVER_HELLO / TIMEOUT"];
	s48 -> s148 [label="PSK_SERVER_HELLO_EPOCH_1 / TIMEOUT"];
	s48 -> s148 [label="SERVER_HELLO_DONE / TIMEOUT"];
	s48 -> s45 [label="CHANGE_CIPHER_SPEC / TIMEOUT"];
	s48 -> s148 [label="FINISHED / TIMEOUT"];
	s48 -> s60 [label="FINISHED_EPOCH_0 / TIMEOUT"];
	s48 -> s3 [label="APPLICATION_EPOCH_0 / Alert(FATAL,UNEXPECTED_MESSAGE)"];
	s48 -> s148 [label="APPLICATION / TIMEOUT"];
	s48 -> s148 [label="Alert(WARNING,CLOSE_NOTIFY) / TIMEOUT"];
	s48 -> s148 [label="Alert(FATAL,UNEXPECTED_MESSAGE) / TIMEOUT"];
	s49 -> s50 [label="HELLO_VERIFY_REQUEST / TIMEOUT"];
	s49 -> s50 [label="PSK_SERVER_HELLO / TIMEOUT"];
	s49 -> s50 [label="PSK_SERVER_HELLO_EPOCH_1 / TIMEOUT"];
	s49 -> s50 [label="SERVER_HELLO_DONE / TIMEOUT"];
	s49 -> s41 [label="CHANGE_CIPHER_SPEC / TIMEOUT"];
	s49 -> s50 [label="FINISHED / TIMEOUT"];
	s49 -> s41 [label="FINISHED_EPOCH_0 / TIMEOUT"];
	s49 -> s41 [label="APPLICATION_EPOCH_0 / TIMEOUT"];
	s49 -> s50 [label="APPLICATION / TIMEOUT"];
	s49 -> s50 [label="Alert(WARNING,CLOSE_NOTIFY) / TIMEOUT"];
	s49 -> s50 [label="Alert(FATAL,UNEXPECTED_MESSAGE) / TIMEOUT"];
	s50 -> s66 [label="HELLO_VERIFY_REQUEST / TIMEOUT"];
	s50 -> s66 [label="PSK_SERVER_HELLO / TIMEOUT"];
	s50 -> s66 [label="PSK_SERVER_HELLO_EPOCH_1 / TIMEOUT"];
	s50 -> s66 [label="SERVER_HELLO_DONE / TIMEOUT"];
	s50 -> s41 [label="CHANGE_CIPHER_SPEC / TIMEOUT"];
	s50 -> s66 [label="FINISHED / TIMEOUT"];
	s50 -> s41 [label="FINISHED_EPOCH_0 / TIMEOUT"];
	s50 -> s41 [label="APPLICATION_EPOCH_0 / TIMEOUT"];
	s50 -> s66 [label="APPLICATION / TIMEOUT"];
	s50 -> s66 [label="Alert(WARNING,CLOSE_NOTIFY) / TIMEOUT"];
	s50 -> s66 [label="Alert(FATAL,UNEXPECTED_MESSAGE) / TIMEOUT"];
	s51 -> s52 [label="HELLO_VERIFY_REQUEST / TIMEOUT"];
	s51 -> s52 [label="PSK_SERVER_HELLO / TIMEOUT"];
	s51 -> s52 [label="PSK_SERVER_HELLO_EPOCH_1 / TIMEOUT"];
	s51 -> s52 [label="SERVER_HELLO_DONE / TIMEOUT"];
	s51 -> s30 [label="CHANGE_CIPHER_SPEC / TIMEOUT"];
	s51 -> s52 [label="FINISHED / TIMEOUT"];
	s51 -> s30 [label="FINISHED_EPOCH_0 / TIMEOUT"];
	s51 -> s30 [label="APPLICATION_EPOCH_0 / TIMEOUT"];
	s51 -> s52 [label="APPLICATION / TIMEOUT"];
	s51 -> s52 [label="Alert(WARNING,CLOSE_NOTIFY) / TIMEOUT"];
	s51 -> s52 [label="Alert(FATAL,UNEXPECTED_MESSAGE) / TIMEOUT"];
	s52 -> s53 [label="HELLO_VERIFY_REQUEST / TIMEOUT"];
	s52 -> s53 [label="PSK_SERVER_HELLO / TIMEOUT"];
	s52 -> s53 [label="PSK_SERVER_HELLO_EPOCH_1 / TIMEOUT"];
	s52 -> s53 [label="SERVER_HELLO_DONE / TIMEOUT"];
	s52 -> s30 [label="CHANGE_CIPHER_SPEC / TIMEOUT"];
	s52 -> s53 [label="FINISHED / TIMEOUT"];
	s52 -> s30 [label="FINISHED_EPOCH_0 / TIMEOUT"];
	s52 -> s30 [label="APPLICATION_EPOCH_0 / TIMEOUT"];
	s52 -> s53 [label="APPLICATION / TIMEOUT"];
	s52 -> s53 [label="Alert(WARNING,CLOSE_NOTIFY) / TIMEOUT"];
	s52 -> s53 [label="Alert(FATAL,UNEXPECTED_MESSAGE) / TIMEOUT"];
	s53 -> s55 [label="HELLO_VERIFY_REQUEST / TIMEOUT"];
	s53 -> s55 [label="PSK_SERVER_HELLO / TIMEOUT"];
	s53 -> s55 [label="PSK_SERVER_HELLO_EPOCH_1 / TIMEOUT"];
	s53 -> s55 [label="SERVER_HELLO_DONE / TIMEOUT"];
	s53 -> s30 [label="CHANGE_CIPHER_SPEC / TIMEOUT"];
	s53 -> s55 [label="FINISHED / TIMEOUT"];
	s53 -> s30 [label="FINISHED_EPOCH_0 / TIMEOUT"];
	s53 -> s30 [label="APPLICATION_EPOCH_0 / TIMEOUT"];
	s53 -> s55 [label="APPLICATION / TIMEOUT"];
	s53 -> s55 [label="Alert(WARNING,CLOSE_NOTIFY) / TIMEOUT"];
	s53 -> s55 [label="Alert(FATAL,UNEXPECTED_MESSAGE) / TIMEOUT"];
	s54 -> s87 [label="HELLO_VERIFY_REQUEST / TIMEOUT"];
	s54 -> s87 [label="PSK_SERVER_HELLO / TIMEOUT"];
	s54 -> s87 [label="PSK_SERVER_HELLO_EPOCH_1 / TIMEOUT"];
	s54 -> s87 [label="SERVER_HELLO_DONE / TIMEOUT"];
	s54 -> s34 [label="CHANGE_CIPHER_SPEC / TIMEOUT"];
	s54 -> s87 [label="FINISHED / TIMEOUT"];
	s54 -> s34 [label="FINISHED_EPOCH_0 / TIMEOUT"];
	s54 -> s34 [label="APPLICATION_EPOCH_0 / TIMEOUT"];
	s54 -> s87 [label="APPLICATION / TIMEOUT"];
	s54 -> s87 [label="Alert(WARNING,CLOSE_NOTIFY) / TIMEOUT"];
	s54 -> s87 [label="Alert(FATAL,UNEXPECTED_MESSAGE) / TIMEOUT"];
	s55 -> s56 [label="HELLO_VERIFY_REQUEST / TIMEOUT"];
	s55 -> s56 [label="PSK_SERVER_HELLO / TIMEOUT"];
	s55 -> s56 [label="PSK_SERVER_HELLO_EPOCH_1 / TIMEOUT"];
	s55 -> s56 [label="SERVER_HELLO_DONE / TIMEOUT"];
	s55 -> s30 [label="CHANGE_CIPHER_SPEC / TIMEOUT"];
	s55 -> s56 [label="FINISHED / TIMEOUT"];
	s55 -> s77 [label="FINISHED_EPOCH_0 / TIMEOUT"];
	s55 -> s3 [label="APPLICATION_EPOCH_0 / Alert(FATAL,UNEXPECTED_MESSAGE)"];
	s55 -> s56 [label="APPLICATION / TIMEOUT"];
	s55 -> s56 [label="Alert(WARNING,CLOSE_NOTIFY) / TIMEOUT"];
	s55 -> s56 [label="Alert(FATAL,UNEXPECTED_MESSAGE) / TIMEOUT"];
	s56 -> s56 [label="HELLO_VERIFY_REQUEST / TIMEOUT"];
	s56 -> s56 [label="PSK_SERVER_HELLO / TIMEOUT"];
	s56 -> s56 [label="PSK_SERVER_HELLO_EPOCH_1 / TIMEOUT"];
	s56 -> s56 [label="SERVER_HELLO_DONE / TIMEOUT"];
	s56 -> s30 [label="CHANGE_CIPHER_SPEC / TIMEOUT"];
	s56 -> s56 [label="FINISHED / TIMEOUT"];
	s56 -> s30 [label="FINISHED_EPOCH_0 / TIMEOUT"];
	s56 -> s3 [label="APPLICATION_EPOCH_0 / Alert(FATAL,UNEXPECTED_MESSAGE)"];
	s56 -> s56 [label="APPLICATION / TIMEOUT"];
	s56 -> s56 [label="Alert(WARNING,CLOSE_NOTIFY) / TIMEOUT"];
	s56 -> s56 [label="Alert(FATAL,UNEXPECTED_MESSAGE) / TIMEOUT"];
	s57 -> s58 [label="HELLO_VERIFY_REQUEST / TIMEOUT"];
	s57 -> s58 [label="PSK_SERVER_HELLO / TIMEOUT"];
	s57 -> s6 [label="PSK_SERVER_HELLO_EPOCH_1 / TIMEOUT"];
	s57 -> s58 [label="SERVER_HELLO_DONE / TIMEOUT"];
	s57 -> s20 [label="CHANGE_CIPHER_SPEC / TIMEOUT"];
	s57 -> s58 [label="FINISHED / TIMEOUT"];
	s57 -> s58 [label="FINISHED_EPOCH_0 / TIMEOUT"];
	s57 -> s3 [label="APPLICATION_EPOCH_0 / Alert(FATAL,UNEXPECTED_MESSAGE)"];
	s57 -> s3 [label="APPLICATION / Alert(FATAL,UNEXPECTED_MESSAGE)"];
	s57 -> s3 [label="Alert(WARNING,CLOSE_NOTIFY) / TIMEOUT"];
	s57 -> s3 [label="Alert(FATAL,UNEXPECTED_MESSAGE) / TIMEOUT"];
	s58 -> s59 [label="HELLO_VERIFY_REQUEST / TIMEOUT"];
	s58 -> s59 [label="PSK_SERVER_HELLO / TIMEOUT"];
	s58 -> s112 [label="PSK_SERVER_HELLO_EPOCH_1 / TIMEOUT"];
	s58 -> s59 [label="SERVER_HELLO_DONE / TIMEOUT"];
	s58 -> s41 [label="CHANGE_CIPHER_SPEC / TIMEOUT"];
	s58 -> s59 [label="FINISHED / TIMEOUT"];
	s58 -> s59 [label="FINISHED_EPOCH_0 / TIMEOUT"];
	s58 -> s3 [label="APPLICATION_EPOCH_0 / Alert(FATAL,UNEXPECTED_MESSAGE)"];
	s58 -> s3 [label="APPLICATION / Alert(FATAL,UNEXPECTED_MESSAGE)"];
	s58 -> s3 [label="Alert(WARNING,CLOSE_NOTIFY) / TIMEOUT"];
	s58 -> s3 [label="Alert(FATAL,UNEXPECTED_MESSAGE) / TIMEOUT"];
	s59 -> s124 [label="HELLO_VERIFY_REQUEST / TIMEOUT"];
	s59 -> s124 [label="PSK_SERVER_HELLO / TIMEOUT"];
	s59 -> s58 [label="PSK_SERVER_HELLO_EPOCH_1 / TIMEOUT"];
	s59 -> s124 [label="SERVER_HELLO_DONE / TIMEOUT"];
	s59 -> s60 [label="CHANGE_CIPHER_SPEC / TIMEOUT"];
	s59 -> s124 [label="FINISHED / TIMEOUT"];
	s59 -> s124 [label="FINISHED_EPOCH_0 / TIMEOUT"];
	s59 -> s3 [label="APPLICATION_EPOCH_0 / Alert(FATAL,UNEXPECTED_MESSAGE)"];
	s59 -> s3 [label="APPLICATION / Alert(FATAL,UNEXPECTED_MESSAGE)"];
	s59 -> s3 [label="Alert(WARNING,CLOSE_NOTIFY) / TIMEOUT"];
	s59 -> s3 [label="Alert(FATAL,UNEXPECTED_MESSAGE) / TIMEOUT"];
	s60 -> s61 [label="HELLO_VERIFY_REQUEST / TIMEOUT"];
	s60 -> s61 [label="PSK_SERVER_HELLO / TIMEOUT"];
	s60 -> s61 [label="PSK_SERVER_HELLO_EPOCH_1 / TIMEOUT"];
	s60 -> s61 [label="SERVER_HELLO_DONE / TIMEOUT"];
	s60 -> s60 [label="CHANGE_CIPHER_SPEC / TIMEOUT"];
	s60 -> s61 [label="FINISHED / TIMEOUT"];
	s60 -> s77 [label="FINISHED_EPOCH_0 / TIMEOUT"];
	s60 -> s3 [label="APPLICATION_EPOCH_0 / Alert(FATAL,UNEXPECTED_MESSAGE)"];
	s60 -> s61 [label="APPLICATION / TIMEOUT"];
	s60 -> s61 [label="Alert(WARNING,CLOSE_NOTIFY) / TIMEOUT"];
	s60 -> s61 [label="Alert(FATAL,UNEXPECTED_MESSAGE) / TIMEOUT"];
	s61 -> s62 [label="HELLO_VERIFY_REQUEST / TIMEOUT"];
	s61 -> s62 [label="PSK_SERVER_HELLO / TIMEOUT"];
	s61 -> s62 [label="PSK_SERVER_HELLO_EPOCH_1 / TIMEOUT"];
	s61 -> s62 [label="SERVER_HELLO_DONE / TIMEOUT"];
	s61 -> s60 [label="CHANGE_CIPHER_SPEC / TIMEOUT"];
	s61 -> s62 [label="FINISHED / TIMEOUT"];
	s61 -> s60 [label="FINISHED_EPOCH_0 / TIMEOUT"];
	s61 -> s60 [label="APPLICATION_EPOCH_0 / TIMEOUT"];
	s61 -> s62 [label="APPLICATION / TIMEOUT"];
	s61 -> s62 [label="Alert(WARNING,CLOSE_NOTIFY) / TIMEOUT"];
	s61 -> s62 [label="Alert(FATAL,UNEXPECTED_MESSAGE) / TIMEOUT"];
	s62 -> s63 [label="HELLO_VERIFY_REQUEST / TIMEOUT"];
	s62 -> s63 [label="PSK_SERVER_HELLO / TIMEOUT"];
	s62 -> s63 [label="PSK_SERVER_HELLO_EPOCH_1 / TIMEOUT"];
	s62 -> s63 [label="SERVER_HELLO_DONE / TIMEOUT"];
	s62 -> s60 [label="CHANGE_CIPHER_SPEC / TIMEOUT"];
	s62 -> s63 [label="FINISHED / TIMEOUT"];
	s62 -> s60 [label="FINISHED_EPOCH_0 / TIMEOUT"];
	s62 -> s60 [label="APPLICATION_EPOCH_0 / TIMEOUT"];
	s62 -> s63 [label="APPLICATION / TIMEOUT"];
	s62 -> s63 [label="Alert(WARNING,CLOSE_NOTIFY) / TIMEOUT"];
	s62 -> s63 [label="Alert(FATAL,UNEXPECTED_MESSAGE) / TIMEOUT"];
	s63 -> s64 [label="HELLO_VERIFY_REQUEST / TIMEOUT"];
	s63 -> s64 [label="PSK_SERVER_HELLO / TIMEOUT"];
	s63 -> s64 [label="PSK_SERVER_HELLO_EPOCH_1 / TIMEOUT"];
	s63 -> s64 [label="SERVER_HELLO_DONE / TIMEOUT"];
	s63 -> s60 [label="CHANGE_CIPHER_SPEC / TIMEOUT"];
	s63 -> s64 [label="FINISHED / TIMEOUT"];
	s63 -> s60 [label="FINISHED_EPOCH_0 / TIMEOUT"];
	s63 -> s60 [label="APPLICATION_EPOCH_0 / TIMEOUT"];
	s63 -> s64 [label="APPLICATION / TIMEOUT"];
	s63 -> s64 [label="Alert(WARNING,CLOSE_NOTIFY) / TIMEOUT"];
	s63 -> s64 [label="Alert(FATAL,UNEXPECTED_MESSAGE) / TIMEOUT"];
	s64 -> s65 [label="HELLO_VERIFY_REQUEST / TIMEOUT"];
	s64 -> s65 [label="PSK_SERVER_HELLO / TIMEOUT"];
	s64 -> s65 [label="PSK_SERVER_HELLO_EPOCH_1 / TIMEOUT"];
	s64 -> s65 [label="SERVER_HELLO_DONE / TIMEOUT"];
	s64 -> s60 [label="CHANGE_CIPHER_SPEC / TIMEOUT"];
	s64 -> s65 [label="FINISHED / TIMEOUT"];
	s64 -> s60 [label="FINISHED_EPOCH_0 / TIMEOUT"];
	s64 -> s60 [label="APPLICATION_EPOCH_0 / TIMEOUT"];
	s64 -> s65 [label="APPLICATION / TIMEOUT"];
	s64 -> s65 [label="Alert(WARNING,CLOSE_NOTIFY) / TIMEOUT"];
	s64 -> s65 [label="Alert(FATAL,UNEXPECTED_MESSAGE) / TIMEOUT"];
	s65 -> s65 [label="HELLO_VERIFY_REQUEST / TIMEOUT"];
	s65 -> s65 [label="PSK_SERVER_HELLO / TIMEOUT"];
	s65 -> s65 [label="PSK_SERVER_HELLO_EPOCH_1 / TIMEOUT"];
	s65 -> s65 [label="SERVER_HELLO_DONE / TIMEOUT"];
	s65 -> s60 [label="CHANGE_CIPHER_SPEC / TIMEOUT"];
	s65 -> s65 [label="FINISHED / TIMEOUT"];
	s65 -> s125 [label="FINISHED_EPOCH_0 / TIMEOUT"];
	s65 -> s3 [label="APPLICATION_EPOCH_0 / Alert(FATAL,UNEXPECTED_MESSAGE)"];
	s65 -> s65 [label="APPLICATION / TIMEOUT"];
	s65 -> s65 [label="Alert(WARNING,CLOSE_NOTIFY) / TIMEOUT"];
	s65 -> s65 [label="Alert(FATAL,UNEXPECTED_MESSAGE) / TIMEOUT"];
	s66 -> s67 [label="HELLO_VERIFY_REQUEST / TIMEOUT"];
	s66 -> s67 [label="PSK_SERVER_HELLO / TIMEOUT"];
	s66 -> s67 [label="PSK_SERVER_HELLO_EPOCH_1 / TIMEOUT"];
	s66 -> s67 [label="SERVER_HELLO_DONE / TIMEOUT"];
	s66 -> s41 [label="CHANGE_CIPHER_SPEC / TIMEOUT"];
	s66 -> s67 [label="FINISHED / TIMEOUT"];
	s66 -> s60 [label="FINISHED_EPOCH_0 / TIMEOUT"];
	s66 -> s3 [label="APPLICATION_EPOCH_0 / Alert(FATAL,UNEXPECTED_MESSAGE)"];
	s66 -> s67 [label="APPLICATION / TIMEOUT"];
	s66 -> s67 [label="Alert(WARNING,CLOSE_NOTIFY) / TIMEOUT"];
	s66 -> s67 [label="Alert(FATAL,UNEXPECTED_MESSAGE) / TIMEOUT"];
	s67 -> s67 [label="HELLO_VERIFY_REQUEST / TIMEOUT"];
	s67 -> s67 [label="PSK_SERVER_HELLO / TIMEOUT"];
	s67 -> s67 [label="PSK_SERVER_HELLO_EPOCH_1 / TIMEOUT"];
	s67 -> s67 [label="SERVER_HELLO_DONE / TIMEOUT"];
	s67 -> s41 [label="CHANGE_CIPHER_SPEC / TIMEOUT"];
	s67 -> s67 [label="FINISHED / TIMEOUT"];
	s67 -> s41 [label="FINISHED_EPOCH_0 / TIMEOUT"];
	s67 -> s3 [label="APPLICATION_EPOCH_0 / Alert(FATAL,UNEXPECTED_MESSAGE)"];
	s67 -> s67 [label="APPLICATION / TIMEOUT"];
	s67 -> s67 [label="Alert(WARNING,CLOSE_NOTIFY) / TIMEOUT"];
	s67 -> s67 [label="Alert(FATAL,UNEXPECTED_MESSAGE) / TIMEOUT"];
	s68 -> s133 [label="HELLO_VERIFY_REQUEST / TIMEOUT"];
	s68 -> s133 [label="PSK_SERVER_HELLO / TIMEOUT"];
	s68 -> s133 [label="PSK_SERVER_HELLO_EPOCH_1 / TIMEOUT"];
	s68 -> s133 [label="SERVER_HELLO_DONE / TIMEOUT"];
	s68 -> s22 [label="CHANGE_CIPHER_SPEC / TIMEOUT"];
	s68 -> s133 [label="FINISHED / TIMEOUT"];
	s68 -> s69 [label="FINISHED_EPOCH_0 / TIMEOUT"];
	s68 -> s3 [label="APPLICATION_EPOCH_0 / Alert(FATAL,UNEXPECTED_MESSAGE)"];
	s68 -> s133 [label="APPLICATION / TIMEOUT"];
	s68 -> s133 [label="Alert(WARNING,CLOSE_NOTIFY) / TIMEOUT"];
	s68 -> s133 [label="Alert(FATAL,UNEXPECTED_MESSAGE) / TIMEOUT"];
	s69 -> s70 [label="HELLO_VERIFY_REQUEST / TIMEOUT"];
	s69 -> s70 [label="PSK_SERVER_HELLO / TIMEOUT"];
	s69 -> s70 [label="PSK_SERVER_HELLO_EPOCH_1 / TIMEOUT"];
	s69 -> s70 [label="SERVER_HELLO_DONE / TIMEOUT"];
	s69 -> s69 [label="CHANGE_CIPHER_SPEC / TIMEOUT"];
	s69 -> s70 [label="FINISHED / TIMEOUT"];
	s69 -> s69 [label="FINISHED_EPOCH_0 / TIMEOUT"];
	s69 -> s69 [label="APPLICATION_EPOCH_0 / TIMEOUT"];
	s69 -> s70 [label="APPLICATION / TIMEOUT"];
	s69 -> s70 [label="Alert(WARNING,CLOSE_NOTIFY) / TIMEOUT"];
	s69 -> s70 [label="Alert(FATAL,UNEXPECTED_MESSAGE) / TIMEOUT"];
	s70 -> s71 [label="HELLO_VERIFY_REQUEST / TIMEOUT"];
	s70 -> s71 [label="PSK_SERVER_HELLO / TIMEOUT"];
	s70 -> s71 [label="PSK_SERVER_HELLO_EPOCH_1 / TIMEOUT"];
	s70 -> s71 [label="SERVER_HELLO_DONE / TIMEOUT"];
	s70 -> s69 [label="CHANGE_CIPHER_SPEC / TIMEOUT"];
	s70 -> s71 [label="FINISHED / TIMEOUT"];
	s70 -> s96 [label="FINISHED_EPOCH_0 / TIMEOUT"];
	s70 -> s3 [label="APPLICATION_EPOCH_0 / Alert(FATAL,UNEXPECTED_MESSAGE)"];
	s70 -> s71 [label="APPLICATION / TIMEOUT"];
	s70 -> s71 [label="Alert(WARNING,CLOSE_NOTIFY) / TIMEOUT"];
	s70 -> s71 [label="Alert(FATAL,UNEXPECTED_MESSAGE) / TIMEOUT"];
	s71 -> s76 [label="HELLO_VERIFY_REQUEST / TIMEOUT"];
	s71 -> s76 [label="PSK_SERVER_HELLO / TIMEOUT"];
	s71 -> s76 [label="PSK_SERVER_HELLO_EPOCH_1 / TIMEOUT"];
	s71 -> s76 [label="SERVER_HELLO_DONE / TIMEOUT"];
	s71 -> s69 [label="CHANGE_CIPHER_SPEC / TIMEOUT"];
	s71 -> s76 [label="FINISHED / TIMEOUT"];
	s71 -> s29 [label="FINISHED_EPOCH_0 / TIMEOUT"];
	s71 -> s3 [label="APPLICATION_EPOCH_0 / Alert(FATAL,UNEXPECTED_MESSAGE)"];
	s71 -> s76 [label="APPLICATION / TIMEOUT"];
	s71 -> s76 [label="Alert(WARNING,CLOSE_NOTIFY) / TIMEOUT"];
	s71 -> s76 [label="Alert(FATAL,UNEXPECTED_MESSAGE) / TIMEOUT"];
	s72 -> s74 [label="HELLO_VERIFY_REQUEST / TIMEOUT"];
	s72 -> s74 [label="PSK_SERVER_HELLO / TIMEOUT"];
	s72 -> s6 [label="PSK_SERVER_HELLO_EPOCH_1 / TIMEOUT"];
	s72 -> s74 [label="SERVER_HELLO_DONE / TIMEOUT"];
	s72 -> s73 [label="CHANGE_CIPHER_SPEC / TIMEOUT"];
	s72 -> s74 [label="FINISHED / TIMEOUT"];
	s72 -> s74 [label="FINISHED_EPOCH_0 / TIMEOUT"];
	s72 -> s3 [label="APPLICATION_EPOCH_0 / Alert(FATAL,UNEXPECTED_MESSAGE)"];
	s72 -> s3 [label="APPLICATION / Alert(FATAL,UNEXPECTED_MESSAGE)"];
	s72 -> s3 [label="Alert(WARNING,CLOSE_NOTIFY) / TIMEOUT"];
	s72 -> s3 [label="Alert(FATAL,UNEXPECTED_MESSAGE) / TIMEOUT"];
	s73 -> s78 [label="HELLO_VERIFY_REQUEST / TIMEOUT"];
	s73 -> s78 [label="PSK_SERVER_HELLO / TIMEOUT"];
	s73 -> s78 [label="PSK_SERVER_HELLO_EPOCH_1 / TIMEOUT"];
	s73 -> s78 [label="SERVER_HELLO_DONE / TIMEOUT"];
	s73 -> s73 [label="CHANGE_CIPHER_SPEC / TIMEOUT"];
	s73 -> s78 [label="FINISHED / TIMEOUT"];
	s73 -> s29 [label="FINISHED_EPOCH_0 / TIMEOUT"];
	s73 -> s3 [label="APPLICATION_EPOCH_0 / Alert(FATAL,UNEXPECTED_MESSAGE)"];
	s73 -> s78 [label="APPLICATION / TIMEOUT"];
	s73 -> s78 [label="Alert(WARNING,CLOSE_NOTIFY) / TIMEOUT"];
	s73 -> s78 [label="Alert(FATAL,UNEXPECTED_MESSAGE) / TIMEOUT"];
	s74 -> s102 [label="HELLO_VERIFY_REQUEST / TIMEOUT"];
	s74 -> s102 [label="PSK_SERVER_HELLO / TIMEOUT"];
	s74 -> s102 [label="PSK_SERVER_HELLO_EPOCH_1 / TIMEOUT"];
	s74 -> s102 [label="SERVER_HELLO_DONE / TIMEOUT"];
	s74 -> s75 [label="CHANGE_CIPHER_SPEC / TIMEOUT"];
	s74 -> s102 [label="FINISHED / TIMEOUT"];
	s74 -> s102 [label="FINISHED_EPOCH_0 / TIMEOUT"];
	s74 -> s3 [label="APPLICATION_EPOCH_0 / Alert(FATAL,UNEXPECTED_MESSAGE)"];
	s74 -> s3 [label="APPLICATION / Alert(FATAL,UNEXPECTED_MESSAGE)"];
	s74 -> s3 [label="Alert(WARNING,CLOSE_NOTIFY) / TIMEOUT"];
	s74 -> s3 [label="Alert(FATAL,UNEXPECTED_MESSAGE) / TIMEOUT"];
	s75 -> s79 [label="HELLO_VERIFY_REQUEST / TIMEOUT"];
	s75 -> s79 [label="PSK_SERVER_HELLO / TIMEOUT"];
	s75 -> s79 [label="PSK_SERVER_HELLO_EPOCH_1 / TIMEOUT"];
	s75 -> s79 [label="SERVER_HELLO_DONE / TIMEOUT"];
	s75 -> s75 [label="CHANGE_CIPHER_SPEC / TIMEOUT"];
	s75 -> s79 [label="FINISHED / TIMEOUT"];
	s75 -> s34 [label="FINISHED_EPOCH_0 / TIMEOUT"];
	s75 -> s3 [label="APPLICATION_EPOCH_0 / Alert(FATAL,UNEXPECTED_MESSAGE)"];
	s75 -> s79 [label="APPLICATION / TIMEOUT"];
	s75 -> s79 [label="Alert(WARNING,CLOSE_NOTIFY) / TIMEOUT"];
	s75 -> s79 [label="Alert(FATAL,UNEXPECTED_MESSAGE) / TIMEOUT"];
	s76 -> s81 [label="HELLO_VERIFY_REQUEST / TIMEOUT"];
	s76 -> s81 [label="PSK_SERVER_HELLO / TIMEOUT"];
	s76 -> s81 [label="PSK_SERVER_HELLO_EPOCH_1 / TIMEOUT"];
	s76 -> s81 [label="SERVER_HELLO_DONE / TIMEOUT"];
	s76 -> s69 [label="CHANGE_CIPHER_SPEC / TIMEOUT"];
	s76 -> s81 [label="FINISHED / TIMEOUT"];
	s76 -> s69 [label="FINISHED_EPOCH_0 / TIMEOUT"];
	s76 -> s3 [label="APPLICATION_EPOCH_0 / Alert(FATAL,UNEXPECTED_MESSAGE)"];
	s76 -> s81 [label="APPLICATION / TIMEOUT"];
	s76 -> s81 [label="Alert(WARNING,CLOSE_NOTIFY) / TIMEOUT"];
	s76 -> s81 [label="Alert(FATAL,UNEXPECTED_MESSAGE) / TIMEOUT"];
	s77 -> s80 [label="HELLO_VERIFY_REQUEST / TIMEOUT"];
	s77 -> s80 [label="PSK_SERVER_HELLO / TIMEOUT"];
	s77 -> s80 [label="PSK_SERVER_HELLO_EPOCH_1 / TIMEOUT"];
	s77 -> s80 [label="SERVER_HELLO_DONE / TIMEOUT"];
	s77 -> s77 [label="CHANGE_CIPHER_SPEC / TIMEOUT"];
	s77 -> s80 [label="FINISHED / TIMEOUT"];
	s77 -> s77 [label="FINISHED_EPOCH_0 / TIMEOUT"];
	s77 -> s77 [label="APPLICATION_EPOCH_0 / TIMEOUT"];
	s77 -> s80 [label="APPLICATION / TIMEOUT"];
	s77 -> s80 [label="Alert(WARNING,CLOSE_NOTIFY) / TIMEOUT"];
	s77 -> s80 [label="Alert(FATAL,UNEXPECTED_MESSAGE) / TIMEOUT"];
	s78 -> s39 [label="HELLO_VERIFY_REQUEST / TIMEOUT"];
	s78 -> s39 [label="PSK_SERVER_HELLO / TIMEOUT"];
	s78 -> s39 [label="PSK_SERVER_HELLO_EPOCH_1 / TIMEOUT"];
	s78 -> s39 [label="SERVER_HELLO_DONE / TIMEOUT"];
	s78 -> s73 [label="CHANGE_CIPHER_SPEC / TIMEOUT"];
	s78 -> s39 [label="FINISHED / TIMEOUT"];
	s78 -> s20 [label="FINISHED_EPOCH_0 / TIMEOUT"];
	s78 -> s3 [label="APPLICATION_EPOCH_0 / Alert(FATAL,UNEXPECTED_MESSAGE)"];
	s78 -> s39 [label="APPLICATION / TIMEOUT"];
	s78 -> s39 [label="Alert(WARNING,CLOSE_NOTIFY) / TIMEOUT"];
	s78 -> s39 [label="Alert(FATAL,UNEXPECTED_MESSAGE) / TIMEOUT"];
	s79 -> s82 [label="HELLO_VERIFY_REQUEST / TIMEOUT"];
	s79 -> s82 [label="PSK_SERVER_HELLO / TIMEOUT"];
	s79 -> s82 [label="PSK_SERVER_HELLO_EPOCH_1 / TIMEOUT"];
	s79 -> s82 [label="SERVER_HELLO_DONE / TIMEOUT"];
	s79 -> s75 [label="CHANGE_CIPHER_SPEC / TIMEOUT"];
	s79 -> s82 [label="FINISHED / TIMEOUT"];
	s79 -> s41 [label="FINISHED_EPOCH_0 / TIMEOUT"];
	s79 -> s3 [label="APPLICATION_EPOCH_0 / Alert(FATAL,UNEXPECTED_MESSAGE)"];
	s79 -> s82 [label="APPLICATION / TIMEOUT"];
	s79 -> s82 [label="Alert(WARNING,CLOSE_NOTIFY) / TIMEOUT"];
	s79 -> s82 [label="Alert(FATAL,UNEXPECTED_MESSAGE) / TIMEOUT"];
	s80 -> s91 [label="HELLO_VERIFY_REQUEST / TIMEOUT"];
	s80 -> s91 [label="PSK_SERVER_HELLO / TIMEOUT"];
	s80 -> s91 [label="PSK_SERVER_HELLO_EPOCH_1 / TIMEOUT"];
	s80 -> s91 [label="SERVER_HELLO_DONE / TIMEOUT"];
	s80 -> s77 [label="CHANGE_CIPHER_SPEC / TIMEOUT"];
	s80 -> s91 [label="FINISHED / TIMEOUT"];
	s80 -> s77 [label="FINISHED_EPOCH_0 / TIMEOUT"];
	s80 -> s77 [label="APPLICATION_EPOCH_0 / TIMEOUT"];
	s80 -> s91 [label="APPLICATION / TIMEOUT"];
	s80 -> s91 [label="Alert(WARNING,CLOSE_NOTIFY) / TIMEOUT"];
	s80 -> s91 [label="Alert(FATAL,UNEXPECTED_MESSAGE) / TIMEOUT"];
	s81 -> s89 [label="HELLO_VERIFY_REQUEST / TIMEOUT"];
	s81 -> s89 [label="PSK_SERVER_HELLO / TIMEOUT"];
	s81 -> s89 [label="PSK_SERVER_HELLO_EPOCH_1 / TIMEOUT"];
	s81 -> s89 [label="SERVER_HELLO_DONE / TIMEOUT"];
	s81 -> s69 [label="CHANGE_CIPHER_SPEC / TIMEOUT"];
	s81 -> s89 [label="FINISHED / TIMEOUT"];
	s81 -> s69 [label="FINISHED_EPOCH_0 / TIMEOUT"];
	s81 -> s69 [label="APPLICATION_EPOCH_0 / TIMEOUT"];
	s81 -> s89 [label="APPLICATION / TIMEOUT"];
	s81 -> s89 [label="Alert(WARNING,CLOSE_NOTIFY) / TIMEOUT"];
	s81 -> s89 [label="Alert(FATAL,UNEXPECTED_MESSAGE) / TIMEOUT"];
	s82 -> s83 [label="HELLO_VERIFY_REQUEST / TIMEOUT"];
	s82 -> s83 [label="PSK_SERVER_HELLO / TIMEOUT"];
	s82 -> s83 [label="PSK_SERVER_HELLO_EPOCH_1 / TIMEOUT"];
	s82 -> s83 [label="SERVER_HELLO_DONE / TIMEOUT"];
	s82 -> s75 [label="CHANGE_CIPHER_SPEC / TIMEOUT"];
	s82 -> s83 [label="FINISHED / TIMEOUT"];
	s82 -> s75 [label="FINISHED_EPOCH_0 / TIMEOUT"];
	s82 -> s75 [label="APPLICATION_EPOCH_0 / TIMEOUT"];
	s82 -> s83 [label="APPLICATION / TIMEOUT"];
	s82 -> s83 [label="Alert(WARNING,CLOSE_NOTIFY) / TIMEOUT"];
	s82 -> s83 [label="Alert(FATAL,UNEXPECTED_MESSAGE) / TIMEOUT"];
	s83 -> s84 [label="HELLO_VERIFY_REQUEST / TIMEOUT"];
	s83 -> s84 [label="PSK_SERVER_HELLO / TIMEOUT"];
	s83 -> s84 [label="PSK_SERVER_HELLO_EPOCH_1 / TIMEOUT"];
	s83 -> s84 [label="SERVER_HELLO_DONE / TIMEOUT"];
	s83 -> s75 [label="CHANGE_CIPHER_SPEC / TIMEOUT"];
	s83 -> s84 [label="FINISHED / TIMEOUT"];
	s83 -> s75 [label="FINISHED_EPOCH_0 / TIMEOUT"];
	s83 -> s75 [label="APPLICATION_EPOCH_0 / TIMEOUT"];
	s83 -> s84 [label="APPLICATION / TIMEOUT"];
	s83 -> s84 [label="Alert(WARNING,CLOSE_NOTIFY) / TIMEOUT"];
	s83 -> s84 [label="Alert(FATAL,UNEXPECTED_MESSAGE) / TIMEOUT"];
	s84 -> s86 [label="HELLO_VERIFY_REQUEST / TIMEOUT"];
	s84 -> s86 [label="PSK_SERVER_HELLO / TIMEOUT"];
	s84 -> s86 [label="PSK_SERVER_HELLO_EPOCH_1 / TIMEOUT"];
	s84 -> s86 [label="SERVER_HELLO_DONE / TIMEOUT"];
	s84 -> s75 [label="CHANGE_CIPHER_SPEC / TIMEOUT"];
	s84 -> s86 [label="FINISHED / TIMEOUT"];
	s84 -> s85 [label="FINISHED_EPOCH_0 / TIMEOUT"];
	s84 -> s3 [label="APPLICATION_EPOCH_0 / Alert(FATAL,UNEXPECTED_MESSAGE)"];
	s84 -> s86 [label="APPLICATION / TIMEOUT"];
	s84 -> s86 [label="Alert(WARNING,CLOSE_NOTIFY) / TIMEOUT"];
	s84 -> s86 [label="Alert(FATAL,UNEXPECTED_MESSAGE) / TIMEOUT"];
	s85 -> s103 [label="HELLO_VERIFY_REQUEST / TIMEOUT"];
	s85 -> s103 [label="PSK_SERVER_HELLO / TIMEOUT"];
	s85 -> s103 [label="PSK_SERVER_HELLO_EPOCH_1 / TIMEOUT"];
	s85 -> s103 [label="SERVER_HELLO_DONE / TIMEOUT"];
	s85 -> s85 [label="CHANGE_CIPHER_SPEC / TIMEOUT"];
	s85 -> s103 [label="FINISHED / TIMEOUT"];
	s85 -> s34 [label="FINISHED_EPOCH_0 / TIMEOUT"];
	s85 -> s3 [label="APPLICATION_EPOCH_0 / Alert(FATAL,UNEXPECTED_MESSAGE)"];
	s85 -> s103 [label="APPLICATION / TIMEOUT"];
	s85 -> s103 [label="Alert(WARNING,CLOSE_NOTIFY) / TIMEOUT"];
	s85 -> s103 [label="Alert(FATAL,UNEXPECTED_MESSAGE) / TIMEOUT"];
	s86 -> s86 [label="HELLO_VERIFY_REQUEST / TIMEOUT"];
	s86 -> s86 [label="PSK_SERVER_HELLO / TIMEOUT"];
	s86 -> s86 [label="PSK_SERVER_HELLO_EPOCH_1 / TIMEOUT"];
	s86 -> s86 [label="SERVER_HELLO_DONE / TIMEOUT"];
	s86 -> s75 [label="CHANGE_CIPHER_SPEC / TIMEOUT"];
	s86 -> s86 [label="FINISHED / TIMEOUT"];
	s86 -> s75 [label="FINISHED_EPOCH_0 / TIMEOUT"];
	s86 -> s3 [label="APPLICATION_EPOCH_0 / Alert(FATAL,UNEXPECTED_MESSAGE)"];
	s86 -> s86 [label="APPLICATION / TIMEOUT"];
	s86 -> s86 [label="Alert(WARNING,CLOSE_NOTIFY) / TIMEOUT"];
	s86 -> s86 [label="Alert(FATAL,UNEXPECTED_MESSAGE) / TIMEOUT"];
	s87 -> s88 [label="HELLO_VERIFY_REQUEST / TIMEOUT"];
	s87 -> s88 [label="PSK_SERVER_HELLO / TIMEOUT"];
	s87 -> s88 [label="PSK_SERVER_HELLO_EPOCH_1 / TIMEOUT"];
	s87 -> s88 [label="SERVER_HELLO_DONE / TIMEOUT"];
	s87 -> s34 [label="CHANGE_CIPHER_SPEC / TIMEOUT"];
	s87 -> s88 [label="FINISHED / TIMEOUT"];
	s87 -> s34 [label="FINISHED_EPOCH_0 / TIMEOUT"];
	s87 -> s34 [label="APPLICATION_EPOCH_0 / TIMEOUT"];
	s87 -> s88 [label="APPLICATION / TIMEOUT"];
	s87 -> s88 [label="Alert(WARNING,CLOSE_NOTIFY) / TIMEOUT"];
	s87 -> s88 [label="Alert(FATAL,UNEXPECTED_MESSAGE) / TIMEOUT"];
	s88 -> s88 [label="HELLO_VERIFY_REQUEST / TIMEOUT"];
	s88 -> s88 [label="PSK_SERVER_HELLO / TIMEOUT"];
	s88 -> s88 [label="PSK_SERVER_HELLO_EPOCH_1 / TIMEOUT"];
	s88 -> s88 [label="SERVER_HELLO_DONE / TIMEOUT"];
	s88 -> s34 [label="CHANGE_CIPHER_SPEC / TIMEOUT"];
	s88 -> s88 [label="FINISHED / TIMEOUT"];
	s88 -> s34 [label="FINISHED_EPOCH_0 / TIMEOUT"];
	s88 -> s3 [label="APPLICATION_EPOCH_0 / Alert(FATAL,UNEXPECTED_MESSAGE)"];
	s88 -> s88 [label="APPLICATION / TIMEOUT"];
	s88 -> s88 [label="Alert(WARNING,CLOSE_NOTIFY) / TIMEOUT"];
	s88 -> s88 [label="Alert(FATAL,UNEXPECTED_MESSAGE) / TIMEOUT"];
	s89 -> s89 [label="HELLO_VERIFY_REQUEST / TIMEOUT"];
	s89 -> s89 [label="PSK_SERVER_HELLO / TIMEOUT"];
	s89 -> s89 [label="PSK_SERVER_HELLO_EPOCH_1 / TIMEOUT"];
	s89 -> s89 [label="SERVER_HELLO_DONE / TIMEOUT"];
	s89 -> s69 [label="CHANGE_CIPHER_SPEC / TIMEOUT"];
	s89 -> s89 [label="FINISHED / TIMEOUT"];
	s89 -> s69 [label="FINISHED_EPOCH_0 / TIMEOUT"];
	s89 -> s3 [label="APPLICATION_EPOCH_0 / Alert(FATAL,UNEXPECTED_MESSAGE)"];
	s89 -> s89 [label="APPLICATION / TIMEOUT"];
	s89 -> s89 [label="Alert(WARNING,CLOSE_NOTIFY) / TIMEOUT"];
	s89 -> s89 [label="Alert(FATAL,UNEXPECTED_MESSAGE) / TIMEOUT"];
	s90 -> s101 [label="HELLO_VERIFY_REQUEST / TIMEOUT"];
	s90 -> s101 [label="PSK_SERVER_HELLO / TIMEOUT"];
	s90 -> s118 [label="PSK_SERVER_HELLO_EPOCH_1 / TIMEOUT"];
	s90 -> s101 [label="SERVER_HELLO_DONE / TIMEOUT"];
	s90 -> s29 [label="CHANGE_CIPHER_SPEC / TIMEOUT"];
	s90 -> s101 [label="FINISHED / TIMEOUT"];
	s90 -> s101 [label="FINISHED_EPOCH_0 / TIMEOUT"];
	s90 -> s3 [label="APPLICATION_EPOCH_0 / Alert(FATAL,UNEXPECTED_MESSAGE)"];
	s90 -> s3 [label="APPLICATION / Alert(FATAL,UNEXPECTED_MESSAGE)"];
	s90 -> s3 [label="Alert(WARNING,CLOSE_NOTIFY) / TIMEOUT"];
	s90 -> s3 [label="Alert(FATAL,UNEXPECTED_MESSAGE) / TIMEOUT"];
	s91 -> s115 [label="HELLO_VERIFY_REQUEST / TIMEOUT"];
	s91 -> s115 [label="PSK_SERVER_HELLO / TIMEOUT"];
	s91 -> s115 [label="PSK_SERVER_HELLO_EPOCH_1 / TIMEOUT"];
	s91 -> s115 [label="SERVER_HELLO_DONE / TIMEOUT"];
	s91 -> s77 [label="CHANGE_CIPHER_SPEC / TIMEOUT"];
	s91 -> s115 [label="FINISHED / TIMEOUT"];
	s91 -> s77 [label="FINISHED_EPOCH_0 / TIMEOUT"];
	s91 -> s77 [label="APPLICATION_EPOCH_0 / TIMEOUT"];
	s91 -> s115 [label="APPLICATION / TIMEOUT"];
	s91 -> s115 [label="Alert(WARNING,CLOSE_NOTIFY) / TIMEOUT"];
	s91 -> s115 [label="Alert(FATAL,UNEXPECTED_MESSAGE) / TIMEOUT"];
	s92 -> s93 [label="HELLO_VERIFY_REQUEST / TIMEOUT"];
	s92 -> s93 [label="PSK_SERVER_HELLO / TIMEOUT"];
	s92 -> s93 [label="PSK_SERVER_HELLO_EPOCH_1 / TIMEOUT"];
	s92 -> s93 [label="SERVER_HELLO_DONE / TIMEOUT"];
	s92 -> s16 [label="CHANGE_CIPHER_SPEC / TIMEOUT"];
	s92 -> s93 [label="FINISHED / TIMEOUT"];
	s92 -> s16 [label="FINISHED_EPOCH_0 / TIMEOUT"];
	s92 -> s16 [label="APPLICATION_EPOCH_0 / TIMEOUT"];
	s92 -> s93 [label="APPLICATION / TIMEOUT"];
	s92 -> s93 [label="Alert(WARNING,CLOSE_NOTIFY) / TIMEOUT"];
	s92 -> s93 [label="Alert(FATAL,UNEXPECTED_MESSAGE) / TIMEOUT"];
	s93 -> s99 [label="HELLO_VERIFY_REQUEST / TIMEOUT"];
	s93 -> s99 [label="PSK_SERVER_HELLO / TIMEOUT"];
	s93 -> s99 [label="PSK_SERVER_HELLO_EPOCH_1 / TIMEOUT"];
	s93 -> s99 [label="SERVER_HELLO_DONE / TIMEOUT"];
	s93 -> s16 [label="CHANGE_CIPHER_SPEC / TIMEOUT"];
	s93 -> s99 [label="FINISHED / TIMEOUT"];
	s93 -> s30 [label="FINISHED_EPOCH_0 / TIMEOUT"];
	s93 -> s3 [label="APPLICATION_EPOCH_0 / Alert(FATAL,UNEXPECTED_MESSAGE)"];
	s93 -> s99 [label="APPLICATION / TIMEOUT"];
	s93 -> s99 [label="Alert(WARNING,CLOSE_NOTIFY) / TIMEOUT"];
	s93 -> s99 [label="Alert(FATAL,UNEXPECTED_MESSAGE) / TIMEOUT"];
	s94 -> s8 [label="HELLO_VERIFY_REQUEST / TIMEOUT"];
	s94 -> s8 [label="PSK_SERVER_HELLO / TIMEOUT"];
	s94 -> s8 [label="PSK_SERVER_HELLO_EPOCH_1 / TIMEOUT"];
	s94 -> s8 [label="SERVER_HELLO_DONE / TIMEOUT"];
	s94 -> s94 [label="CHANGE_CIPHER_SPEC / TIMEOUT"];
	s94 -> s8 [label="FINISHED / TIMEOUT"];
	s94 -> s94 [label="FINISHED_EPOCH_0 / TIMEOUT"];
	s94 -> s94 [label="APPLICATION_EPOCH_0 / TIMEOUT"];
	s94 -> s8 [label="APPLICATION / TIMEOUT"];
	s94 -> s8 [label="Alert(WARNING,CLOSE_NOTIFY) / TIMEOUT"];
	s94 -> s8 [label="Alert(FATAL,UNEXPECTED_MESSAGE) / TIMEOUT"];
	s95 -> s95 [label="HELLO_VERIFY_REQUEST / TIMEOUT"];
	s95 -> s95 [label="PSK_SERVER_HELLO / TIMEOUT"];
	s95 -> s95 [label="PSK_SERVER_HELLO_EPOCH_1 / TIMEOUT"];
	s95 -> s95 [label="SERVER_HELLO_DONE / TIMEOUT"];
	s95 -> s94 [label="CHANGE_CIPHER_SPEC / TIMEOUT"];
	s95 -> s95 [label="FINISHED / TIMEOUT"];
	s95 -> s96 [label="FINISHED_EPOCH_0 / TIMEOUT"];
	s95 -> s3 [label="APPLICATION_EPOCH_0 / Alert(FATAL,UNEXPECTED_MESSAGE)"];
	s95 -> s95 [label="APPLICATION / TIMEOUT"];
	s95 -> s95 [label="Alert(WARNING,CLOSE_NOTIFY) / TIMEOUT"];
	s95 -> s95 [label="Alert(FATAL,UNEXPECTED_MESSAGE) / TIMEOUT"];
	s96 -> s97 [label="HELLO_VERIFY_REQUEST / TIMEOUT"];
	s96 -> s97 [label="PSK_SERVER_HELLO / TIMEOUT"];
	s96 -> s97 [label="PSK_SERVER_HELLO_EPOCH_1 / TIMEOUT"];
	s96 -> s97 [label="SERVER_HELLO_DONE / TIMEOUT"];
	s96 -> s96 [label="CHANGE_CIPHER_SPEC / TIMEOUT"];
	s96 -> s97 [label="FINISHED / TIMEOUT"];
	s96 -> s96 [label="FINISHED_EPOCH_0 / TIMEOUT"];
	s96 -> s96 [label="APPLICATION_EPOCH_0 / TIMEOUT"];
	s96 -> s97 [label="APPLICATION / TIMEOUT"];
	s96 -> s97 [label="Alert(WARNING,CLOSE_NOTIFY) / TIMEOUT"];
	s96 -> s97 [label="Alert(FATAL,UNEXPECTED_MESSAGE) / TIMEOUT"];
	s97 -> s98 [label="HELLO_VERIFY_REQUEST / TIMEOUT"];
	s97 -> s98 [label="PSK_SERVER_HELLO / TIMEOUT"];
	s97 -> s98 [label="PSK_SERVER_HELLO_EPOCH_1 / TIMEOUT"];
	s97 -> s98 [label="SERVER_HELLO_DONE / TIMEOUT"];
	s97 -> s96 [label="CHANGE_CIPHER_SPEC / TIMEOUT"];
	s97 -> s98 [label="FINISHED / TIMEOUT"];
	s97 -> s96 [label="FINISHED_EPOCH_0 / TIMEOUT"];
	s97 -> s96 [label="APPLICATION_EPOCH_0 / TIMEOUT"];
	s97 -> s98 [label="APPLICATION / TIMEOUT"];
	s97 -> s98 [label="Alert(WARNING,CLOSE_NOTIFY) / TIMEOUT"];
	s97 -> s98 [label="Alert(FATAL,UNEXPECTED_MESSAGE) / TIMEOUT"];
	s98 -> s105 [label="HELLO_VERIFY_REQUEST / TIMEOUT"];
	s98 -> s105 [label="PSK_SERVER_HELLO / TIMEOUT"];
	s98 -> s105 [label="PSK_SERVER_HELLO_EPOCH_1 / TIMEOUT"];
	s98 -> s105 [label="SERVER_HELLO_DONE / TIMEOUT"];
	s98 -> s96 [label="CHANGE_CIPHER_SPEC / TIMEOUT"];
	s98 -> s105 [label="FINISHED / TIMEOUT"];
	s98 -> s14 [label="FINISHED_EPOCH_0 / TIMEOUT"];
	s98 -> s3 [label="APPLICATION_EPOCH_0 / Alert(FATAL,UNEXPECTED_MESSAGE)"];
	s98 -> s105 [label="APPLICATION / TIMEOUT"];
	s98 -> s105 [label="Alert(WARNING,CLOSE_NOTIFY) / TIMEOUT"];
	s98 -> s105 [label="Alert(FATAL,UNEXPECTED_MESSAGE) / TIMEOUT"];
	s99 -> s100 [label="HELLO_VERIFY_REQUEST / TIMEOUT"];
	s99 -> s100 [label="PSK_SERVER_HELLO / TIMEOUT"];
	s99 -> s100 [label="PSK_SERVER_HELLO_EPOCH_1 / TIMEOUT"];
	s99 -> s100 [label="SERVER_HELLO_DONE / TIMEOUT"];
	s99 -> s16 [label="CHANGE_CIPHER_SPEC / TIMEOUT"];
	s99 -> s100 [label="FINISHED / TIMEOUT"];
	s99 -> s16 [label="FINISHED_EPOCH_0 / TIMEOUT"];
	s99 -> s16 [label="APPLICATION_EPOCH_0 / TIMEOUT"];
	s99 -> s100 [label="APPLICATION / TIMEOUT"];
	s99 -> s100 [label="Alert(WARNING,CLOSE_NOTIFY) / TIMEOUT"];
	s99 -> s100 [label="Alert(FATAL,UNEXPECTED_MESSAGE) / TIMEOUT"];
	s100 -> s126 [label="HELLO_VERIFY_REQUEST / TIMEOUT"];
	s100 -> s126 [label="PSK_SERVER_HELLO / TIMEOUT"];
	s100 -> s126 [label="PSK_SERVER_HELLO_EPOCH_1 / TIMEOUT"];
	s100 -> s126 [label="SERVER_HELLO_DONE / TIMEOUT"];
	s100 -> s16 [label="CHANGE_CIPHER_SPEC / TIMEOUT"];
	s100 -> s126 [label="FINISHED / TIMEOUT"];
	s100 -> s106 [label="FINISHED_EPOCH_0 / TIMEOUT"];
	s100 -> s3 [label="APPLICATION_EPOCH_0 / Alert(FATAL,UNEXPECTED_MESSAGE)"];
	s100 -> s126 [label="APPLICATION / TIMEOUT"];
	s100 -> s126 [label="Alert(WARNING,CLOSE_NOTIFY) / TIMEOUT"];
	s100 -> s126 [label="Alert(FATAL,UNEXPECTED_MESSAGE) / TIMEOUT"];
	s101 -> s101 [label="HELLO_VERIFY_REQUEST / TIMEOUT"];
	s101 -> s101 [label="PSK_SERVER_HELLO / TIMEOUT"];
	s101 -> s90 [label="PSK_SERVER_HELLO_EPOCH_1 / TIMEOUT"];
	s101 -> s101 [label="SERVER_HELLO_DONE / TIMEOUT"];
	s101 -> s34 [label="CHANGE_CIPHER_SPEC / TIMEOUT"];
	s101 -> s101 [label="FINISHED / TIMEOUT"];
	s101 -> s101 [label="FINISHED_EPOCH_0 / TIMEOUT"];
	s101 -> s3 [label="APPLICATION_EPOCH_0 / Alert(FATAL,UNEXPECTED_MESSAGE)"];
	s101 -> s3 [label="APPLICATION / Alert(FATAL,UNEXPECTED_MESSAGE)"];
	s101 -> s3 [label="Alert(WARNING,CLOSE_NOTIFY) / TIMEOUT"];
	s101 -> s3 [label="Alert(FATAL,UNEXPECTED_MESSAGE) / TIMEOUT"];
	s102 -> s102 [label="HELLO_VERIFY_REQUEST / TIMEOUT"];
	s102 -> s102 [label="PSK_SERVER_HELLO / TIMEOUT"];
	s102 -> s74 [label="PSK_SERVER_HELLO_EPOCH_1 / TIMEOUT"];
	s102 -> s102 [label="SERVER_HELLO_DONE / TIMEOUT"];
	s102 -> s85 [label="CHANGE_CIPHER_SPEC / TIMEOUT"];
	s102 -> s102 [label="FINISHED / TIMEOUT"];
	s102 -> s102 [label="FINISHED_EPOCH_0 / TIMEOUT"];
	s102 -> s3 [label="APPLICATION_EPOCH_0 / Alert(FATAL,UNEXPECTED_MESSAGE)"];
	s102 -> s3 [label="APPLICATION / Alert(FATAL,UNEXPECTED_MESSAGE)"];
	s102 -> s3 [label="Alert(WARNING,CLOSE_NOTIFY) / TIMEOUT"];
	s102 -> s3 [label="Alert(FATAL,UNEXPECTED_MESSAGE) / TIMEOUT"];
	s103 -> s104 [label="HELLO_VERIFY_REQUEST / TIMEOUT"];
	s103 -> s104 [label="PSK_SERVER_HELLO / TIMEOUT"];
	s103 -> s104 [label="PSK_SERVER_HELLO_EPOCH_1 / TIMEOUT"];
	s103 -> s104 [label="SERVER_HELLO_DONE / TIMEOUT"];
	s103 -> s85 [label="CHANGE_CIPHER_SPEC / TIMEOUT"];
	s103 -> s104 [label="FINISHED / TIMEOUT"];
	s103 -> s60 [label="FINISHED_EPOCH_0 / TIMEOUT"];
	s103 -> s3 [label="APPLICATION_EPOCH_0 / Alert(FATAL,UNEXPECTED_MESSAGE)"];
	s103 -> s104 [label="APPLICATION / TIMEOUT"];
	s103 -> s104 [label="Alert(WARNING,CLOSE_NOTIFY) / TIMEOUT"];
	s103 -> s104 [label="Alert(FATAL,UNEXPECTED_MESSAGE) / TIMEOUT"];
	s104 -> s129 [label="HELLO_VERIFY_REQUEST / TIMEOUT"];
	s104 -> s129 [label="PSK_SERVER_HELLO / TIMEOUT"];
	s104 -> s129 [label="PSK_SERVER_HELLO_EPOCH_1 / TIMEOUT"];
	s104 -> s129 [label="SERVER_HELLO_DONE / TIMEOUT"];
	s104 -> s85 [label="CHANGE_CIPHER_SPEC / TIMEOUT"];
	s104 -> s129 [label="FINISHED / TIMEOUT"];
	s104 -> s85 [label="FINISHED_EPOCH_0 / TIMEOUT"];
	s104 -> s85 [label="APPLICATION_EPOCH_0 / TIMEOUT"];
	s104 -> s129 [label="APPLICATION / TIMEOUT"];
	s104 -> s129 [label="Alert(WARNING,CLOSE_NOTIFY) / TIMEOUT"];
	s104 -> s129 [label="Alert(FATAL,UNEXPECTED_MESSAGE) / TIMEOUT"];
	s105 -> s113 [label="HELLO_VERIFY_REQUEST / TIMEOUT"];
	s105 -> s113 [label="PSK_SERVER_HELLO / TIMEOUT"];
	s105 -> s113 [label="PSK_SERVER_HELLO_EPOCH_1 / TIMEOUT"];
	s105 -> s113 [label="SERVER_HELLO_DONE / TIMEOUT"];
	s105 -> s96 [label="CHANGE_CIPHER_SPEC / TIMEOUT"];
	s105 -> s113 [label="FINISHED / TIMEOUT"];
	s105 -> s106 [label="FINISHED_EPOCH_0 / TIMEOUT"];
	s105 -> s3 [label="APPLICATION_EPOCH_0 / Alert(FATAL,UNEXPECTED_MESSAGE)"];
	s105 -> s113 [label="APPLICATION / TIMEOUT"];
	s105 -> s113 [label="Alert(WARNING,CLOSE_NOTIFY) / TIMEOUT"];
	s105 -> s113 [label="Alert(FATAL,UNEXPECTED_MESSAGE) / TIMEOUT"];
	s106 -> s107 [label="HELLO_VERIFY_REQUEST / TIMEOUT"];
	s106 -> s107 [label="PSK_SERVER_HELLO / TIMEOUT"];
	s106 -> s107 [label="PSK_SERVER_HELLO_EPOCH_1 / TIMEOUT"];
	s106 -> s107 [label="SERVER_HELLO_DONE / TIMEOUT"];
	s106 -> s106 [label="CHANGE_CIPHER_SPEC / TIMEOUT"];
	s106 -> s107 [label="FINISHED / TIMEOUT"];
	s106 -> s106 [label="FINISHED_EPOCH_0 / TIMEOUT"];
	s106 -> s106 [label="APPLICATION_EPOCH_0 / TIMEOUT"];
	s106 -> s107 [label="APPLICATION / TIMEOUT"];
	s106 -> s107 [label="Alert(WARNING,CLOSE_NOTIFY) / TIMEOUT"];
	s106 -> s107 [label="Alert(FATAL,UNEXPECTED_MESSAGE) / TIMEOUT"];
	s107 -> s110 [label="HELLO_VERIFY_REQUEST / TIMEOUT"];
	s107 -> s110 [label="PSK_SERVER_HELLO / TIMEOUT"];
	s107 -> s110 [label="PSK_SERVER_HELLO_EPOCH_1 / TIMEOUT"];
	s107 -> s110 [label="SERVER_HELLO_DONE / TIMEOUT"];
	s107 -> s106 [label="CHANGE_CIPHER_SPEC / TIMEOUT"];
	s107 -> s110 [label="FINISHED / TIMEOUT"];
	s107 -> s106 [label="FINISHED_EPOCH_0 / TIMEOUT"];
	s107 -> s106 [label="APPLICATION_EPOCH_0 / TIMEOUT"];
	s107 -> s110 [label="APPLICATION / TIMEOUT"];
	s107 -> s110 [label="Alert(WARNING,CLOSE_NOTIFY) / TIMEOUT"];
	s107 -> s110 [label="Alert(FATAL,UNEXPECTED_MESSAGE) / TIMEOUT"];
	s108 -> s109 [label="HELLO_VERIFY_REQUEST / TIMEOUT"];
	s108 -> s109 [label="PSK_SERVER_HELLO / TIMEOUT"];
	s108 -> s109 [label="PSK_SERVER_HELLO_EPOCH_1 / TIMEOUT"];
	s108 -> s109 [label="SERVER_HELLO_DONE / TIMEOUT"];
	s108 -> s108 [label="CHANGE_CIPHER_SPEC / TIMEOUT"];
	s108 -> s109 [label="FINISHED / TIMEOUT"];
	s108 -> s16 [label="FINISHED_EPOCH_0 / TIMEOUT"];
	s108 -> s3 [label="APPLICATION_EPOCH_0 / Alert(FATAL,UNEXPECTED_MESSAGE)"];
	s108 -> s109 [label="APPLICATION / TIMEOUT"];
	s108 -> s109 [label="Alert(WARNING,CLOSE_NOTIFY) / TIMEOUT"];
	s108 -> s109 [label="Alert(FATAL,UNEXPECTED_MESSAGE) / TIMEOUT"];
	s109 -> s123 [label="HELLO_VERIFY_REQUEST / TIMEOUT"];
	s109 -> s123 [label="PSK_SERVER_HELLO / TIMEOUT"];
	s109 -> s123 [label="PSK_SERVER_HELLO_EPOCH_1 / TIMEOUT"];
	s109 -> s123 [label="SERVER_HELLO_DONE / TIMEOUT"];
	s109 -> s108 [label="CHANGE_CIPHER_SPEC / TIMEOUT"];
	s109 -> s123 [label="FINISHED / TIMEOUT"];
	s109 -> s108 [label="FINISHED_EPOCH_0 / TIMEOUT"];
	s109 -> s108 [label="APPLICATION_EPOCH_0 / TIMEOUT"];
	s109 -> s123 [label="APPLICATION / TIMEOUT"];
	s109 -> s123 [label="Alert(WARNING,CLOSE_NOTIFY) / TIMEOUT"];
	s109 -> s123 [label="Alert(FATAL,UNEXPECTED_MESSAGE) / TIMEOUT"];
	s110 -> s111 [label="HELLO_VERIFY_REQUEST / TIMEOUT"];
	s110 -> s111 [label="PSK_SERVER_HELLO / TIMEOUT"];
	s110 -> s111 [label="PSK_SERVER_HELLO_EPOCH_1 / TIMEOUT"];
	s110 -> s111 [label="SERVER_HELLO_DONE / TIMEOUT"];
	s110 -> s106 [label="CHANGE_CIPHER_SPEC / TIMEOUT"];
	s110 -> s111 [label="FINISHED / TIMEOUT"];
	s110 -> s77 [label="FINISHED_EPOCH_0 / TIMEOUT"];
	s110 -> s3 [label="APPLICATION_EPOCH_0 / Alert(FATAL,UNEXPECTED_MESSAGE)"];
	s110 -> s111 [label="APPLICATION / TIMEOUT"];
	s110 -> s111 [label="Alert(WARNING,CLOSE_NOTIFY) / TIMEOUT"];
	s110 -> s111 [label="Alert(FATAL,UNEXPECTED_MESSAGE) / TIMEOUT"];
	s111 -> s99 [label="HELLO_VERIFY_REQUEST / TIMEOUT"];
	s111 -> s99 [label="PSK_SERVER_HELLO / TIMEOUT"];
	s111 -> s99 [label="PSK_SERVER_HELLO_EPOCH_1 / TIMEOUT"];
	s111 -> s99 [label="SERVER_HELLO_DONE / TIMEOUT"];
	s111 -> s106 [label="CHANGE_CIPHER_SPEC / TIMEOUT"];
	s111 -> s99 [label="FINISHED / TIMEOUT"];
	s111 -> s106 [label="FINISHED_EPOCH_0 / TIMEOUT"];
	s111 -> s106 [label="APPLICATION_EPOCH_0 / TIMEOUT"];
	s111 -> s99 [label="APPLICATION / TIMEOUT"];
	s111 -> s99 [label="Alert(WARNING,CLOSE_NOTIFY) / TIMEOUT"];
	s111 -> s99 [label="Alert(FATAL,UNEXPECTED_MESSAGE) / TIMEOUT"];
	s112 -> s112 [label="HELLO_VERIFY_REQUEST / TIMEOUT"];
	s112 -> s112 [label="PSK_SERVER_HELLO / TIMEOUT"];
	s112 -> s58 [label="PSK_SERVER_HELLO_EPOCH_1 / TIMEOUT"];
	s112 -> s112 [label="SERVER_HELLO_DONE / TIMEOUT"];
	s112 -> s45 [label="CHANGE_CIPHER_SPEC / TIMEOUT"];
	s112 -> s112 [label="FINISHED / TIMEOUT"];
	s112 -> s112 [label="FINISHED_EPOCH_0 / TIMEOUT"];
	s112 -> s3 [label="APPLICATION_EPOCH_0 / Alert(FATAL,UNEXPECTED_MESSAGE)"];
	s112 -> s3 [label="APPLICATION / Alert(FATAL,UNEXPECTED_MESSAGE)"];
	s112 -> s3 [label="Alert(WARNING,CLOSE_NOTIFY) / TIMEOUT"];
	s112 -> s3 [label="Alert(FATAL,UNEXPECTED_MESSAGE) / TIMEOUT"];
	s113 -> s114 [label="HELLO_VERIFY_REQUEST / TIMEOUT"];
	s113 -> s114 [label="PSK_SERVER_HELLO / TIMEOUT"];
	s113 -> s114 [label="PSK_SERVER_HELLO_EPOCH_1 / TIMEOUT"];
	s113 -> s114 [label="SERVER_HELLO_DONE / TIMEOUT"];
	s113 -> s96 [label="CHANGE_CIPHER_SPEC / TIMEOUT"];
	s113 -> s114 [label="FINISHED / TIMEOUT"];
	s113 -> s96 [label="FINISHED_EPOCH_0 / TIMEOUT"];
	s113 -> s96 [label="APPLICATION_EPOCH_0 / TIMEOUT"];
	s113 -> s114 [label="APPLICATION / TIMEOUT"];
	s113 -> s114 [label="Alert(WARNING,CLOSE_NOTIFY) / TIMEOUT"];
	s113 -> s114 [label="Alert(FATAL,UNEXPECTED_MESSAGE) / TIMEOUT"];
	s114 -> s114 [label="HELLO_VERIFY_REQUEST / TIMEOUT"];
	s114 -> s114 [label="PSK_SERVER_HELLO / TIMEOUT"];
	s114 -> s114 [label="PSK_SERVER_HELLO_EPOCH_1 / TIMEOUT"];
	s114 -> s114 [label="SERVER_HELLO_DONE / TIMEOUT"];
	s114 -> s96 [label="CHANGE_CIPHER_SPEC / TIMEOUT"];
	s114 -> s114 [label="FINISHED / TIMEOUT"];
	s114 -> s96 [label="FINISHED_EPOCH_0 / TIMEOUT"];
	s114 -> s3 [label="APPLICATION_EPOCH_0 / Alert(FATAL,UNEXPECTED_MESSAGE)"];
	s114 -> s114 [label="APPLICATION / TIMEOUT"];
	s114 -> s114 [label="Alert(WARNING,CLOSE_NOTIFY) / TIMEOUT"];
	s114 -> s114 [label="Alert(FATAL,UNEXPECTED_MESSAGE) / TIMEOUT"];
	s115 -> s116 [label="HELLO_VERIFY_REQUEST / TIMEOUT"];
	s115 -> s116 [label="PSK_SERVER_HELLO / TIMEOUT"];
	s115 -> s116 [label="PSK_SERVER_HELLO_EPOCH_1 / TIMEOUT"];
	s115 -> s116 [label="SERVER_HELLO_DONE / TIMEOUT"];
	s115 -> s77 [label="CHANGE_CIPHER_SPEC / TIMEOUT"];
	s115 -> s116 [label="FINISHED / TIMEOUT"];
	s115 -> s77 [label="FINISHED_EPOCH_0 / TIMEOUT"];
	s115 -> s77 [label="APPLICATION_EPOCH_0 / TIMEOUT"];
	s115 -> s116 [label="APPLICATION / TIMEOUT"];
	s115 -> s116 [label="Alert(WARNING,CLOSE_NOTIFY) / TIMEOUT"];
	s115 -> s116 [label="Alert(FATAL,UNEXPECTED_MESSAGE) / TIMEOUT"];
	s116 -> s117 [label="HELLO_VERIFY_REQUEST / TIMEOUT"];
	s116 -> s117 [label="PSK_SERVER_HELLO / TIMEOUT"];
	s116 -> s117 [label="PSK_SERVER_HELLO_EPOCH_1 / TIMEOUT"];
	s116 -> s117 [label="SERVER_HELLO_DONE / TIMEOUT"];
	s116 -> s77 [label="CHANGE_CIPHER_SPEC / TIMEOUT"];
	s116 -> s117 [label="FINISHED / TIMEOUT"];
	s116 -> s77 [label="FINISHED_EPOCH_0 / TIMEOUT"];
	s116 -> s77 [label="APPLICATION_EPOCH_0 / TIMEOUT"];
	s116 -> s117 [label="APPLICATION / TIMEOUT"];
	s116 -> s117 [label="Alert(WARNING,CLOSE_NOTIFY) / TIMEOUT"];
	s116 -> s117 [label="Alert(FATAL,UNEXPECTED_MESSAGE) / TIMEOUT"];
	s117 -> s121 [label="HELLO_VERIFY_REQUEST / TIMEOUT"];
	s117 -> s121 [label="PSK_SERVER_HELLO / TIMEOUT"];
	s117 -> s121 [label="PSK_SERVER_HELLO_EPOCH_1 / TIMEOUT"];
	s117 -> s121 [label="SERVER_HELLO_DONE / TIMEOUT"];
	s117 -> s77 [label="CHANGE_CIPHER_SPEC / TIMEOUT"];
	s117 -> s121 [label="FINISHED / TIMEOUT"];
	s117 -> s3 [label="FINISHED_EPOCH_0 / TIMEOUT"];
	s117 -> s3 [label="APPLICATION_EPOCH_0 / Alert(FATAL,UNEXPECTED_MESSAGE)"];
	s117 -> s121 [label="APPLICATION / TIMEOUT"];
	s117 -> s121 [label="Alert(WARNING,CLOSE_NOTIFY) / TIMEOUT"];
	s117 -> s121 [label="Alert(FATAL,UNEXPECTED_MESSAGE) / TIMEOUT"];
	s118 -> s118 [label="HELLO_VERIFY_REQUEST / TIMEOUT"];
	s118 -> s118 [label="PSK_SERVER_HELLO / TIMEOUT"];
	s118 -> s90 [label="PSK_SERVER_HELLO_EPOCH_1 / TIMEOUT"];
	s118 -> s118 [label="SERVER_HELLO_DONE / TIMEOUT"];
	s118 -> s119 [label="CHANGE_CIPHER_SPEC / TIMEOUT"];
	s118 -> s118 [label="FINISHED / TIMEOUT"];
	s118 -> s118 [label="FINISHED_EPOCH_0 / TIMEOUT"];
	s118 -> s3 [label="APPLICATION_EPOCH_0 / Alert(FATAL,UNEXPECTED_MESSAGE)"];
	s118 -> s3 [label="APPLICATION / Alert(FATAL,UNEXPECTED_MESSAGE)"];
	s118 -> s3 [label="Alert(WARNING,CLOSE_NOTIFY) / TIMEOUT"];
	s118 -> s3 [label="Alert(FATAL,UNEXPECTED_MESSAGE) / TIMEOUT"];
	s119 -> s120 [label="HELLO_VERIFY_REQUEST / TIMEOUT"];
	s119 -> s120 [label="PSK_SERVER_HELLO / TIMEOUT"];
	s119 -> s120 [label="PSK_SERVER_HELLO_EPOCH_1 / TIMEOUT"];
	s119 -> s120 [label="SERVER_HELLO_DONE / TIMEOUT"];
	s119 -> s119 [label="CHANGE_CIPHER_SPEC / TIMEOUT"];
	s119 -> s120 [label="FINISHED / TIMEOUT"];
	s119 -> s119 [label="FINISHED_EPOCH_0 / TIMEOUT"];
	s119 -> s119 [label="APPLICATION_EPOCH_0 / TIMEOUT"];
	s119 -> s120 [label="APPLICATION / TIMEOUT"];
	s119 -> s120 [label="Alert(WARNING,CLOSE_NOTIFY) / TIMEOUT"];
	s119 -> s120 [label="Alert(FATAL,UNEXPECTED_MESSAGE) / TIMEOUT"];
	s120 -> s122 [label="HELLO_VERIFY_REQUEST / TIMEOUT"];
	s120 -> s122 [label="PSK_SERVER_HELLO / TIMEOUT"];
	s120 -> s122 [label="PSK_SERVER_HELLO_EPOCH_1 / TIMEOUT"];
	s120 -> s122 [label="SERVER_HELLO_DONE / TIMEOUT"];
	s120 -> s119 [label="CHANGE_CIPHER_SPEC / TIMEOUT"];
	s120 -> s122 [label="FINISHED / TIMEOUT"];
	s120 -> s16 [label="FINISHED_EPOCH_0 / TIMEOUT"];
	s120 -> s3 [label="APPLICATION_EPOCH_0 / Alert(FATAL,UNEXPECTED_MESSAGE)"];
	s120 -> s122 [label="APPLICATION / TIMEOUT"];
	s120 -> s122 [label="Alert(WARNING,CLOSE_NOTIFY) / TIMEOUT"];
	s120 -> s122 [label="Alert(FATAL,UNEXPECTED_MESSAGE) / TIMEOUT"];
	s121 -> s121 [label="HELLO_VERIFY_REQUEST / TIMEOUT"];
	s121 -> s121 [label="PSK_SERVER_HELLO / TIMEOUT"];
	s121 -> s121 [label="PSK_SERVER_HELLO_EPOCH_1 / TIMEOUT"];
	s121 -> s121 [label="SERVER_HELLO_DONE / TIMEOUT"];
	s121 -> s77 [label="CHANGE_CIPHER_SPEC / TIMEOUT"];
	s121 -> s121 [label="FINISHED / TIMEOUT"];
	s121 -> s77 [label="FINISHED_EPOCH_0 / TIMEOUT"];
	s121 -> s3 [label="APPLICATION_EPOCH_0 / Alert(FATAL,UNEXPECTED_MESSAGE)"];
	s121 -> s121 [label="APPLICATION / TIMEOUT"];
	s121 -> s121 [label="Alert(WARNING,CLOSE_NOTIFY) / TIMEOUT"];
	s121 -> s121 [label="Alert(FATAL,UNEXPECTED_MESSAGE) / TIMEOUT"];
	s122 -> s132 [label="HELLO_VERIFY_REQUEST / TIMEOUT"];
	s122 -> s132 [label="PSK_SERVER_HELLO / TIMEOUT"];
	s122 -> s132 [label="PSK_SERVER_HELLO_EPOCH_1 / TIMEOUT"];
	s122 -> s132 [label="SERVER_HELLO_DONE / TIMEOUT"];
	s122 -> s119 [label="CHANGE_CIPHER_SPEC / TIMEOUT"];
	s122 -> s132 [label="FINISHED / TIMEOUT"];
	s122 -> s34 [label="FINISHED_EPOCH_0 / TIMEOUT"];
	s122 -> s3 [label="APPLICATION_EPOCH_0 / Alert(FATAL,UNEXPECTED_MESSAGE)"];
	s122 -> s132 [label="APPLICATION / TIMEOUT"];
	s122 -> s132 [label="Alert(WARNING,CLOSE_NOTIFY) / TIMEOUT"];
	s122 -> s132 [label="Alert(FATAL,UNEXPECTED_MESSAGE) / TIMEOUT"];
	s123 -> s18 [label="HELLO_VERIFY_REQUEST / TIMEOUT"];
	s123 -> s18 [label="PSK_SERVER_HELLO / TIMEOUT"];
	s123 -> s18 [label="PSK_SERVER_HELLO_EPOCH_1 / TIMEOUT"];
	s123 -> s18 [label="SERVER_HELLO_DONE / TIMEOUT"];
	s123 -> s108 [label="CHANGE_CIPHER_SPEC / TIMEOUT"];
	s123 -> s18 [label="FINISHED / TIMEOUT"];
	s123 -> s41 [label="FINISHED_EPOCH_0 / TIMEOUT"];
	s123 -> s3 [label="APPLICATION_EPOCH_0 / Alert(FATAL,UNEXPECTED_MESSAGE)"];
	s123 -> s18 [label="APPLICATION / TIMEOUT"];
	s123 -> s18 [label="Alert(WARNING,CLOSE_NOTIFY) / TIMEOUT"];
	s123 -> s18 [label="Alert(FATAL,UNEXPECTED_MESSAGE) / TIMEOUT"];
	s124 -> s134 [label="HELLO_VERIFY_REQUEST / TIMEOUT"];
	s124 -> s134 [label="PSK_SERVER_HELLO / TIMEOUT"];
	s124 -> s134 [label="PSK_SERVER_HELLO_EPOCH_1 / TIMEOUT"];
	s124 -> s134 [label="SERVER_HELLO_DONE / TIMEOUT"];
	s124 -> s125 [label="CHANGE_CIPHER_SPEC / TIMEOUT"];
	s124 -> s134 [label="FINISHED / TIMEOUT"];
	s124 -> s134 [label="FINISHED_EPOCH_0 / TIMEOUT"];
	s124 -> s3 [label="APPLICATION_EPOCH_0 / Alert(FATAL,UNEXPECTED_MESSAGE)"];
	s124 -> s3 [label="APPLICATION / Alert(FATAL,UNEXPECTED_MESSAGE)"];
	s124 -> s3 [label="Alert(WARNING,CLOSE_NOTIFY) / TIMEOUT"];
	s124 -> s3 [label="Alert(FATAL,UNEXPECTED_MESSAGE) / TIMEOUT"];
	s125 -> s128 [label="HELLO_VERIFY_REQUEST / TIMEOUT"];
	s125 -> s128 [label="PSK_SERVER_HELLO / TIMEOUT"];
	s125 -> s128 [label="PSK_SERVER_HELLO_EPOCH_1 / TIMEOUT"];
	s125 -> s128 [label="SERVER_HELLO_DONE / TIMEOUT"];
	s125 -> s125 [label="CHANGE_CIPHER_SPEC / TIMEOUT"];
	s125 -> s128 [label="FINISHED / TIMEOUT"];
	s125 -> s3 [label="FINISHED_EPOCH_0 / TIMEOUT"];
	s125 -> s3 [label="APPLICATION_EPOCH_0 / Alert(FATAL,UNEXPECTED_MESSAGE)"];
	s125 -> s128 [label="APPLICATION / TIMEOUT"];
	s125 -> s128 [label="Alert(WARNING,CLOSE_NOTIFY) / TIMEOUT"];
	s125 -> s128 [label="Alert(FATAL,UNEXPECTED_MESSAGE) / TIMEOUT"];
	s126 -> s126 [label="HELLO_VERIFY_REQUEST / TIMEOUT"];
	s126 -> s126 [label="PSK_SERVER_HELLO / TIMEOUT"];
	s126 -> s126 [label="PSK_SERVER_HELLO_EPOCH_1 / TIMEOUT"];
	s126 -> s126 [label="SERVER_HELLO_DONE / TIMEOUT"];
	s126 -> s16 [label="CHANGE_CIPHER_SPEC / TIMEOUT"];
	s126 -> s126 [label="FINISHED / TIMEOUT"];
	s126 -> s16 [label="FINISHED_EPOCH_0 / TIMEOUT"];
	s126 -> s3 [label="APPLICATION_EPOCH_0 / Alert(FATAL,UNEXPECTED_MESSAGE)"];
	s126 -> s126 [label="APPLICATION / TIMEOUT"];
	s126 -> s126 [label="Alert(WARNING,CLOSE_NOTIFY) / TIMEOUT"];
	s126 -> s126 [label="Alert(FATAL,UNEXPECTED_MESSAGE) / TIMEOUT"];
	s127 -> s127 [label="HELLO_VERIFY_REQUEST / TIMEOUT"];
	s127 -> s127 [label="PSK_SERVER_HELLO / TIMEOUT"];
	s127 -> s127 [label="PSK_SERVER_HELLO_EPOCH_1 / TIMEOUT"];
	s127 -> s127 [label="SERVER_HELLO_DONE / TIMEOUT"];
	s127 -> s9 [label="CHANGE_CIPHER_SPEC / TIMEOUT"];
	s127 -> s127 [label="FINISHED / TIMEOUT"];
	s127 -> s9 [label="FINISHED_EPOCH_0 / TIMEOUT"];
	s127 -> s3 [label="APPLICATION_EPOCH_0 / Alert(FATAL,UNEXPECTED_MESSAGE)"];
	s127 -> s127 [label="APPLICATION / TIMEOUT"];
	s127 -> s127 [label="Alert(WARNING,CLOSE_NOTIFY) / TIMEOUT"];
	s127 -> s127 [label="Alert(FATAL,UNEXPECTED_MESSAGE) / TIMEOUT"];
	s128 -> s61 [label="HELLO_VERIFY_REQUEST / TIMEOUT"];
	s128 -> s61 [label="PSK_SERVER_HELLO / TIMEOUT"];
	s128 -> s61 [label="PSK_SERVER_HELLO_EPOCH_1 / TIMEOUT"];
	s128 -> s61 [label="SERVER_HELLO_DONE / TIMEOUT"];
	s128 -> s125 [label="CHANGE_CIPHER_SPEC / TIMEOUT"];
	s128 -> s61 [label="FINISHED / TIMEOUT"];
	s128 -> s125 [label="FINISHED_EPOCH_0 / TIMEOUT"];
	s128 -> s125 [label="APPLICATION_EPOCH_0 / TIMEOUT"];
	s128 -> s61 [label="APPLICATION / TIMEOUT"];
	s128 -> s61 [label="Alert(WARNING,CLOSE_NOTIFY) / TIMEOUT"];
	s128 -> s61 [label="Alert(FATAL,UNEXPECTED_MESSAGE) / TIMEOUT"];
	s129 -> s130 [label="HELLO_VERIFY_REQUEST / TIMEOUT"];
	s129 -> s130 [label="PSK_SERVER_HELLO / TIMEOUT"];
	s129 -> s130 [label="PSK_SERVER_HELLO_EPOCH_1 / TIMEOUT"];
	s129 -> s130 [label="SERVER_HELLO_DONE / TIMEOUT"];
	s129 -> s85 [label="CHANGE_CIPHER_SPEC / TIMEOUT"];
	s129 -> s130 [label="FINISHED / TIMEOUT"];
	s129 -> s85 [label="FINISHED_EPOCH_0 / TIMEOUT"];
	s129 -> s85 [label="APPLICATION_EPOCH_0 / TIMEOUT"];
	s129 -> s130 [label="APPLICATION / TIMEOUT"];
	s129 -> s130 [label="Alert(WARNING,CLOSE_NOTIFY) / TIMEOUT"];
	s129 -> s130 [label="Alert(FATAL,UNEXPECTED_MESSAGE) / TIMEOUT"];
	s130 -> s131 [label="HELLO_VERIFY_REQUEST / TIMEOUT"];
	s130 -> s131 [label="PSK_SERVER_HELLO / TIMEOUT"];
	s130 -> s131 [label="PSK_SERVER_HELLO_EPOCH_1 / TIMEOUT"];
	s130 -> s131 [label="SERVER_HELLO_DONE / TIMEOUT"];
	s130 -> s85 [label="CHANGE_CIPHER_SPEC / TIMEOUT"];
	s130 -> s131 [label="FINISHED / TIMEOUT"];
	s130 -> s85 [label="FINISHED_EPOCH_0 / TIMEOUT"];
	s130 -> s85 [label="APPLICATION_EPOCH_0 / TIMEOUT"];
	s130 -> s131 [label="APPLICATION / TIMEOUT"];
	s130 -> s131 [label="Alert(WARNING,CLOSE_NOTIFY) / TIMEOUT"];
	s130 -> s131 [label="Alert(FATAL,UNEXPECTED_MESSAGE) / TIMEOUT"];
	s131 -> s131 [label="HELLO_VERIFY_REQUEST / TIMEOUT"];
	s131 -> s131 [label="PSK_SERVER_HELLO / TIMEOUT"];
	s131 -> s131 [label="PSK_SERVER_HELLO_EPOCH_1 / TIMEOUT"];
	s131 -> s131 [label="SERVER_HELLO_DONE / TIMEOUT"];
	s131 -> s85 [label="CHANGE_CIPHER_SPEC / TIMEOUT"];
	s131 -> s131 [label="FINISHED / TIMEOUT"];
	s131 -> s85 [label="FINISHED_EPOCH_0 / TIMEOUT"];
	s131 -> s3 [label="APPLICATION_EPOCH_0 / Alert(FATAL,UNEXPECTED_MESSAGE)"];
	s131 -> s131 [label="APPLICATION / TIMEOUT"];
	s131 -> s131 [label="Alert(WARNING,CLOSE_NOTIFY) / TIMEOUT"];
	s131 -> s131 [label="Alert(FATAL,UNEXPECTED_MESSAGE) / TIMEOUT"];
	s132 -> s68 [label="HELLO_VERIFY_REQUEST / TIMEOUT"];
	s132 -> s68 [label="PSK_SERVER_HELLO / TIMEOUT"];
	s132 -> s68 [label="PSK_SERVER_HELLO_EPOCH_1 / TIMEOUT"];
	s132 -> s68 [label="SERVER_HELLO_DONE / TIMEOUT"];
	s132 -> s119 [label="CHANGE_CIPHER_SPEC / TIMEOUT"];
	s132 -> s68 [label="FINISHED / TIMEOUT"];
	s132 -> s119 [label="FINISHED_EPOCH_0 / TIMEOUT"];
	s132 -> s119 [label="APPLICATION_EPOCH_0 / TIMEOUT"];
	s132 -> s68 [label="APPLICATION / TIMEOUT"];
	s132 -> s68 [label="Alert(WARNING,CLOSE_NOTIFY) / TIMEOUT"];
	s132 -> s68 [label="Alert(FATAL,UNEXPECTED_MESSAGE) / TIMEOUT"];
	s133 -> s133 [label="HELLO_VERIFY_REQUEST / TIMEOUT"];
	s133 -> s133 [label="PSK_SERVER_HELLO / TIMEOUT"];
	s133 -> s133 [label="PSK_SERVER_HELLO_EPOCH_1 / TIMEOUT"];
	s133 -> s133 [label="SERVER_HELLO_DONE / TIMEOUT"];
	s133 -> s22 [label="CHANGE_CIPHER_SPEC / TIMEOUT"];
	s133 -> s133 [label="FINISHED / TIMEOUT"];
	s133 -> s22 [label="FINISHED_EPOCH_0 / TIMEOUT"];
	s133 -> s3 [label="APPLICATION_EPOCH_0 / Alert(FATAL,UNEXPECTED_MESSAGE)"];
	s133 -> s133 [label="APPLICATION / TIMEOUT"];
	s133 -> s133 [label="Alert(WARNING,CLOSE_NOTIFY) / TIMEOUT"];
	s133 -> s133 [label="Alert(FATAL,UNEXPECTED_MESSAGE) / TIMEOUT"];
	s134 -> s134 [label="HELLO_VERIFY_REQUEST / TIMEOUT"];
	s134 -> s134 [label="PSK_SERVER_HELLO / TIMEOUT"];
	s134 -> s124 [label="PSK_SERVER_HELLO_EPOCH_1 / TIMEOUT"];
	s134 -> s134 [label="SERVER_HELLO_DONE / TIMEOUT"];
	s134 -> s135 [label="CHANGE_CIPHER_SPEC / TIMEOUT"];
	s134 -> s134 [label="FINISHED / TIMEOUT"];
	s134 -> s134 [label="FINISHED_EPOCH_0 / TIMEOUT"];
	s134 -> s3 [label="APPLICATION_EPOCH_0 / Alert(FATAL,UNEXPECTED_MESSAGE)"];
	s134 -> s3 [label="APPLICATION / Alert(FATAL,UNEXPECTED_MESSAGE)"];
	s134 -> s3 [label="Alert(WARNING,CLOSE_NOTIFY) / TIMEOUT"];
	s134 -> s3 [label="Alert(FATAL,UNEXPECTED_MESSAGE) / TIMEOUT"];
	s135 -> s3 [label="HELLO_VERIFY_REQUEST / TIMEOUT"];
	s135 -> s3 [label="PSK_SERVER_HELLO / TIMEOUT"];
	s135 -> s3 [label="PSK_SERVER_HELLO_EPOCH_1 / TIMEOUT"];
	s135 -> s3 [label="SERVER_HELLO_DONE / TIMEOUT"];
	s135 -> s135 [label="CHANGE_CIPHER_SPEC / TIMEOUT"];
	s135 -> s3 [label="FINISHED / TIMEOUT"];
	s135 -> s3 [label="FINISHED_EPOCH_0 / TIMEOUT"];
	s135 -> s3 [label="APPLICATION_EPOCH_0 / Alert(FATAL,UNEXPECTED_MESSAGE)"];
	s135 -> s3 [label="APPLICATION / TIMEOUT"];
	s135 -> s3 [label="Alert(WARNING,CLOSE_NOTIFY) / TIMEOUT"];
	s135 -> s3 [label="Alert(FATAL,UNEXPECTED_MESSAGE) / TIMEOUT"];
	s136 -> s137 [label="HELLO_VERIFY_REQUEST / TIMEOUT"];
	s136 -> s137 [label="PSK_SERVER_HELLO / TIMEOUT"];
	s136 -> s137 [label="PSK_SERVER_HELLO_EPOCH_1 / TIMEOUT"];
	s136 -> s137 [label="SERVER_HELLO_DONE / TIMEOUT"];
	s136 -> s29 [label="CHANGE_CIPHER_SPEC / TIMEOUT"];
	s136 -> s137 [label="FINISHED / TIMEOUT"];
	s136 -> s29 [label="FINISHED_EPOCH_0 / TIMEOUT"];
	s136 -> s3 [label="APPLICATION_EPOCH_0 / Alert(FATAL,UNEXPECTED_MESSAGE)"];
	s136 -> s137 [label="APPLICATION / TIMEOUT"];
	s136 -> s137 [label="Alert(WARNING,CLOSE_NOTIFY) / TIMEOUT"];
	s136 -> s137 [label="Alert(FATAL,UNEXPECTED_MESSAGE) / TIMEOUT"];
	s137 -> s35 [label="HELLO_VERIFY_REQUEST / TIMEOUT"];
	s137 -> s35 [label="PSK_SERVER_HELLO / TIMEOUT"];
	s137 -> s35 [label="PSK_SERVER_HELLO_EPOCH_1 / TIMEOUT"];
	s137 -> s35 [label="SERVER_HELLO_DONE / TIMEOUT"];
	s137 -> s29 [label="CHANGE_CIPHER_SPEC / TIMEOUT"];
	s137 -> s35 [label="FINISHED / TIMEOUT"];
	s137 -> s138 [label="FINISHED_EPOCH_0 / TIMEOUT"];
	s137 -> s3 [label="APPLICATION_EPOCH_0 / Alert(FATAL,UNEXPECTED_MESSAGE)"];
	s137 -> s35 [label="APPLICATION / TIMEOUT"];
	s137 -> s35 [label="Alert(WARNING,CLOSE_NOTIFY) / TIMEOUT"];
	s137 -> s35 [label="Alert(FATAL,UNEXPECTED_MESSAGE) / TIMEOUT"];
	s138 -> s139 [label="HELLO_VERIFY_REQUEST / TIMEOUT"];
	s138 -> s139 [label="PSK_SERVER_HELLO / TIMEOUT"];
	s138 -> s139 [label="PSK_SERVER_HELLO_EPOCH_1 / TIMEOUT"];
	s138 -> s139 [label="SERVER_HELLO_DONE / TIMEOUT"];
	s138 -> s138 [label="CHANGE_CIPHER_SPEC / TIMEOUT"];
	s138 -> s139 [label="FINISHED / TIMEOUT"];
	s138 -> s138 [label="FINISHED_EPOCH_0 / TIMEOUT"];
	s138 -> s138 [label="APPLICATION_EPOCH_0 / TIMEOUT"];
	s138 -> s139 [label="APPLICATION / TIMEOUT"];
	s138 -> s139 [label="Alert(WARNING,CLOSE_NOTIFY) / TIMEOUT"];
	s138 -> s139 [label="Alert(FATAL,UNEXPECTED_MESSAGE) / TIMEOUT"];
	s139 -> s140 [label="HELLO_VERIFY_REQUEST / TIMEOUT"];
	s139 -> s140 [label="PSK_SERVER_HELLO / TIMEOUT"];
	s139 -> s140 [label="PSK_SERVER_HELLO_EPOCH_1 / TIMEOUT"];
	s139 -> s140 [label="SERVER_HELLO_DONE / TIMEOUT"];
	s139 -> s138 [label="CHANGE_CIPHER_SPEC / TIMEOUT"];
	s139 -> s140 [label="FINISHED / TIMEOUT"];
	s139 -> s14 [label="FINISHED_EPOCH_0 / TIMEOUT"];
	s139 -> s3 [label="APPLICATION_EPOCH_0 / Alert(FATAL,UNEXPECTED_MESSAGE)"];
	s139 -> s140 [label="APPLICATION / TIMEOUT"];
	s139 -> s140 [label="Alert(WARNING,CLOSE_NOTIFY) / TIMEOUT"];
	s139 -> s140 [label="Alert(FATAL,UNEXPECTED_MESSAGE) / TIMEOUT"];
	s140 -> s141 [label="HELLO_VERIFY_REQUEST / TIMEOUT"];
	s140 -> s141 [label="PSK_SERVER_HELLO / TIMEOUT"];
	s140 -> s141 [label="PSK_SERVER_HELLO_EPOCH_1 / TIMEOUT"];
	s140 -> s141 [label="SERVER_HELLO_DONE / TIMEOUT"];
	s140 -> s138 [label="CHANGE_CIPHER_SPEC / TIMEOUT"];
	s140 -> s141 [label="FINISHED / TIMEOUT"];
	s140 -> s138 [label="FINISHED_EPOCH_0 / TIMEOUT"];
	s140 -> s138 [label="APPLICATION_EPOCH_0 / TIMEOUT"];
	s140 -> s141 [label="APPLICATION / TIMEOUT"];
	s140 -> s141 [label="Alert(WARNING,CLOSE_NOTIFY) / TIMEOUT"];
	s140 -> s141 [label="Alert(FATAL,UNEXPECTED_MESSAGE) / TIMEOUT"];
	s141 -> s142 [label="HELLO_VERIFY_REQUEST / TIMEOUT"];
	s141 -> s142 [label="PSK_SERVER_HELLO / TIMEOUT"];
	s141 -> s142 [label="PSK_SERVER_HELLO_EPOCH_1 / TIMEOUT"];
	s141 -> s142 [label="SERVER_HELLO_DONE / TIMEOUT"];
	s141 -> s138 [label="CHANGE_CIPHER_SPEC / TIMEOUT"];
	s141 -> s142 [label="FINISHED / TIMEOUT"];
	s141 -> s143 [label="FINISHED_EPOCH_0 / TIMEOUT"];
	s141 -> s3 [label="APPLICATION_EPOCH_0 / Alert(FATAL,UNEXPECTED_MESSAGE)"];
	s141 -> s142 [label="APPLICATION / TIMEOUT"];
	s141 -> s142 [label="Alert(WARNING,CLOSE_NOTIFY) / TIMEOUT"];
	s141 -> s142 [label="Alert(FATAL,UNEXPECTED_MESSAGE) / TIMEOUT"];
	s142 -> s122 [label="HELLO_VERIFY_REQUEST / TIMEOUT"];
	s142 -> s122 [label="PSK_SERVER_HELLO / TIMEOUT"];
	s142 -> s122 [label="PSK_SERVER_HELLO_EPOCH_1 / TIMEOUT"];
	s142 -> s122 [label="SERVER_HELLO_DONE / TIMEOUT"];
	s142 -> s138 [label="CHANGE_CIPHER_SPEC / TIMEOUT"];
	s142 -> s122 [label="FINISHED / TIMEOUT"];
	s142 -> s138 [label="FINISHED_EPOCH_0 / TIMEOUT"];
	s142 -> s3 [label="APPLICATION_EPOCH_0 / Alert(FATAL,UNEXPECTED_MESSAGE)"];
	s142 -> s122 [label="APPLICATION / TIMEOUT"];
	s142 -> s122 [label="Alert(WARNING,CLOSE_NOTIFY) / TIMEOUT"];
	s142 -> s122 [label="Alert(FATAL,UNEXPECTED_MESSAGE) / TIMEOUT"];
	s143 -> s144 [label="HELLO_VERIFY_REQUEST / TIMEOUT"];
	s143 -> s144 [label="PSK_SERVER_HELLO / TIMEOUT"];
	s143 -> s144 [label="PSK_SERVER_HELLO_EPOCH_1 / TIMEOUT"];
	s143 -> s144 [label="SERVER_HELLO_DONE / TIMEOUT"];
	s143 -> s143 [label="CHANGE_CIPHER_SPEC / TIMEOUT"];
	s143 -> s144 [label="FINISHED / TIMEOUT"];
	s143 -> s143 [label="FINISHED_EPOCH_0 / TIMEOUT"];
	s143 -> s143 [label="APPLICATION_EPOCH_0 / TIMEOUT"];
	s143 -> s144 [label="APPLICATION / TIMEOUT"];
	s143 -> s144 [label="Alert(WARNING,CLOSE_NOTIFY) / TIMEOUT"];
	s143 -> s144 [label="Alert(FATAL,UNEXPECTED_MESSAGE) / TIMEOUT"];
	s144 -> s145 [label="HELLO_VERIFY_REQUEST / TIMEOUT"];
	s144 -> s145 [label="PSK_SERVER_HELLO / TIMEOUT"];
	s144 -> s145 [label="PSK_SERVER_HELLO_EPOCH_1 / TIMEOUT"];
	s144 -> s145 [label="SERVER_HELLO_DONE / TIMEOUT"];
	s144 -> s143 [label="CHANGE_CIPHER_SPEC / TIMEOUT"];
	s144 -> s145 [label="FINISHED / TIMEOUT"];
	s144 -> s30 [label="FINISHED_EPOCH_0 / TIMEOUT"];
	s144 -> s3 [label="APPLICATION_EPOCH_0 / Alert(FATAL,UNEXPECTED_MESSAGE)"];
	s144 -> s145 [label="APPLICATION / TIMEOUT"];
	s144 -> s145 [label="Alert(WARNING,CLOSE_NOTIFY) / TIMEOUT"];
	s144 -> s145 [label="Alert(FATAL,UNEXPECTED_MESSAGE) / TIMEOUT"];
	s145 -> s146 [label="HELLO_VERIFY_REQUEST / TIMEOUT"];
	s145 -> s146 [label="PSK_SERVER_HELLO / TIMEOUT"];
	s145 -> s146 [label="PSK_SERVER_HELLO_EPOCH_1 / TIMEOUT"];
	s145 -> s146 [label="SERVER_HELLO_DONE / TIMEOUT"];
	s145 -> s143 [label="CHANGE_CIPHER_SPEC / TIMEOUT"];
	s145 -> s146 [label="FINISHED / TIMEOUT"];
	s145 -> s143 [label="FINISHED_EPOCH_0 / TIMEOUT"];
	s145 -> s143 [label="APPLICATION_EPOCH_0 / TIMEOUT"];
	s145 -> s146 [label="APPLICATION / TIMEOUT"];
	s145 -> s146 [label="Alert(WARNING,CLOSE_NOTIFY) / TIMEOUT"];
	s145 -> s146 [label="Alert(FATAL,UNEXPECTED_MESSAGE) / TIMEOUT"];
	s146 -> s147 [label="HELLO_VERIFY_REQUEST / TIMEOUT"];
	s146 -> s147 [label="PSK_SERVER_HELLO / TIMEOUT"];
	s146 -> s147 [label="PSK_SERVER_HELLO_EPOCH_1 / TIMEOUT"];
	s146 -> s147 [label="SERVER_HELLO_DONE / TIMEOUT"];
	s146 -> s143 [label="CHANGE_CIPHER_SPEC / TIMEOUT"];
	s146 -> s147 [label="FINISHED / TIMEOUT"];
	s146 -> s143 [label="FINISHED_EPOCH_0 / TIMEOUT"];
	s146 -> s143 [label="APPLICATION_EPOCH_0 / TIMEOUT"];
	s146 -> s147 [label="APPLICATION / TIMEOUT"];
	s146 -> s147 [label="Alert(WARNING,CLOSE_NOTIFY) / TIMEOUT"];
	s146 -> s147 [label="Alert(FATAL,UNEXPECTED_MESSAGE) / TIMEOUT"];
	s147 -> s122 [label="HELLO_VERIFY_REQUEST / TIMEOUT"];
	s147 -> s122 [label="PSK_SERVER_HELLO / TIMEOUT"];
	s147 -> s122 [label="PSK_SERVER_HELLO_EPOCH_1 / TIMEOUT"];
	s147 -> s122 [label="SERVER_HELLO_DONE / TIMEOUT"];
	s147 -> s143 [label="CHANGE_CIPHER_SPEC / TIMEOUT"];
	s147 -> s122 [label="FINISHED / TIMEOUT"];
	s147 -> s143 [label="FINISHED_EPOCH_0 / TIMEOUT"];
	s147 -> s3 [label="APPLICATION_EPOCH_0 / Alert(FATAL,UNEXPECTED_MESSAGE)"];
	s147 -> s122 [label="APPLICATION / TIMEOUT"];
	s147 -> s122 [label="Alert(WARNING,CLOSE_NOTIFY) / TIMEOUT"];
	s147 -> s122 [label="Alert(FATAL,UNEXPECTED_MESSAGE) / TIMEOUT"];
	s148 -> s44 [label="HELLO_VERIFY_REQUEST / TIMEOUT"];
	s148 -> s44 [label="PSK_SERVER_HELLO / TIMEOUT"];
	s148 -> s44 [label="PSK_SERVER_HELLO_EPOCH_1 / TIMEOUT"];
	s148 -> s44 [label="SERVER_HELLO_DONE / TIMEOUT"];
	s148 -> s45 [label="CHANGE_CIPHER_SPEC / TIMEOUT"];
	s148 -> s44 [label="FINISHED / TIMEOUT"];
	s148 -> s45 [label="FINISHED_EPOCH_0 / TIMEOUT"];
	s148 -> s45 [label="APPLICATION_EPOCH_0 / TIMEOUT"];
	s148 -> s44 [label="APPLICATION / TIMEOUT"];
	s148 -> s44 [label="Alert(WARNING,CLOSE_NOTIFY) / TIMEOUT"];
	s148 -> s44 [label="Alert(FATAL,UNEXPECTED_MESSAGE) / TIMEOUT"];

__start0 [label="" shape="none" width="0" height="0"];
__start0 -> s0;

}
