digraph g {

	s0 [shape="circle" label="s0"];
	s1 [shape="circle" label="s1"];
	s2 [shape="circle" label="s2"];
	s3 [shape="circle" label="s3"];
	s4 [shape="circle" label="s4"];
	s5 [shape="circle" label="s5"];
	s6 [shape="circle" label="s6"];
	s7 [shape="circle" label="s7"];
	s8 [shape="circle" label="s8"];
	s9 [shape="circle" label="s9"];
	s10 [shape="circle" label="s10"];
	s11 [shape="circle" label="s11"];
	s12 [shape="circle" label="s12"];
	s13 [shape="circle" label="s13"];
	s14 [shape="circle" label="s14"];
	s15 [shape="circle" label="s15"];
	s16 [shape="circle" label="s16"];
	s17 [shape="circle" label="s17"];
	s18 [shape="circle" label="s18"];
	s19 [shape="circle" label="s19"];
	s20 [shape="circle" label="s20"];
	s21 [shape="circle" label="s21"];
	s22 [shape="circle" label="s22"];
	s23 [shape="circle" label="s23"];
	s24 [shape="circle" label="s24"];
	s25 [shape="circle" label="s25"];
	s26 [shape="circle" label="s26"];
	s27 [shape="circle" label="s27"];
	s28 [shape="circle" label="s28"];
	s29 [shape="circle" label="s29"];
	s30 [shape="circle" label="s30"];
	s31 [shape="circle" label="s31"];
	s32 [shape="circle" label="s32"];
	s33 [shape="circle" label="s33"];
	s34 [shape="circle" label="s34"];
	s35 [shape="circle" label="s35"];
	s36 [shape="circle" label="s36"];
	s37 [shape="circle" label="s37"];
	s38 [shape="circle" label="s38"];
	s39 [shape="circle" label="s39"];
	s40 [shape="circle" label="s40"];
	s41 [shape="circle" label="s41"];
	s42 [shape="circle" label="s42"];
	s43 [shape="circle" label="s43"];
	s44 [shape="circle" label="s44"];
	s45 [shape="circle" label="s45"];
	s46 [shape="circle" label="s46"];
	s47 [shape="circle" label="s47"];
	s48 [shape="circle" label="s48"];
	s49 [shape="circle" label="s49"];
	s50 [shape="circle" label="s50"];
	s51 [shape="circle" label="s51"];
	s52 [shape="circle" label="s52"];
	s53 [shape="circle" label="s53"];
	s54 [shape="circle" label="s54"];
	s55 [shape="circle" label="s55"];
	s56 [shape="circle" label="s56"];
	s57 [shape="circle" label="s57"];
	s58 [shape="circle" label="s58"];
	s59 [shape="circle" label="s59"];
	s60 [shape="circle" label="s60"];
	s61 [shape="circle" label="s61"];
	s62 [shape="circle" label="s62"];
	s63 [shape="circle" label="s63"];
	s64 [shape="circle" label="s64"];
	s65 [shape="circle" label="s65"];
	s66 [shape="circle" label="s66"];
	s67 [shape="circle" label="s67"];
	s68 [shape="circle" label="s68"];
	s69 [shape="circle" label="s69"];
	s70 [shape="circle" label="s70"];
	s71 [shape="circle" label="s71"];
	s72 [shape="circle" label="s72"];
	s73 [shape="circle" label="s73"];
	s74 [shape="circle" label="s74"];
	s75 [shape="circle" label="s75"];
	s76 [shape="circle" label="s76"];
	s77 [shape="circle" label="s77"];
	s78 [shape="circle" label="s78"];
	s79 [shape="circle" label="s79"];
	s80 [shape="circle" label="s80"];
	s81 [shape="circle" label="s81"];
	s82 [shape="circle" label="s82"];
	s83 [shape="circle" label="s83"];
	s84 [shape="circle" label="s84"];
	s85 [shape="circle" label="s85"];
	s86 [shape="circle" label="s86"];
	s87 [shape="circle" label="s87"];
	s88 [shape="circle" label="s88"];
	s89 [shape="circle" label="s89"];
	s90 [shape="circle" label="s90"];
	s91 [shape="circle" label="s91"];
	s92 [shape="circle" label="s92"];
	s93 [shape="circle" label="s93"];
	s94 [shape="circle" label="s94"];
	s95 [shape="circle" label="s95"];
	s96 [shape="circle" label="s96"];
	s97 [shape="circle" label="s97"];
	s98 [shape="circle" label="s98"];
	s99 [shape="circle" label="s99"];
	s100 [shape="circle" label="s100"];
	s101 [shape="circle" label="s101"];
	s102 [shape="circle" label="s102"];
	s103 [shape="circle" label="s103"];
	s104 [shape="circle" label="s104"];
	s105 [shape="circle" label="s105"];
	s106 [shape="circle" label="s106"];
	s107 [shape="circle" label="s107"];
	s108 [shape="circle" label="s108"];
	s109 [shape="circle" label="s109"];
	s110 [shape="circle" label="s110"];
	s111 [shape="circle" label="s111"];
	s112 [shape="circle" label="s112"];
	s113 [shape="circle" label="s113"];
	s114 [shape="circle" label="s114"];
	s115 [shape="circle" label="s115"];
	s116 [shape="circle" label="s116"];
	s117 [shape="circle" label="s117"];
	s118 [shape="circle" label="s118"];
	s119 [shape="circle" label="s119"];
	s120 [shape="circle" label="s120"];
	s121 [shape="circle" label="s121"];
	s122 [shape="circle" label="s122"];
	s123 [shape="circle" label="s123"];
	s124 [shape="circle" label="s124"];
	s125 [shape="circle" label="s125"];
	s126 [shape="circle" label="s126"];
	s127 [shape="circle" label="s127"];
	s128 [shape="circle" label="s128"];
	s129 [shape="circle" label="s129"];
	s130 [shape="circle" label="s130"];
	s131 [shape="circle" label="s131"];
	s132 [shape="circle" label="s132"];
	s133 [shape="circle" label="s133"];
	s134 [shape="circle" label="s134"];
	s135 [shape="circle" label="s135"];
	s136 [shape="circle" label="s136"];
	s137 [shape="circle" label="s137"];
	s138 [shape="circle" label="s138"];
	s139 [shape="circle" label="s139"];
	s140 [shape="circle" label="s140"];
	s141 [shape="circle" label="s141"];
	s142 [shape="circle" label="s142"];
	s143 [shape="circle" label="s143"];
	s144 [shape="circle" label="s144"];
	s145 [shape="circle" label="s145"];
	s146 [shape="circle" label="s146"];
	s147 [shape="circle" label="s147"];
	s148 [shape="circle" label="s148"];
	s149 [shape="circle" label="s149"];
	s150 [shape="circle" label="s150"];
	s151 [shape="circle" label="s151"];
	s152 [shape="circle" label="s152"];
	s153 [shape="circle" label="s153"];
	s154 [shape="circle" label="s154"];
	s155 [shape="circle" label="s155"];
	s156 [shape="circle" label="s156"];
	s157 [shape="circle" label="s157"];
	s158 [shape="circle" label="s158"];
	s159 [shape="circle" label="s159"];
	s160 [shape="circle" label="s160"];
	s0 -> s4 [label="HELLO_VERIFY_REQUEST / CLIENT_HELLO+"];
	s0 -> s2 [label="PSK_SERVER_HELLO / CLIENT_HELLO"];
	s0 -> s1 [label="SERVER_HELLO_DONE / CLIENT_HELLO|Alert(FATAL,UNEXPECTED_MESSAGE)"];
	s0 -> s1 [label="CHANGE_CIPHER_SPEC / CLIENT_HELLO"];
	s0 -> s1 [label="FINISHED / CLIENT_HELLO|Alert(FATAL,INTERNAL_ERROR)"];
	s0 -> s9 [label="HELLO_REQUEST / CLIENT_HELLO"];
	s0 -> s1 [label="APPLICATION / CLIENT_HELLO|Alert(FATAL,UNEXPECTED_MESSAGE)"];
	s0 -> s1 [label="Alert(WARNING,CLOSE_NOTIFY) / CLIENT_HELLO"];
	s0 -> s1 [label="Alert(FATAL,UNEXPECTED_MESSAGE) / CLIENT_HELLO"];
	s1 -> s1 [label="HELLO_VERIFY_REQUEST / TIMEOUT"];
	s1 -> s1 [label="PSK_SERVER_HELLO / TIMEOUT"];
	s1 -> s1 [label="SERVER_HELLO_DONE / TIMEOUT"];
	s1 -> s1 [label="CHANGE_CIPHER_SPEC / TIMEOUT"];
	s1 -> s1 [label="FINISHED / TIMEOUT"];
	s1 -> s1 [label="HELLO_REQUEST / TIMEOUT"];
	s1 -> s1 [label="APPLICATION / TIMEOUT"];
	s1 -> s1 [label="Alert(WARNING,CLOSE_NOTIFY) / TIMEOUT"];
	s1 -> s1 [label="Alert(FATAL,UNEXPECTED_MESSAGE) / TIMEOUT"];
	s2 -> s93 [label="HELLO_VERIFY_REQUEST / CLIENT_HELLO"];
	s2 -> s1 [label="PSK_SERVER_HELLO / Alert(FATAL,UNEXPECTED_MESSAGE)"];
	s2 -> s3 [label="SERVER_HELLO_DONE / PSK_CLIENT_KEY_EXCHANGE|CHANGE_CIPHER_SPEC|FINISHED"];
	s2 -> s1 [label="CHANGE_CIPHER_SPEC / TIMEOUT"];
	s2 -> s1 [label="FINISHED / Alert(FATAL,INTERNAL_ERROR)"];
	s2 -> s1 [label="HELLO_REQUEST / TIMEOUT"];
	s2 -> s1 [label="APPLICATION / Alert(FATAL,UNEXPECTED_MESSAGE)"];
	s2 -> s1 [label="Alert(WARNING,CLOSE_NOTIFY) / TIMEOUT"];
	s2 -> s1 [label="Alert(FATAL,UNEXPECTED_MESSAGE) / TIMEOUT"];
	s3 -> s1 [label="HELLO_VERIFY_REQUEST / Alert(FATAL,UNEXPECTED_MESSAGE)"];
	s3 -> s1 [label="PSK_SERVER_HELLO / Alert(FATAL,UNEXPECTED_MESSAGE)"];
	s3 -> s1 [label="SERVER_HELLO_DONE / Alert(FATAL,UNEXPECTED_MESSAGE)"];
	s3 -> s5 [label="CHANGE_CIPHER_SPEC / TIMEOUT"];
	s3 -> s1 [label="FINISHED / Alert(FATAL,UNEXPECTED_MESSAGE)"];
	s3 -> s1 [label="HELLO_REQUEST / TIMEOUT"];
	s3 -> s1 [label="APPLICATION / Alert(FATAL,UNEXPECTED_MESSAGE)"];
	s3 -> s1 [label="Alert(WARNING,CLOSE_NOTIFY) / TIMEOUT"];
	s3 -> s1 [label="Alert(FATAL,UNEXPECTED_MESSAGE) / TIMEOUT"];
	s4 -> s93 [label="HELLO_VERIFY_REQUEST / CLIENT_HELLO"];
	s4 -> s14 [label="PSK_SERVER_HELLO / TIMEOUT"];
	s4 -> s1 [label="SERVER_HELLO_DONE / Alert(FATAL,UNEXPECTED_MESSAGE)"];
	s4 -> s1 [label="CHANGE_CIPHER_SPEC / TIMEOUT"];
	s4 -> s1 [label="FINISHED / Alert(FATAL,INTERNAL_ERROR)"];
	s4 -> s1 [label="HELLO_REQUEST / TIMEOUT"];
	s4 -> s1 [label="APPLICATION / Alert(FATAL,UNEXPECTED_MESSAGE)"];
	s4 -> s1 [label="Alert(WARNING,CLOSE_NOTIFY) / TIMEOUT"];
	s4 -> s1 [label="Alert(FATAL,UNEXPECTED_MESSAGE) / TIMEOUT"];
	s5 -> s1 [label="HELLO_VERIFY_REQUEST / Alert(FATAL,UNEXPECTED_MESSAGE)"];
	s5 -> s1 [label="PSK_SERVER_HELLO / Alert(FATAL,UNEXPECTED_MESSAGE)"];
	s5 -> s1 [label="SERVER_HELLO_DONE / Alert(FATAL,UNEXPECTED_MESSAGE)"];
	s5 -> s1 [label="CHANGE_CIPHER_SPEC / TIMEOUT"];
	s5 -> s10 [label="FINISHED / TIMEOUT"];
	s5 -> s1 [label="HELLO_REQUEST / TIMEOUT"];
	s5 -> s6 [label="APPLICATION / TIMEOUT"];
	s5 -> s7 [label="Alert(WARNING,CLOSE_NOTIFY) / TIMEOUT"];
	s5 -> s67 [label="Alert(FATAL,UNEXPECTED_MESSAGE) / TIMEOUT"];
	s6 -> s1 [label="HELLO_VERIFY_REQUEST / Alert(FATAL,UNEXPECTED_MESSAGE)"];
	s6 -> s1 [label="PSK_SERVER_HELLO / Alert(FATAL,UNEXPECTED_MESSAGE)"];
	s6 -> s1 [label="SERVER_HELLO_DONE / Alert(FATAL,UNEXPECTED_MESSAGE)"];
	s6 -> s1 [label="CHANGE_CIPHER_SPEC / TIMEOUT"];
	s6 -> s10 [label="FINISHED / APPLICATION"];
	s6 -> s1 [label="HELLO_REQUEST / TIMEOUT"];
	s6 -> s6 [label="APPLICATION / TIMEOUT"];
	s6 -> s8 [label="Alert(WARNING,CLOSE_NOTIFY) / TIMEOUT"];
	s6 -> s66 [label="Alert(FATAL,UNEXPECTED_MESSAGE) / TIMEOUT"];
	s7 -> s1 [label="HELLO_VERIFY_REQUEST / Alert(FATAL,UNEXPECTED_MESSAGE)"];
	s7 -> s1 [label="PSK_SERVER_HELLO / Alert(FATAL,UNEXPECTED_MESSAGE)"];
	s7 -> s1 [label="SERVER_HELLO_DONE / Alert(FATAL,UNEXPECTED_MESSAGE)"];
	s7 -> s1 [label="CHANGE_CIPHER_SPEC / TIMEOUT"];
	s7 -> s1 [label="FINISHED / Alert(WARNING,CLOSE_NOTIFY)"];
	s7 -> s1 [label="HELLO_REQUEST / TIMEOUT"];
	s7 -> s7 [label="APPLICATION / TIMEOUT"];
	s7 -> s7 [label="Alert(WARNING,CLOSE_NOTIFY) / TIMEOUT"];
	s7 -> s7 [label="Alert(FATAL,UNEXPECTED_MESSAGE) / TIMEOUT"];
	s8 -> s1 [label="HELLO_VERIFY_REQUEST / Alert(FATAL,UNEXPECTED_MESSAGE)"];
	s8 -> s1 [label="PSK_SERVER_HELLO / Alert(FATAL,UNEXPECTED_MESSAGE)"];
	s8 -> s1 [label="SERVER_HELLO_DONE / Alert(FATAL,UNEXPECTED_MESSAGE)"];
	s8 -> s1 [label="CHANGE_CIPHER_SPEC / TIMEOUT"];
	s8 -> s1 [label="FINISHED / APPLICATION|Alert(WARNING,CLOSE_NOTIFY)"];
	s8 -> s1 [label="HELLO_REQUEST / TIMEOUT"];
	s8 -> s8 [label="APPLICATION / TIMEOUT"];
	s8 -> s8 [label="Alert(WARNING,CLOSE_NOTIFY) / TIMEOUT"];
	s8 -> s8 [label="Alert(FATAL,UNEXPECTED_MESSAGE) / TIMEOUT"];
	s9 -> s9 [label="HELLO_VERIFY_REQUEST / TIMEOUT"];
	s9 -> s9 [label="PSK_SERVER_HELLO / TIMEOUT"];
	s9 -> s9 [label="SERVER_HELLO_DONE / TIMEOUT"];
	s9 -> s1 [label="CHANGE_CIPHER_SPEC / TIMEOUT"];
	s9 -> s9 [label="FINISHED / TIMEOUT"];
	s9 -> s1 [label="HELLO_REQUEST / TIMEOUT"];
	s9 -> s1 [label="APPLICATION / Alert(FATAL,UNEXPECTED_MESSAGE)"];
	s9 -> s1 [label="Alert(WARNING,CLOSE_NOTIFY) / TIMEOUT"];
	s9 -> s1 [label="Alert(FATAL,UNEXPECTED_MESSAGE) / TIMEOUT"];
	s10 -> s23 [label="HELLO_VERIFY_REQUEST / TIMEOUT"];
	s10 -> s12 [label="PSK_SERVER_HELLO / TIMEOUT"];
	s10 -> s26 [label="SERVER_HELLO_DONE / TIMEOUT"];
	s10 -> s1 [label="CHANGE_CIPHER_SPEC / TIMEOUT"];
	s10 -> s18 [label="FINISHED / TIMEOUT"];
	s10 -> s11 [label="HELLO_REQUEST / CLIENT_HELLO"];
	s10 -> s10 [label="APPLICATION / APPLICATION"];
	s10 -> s1 [label="Alert(WARNING,CLOSE_NOTIFY) / Alert(WARNING,CLOSE_NOTIFY)"];
	s10 -> s1 [label="Alert(FATAL,UNEXPECTED_MESSAGE) / TIMEOUT"];
	s11 -> s116 [label="HELLO_VERIFY_REQUEST / CLIENT_HELLO"];
	s11 -> s147 [label="PSK_SERVER_HELLO / TIMEOUT"];
	s11 -> s1 [label="SERVER_HELLO_DONE / Alert(FATAL,UNEXPECTED_MESSAGE)"];
	s11 -> s1 [label="CHANGE_CIPHER_SPEC / TIMEOUT"];
	s11 -> s1 [label="FINISHED / Alert(FATAL,INTERNAL_ERROR)"];
	s11 -> s1 [label="HELLO_REQUEST / TIMEOUT"];
	s11 -> s13 [label="APPLICATION / TIMEOUT"];
	s11 -> s1 [label="Alert(WARNING,CLOSE_NOTIFY) / TIMEOUT"];
	s11 -> s1 [label="Alert(FATAL,UNEXPECTED_MESSAGE) / TIMEOUT"];
	s12 -> s23 [label="HELLO_VERIFY_REQUEST / TIMEOUT"];
	s12 -> s26 [label="PSK_SERVER_HELLO / TIMEOUT"];
	s12 -> s25 [label="SERVER_HELLO_DONE / TIMEOUT"];
	s12 -> s1 [label="CHANGE_CIPHER_SPEC / TIMEOUT"];
	s12 -> s89 [label="FINISHED / TIMEOUT"];
	s12 -> s90 [label="HELLO_REQUEST / CLIENT_HELLO"];
	s12 -> s1 [label="APPLICATION / Alert(FATAL,UNEXPECTED_MESSAGE)"];
	s12 -> s1 [label="Alert(WARNING,CLOSE_NOTIFY) / TIMEOUT"];
	s12 -> s1 [label="Alert(FATAL,UNEXPECTED_MESSAGE) / TIMEOUT"];
	s13 -> s13 [label="HELLO_VERIFY_REQUEST / CLIENT_HELLO"];
	s13 -> s69 [label="PSK_SERVER_HELLO / TIMEOUT"];
	s13 -> s1 [label="SERVER_HELLO_DONE / Alert(FATAL,UNEXPECTED_MESSAGE)"];
	s13 -> s1 [label="CHANGE_CIPHER_SPEC / TIMEOUT"];
	s13 -> s1 [label="FINISHED / Alert(FATAL,INTERNAL_ERROR)"];
	s13 -> s1 [label="HELLO_REQUEST / TIMEOUT"];
	s13 -> s1 [label="APPLICATION / TIMEOUT"];
	s13 -> s1 [label="Alert(WARNING,CLOSE_NOTIFY) / TIMEOUT"];
	s13 -> s1 [label="Alert(FATAL,UNEXPECTED_MESSAGE) / TIMEOUT"];
	s14 -> s120 [label="HELLO_VERIFY_REQUEST / CLIENT_HELLO"];
	s14 -> s1 [label="PSK_SERVER_HELLO / Alert(FATAL,UNEXPECTED_MESSAGE)"];
	s14 -> s15 [label="SERVER_HELLO_DONE / PSK_CLIENT_KEY_EXCHANGE|CHANGE_CIPHER_SPEC|FINISHED"];
	s14 -> s1 [label="CHANGE_CIPHER_SPEC / TIMEOUT"];
	s14 -> s1 [label="FINISHED / Alert(FATAL,INTERNAL_ERROR)"];
	s14 -> s1 [label="HELLO_REQUEST / TIMEOUT"];
	s14 -> s1 [label="APPLICATION / Alert(FATAL,UNEXPECTED_MESSAGE)"];
	s14 -> s1 [label="Alert(WARNING,CLOSE_NOTIFY) / TIMEOUT"];
	s14 -> s1 [label="Alert(FATAL,UNEXPECTED_MESSAGE) / TIMEOUT"];
	s15 -> s1 [label="HELLO_VERIFY_REQUEST / Alert(FATAL,UNEXPECTED_MESSAGE)"];
	s15 -> s1 [label="PSK_SERVER_HELLO / Alert(FATAL,UNEXPECTED_MESSAGE)"];
	s15 -> s1 [label="SERVER_HELLO_DONE / Alert(FATAL,UNEXPECTED_MESSAGE)"];
	s15 -> s16 [label="CHANGE_CIPHER_SPEC / TIMEOUT"];
	s15 -> s1 [label="FINISHED / Alert(FATAL,UNEXPECTED_MESSAGE)"];
	s15 -> s1 [label="HELLO_REQUEST / TIMEOUT"];
	s15 -> s1 [label="APPLICATION / Alert(FATAL,UNEXPECTED_MESSAGE)"];
	s15 -> s1 [label="Alert(WARNING,CLOSE_NOTIFY) / TIMEOUT"];
	s15 -> s1 [label="Alert(FATAL,UNEXPECTED_MESSAGE) / TIMEOUT"];
	s16 -> s1 [label="HELLO_VERIFY_REQUEST / Alert(FATAL,UNEXPECTED_MESSAGE)"];
	s16 -> s1 [label="PSK_SERVER_HELLO / Alert(FATAL,UNEXPECTED_MESSAGE)"];
	s16 -> s1 [label="SERVER_HELLO_DONE / Alert(FATAL,UNEXPECTED_MESSAGE)"];
	s16 -> s1 [label="CHANGE_CIPHER_SPEC / TIMEOUT"];
	s16 -> s18 [label="FINISHED / TIMEOUT"];
	s16 -> s1 [label="HELLO_REQUEST / TIMEOUT"];
	s16 -> s17 [label="APPLICATION / TIMEOUT"];
	s16 -> s7 [label="Alert(WARNING,CLOSE_NOTIFY) / TIMEOUT"];
	s16 -> s67 [label="Alert(FATAL,UNEXPECTED_MESSAGE) / TIMEOUT"];
	s17 -> s1 [label="HELLO_VERIFY_REQUEST / Alert(FATAL,UNEXPECTED_MESSAGE)"];
	s17 -> s1 [label="PSK_SERVER_HELLO / Alert(FATAL,UNEXPECTED_MESSAGE)"];
	s17 -> s1 [label="SERVER_HELLO_DONE / Alert(FATAL,UNEXPECTED_MESSAGE)"];
	s17 -> s1 [label="CHANGE_CIPHER_SPEC / TIMEOUT"];
	s17 -> s18 [label="FINISHED / APPLICATION"];
	s17 -> s1 [label="HELLO_REQUEST / TIMEOUT"];
	s17 -> s17 [label="APPLICATION / TIMEOUT"];
	s17 -> s8 [label="Alert(WARNING,CLOSE_NOTIFY) / TIMEOUT"];
	s17 -> s66 [label="Alert(FATAL,UNEXPECTED_MESSAGE) / TIMEOUT"];
	s18 -> s27 [label="HELLO_VERIFY_REQUEST / TIMEOUT"];
	s18 -> s19 [label="PSK_SERVER_HELLO / TIMEOUT"];
	s18 -> s24 [label="SERVER_HELLO_DONE / TIMEOUT"];
	s18 -> s1 [label="CHANGE_CIPHER_SPEC / TIMEOUT"];
	s18 -> s65 [label="FINISHED / TIMEOUT"];
	s18 -> s11 [label="HELLO_REQUEST / CLIENT_HELLO"];
	s18 -> s18 [label="APPLICATION / APPLICATION"];
	s18 -> s1 [label="Alert(WARNING,CLOSE_NOTIFY) / Alert(WARNING,CLOSE_NOTIFY)"];
	s18 -> s1 [label="Alert(FATAL,UNEXPECTED_MESSAGE) / TIMEOUT"];
	s19 -> s19 [label="HELLO_VERIFY_REQUEST / TIMEOUT"];
	s19 -> s19 [label="PSK_SERVER_HELLO / TIMEOUT"];
	s19 -> s19 [label="SERVER_HELLO_DONE / TIMEOUT"];
	s19 -> s1 [label="CHANGE_CIPHER_SPEC / TIMEOUT"];
	s19 -> s19 [label="FINISHED / TIMEOUT"];
	s19 -> s20 [label="HELLO_REQUEST / CLIENT_HELLO"];
	s19 -> s1 [label="APPLICATION / Alert(FATAL,UNEXPECTED_MESSAGE)"];
	s19 -> s1 [label="Alert(WARNING,CLOSE_NOTIFY) / TIMEOUT"];
	s19 -> s1 [label="Alert(FATAL,UNEXPECTED_MESSAGE) / TIMEOUT"];
	s20 -> s90 [label="HELLO_VERIFY_REQUEST / CLIENT_HELLO"];
	s20 -> s111 [label="PSK_SERVER_HELLO / TIMEOUT"];
	s20 -> s1 [label="SERVER_HELLO_DONE / Alert(FATAL,UNEXPECTED_MESSAGE)"];
	s20 -> s1 [label="CHANGE_CIPHER_SPEC / TIMEOUT"];
	s20 -> s1 [label="FINISHED / Alert(FATAL,INTERNAL_ERROR)"];
	s20 -> s1 [label="HELLO_REQUEST / TIMEOUT"];
	s20 -> s21 [label="APPLICATION / TIMEOUT"];
	s20 -> s1 [label="Alert(WARNING,CLOSE_NOTIFY) / TIMEOUT"];
	s20 -> s1 [label="Alert(FATAL,UNEXPECTED_MESSAGE) / TIMEOUT"];
	s21 -> s22 [label="HELLO_VERIFY_REQUEST / CLIENT_HELLO"];
	s21 -> s69 [label="PSK_SERVER_HELLO / TIMEOUT"];
	s21 -> s1 [label="SERVER_HELLO_DONE / Alert(FATAL,UNEXPECTED_MESSAGE)"];
	s21 -> s1 [label="CHANGE_CIPHER_SPEC / TIMEOUT"];
	s21 -> s1 [label="FINISHED / Alert(FATAL,INTERNAL_ERROR)"];
	s21 -> s1 [label="HELLO_REQUEST / TIMEOUT"];
	s21 -> s1 [label="APPLICATION / TIMEOUT"];
	s21 -> s1 [label="Alert(WARNING,CLOSE_NOTIFY) / TIMEOUT"];
	s21 -> s1 [label="Alert(FATAL,UNEXPECTED_MESSAGE) / TIMEOUT"];
	s22 -> s68 [label="HELLO_VERIFY_REQUEST / CLIENT_HELLO"];
	s22 -> s70 [label="PSK_SERVER_HELLO / TIMEOUT"];
	s22 -> s1 [label="SERVER_HELLO_DONE / Alert(FATAL,UNEXPECTED_MESSAGE)"];
	s22 -> s1 [label="CHANGE_CIPHER_SPEC / TIMEOUT"];
	s22 -> s1 [label="FINISHED / Alert(FATAL,INTERNAL_ERROR)"];
	s22 -> s1 [label="HELLO_REQUEST / TIMEOUT"];
	s22 -> s1 [label="APPLICATION / TIMEOUT"];
	s22 -> s1 [label="Alert(WARNING,CLOSE_NOTIFY) / TIMEOUT"];
	s22 -> s1 [label="Alert(FATAL,UNEXPECTED_MESSAGE) / TIMEOUT"];
	s23 -> s23 [label="HELLO_VERIFY_REQUEST / TIMEOUT"];
	s23 -> s23 [label="PSK_SERVER_HELLO / TIMEOUT"];
	s23 -> s29 [label="SERVER_HELLO_DONE / TIMEOUT"];
	s23 -> s1 [label="CHANGE_CIPHER_SPEC / TIMEOUT"];
	s23 -> s23 [label="FINISHED / TIMEOUT"];
	s23 -> s33 [label="HELLO_REQUEST / CLIENT_HELLO"];
	s23 -> s1 [label="APPLICATION / Alert(FATAL,UNEXPECTED_MESSAGE)"];
	s23 -> s1 [label="Alert(WARNING,CLOSE_NOTIFY) / TIMEOUT"];
	s23 -> s1 [label="Alert(FATAL,UNEXPECTED_MESSAGE) / TIMEOUT"];
	s24 -> s44 [label="HELLO_VERIFY_REQUEST / TIMEOUT"];
	s24 -> s44 [label="PSK_SERVER_HELLO / TIMEOUT"];
	s24 -> s44 [label="SERVER_HELLO_DONE / TIMEOUT"];
	s24 -> s1 [label="CHANGE_CIPHER_SPEC / TIMEOUT"];
	s24 -> s24 [label="FINISHED / TIMEOUT"];
	s24 -> s43 [label="HELLO_REQUEST / CLIENT_HELLO"];
	s24 -> s1 [label="APPLICATION / Alert(FATAL,UNEXPECTED_MESSAGE)"];
	s24 -> s1 [label="Alert(WARNING,CLOSE_NOTIFY) / TIMEOUT"];
	s24 -> s1 [label="Alert(FATAL,UNEXPECTED_MESSAGE) / TIMEOUT"];
	s25 -> s31 [label="HELLO_VERIFY_REQUEST / TIMEOUT"];
	s25 -> s32 [label="PSK_SERVER_HELLO / TIMEOUT"];
	s25 -> s31 [label="SERVER_HELLO_DONE / TIMEOUT"];
	s25 -> s1 [label="CHANGE_CIPHER_SPEC / TIMEOUT"];
	s25 -> s25 [label="FINISHED / TIMEOUT"];
	s25 -> s30 [label="HELLO_REQUEST / CLIENT_HELLO"];
	s25 -> s1 [label="APPLICATION / Alert(FATAL,UNEXPECTED_MESSAGE)"];
	s25 -> s1 [label="Alert(WARNING,CLOSE_NOTIFY) / TIMEOUT"];
	s25 -> s1 [label="Alert(FATAL,UNEXPECTED_MESSAGE) / TIMEOUT"];
	s26 -> s26 [label="HELLO_VERIFY_REQUEST / TIMEOUT"];
	s26 -> s26 [label="PSK_SERVER_HELLO / TIMEOUT"];
	s26 -> s26 [label="SERVER_HELLO_DONE / TIMEOUT"];
	s26 -> s1 [label="CHANGE_CIPHER_SPEC / TIMEOUT"];
	s26 -> s26 [label="FINISHED / TIMEOUT"];
	s26 -> s28 [label="HELLO_REQUEST / CLIENT_HELLO"];
	s26 -> s1 [label="APPLICATION / Alert(FATAL,UNEXPECTED_MESSAGE)"];
	s26 -> s1 [label="Alert(WARNING,CLOSE_NOTIFY) / TIMEOUT"];
	s26 -> s1 [label="Alert(FATAL,UNEXPECTED_MESSAGE) / TIMEOUT"];
	s27 -> s37 [label="HELLO_VERIFY_REQUEST / TIMEOUT"];
	s27 -> s27 [label="PSK_SERVER_HELLO / TIMEOUT"];
	s27 -> s36 [label="SERVER_HELLO_DONE / TIMEOUT"];
	s27 -> s1 [label="CHANGE_CIPHER_SPEC / TIMEOUT"];
	s27 -> s27 [label="FINISHED / TIMEOUT"];
	s27 -> s34 [label="HELLO_REQUEST / CLIENT_HELLO"];
	s27 -> s1 [label="APPLICATION / Alert(FATAL,UNEXPECTED_MESSAGE)"];
	s27 -> s1 [label="Alert(WARNING,CLOSE_NOTIFY) / TIMEOUT"];
	s27 -> s1 [label="Alert(FATAL,UNEXPECTED_MESSAGE) / TIMEOUT"];
	s28 -> s38 [label="HELLO_VERIFY_REQUEST / CLIENT_HELLO"];
	s28 -> s92 [label="PSK_SERVER_HELLO / TIMEOUT"];
	s28 -> s1 [label="SERVER_HELLO_DONE / Alert(FATAL,UNEXPECTED_MESSAGE)"];
	s28 -> s1 [label="CHANGE_CIPHER_SPEC / TIMEOUT"];
	s28 -> s1 [label="FINISHED / Alert(FATAL,INTERNAL_ERROR)"];
	s28 -> s1 [label="HELLO_REQUEST / TIMEOUT"];
	s28 -> s80 [label="APPLICATION / TIMEOUT"];
	s28 -> s1 [label="Alert(WARNING,CLOSE_NOTIFY) / TIMEOUT"];
	s28 -> s1 [label="Alert(FATAL,UNEXPECTED_MESSAGE) / TIMEOUT"];
	s29 -> s29 [label="HELLO_VERIFY_REQUEST / TIMEOUT"];
	s29 -> s29 [label="PSK_SERVER_HELLO / TIMEOUT"];
	s29 -> s29 [label="SERVER_HELLO_DONE / TIMEOUT"];
	s29 -> s1 [label="CHANGE_CIPHER_SPEC / TIMEOUT"];
	s29 -> s29 [label="FINISHED / TIMEOUT"];
	s29 -> s39 [label="HELLO_REQUEST / CLIENT_HELLO"];
	s29 -> s1 [label="APPLICATION / Alert(FATAL,UNEXPECTED_MESSAGE)"];
	s29 -> s1 [label="Alert(WARNING,CLOSE_NOTIFY) / TIMEOUT"];
	s29 -> s1 [label="Alert(FATAL,UNEXPECTED_MESSAGE) / TIMEOUT"];
	s30 -> s40 [label="HELLO_VERIFY_REQUEST / CLIENT_HELLO"];
	s30 -> s35 [label="PSK_SERVER_HELLO / TIMEOUT"];
	s30 -> s1 [label="SERVER_HELLO_DONE / Alert(FATAL,UNEXPECTED_MESSAGE)"];
	s30 -> s1 [label="CHANGE_CIPHER_SPEC / TIMEOUT"];
	s30 -> s1 [label="FINISHED / Alert(FATAL,INTERNAL_ERROR)"];
	s30 -> s1 [label="HELLO_REQUEST / TIMEOUT"];
	s30 -> s81 [label="APPLICATION / TIMEOUT"];
	s30 -> s1 [label="Alert(WARNING,CLOSE_NOTIFY) / TIMEOUT"];
	s30 -> s1 [label="Alert(FATAL,UNEXPECTED_MESSAGE) / TIMEOUT"];
	s31 -> s31 [label="HELLO_VERIFY_REQUEST / TIMEOUT"];
	s31 -> s32 [label="PSK_SERVER_HELLO / TIMEOUT"];
	s31 -> s31 [label="SERVER_HELLO_DONE / TIMEOUT"];
	s31 -> s1 [label="CHANGE_CIPHER_SPEC / TIMEOUT"];
	s31 -> s31 [label="FINISHED / TIMEOUT"];
	s31 -> s41 [label="HELLO_REQUEST / CLIENT_HELLO"];
	s31 -> s1 [label="APPLICATION / Alert(FATAL,UNEXPECTED_MESSAGE)"];
	s31 -> s1 [label="Alert(WARNING,CLOSE_NOTIFY) / TIMEOUT"];
	s31 -> s1 [label="Alert(FATAL,UNEXPECTED_MESSAGE) / TIMEOUT"];
	s32 -> s32 [label="HELLO_VERIFY_REQUEST / TIMEOUT"];
	s32 -> s32 [label="PSK_SERVER_HELLO / TIMEOUT"];
	s32 -> s32 [label="SERVER_HELLO_DONE / TIMEOUT"];
	s32 -> s1 [label="CHANGE_CIPHER_SPEC / TIMEOUT"];
	s32 -> s32 [label="FINISHED / TIMEOUT"];
	s32 -> s42 [label="HELLO_REQUEST / CLIENT_HELLO"];
	s32 -> s1 [label="APPLICATION / Alert(FATAL,UNEXPECTED_MESSAGE)"];
	s32 -> s1 [label="Alert(WARNING,CLOSE_NOTIFY) / TIMEOUT"];
	s32 -> s1 [label="Alert(FATAL,UNEXPECTED_MESSAGE) / TIMEOUT"];
	s33 -> s77 [label="HELLO_VERIFY_REQUEST / CLIENT_HELLO"];
	s33 -> s77 [label="PSK_SERVER_HELLO / TIMEOUT"];
	s33 -> s1 [label="SERVER_HELLO_DONE / Alert(FATAL,UNEXPECTED_MESSAGE)"];
	s33 -> s1 [label="CHANGE_CIPHER_SPEC / TIMEOUT"];
	s33 -> s1 [label="FINISHED / Alert(FATAL,INTERNAL_ERROR)"];
	s33 -> s1 [label="HELLO_REQUEST / TIMEOUT"];
	s33 -> s79 [label="APPLICATION / TIMEOUT"];
	s33 -> s1 [label="Alert(WARNING,CLOSE_NOTIFY) / TIMEOUT"];
	s33 -> s1 [label="Alert(FATAL,UNEXPECTED_MESSAGE) / TIMEOUT"];
	s34 -> s159 [label="HELLO_VERIFY_REQUEST / CLIENT_HELLO"];
	s34 -> s102 [label="PSK_SERVER_HELLO / TIMEOUT"];
	s34 -> s1 [label="SERVER_HELLO_DONE / Alert(FATAL,UNEXPECTED_MESSAGE)"];
	s34 -> s1 [label="CHANGE_CIPHER_SPEC / TIMEOUT"];
	s34 -> s1 [label="FINISHED / Alert(FATAL,INTERNAL_ERROR)"];
	s34 -> s1 [label="HELLO_REQUEST / TIMEOUT"];
	s34 -> s45 [label="APPLICATION / TIMEOUT"];
	s34 -> s1 [label="Alert(WARNING,CLOSE_NOTIFY) / TIMEOUT"];
	s34 -> s1 [label="Alert(FATAL,UNEXPECTED_MESSAGE) / TIMEOUT"];
	s35 -> s47 [label="HELLO_VERIFY_REQUEST / CLIENT_HELLO|PSK_CLIENT_KEY_EXCHANGE|CHANGE_CIPHER_SPEC|UNKNOWN_MESSAGE"];
	s35 -> s1 [label="PSK_SERVER_HELLO / Alert(FATAL,UNEXPECTED_MESSAGE)"];
	s35 -> s1 [label="SERVER_HELLO_DONE / PSK_CLIENT_KEY_EXCHANGE|CHANGE_CIPHER_SPEC|FINISHED|Alert(FATAL,UNEXPECTED_MESSAGE)"];
	s35 -> s1 [label="CHANGE_CIPHER_SPEC / TIMEOUT"];
	s35 -> s1 [label="FINISHED / Alert(FATAL,INTERNAL_ERROR)"];
	s35 -> s1 [label="HELLO_REQUEST / TIMEOUT"];
	s35 -> s1 [label="APPLICATION / Alert(FATAL,UNEXPECTED_MESSAGE)"];
	s35 -> s1 [label="Alert(WARNING,CLOSE_NOTIFY) / TIMEOUT"];
	s35 -> s1 [label="Alert(FATAL,UNEXPECTED_MESSAGE) / TIMEOUT"];
	s36 -> s36 [label="HELLO_VERIFY_REQUEST / TIMEOUT"];
	s36 -> s36 [label="PSK_SERVER_HELLO / TIMEOUT"];
	s36 -> s36 [label="SERVER_HELLO_DONE / TIMEOUT"];
	s36 -> s1 [label="CHANGE_CIPHER_SPEC / TIMEOUT"];
	s36 -> s36 [label="FINISHED / TIMEOUT"];
	s36 -> s48 [label="HELLO_REQUEST / CLIENT_HELLO"];
	s36 -> s1 [label="APPLICATION / Alert(FATAL,UNEXPECTED_MESSAGE)"];
	s36 -> s1 [label="Alert(WARNING,CLOSE_NOTIFY) / TIMEOUT"];
	s36 -> s1 [label="Alert(FATAL,UNEXPECTED_MESSAGE) / TIMEOUT"];
	s37 -> s37 [label="HELLO_VERIFY_REQUEST / TIMEOUT"];
	s37 -> s37 [label="PSK_SERVER_HELLO / TIMEOUT"];
	s37 -> s50 [label="SERVER_HELLO_DONE / TIMEOUT"];
	s37 -> s1 [label="CHANGE_CIPHER_SPEC / TIMEOUT"];
	s37 -> s37 [label="FINISHED / TIMEOUT"];
	s37 -> s51 [label="HELLO_REQUEST / CLIENT_HELLO"];
	s37 -> s1 [label="APPLICATION / Alert(FATAL,UNEXPECTED_MESSAGE)"];
	s37 -> s1 [label="Alert(WARNING,CLOSE_NOTIFY) / TIMEOUT"];
	s37 -> s1 [label="Alert(FATAL,UNEXPECTED_MESSAGE) / TIMEOUT"];
	s38 -> s1 [label="HELLO_VERIFY_REQUEST / CLIENT_HELLO|Alert(FATAL,UNEXPECTED_MESSAGE)"];
	s38 -> s1 [label="PSK_SERVER_HELLO / Alert(FATAL,UNEXPECTED_MESSAGE)"];
	s38 -> s1 [label="SERVER_HELLO_DONE / Alert(FATAL,UNEXPECTED_MESSAGE)"];
	s38 -> s1 [label="CHANGE_CIPHER_SPEC / TIMEOUT"];
	s38 -> s1 [label="FINISHED / Alert(FATAL,INTERNAL_ERROR)"];
	s38 -> s1 [label="HELLO_REQUEST / TIMEOUT"];
	s38 -> s91 [label="APPLICATION / TIMEOUT"];
	s38 -> s1 [label="Alert(WARNING,CLOSE_NOTIFY) / TIMEOUT"];
	s38 -> s1 [label="Alert(FATAL,UNEXPECTED_MESSAGE) / TIMEOUT"];
	s39 -> s52 [label="HELLO_VERIFY_REQUEST / CLIENT_HELLO"];
	s39 -> s99 [label="PSK_SERVER_HELLO / TIMEOUT"];
	s39 -> s1 [label="SERVER_HELLO_DONE / Alert(FATAL,UNEXPECTED_MESSAGE)"];
	s39 -> s1 [label="CHANGE_CIPHER_SPEC / TIMEOUT"];
	s39 -> s1 [label="FINISHED / Alert(FATAL,INTERNAL_ERROR)"];
	s39 -> s1 [label="HELLO_REQUEST / TIMEOUT"];
	s39 -> s83 [label="APPLICATION / TIMEOUT"];
	s39 -> s1 [label="Alert(WARNING,CLOSE_NOTIFY) / TIMEOUT"];
	s39 -> s1 [label="Alert(FATAL,UNEXPECTED_MESSAGE) / TIMEOUT"];
	s40 -> s9 [label="HELLO_VERIFY_REQUEST / CLIENT_HELLO|PSK_CLIENT_KEY_EXCHANGE|CHANGE_CIPHER_SPEC|FINISHED"];
	s40 -> s1 [label="PSK_SERVER_HELLO / Alert(FATAL,UNEXPECTED_MESSAGE)"];
	s40 -> s1 [label="SERVER_HELLO_DONE / Alert(FATAL,UNEXPECTED_MESSAGE)"];
	s40 -> s1 [label="CHANGE_CIPHER_SPEC / TIMEOUT"];
	s40 -> s1 [label="FINISHED / Alert(FATAL,INTERNAL_ERROR)"];
	s40 -> s1 [label="HELLO_REQUEST / TIMEOUT"];
	s40 -> s40 [label="APPLICATION / TIMEOUT"];
	s40 -> s1 [label="Alert(WARNING,CLOSE_NOTIFY) / TIMEOUT"];
	s40 -> s1 [label="Alert(FATAL,UNEXPECTED_MESSAGE) / TIMEOUT"];
	s41 -> s53 [label="HELLO_VERIFY_REQUEST / CLIENT_HELLO"];
	s41 -> s98 [label="PSK_SERVER_HELLO / TIMEOUT"];
	s41 -> s1 [label="SERVER_HELLO_DONE / Alert(FATAL,UNEXPECTED_MESSAGE)"];
	s41 -> s1 [label="CHANGE_CIPHER_SPEC / TIMEOUT"];
	s41 -> s1 [label="FINISHED / Alert(FATAL,INTERNAL_ERROR)"];
	s41 -> s1 [label="HELLO_REQUEST / TIMEOUT"];
	s41 -> s82 [label="APPLICATION / TIMEOUT"];
	s41 -> s1 [label="Alert(WARNING,CLOSE_NOTIFY) / TIMEOUT"];
	s41 -> s1 [label="Alert(FATAL,UNEXPECTED_MESSAGE) / TIMEOUT"];
	s42 -> s84 [label="HELLO_VERIFY_REQUEST / CLIENT_HELLO"];
	s42 -> s98 [label="PSK_SERVER_HELLO / TIMEOUT"];
	s42 -> s1 [label="SERVER_HELLO_DONE / Alert(FATAL,UNEXPECTED_MESSAGE)"];
	s42 -> s1 [label="CHANGE_CIPHER_SPEC / TIMEOUT"];
	s42 -> s1 [label="FINISHED / Alert(FATAL,INTERNAL_ERROR)"];
	s42 -> s1 [label="HELLO_REQUEST / TIMEOUT"];
	s42 -> s78 [label="APPLICATION / TIMEOUT"];
	s42 -> s1 [label="Alert(WARNING,CLOSE_NOTIFY) / TIMEOUT"];
	s42 -> s1 [label="Alert(FATAL,UNEXPECTED_MESSAGE) / TIMEOUT"];
	s43 -> s154 [label="HELLO_VERIFY_REQUEST / CLIENT_HELLO"];
	s43 -> s100 [label="PSK_SERVER_HELLO / TIMEOUT"];
	s43 -> s1 [label="SERVER_HELLO_DONE / Alert(FATAL,UNEXPECTED_MESSAGE)"];
	s43 -> s1 [label="CHANGE_CIPHER_SPEC / TIMEOUT"];
	s43 -> s1 [label="FINISHED / Alert(FATAL,INTERNAL_ERROR)"];
	s43 -> s1 [label="HELLO_REQUEST / TIMEOUT"];
	s43 -> s49 [label="APPLICATION / TIMEOUT"];
	s43 -> s1 [label="Alert(WARNING,CLOSE_NOTIFY) / TIMEOUT"];
	s43 -> s1 [label="Alert(FATAL,UNEXPECTED_MESSAGE) / TIMEOUT"];
	s44 -> s44 [label="HELLO_VERIFY_REQUEST / TIMEOUT"];
	s44 -> s44 [label="PSK_SERVER_HELLO / TIMEOUT"];
	s44 -> s44 [label="SERVER_HELLO_DONE / TIMEOUT"];
	s44 -> s1 [label="CHANGE_CIPHER_SPEC / TIMEOUT"];
	s44 -> s44 [label="FINISHED / TIMEOUT"];
	s44 -> s46 [label="HELLO_REQUEST / CLIENT_HELLO"];
	s44 -> s1 [label="APPLICATION / Alert(FATAL,UNEXPECTED_MESSAGE)"];
	s44 -> s1 [label="Alert(WARNING,CLOSE_NOTIFY) / TIMEOUT"];
	s44 -> s1 [label="Alert(FATAL,UNEXPECTED_MESSAGE) / TIMEOUT"];
	s45 -> s54 [label="HELLO_VERIFY_REQUEST / CLIENT_HELLO"];
	s45 -> s87 [label="PSK_SERVER_HELLO / TIMEOUT"];
	s45 -> s1 [label="SERVER_HELLO_DONE / Alert(FATAL,UNEXPECTED_MESSAGE)"];
	s45 -> s1 [label="CHANGE_CIPHER_SPEC / TIMEOUT"];
	s45 -> s1 [label="FINISHED / Alert(FATAL,INTERNAL_ERROR)"];
	s45 -> s1 [label="HELLO_REQUEST / TIMEOUT"];
	s45 -> s1 [label="APPLICATION / TIMEOUT"];
	s45 -> s1 [label="Alert(WARNING,CLOSE_NOTIFY) / TIMEOUT"];
	s45 -> s1 [label="Alert(FATAL,UNEXPECTED_MESSAGE) / TIMEOUT"];
	s46 -> s155 [label="HELLO_VERIFY_REQUEST / CLIENT_HELLO"];
	s46 -> s100 [label="PSK_SERVER_HELLO / TIMEOUT"];
	s46 -> s1 [label="SERVER_HELLO_DONE / Alert(FATAL,UNEXPECTED_MESSAGE)"];
	s46 -> s1 [label="CHANGE_CIPHER_SPEC / TIMEOUT"];
	s46 -> s1 [label="FINISHED / Alert(FATAL,INTERNAL_ERROR)"];
	s46 -> s1 [label="HELLO_REQUEST / TIMEOUT"];
	s46 -> s57 [label="APPLICATION / TIMEOUT"];
	s46 -> s1 [label="Alert(WARNING,CLOSE_NOTIFY) / TIMEOUT"];
	s46 -> s1 [label="Alert(FATAL,UNEXPECTED_MESSAGE) / TIMEOUT"];
	s47 -> s47 [label="HELLO_VERIFY_REQUEST / TIMEOUT"];
	s47 -> s47 [label="PSK_SERVER_HELLO / TIMEOUT"];
	s47 -> s47 [label="SERVER_HELLO_DONE / TIMEOUT"];
	s47 -> s1 [label="CHANGE_CIPHER_SPEC / TIMEOUT"];
	s47 -> s47 [label="FINISHED / TIMEOUT"];
	s47 -> s1 [label="HELLO_REQUEST / TIMEOUT"];
	s47 -> s1 [label="APPLICATION / UNKNOWN_MESSAGE"];
	s47 -> s1 [label="Alert(WARNING,CLOSE_NOTIFY) / TIMEOUT"];
	s47 -> s1 [label="Alert(FATAL,UNEXPECTED_MESSAGE) / TIMEOUT"];
	s48 -> s156 [label="HELLO_VERIFY_REQUEST / CLIENT_HELLO"];
	s48 -> s101 [label="PSK_SERVER_HELLO / TIMEOUT"];
	s48 -> s1 [label="SERVER_HELLO_DONE / Alert(FATAL,UNEXPECTED_MESSAGE)"];
	s48 -> s1 [label="CHANGE_CIPHER_SPEC / TIMEOUT"];
	s48 -> s1 [label="FINISHED / Alert(FATAL,INTERNAL_ERROR)"];
	s48 -> s1 [label="HELLO_REQUEST / TIMEOUT"];
	s48 -> s58 [label="APPLICATION / TIMEOUT"];
	s48 -> s1 [label="Alert(WARNING,CLOSE_NOTIFY) / TIMEOUT"];
	s48 -> s1 [label="Alert(FATAL,UNEXPECTED_MESSAGE) / TIMEOUT"];
	s49 -> s59 [label="HELLO_VERIFY_REQUEST / CLIENT_HELLO"];
	s49 -> s85 [label="PSK_SERVER_HELLO / TIMEOUT"];
	s49 -> s1 [label="SERVER_HELLO_DONE / Alert(FATAL,UNEXPECTED_MESSAGE)"];
	s49 -> s1 [label="CHANGE_CIPHER_SPEC / TIMEOUT"];
	s49 -> s1 [label="FINISHED / Alert(FATAL,INTERNAL_ERROR)"];
	s49 -> s1 [label="HELLO_REQUEST / TIMEOUT"];
	s49 -> s1 [label="APPLICATION / TIMEOUT"];
	s49 -> s1 [label="Alert(WARNING,CLOSE_NOTIFY) / TIMEOUT"];
	s49 -> s1 [label="Alert(FATAL,UNEXPECTED_MESSAGE) / TIMEOUT"];
	s50 -> s50 [label="HELLO_VERIFY_REQUEST / TIMEOUT"];
	s50 -> s50 [label="PSK_SERVER_HELLO / TIMEOUT"];
	s50 -> s50 [label="SERVER_HELLO_DONE / TIMEOUT"];
	s50 -> s1 [label="CHANGE_CIPHER_SPEC / TIMEOUT"];
	s50 -> s50 [label="FINISHED / TIMEOUT"];
	s50 -> s56 [label="HELLO_REQUEST / CLIENT_HELLO"];
	s50 -> s1 [label="APPLICATION / Alert(FATAL,UNEXPECTED_MESSAGE)"];
	s50 -> s1 [label="Alert(WARNING,CLOSE_NOTIFY) / TIMEOUT"];
	s50 -> s1 [label="Alert(FATAL,UNEXPECTED_MESSAGE) / TIMEOUT"];
	s51 -> s158 [label="HELLO_VERIFY_REQUEST / CLIENT_HELLO"];
	s51 -> s102 [label="PSK_SERVER_HELLO / TIMEOUT"];
	s51 -> s1 [label="SERVER_HELLO_DONE / Alert(FATAL,UNEXPECTED_MESSAGE)"];
	s51 -> s1 [label="CHANGE_CIPHER_SPEC / TIMEOUT"];
	s51 -> s1 [label="FINISHED / Alert(FATAL,INTERNAL_ERROR)"];
	s51 -> s1 [label="HELLO_REQUEST / TIMEOUT"];
	s51 -> s55 [label="APPLICATION / TIMEOUT"];
	s51 -> s1 [label="Alert(WARNING,CLOSE_NOTIFY) / TIMEOUT"];
	s51 -> s1 [label="Alert(FATAL,UNEXPECTED_MESSAGE) / TIMEOUT"];
	s52 -> s1 [label="HELLO_VERIFY_REQUEST / CLIENT_HELLO+|Alert(FATAL,UNEXPECTED_MESSAGE)"];
	s52 -> s1 [label="PSK_SERVER_HELLO / Alert(FATAL,UNEXPECTED_MESSAGE)"];
	s52 -> s1 [label="SERVER_HELLO_DONE / Alert(FATAL,UNEXPECTED_MESSAGE)"];
	s52 -> s1 [label="CHANGE_CIPHER_SPEC / TIMEOUT"];
	s52 -> s1 [label="FINISHED / Alert(FATAL,INTERNAL_ERROR)"];
	s52 -> s1 [label="HELLO_REQUEST / TIMEOUT"];
	s52 -> s52 [label="APPLICATION / TIMEOUT"];
	s52 -> s1 [label="Alert(WARNING,CLOSE_NOTIFY) / TIMEOUT"];
	s52 -> s1 [label="Alert(FATAL,UNEXPECTED_MESSAGE) / TIMEOUT"];
	s53 -> s1 [label="HELLO_VERIFY_REQUEST / CLIENT_HELLO|PSK_CLIENT_KEY_EXCHANGE|CHANGE_CIPHER_SPEC|FINISHED|Alert(FATAL,UNEXPECTED_MESSAGE)"];
	s53 -> s1 [label="PSK_SERVER_HELLO / Alert(FATAL,UNEXPECTED_MESSAGE)"];
	s53 -> s1 [label="SERVER_HELLO_DONE / Alert(FATAL,UNEXPECTED_MESSAGE)"];
	s53 -> s1 [label="CHANGE_CIPHER_SPEC / TIMEOUT"];
	s53 -> s1 [label="FINISHED / Alert(FATAL,INTERNAL_ERROR)"];
	s53 -> s1 [label="HELLO_REQUEST / TIMEOUT"];
	s53 -> s53 [label="APPLICATION / TIMEOUT"];
	s53 -> s1 [label="Alert(WARNING,CLOSE_NOTIFY) / TIMEOUT"];
	s53 -> s1 [label="Alert(FATAL,UNEXPECTED_MESSAGE) / TIMEOUT"];
	s54 -> s0 [label="HELLO_VERIFY_REQUEST / CLIENT_HELLO"];
	s54 -> s77 [label="PSK_SERVER_HELLO / TIMEOUT"];
	s54 -> s1 [label="SERVER_HELLO_DONE / Alert(FATAL,UNEXPECTED_MESSAGE)"];
	s54 -> s1 [label="CHANGE_CIPHER_SPEC / TIMEOUT"];
	s54 -> s1 [label="FINISHED / Alert(FATAL,INTERNAL_ERROR)"];
	s54 -> s1 [label="HELLO_REQUEST / TIMEOUT"];
	s54 -> s1 [label="APPLICATION / TIMEOUT"];
	s54 -> s1 [label="Alert(WARNING,CLOSE_NOTIFY) / TIMEOUT"];
	s54 -> s1 [label="Alert(FATAL,UNEXPECTED_MESSAGE) / TIMEOUT"];
	s55 -> s60 [label="HELLO_VERIFY_REQUEST / CLIENT_HELLO"];
	s55 -> s87 [label="PSK_SERVER_HELLO / TIMEOUT"];
	s55 -> s1 [label="SERVER_HELLO_DONE / Alert(FATAL,UNEXPECTED_MESSAGE)"];
	s55 -> s1 [label="CHANGE_CIPHER_SPEC / TIMEOUT"];
	s55 -> s1 [label="FINISHED / Alert(FATAL,INTERNAL_ERROR)"];
	s55 -> s1 [label="HELLO_REQUEST / TIMEOUT"];
	s55 -> s1 [label="APPLICATION / TIMEOUT"];
	s55 -> s1 [label="Alert(WARNING,CLOSE_NOTIFY) / TIMEOUT"];
	s55 -> s1 [label="Alert(FATAL,UNEXPECTED_MESSAGE) / TIMEOUT"];
	s56 -> s157 [label="HELLO_VERIFY_REQUEST / CLIENT_HELLO"];
	s56 -> s101 [label="PSK_SERVER_HELLO / TIMEOUT"];
	s56 -> s1 [label="SERVER_HELLO_DONE / Alert(FATAL,UNEXPECTED_MESSAGE)"];
	s56 -> s1 [label="CHANGE_CIPHER_SPEC / TIMEOUT"];
	s56 -> s1 [label="FINISHED / Alert(FATAL,INTERNAL_ERROR)"];
	s56 -> s1 [label="HELLO_REQUEST / TIMEOUT"];
	s56 -> s63 [label="APPLICATION / TIMEOUT"];
	s56 -> s1 [label="Alert(WARNING,CLOSE_NOTIFY) / TIMEOUT"];
	s56 -> s1 [label="Alert(FATAL,UNEXPECTED_MESSAGE) / TIMEOUT"];
	s57 -> s62 [label="HELLO_VERIFY_REQUEST / CLIENT_HELLO"];
	s57 -> s85 [label="PSK_SERVER_HELLO / TIMEOUT"];
	s57 -> s1 [label="SERVER_HELLO_DONE / Alert(FATAL,UNEXPECTED_MESSAGE)"];
	s57 -> s1 [label="CHANGE_CIPHER_SPEC / TIMEOUT"];
	s57 -> s1 [label="FINISHED / Alert(FATAL,INTERNAL_ERROR)"];
	s57 -> s1 [label="HELLO_REQUEST / TIMEOUT"];
	s57 -> s1 [label="APPLICATION / TIMEOUT"];
	s57 -> s1 [label="Alert(WARNING,CLOSE_NOTIFY) / TIMEOUT"];
	s57 -> s1 [label="Alert(FATAL,UNEXPECTED_MESSAGE) / TIMEOUT"];
	s58 -> s61 [label="HELLO_VERIFY_REQUEST / CLIENT_HELLO"];
	s58 -> s86 [label="PSK_SERVER_HELLO / TIMEOUT"];
	s58 -> s1 [label="SERVER_HELLO_DONE / Alert(FATAL,UNEXPECTED_MESSAGE)"];
	s58 -> s1 [label="CHANGE_CIPHER_SPEC / TIMEOUT"];
	s58 -> s1 [label="FINISHED / Alert(FATAL,INTERNAL_ERROR)"];
	s58 -> s1 [label="HELLO_REQUEST / TIMEOUT"];
	s58 -> s1 [label="APPLICATION / TIMEOUT"];
	s58 -> s1 [label="Alert(WARNING,CLOSE_NOTIFY) / TIMEOUT"];
	s58 -> s1 [label="Alert(FATAL,UNEXPECTED_MESSAGE) / TIMEOUT"];
	s59 -> s75 [label="HELLO_VERIFY_REQUEST / CLIENT_HELLO"];
	s59 -> s92 [label="PSK_SERVER_HELLO / TIMEOUT"];
	s59 -> s1 [label="SERVER_HELLO_DONE / Alert(FATAL,UNEXPECTED_MESSAGE)"];
	s59 -> s1 [label="CHANGE_CIPHER_SPEC / TIMEOUT"];
	s59 -> s1 [label="FINISHED / Alert(FATAL,INTERNAL_ERROR)"];
	s59 -> s1 [label="HELLO_REQUEST / TIMEOUT"];
	s59 -> s1 [label="APPLICATION / TIMEOUT"];
	s59 -> s1 [label="Alert(WARNING,CLOSE_NOTIFY) / TIMEOUT"];
	s59 -> s1 [label="Alert(FATAL,UNEXPECTED_MESSAGE) / TIMEOUT"];
	s60 -> s76 [label="HELLO_VERIFY_REQUEST / CLIENT_HELLO"];
	s60 -> s77 [label="PSK_SERVER_HELLO / TIMEOUT"];
	s60 -> s1 [label="SERVER_HELLO_DONE / Alert(FATAL,UNEXPECTED_MESSAGE)"];
	s60 -> s1 [label="CHANGE_CIPHER_SPEC / TIMEOUT"];
	s60 -> s1 [label="FINISHED / Alert(FATAL,INTERNAL_ERROR)"];
	s60 -> s1 [label="HELLO_REQUEST / TIMEOUT"];
	s60 -> s1 [label="APPLICATION / TIMEOUT"];
	s60 -> s1 [label="Alert(WARNING,CLOSE_NOTIFY) / TIMEOUT"];
	s60 -> s1 [label="Alert(FATAL,UNEXPECTED_MESSAGE) / TIMEOUT"];
	s61 -> s73 [label="HELLO_VERIFY_REQUEST / CLIENT_HELLO"];
	s61 -> s99 [label="PSK_SERVER_HELLO / TIMEOUT"];
	s61 -> s1 [label="SERVER_HELLO_DONE / Alert(FATAL,UNEXPECTED_MESSAGE)"];
	s61 -> s1 [label="CHANGE_CIPHER_SPEC / TIMEOUT"];
	s61 -> s1 [label="FINISHED / Alert(FATAL,INTERNAL_ERROR)"];
	s61 -> s1 [label="HELLO_REQUEST / TIMEOUT"];
	s61 -> s1 [label="APPLICATION / TIMEOUT"];
	s61 -> s1 [label="Alert(WARNING,CLOSE_NOTIFY) / TIMEOUT"];
	s61 -> s1 [label="Alert(FATAL,UNEXPECTED_MESSAGE) / TIMEOUT"];
	s62 -> s74 [label="HELLO_VERIFY_REQUEST / CLIENT_HELLO"];
	s62 -> s92 [label="PSK_SERVER_HELLO / TIMEOUT"];
	s62 -> s1 [label="SERVER_HELLO_DONE / Alert(FATAL,UNEXPECTED_MESSAGE)"];
	s62 -> s1 [label="CHANGE_CIPHER_SPEC / TIMEOUT"];
	s62 -> s1 [label="FINISHED / Alert(FATAL,INTERNAL_ERROR)"];
	s62 -> s1 [label="HELLO_REQUEST / TIMEOUT"];
	s62 -> s1 [label="APPLICATION / TIMEOUT"];
	s62 -> s1 [label="Alert(WARNING,CLOSE_NOTIFY) / TIMEOUT"];
	s62 -> s1 [label="Alert(FATAL,UNEXPECTED_MESSAGE) / TIMEOUT"];
	s63 -> s64 [label="HELLO_VERIFY_REQUEST / CLIENT_HELLO"];
	s63 -> s86 [label="PSK_SERVER_HELLO / TIMEOUT"];
	s63 -> s1 [label="SERVER_HELLO_DONE / Alert(FATAL,UNEXPECTED_MESSAGE)"];
	s63 -> s1 [label="CHANGE_CIPHER_SPEC / TIMEOUT"];
	s63 -> s1 [label="FINISHED / Alert(FATAL,INTERNAL_ERROR)"];
	s63 -> s1 [label="HELLO_REQUEST / TIMEOUT"];
	s63 -> s1 [label="APPLICATION / TIMEOUT"];
	s63 -> s1 [label="Alert(WARNING,CLOSE_NOTIFY) / TIMEOUT"];
	s63 -> s1 [label="Alert(FATAL,UNEXPECTED_MESSAGE) / TIMEOUT"];
	s64 -> s72 [label="HELLO_VERIFY_REQUEST / CLIENT_HELLO"];
	s64 -> s99 [label="PSK_SERVER_HELLO / TIMEOUT"];
	s64 -> s1 [label="SERVER_HELLO_DONE / Alert(FATAL,UNEXPECTED_MESSAGE)"];
	s64 -> s1 [label="CHANGE_CIPHER_SPEC / TIMEOUT"];
	s64 -> s1 [label="FINISHED / Alert(FATAL,INTERNAL_ERROR)"];
	s64 -> s1 [label="HELLO_REQUEST / TIMEOUT"];
	s64 -> s1 [label="APPLICATION / TIMEOUT"];
	s64 -> s1 [label="Alert(WARNING,CLOSE_NOTIFY) / TIMEOUT"];
	s64 -> s1 [label="Alert(FATAL,UNEXPECTED_MESSAGE) / TIMEOUT"];
	s65 -> s127 [label="HELLO_VERIFY_REQUEST / TIMEOUT"];
	s65 -> s88 [label="PSK_SERVER_HELLO / TIMEOUT"];
	s65 -> s126 [label="SERVER_HELLO_DONE / TIMEOUT"];
	s65 -> s1 [label="CHANGE_CIPHER_SPEC / TIMEOUT"];
	s65 -> s124 [label="FINISHED / TIMEOUT"];
	s65 -> s11 [label="HELLO_REQUEST / CLIENT_HELLO"];
	s65 -> s65 [label="APPLICATION / APPLICATION"];
	s65 -> s1 [label="Alert(WARNING,CLOSE_NOTIFY) / Alert(WARNING,CLOSE_NOTIFY)"];
	s65 -> s1 [label="Alert(FATAL,UNEXPECTED_MESSAGE) / TIMEOUT"];
	s66 -> s1 [label="HELLO_VERIFY_REQUEST / Alert(FATAL,UNEXPECTED_MESSAGE)"];
	s66 -> s1 [label="PSK_SERVER_HELLO / Alert(FATAL,UNEXPECTED_MESSAGE)"];
	s66 -> s1 [label="SERVER_HELLO_DONE / Alert(FATAL,UNEXPECTED_MESSAGE)"];
	s66 -> s1 [label="CHANGE_CIPHER_SPEC / TIMEOUT"];
	s66 -> s1 [label="FINISHED / APPLICATION"];
	s66 -> s1 [label="HELLO_REQUEST / TIMEOUT"];
	s66 -> s66 [label="APPLICATION / TIMEOUT"];
	s66 -> s66 [label="Alert(WARNING,CLOSE_NOTIFY) / TIMEOUT"];
	s66 -> s66 [label="Alert(FATAL,UNEXPECTED_MESSAGE) / TIMEOUT"];
	s67 -> s1 [label="HELLO_VERIFY_REQUEST / Alert(FATAL,UNEXPECTED_MESSAGE)"];
	s67 -> s1 [label="PSK_SERVER_HELLO / Alert(FATAL,UNEXPECTED_MESSAGE)"];
	s67 -> s1 [label="SERVER_HELLO_DONE / Alert(FATAL,UNEXPECTED_MESSAGE)"];
	s67 -> s1 [label="CHANGE_CIPHER_SPEC / TIMEOUT"];
	s67 -> s1 [label="FINISHED / TIMEOUT"];
	s67 -> s1 [label="HELLO_REQUEST / TIMEOUT"];
	s67 -> s67 [label="APPLICATION / TIMEOUT"];
	s67 -> s67 [label="Alert(WARNING,CLOSE_NOTIFY) / TIMEOUT"];
	s67 -> s67 [label="Alert(FATAL,UNEXPECTED_MESSAGE) / TIMEOUT"];
	s68 -> s107 [label="HELLO_VERIFY_REQUEST / CLIENT_HELLO"];
	s68 -> s1 [label="PSK_SERVER_HELLO / Alert(FATAL,UNEXPECTED_MESSAGE)"];
	s68 -> s1 [label="SERVER_HELLO_DONE / Alert(FATAL,UNEXPECTED_MESSAGE)"];
	s68 -> s1 [label="CHANGE_CIPHER_SPEC / TIMEOUT"];
	s68 -> s1 [label="FINISHED / Alert(FATAL,INTERNAL_ERROR)"];
	s68 -> s1 [label="HELLO_REQUEST / TIMEOUT"];
	s68 -> s1 [label="APPLICATION / TIMEOUT"];
	s68 -> s1 [label="Alert(WARNING,CLOSE_NOTIFY) / TIMEOUT"];
	s68 -> s1 [label="Alert(FATAL,UNEXPECTED_MESSAGE) / TIMEOUT"];
	s69 -> s13 [label="HELLO_VERIFY_REQUEST / CLIENT_HELLO"];
	s69 -> s1 [label="PSK_SERVER_HELLO / Alert(FATAL,UNEXPECTED_MESSAGE)"];
	s69 -> s71 [label="SERVER_HELLO_DONE / PSK_CLIENT_KEY_EXCHANGE|CHANGE_CIPHER_SPEC|FINISHED"];
	s69 -> s1 [label="CHANGE_CIPHER_SPEC / TIMEOUT"];
	s69 -> s1 [label="FINISHED / Alert(FATAL,INTERNAL_ERROR)"];
	s69 -> s1 [label="HELLO_REQUEST / TIMEOUT"];
	s69 -> s1 [label="APPLICATION / Alert(FATAL,UNEXPECTED_MESSAGE)"];
	s69 -> s1 [label="Alert(WARNING,CLOSE_NOTIFY) / TIMEOUT"];
	s69 -> s1 [label="Alert(FATAL,UNEXPECTED_MESSAGE) / TIMEOUT"];
	s70 -> s115 [label="HELLO_VERIFY_REQUEST / CLIENT_HELLO"];
	s70 -> s1 [label="PSK_SERVER_HELLO / Alert(FATAL,UNEXPECTED_MESSAGE)"];
	s70 -> s1 [label="SERVER_HELLO_DONE / PSK_CLIENT_KEY_EXCHANGE|CHANGE_CIPHER_SPEC|FINISHED|Alert(FATAL,UNEXPECTED_MESSAGE)"];
	s70 -> s1 [label="CHANGE_CIPHER_SPEC / TIMEOUT"];
	s70 -> s1 [label="FINISHED / Alert(FATAL,INTERNAL_ERROR)"];
	s70 -> s1 [label="HELLO_REQUEST / TIMEOUT"];
	s70 -> s1 [label="APPLICATION / Alert(FATAL,UNEXPECTED_MESSAGE)"];
	s70 -> s1 [label="Alert(WARNING,CLOSE_NOTIFY) / TIMEOUT"];
	s70 -> s1 [label="Alert(FATAL,UNEXPECTED_MESSAGE) / TIMEOUT"];
	s71 -> s1 [label="HELLO_VERIFY_REQUEST / Alert(FATAL,UNEXPECTED_MESSAGE)"];
	s71 -> s1 [label="PSK_SERVER_HELLO / Alert(FATAL,UNEXPECTED_MESSAGE)"];
	s71 -> s1 [label="SERVER_HELLO_DONE / Alert(FATAL,UNEXPECTED_MESSAGE)"];
	s71 -> s17 [label="CHANGE_CIPHER_SPEC / TIMEOUT"];
	s71 -> s1 [label="FINISHED / Alert(FATAL,UNEXPECTED_MESSAGE)"];
	s71 -> s1 [label="HELLO_REQUEST / TIMEOUT"];
	s71 -> s1 [label="APPLICATION / Alert(FATAL,UNEXPECTED_MESSAGE)"];
	s71 -> s1 [label="Alert(WARNING,CLOSE_NOTIFY) / TIMEOUT"];
	s71 -> s1 [label="Alert(FATAL,UNEXPECTED_MESSAGE) / TIMEOUT"];
	s72 -> s1 [label="HELLO_VERIFY_REQUEST / CLIENT_HELLO+|Alert(FATAL,UNEXPECTED_MESSAGE)"];
	s72 -> s1 [label="PSK_SERVER_HELLO / CLIENT_HELLO+|Alert(FATAL,UNEXPECTED_MESSAGE)"];
	s72 -> s1 [label="SERVER_HELLO_DONE / Alert(FATAL,UNEXPECTED_MESSAGE)"];
	s72 -> s1 [label="CHANGE_CIPHER_SPEC / TIMEOUT"];
	s72 -> s1 [label="FINISHED / Alert(FATAL,INTERNAL_ERROR)"];
	s72 -> s1 [label="HELLO_REQUEST / TIMEOUT"];
	s72 -> s1 [label="APPLICATION / TIMEOUT"];
	s72 -> s1 [label="Alert(WARNING,CLOSE_NOTIFY) / TIMEOUT"];
	s72 -> s1 [label="Alert(FATAL,UNEXPECTED_MESSAGE) / TIMEOUT"];
	s73 -> s1 [label="HELLO_VERIFY_REQUEST / CLIENT_HELLO+|Alert(FATAL,UNEXPECTED_MESSAGE)"];
	s73 -> s1 [label="PSK_SERVER_HELLO / CLIENT_HELLO|Alert(FATAL,UNEXPECTED_MESSAGE)"];
	s73 -> s1 [label="SERVER_HELLO_DONE / Alert(FATAL,UNEXPECTED_MESSAGE)"];
	s73 -> s1 [label="CHANGE_CIPHER_SPEC / TIMEOUT"];
	s73 -> s1 [label="FINISHED / Alert(FATAL,INTERNAL_ERROR)"];
	s73 -> s1 [label="HELLO_REQUEST / TIMEOUT"];
	s73 -> s1 [label="APPLICATION / TIMEOUT"];
	s73 -> s1 [label="Alert(WARNING,CLOSE_NOTIFY) / TIMEOUT"];
	s73 -> s1 [label="Alert(FATAL,UNEXPECTED_MESSAGE) / TIMEOUT"];
	s74 -> s1 [label="HELLO_VERIFY_REQUEST / CLIENT_HELLO|Alert(FATAL,UNEXPECTED_MESSAGE)"];
	s74 -> s1 [label="PSK_SERVER_HELLO / PSK_CLIENT_KEY_EXCHANGE|CHANGE_CIPHER_SPEC|FINISHED|Alert(FATAL,UNEXPECTED_MESSAGE)"];
	s74 -> s1 [label="SERVER_HELLO_DONE / Alert(FATAL,UNEXPECTED_MESSAGE)"];
	s74 -> s1 [label="CHANGE_CIPHER_SPEC / TIMEOUT"];
	s74 -> s1 [label="FINISHED / Alert(FATAL,INTERNAL_ERROR)"];
	s74 -> s1 [label="HELLO_REQUEST / TIMEOUT"];
	s74 -> s1 [label="APPLICATION / TIMEOUT"];
	s74 -> s1 [label="Alert(WARNING,CLOSE_NOTIFY) / TIMEOUT"];
	s74 -> s1 [label="Alert(FATAL,UNEXPECTED_MESSAGE) / TIMEOUT"];
	s75 -> s1 [label="HELLO_VERIFY_REQUEST / CLIENT_HELLO|Alert(FATAL,UNEXPECTED_MESSAGE)"];
	s75 -> s103 [label="PSK_SERVER_HELLO / PSK_CLIENT_KEY_EXCHANGE|CHANGE_CIPHER_SPEC|FINISHED"];
	s75 -> s1 [label="SERVER_HELLO_DONE / Alert(FATAL,UNEXPECTED_MESSAGE)"];
	s75 -> s1 [label="CHANGE_CIPHER_SPEC / TIMEOUT"];
	s75 -> s1 [label="FINISHED / Alert(FATAL,INTERNAL_ERROR)"];
	s75 -> s1 [label="HELLO_REQUEST / TIMEOUT"];
	s75 -> s1 [label="APPLICATION / TIMEOUT"];
	s75 -> s1 [label="Alert(WARNING,CLOSE_NOTIFY) / TIMEOUT"];
	s75 -> s1 [label="Alert(FATAL,UNEXPECTED_MESSAGE) / TIMEOUT"];
	s76 -> s1 [label="HELLO_VERIFY_REQUEST / CLIENT_HELLO+"];
	s76 -> s1 [label="PSK_SERVER_HELLO / CLIENT_HELLO+"];
	s76 -> s1 [label="SERVER_HELLO_DONE / Alert(FATAL,UNEXPECTED_MESSAGE)"];
	s76 -> s1 [label="CHANGE_CIPHER_SPEC / TIMEOUT"];
	s76 -> s1 [label="FINISHED / Alert(FATAL,INTERNAL_ERROR)"];
	s76 -> s1 [label="HELLO_REQUEST / TIMEOUT"];
	s76 -> s1 [label="APPLICATION / TIMEOUT"];
	s76 -> s1 [label="Alert(WARNING,CLOSE_NOTIFY) / TIMEOUT"];
	s76 -> s1 [label="Alert(FATAL,UNEXPECTED_MESSAGE) / TIMEOUT"];
	s77 -> s1 [label="HELLO_VERIFY_REQUEST / CLIENT_HELLO+"];
	s77 -> s1 [label="PSK_SERVER_HELLO / Alert(FATAL,UNEXPECTED_MESSAGE)"];
	s77 -> s1 [label="SERVER_HELLO_DONE / PSK_CLIENT_KEY_EXCHANGE|CHANGE_CIPHER_SPEC|FINISHED|Alert(FATAL,UNEXPECTED_MESSAGE)"];
	s77 -> s1 [label="CHANGE_CIPHER_SPEC / TIMEOUT"];
	s77 -> s1 [label="FINISHED / Alert(FATAL,INTERNAL_ERROR)"];
	s77 -> s1 [label="HELLO_REQUEST / TIMEOUT"];
	s77 -> s1 [label="APPLICATION / Alert(FATAL,UNEXPECTED_MESSAGE)"];
	s77 -> s1 [label="Alert(WARNING,CLOSE_NOTIFY) / TIMEOUT"];
	s77 -> s1 [label="Alert(FATAL,UNEXPECTED_MESSAGE) / TIMEOUT"];
	s78 -> s84 [label="HELLO_VERIFY_REQUEST / CLIENT_HELLO"];
	s78 -> s98 [label="PSK_SERVER_HELLO / TIMEOUT"];
	s78 -> s1 [label="SERVER_HELLO_DONE / Alert(FATAL,UNEXPECTED_MESSAGE)"];
	s78 -> s1 [label="CHANGE_CIPHER_SPEC / TIMEOUT"];
	s78 -> s1 [label="FINISHED / Alert(FATAL,INTERNAL_ERROR)"];
	s78 -> s1 [label="HELLO_REQUEST / TIMEOUT"];
	s78 -> s1 [label="APPLICATION / TIMEOUT"];
	s78 -> s1 [label="Alert(WARNING,CLOSE_NOTIFY) / TIMEOUT"];
	s78 -> s1 [label="Alert(FATAL,UNEXPECTED_MESSAGE) / TIMEOUT"];
	s79 -> s77 [label="HELLO_VERIFY_REQUEST / CLIENT_HELLO"];
	s79 -> s77 [label="PSK_SERVER_HELLO / TIMEOUT"];
	s79 -> s1 [label="SERVER_HELLO_DONE / Alert(FATAL,UNEXPECTED_MESSAGE)"];
	s79 -> s1 [label="CHANGE_CIPHER_SPEC / TIMEOUT"];
	s79 -> s1 [label="FINISHED / Alert(FATAL,INTERNAL_ERROR)"];
	s79 -> s1 [label="HELLO_REQUEST / TIMEOUT"];
	s79 -> s1 [label="APPLICATION / TIMEOUT"];
	s79 -> s1 [label="Alert(WARNING,CLOSE_NOTIFY) / TIMEOUT"];
	s79 -> s1 [label="Alert(FATAL,UNEXPECTED_MESSAGE) / TIMEOUT"];
	s80 -> s91 [label="HELLO_VERIFY_REQUEST / CLIENT_HELLO"];
	s80 -> s92 [label="PSK_SERVER_HELLO / TIMEOUT"];
	s80 -> s1 [label="SERVER_HELLO_DONE / Alert(FATAL,UNEXPECTED_MESSAGE)"];
	s80 -> s1 [label="CHANGE_CIPHER_SPEC / TIMEOUT"];
	s80 -> s1 [label="FINISHED / Alert(FATAL,INTERNAL_ERROR)"];
	s80 -> s1 [label="HELLO_REQUEST / TIMEOUT"];
	s80 -> s1 [label="APPLICATION / TIMEOUT"];
	s80 -> s1 [label="Alert(WARNING,CLOSE_NOTIFY) / TIMEOUT"];
	s80 -> s1 [label="Alert(FATAL,UNEXPECTED_MESSAGE) / TIMEOUT"];
	s81 -> s40 [label="HELLO_VERIFY_REQUEST / CLIENT_HELLO"];
	s81 -> s35 [label="PSK_SERVER_HELLO / TIMEOUT"];
	s81 -> s1 [label="SERVER_HELLO_DONE / Alert(FATAL,UNEXPECTED_MESSAGE)"];
	s81 -> s1 [label="CHANGE_CIPHER_SPEC / TIMEOUT"];
	s81 -> s1 [label="FINISHED / Alert(FATAL,INTERNAL_ERROR)"];
	s81 -> s1 [label="HELLO_REQUEST / TIMEOUT"];
	s81 -> s1 [label="APPLICATION / TIMEOUT"];
	s81 -> s1 [label="Alert(WARNING,CLOSE_NOTIFY) / TIMEOUT"];
	s81 -> s1 [label="Alert(FATAL,UNEXPECTED_MESSAGE) / TIMEOUT"];
	s82 -> s53 [label="HELLO_VERIFY_REQUEST / CLIENT_HELLO"];
	s82 -> s98 [label="PSK_SERVER_HELLO / TIMEOUT"];
	s82 -> s1 [label="SERVER_HELLO_DONE / Alert(FATAL,UNEXPECTED_MESSAGE)"];
	s82 -> s1 [label="CHANGE_CIPHER_SPEC / TIMEOUT"];
	s82 -> s1 [label="FINISHED / Alert(FATAL,INTERNAL_ERROR)"];
	s82 -> s1 [label="HELLO_REQUEST / TIMEOUT"];
	s82 -> s1 [label="APPLICATION / TIMEOUT"];
	s82 -> s1 [label="Alert(WARNING,CLOSE_NOTIFY) / TIMEOUT"];
	s82 -> s1 [label="Alert(FATAL,UNEXPECTED_MESSAGE) / TIMEOUT"];
	s83 -> s52 [label="HELLO_VERIFY_REQUEST / CLIENT_HELLO"];
	s83 -> s99 [label="PSK_SERVER_HELLO / TIMEOUT"];
	s83 -> s1 [label="SERVER_HELLO_DONE / Alert(FATAL,UNEXPECTED_MESSAGE)"];
	s83 -> s1 [label="CHANGE_CIPHER_SPEC / TIMEOUT"];
	s83 -> s1 [label="FINISHED / Alert(FATAL,INTERNAL_ERROR)"];
	s83 -> s1 [label="HELLO_REQUEST / TIMEOUT"];
	s83 -> s1 [label="APPLICATION / TIMEOUT"];
	s83 -> s1 [label="Alert(WARNING,CLOSE_NOTIFY) / TIMEOUT"];
	s83 -> s1 [label="Alert(FATAL,UNEXPECTED_MESSAGE) / TIMEOUT"];
	s84 -> s1 [label="HELLO_VERIFY_REQUEST / TIMEOUT"];
	s84 -> s1 [label="PSK_SERVER_HELLO / Alert(FATAL,UNEXPECTED_MESSAGE)"];
	s84 -> s1 [label="SERVER_HELLO_DONE / Alert(FATAL,UNEXPECTED_MESSAGE)"];
	s84 -> s1 [label="CHANGE_CIPHER_SPEC / TIMEOUT"];
	s84 -> s1 [label="FINISHED / Alert(FATAL,INTERNAL_ERROR)"];
	s84 -> s1 [label="HELLO_REQUEST / TIMEOUT"];
	s84 -> s1 [label="APPLICATION / TIMEOUT"];
	s84 -> s1 [label="Alert(WARNING,CLOSE_NOTIFY) / TIMEOUT"];
	s84 -> s1 [label="Alert(FATAL,UNEXPECTED_MESSAGE) / TIMEOUT"];
	s85 -> s74 [label="HELLO_VERIFY_REQUEST / CLIENT_HELLO"];
	s85 -> s1 [label="PSK_SERVER_HELLO / Alert(FATAL,UNEXPECTED_MESSAGE)"];
	s85 -> s71 [label="SERVER_HELLO_DONE / PSK_CLIENT_KEY_EXCHANGE|CHANGE_CIPHER_SPEC|FINISHED"];
	s85 -> s1 [label="CHANGE_CIPHER_SPEC / TIMEOUT"];
	s85 -> s1 [label="FINISHED / Alert(FATAL,INTERNAL_ERROR)"];
	s85 -> s1 [label="HELLO_REQUEST / TIMEOUT"];
	s85 -> s1 [label="APPLICATION / Alert(FATAL,UNEXPECTED_MESSAGE)"];
	s85 -> s1 [label="Alert(WARNING,CLOSE_NOTIFY) / TIMEOUT"];
	s85 -> s1 [label="Alert(FATAL,UNEXPECTED_MESSAGE) / TIMEOUT"];
	s86 -> s72 [label="HELLO_VERIFY_REQUEST / CLIENT_HELLO"];
	s86 -> s1 [label="PSK_SERVER_HELLO / Alert(FATAL,UNEXPECTED_MESSAGE)"];
	s86 -> s71 [label="SERVER_HELLO_DONE / PSK_CLIENT_KEY_EXCHANGE|CHANGE_CIPHER_SPEC|FINISHED"];
	s86 -> s1 [label="CHANGE_CIPHER_SPEC / TIMEOUT"];
	s86 -> s1 [label="FINISHED / Alert(FATAL,INTERNAL_ERROR)"];
	s86 -> s1 [label="HELLO_REQUEST / TIMEOUT"];
	s86 -> s1 [label="APPLICATION / Alert(FATAL,UNEXPECTED_MESSAGE)"];
	s86 -> s1 [label="Alert(WARNING,CLOSE_NOTIFY) / TIMEOUT"];
	s86 -> s1 [label="Alert(FATAL,UNEXPECTED_MESSAGE) / TIMEOUT"];
	s87 -> s76 [label="HELLO_VERIFY_REQUEST / CLIENT_HELLO"];
	s87 -> s1 [label="PSK_SERVER_HELLO / Alert(FATAL,UNEXPECTED_MESSAGE)"];
	s87 -> s71 [label="SERVER_HELLO_DONE / PSK_CLIENT_KEY_EXCHANGE|CHANGE_CIPHER_SPEC|FINISHED"];
	s87 -> s1 [label="CHANGE_CIPHER_SPEC / TIMEOUT"];
	s87 -> s1 [label="FINISHED / Alert(FATAL,INTERNAL_ERROR)"];
	s87 -> s1 [label="HELLO_REQUEST / TIMEOUT"];
	s87 -> s1 [label="APPLICATION / Alert(FATAL,UNEXPECTED_MESSAGE)"];
	s87 -> s1 [label="Alert(WARNING,CLOSE_NOTIFY) / TIMEOUT"];
	s87 -> s1 [label="Alert(FATAL,UNEXPECTED_MESSAGE) / TIMEOUT"];
	s88 -> s88 [label="HELLO_VERIFY_REQUEST / TIMEOUT"];
	s88 -> s88 [label="PSK_SERVER_HELLO / TIMEOUT"];
	s88 -> s88 [label="SERVER_HELLO_DONE / TIMEOUT"];
	s88 -> s1 [label="CHANGE_CIPHER_SPEC / TIMEOUT"];
	s88 -> s88 [label="FINISHED / TIMEOUT"];
	s88 -> s117 [label="HELLO_REQUEST / CLIENT_HELLO"];
	s88 -> s1 [label="APPLICATION / Alert(FATAL,UNEXPECTED_MESSAGE)"];
	s88 -> s1 [label="Alert(WARNING,CLOSE_NOTIFY) / TIMEOUT"];
	s88 -> s1 [label="Alert(FATAL,UNEXPECTED_MESSAGE) / TIMEOUT"];
	s89 -> s89 [label="HELLO_VERIFY_REQUEST / TIMEOUT"];
	s89 -> s89 [label="PSK_SERVER_HELLO / TIMEOUT"];
	s89 -> s89 [label="SERVER_HELLO_DONE / TIMEOUT"];
	s89 -> s1 [label="CHANGE_CIPHER_SPEC / TIMEOUT"];
	s89 -> s89 [label="FINISHED / TIMEOUT"];
	s89 -> s90 [label="HELLO_REQUEST / CLIENT_HELLO"];
	s89 -> s1 [label="APPLICATION / Alert(FATAL,UNEXPECTED_MESSAGE)"];
	s89 -> s1 [label="Alert(WARNING,CLOSE_NOTIFY) / TIMEOUT"];
	s89 -> s1 [label="Alert(FATAL,UNEXPECTED_MESSAGE) / TIMEOUT"];
	s90 -> s112 [label="HELLO_VERIFY_REQUEST / CLIENT_HELLO"];
	s90 -> s70 [label="PSK_SERVER_HELLO / TIMEOUT"];
	s90 -> s1 [label="SERVER_HELLO_DONE / Alert(FATAL,UNEXPECTED_MESSAGE)"];
	s90 -> s1 [label="CHANGE_CIPHER_SPEC / TIMEOUT"];
	s90 -> s1 [label="FINISHED / Alert(FATAL,INTERNAL_ERROR)"];
	s90 -> s1 [label="HELLO_REQUEST / TIMEOUT"];
	s90 -> s22 [label="APPLICATION / TIMEOUT"];
	s90 -> s1 [label="Alert(WARNING,CLOSE_NOTIFY) / TIMEOUT"];
	s90 -> s1 [label="Alert(FATAL,UNEXPECTED_MESSAGE) / TIMEOUT"];
	s91 -> s1 [label="HELLO_VERIFY_REQUEST / CLIENT_HELLO|Alert(FATAL,UNEXPECTED_MESSAGE)"];
	s91 -> s1 [label="PSK_SERVER_HELLO / Alert(FATAL,UNEXPECTED_MESSAGE)"];
	s91 -> s1 [label="SERVER_HELLO_DONE / Alert(FATAL,UNEXPECTED_MESSAGE)"];
	s91 -> s1 [label="CHANGE_CIPHER_SPEC / TIMEOUT"];
	s91 -> s1 [label="FINISHED / Alert(FATAL,INTERNAL_ERROR)"];
	s91 -> s1 [label="HELLO_REQUEST / TIMEOUT"];
	s91 -> s1 [label="APPLICATION / TIMEOUT"];
	s91 -> s1 [label="Alert(WARNING,CLOSE_NOTIFY) / TIMEOUT"];
	s91 -> s1 [label="Alert(FATAL,UNEXPECTED_MESSAGE) / TIMEOUT"];
	s92 -> s1 [label="HELLO_VERIFY_REQUEST / CLIENT_HELLO|Alert(FATAL,UNEXPECTED_MESSAGE)"];
	s92 -> s1 [label="PSK_SERVER_HELLO / Alert(FATAL,UNEXPECTED_MESSAGE)"];
	s92 -> s1 [label="SERVER_HELLO_DONE / PSK_CLIENT_KEY_EXCHANGE|CHANGE_CIPHER_SPEC|FINISHED|Alert(FATAL,UNEXPECTED_MESSAGE)"];
	s92 -> s1 [label="CHANGE_CIPHER_SPEC / TIMEOUT"];
	s92 -> s1 [label="FINISHED / Alert(FATAL,INTERNAL_ERROR)"];
	s92 -> s1 [label="HELLO_REQUEST / TIMEOUT"];
	s92 -> s1 [label="APPLICATION / Alert(FATAL,UNEXPECTED_MESSAGE)"];
	s92 -> s1 [label="Alert(WARNING,CLOSE_NOTIFY) / TIMEOUT"];
	s92 -> s1 [label="Alert(FATAL,UNEXPECTED_MESSAGE) / TIMEOUT"];
	s93 -> s120 [label="HELLO_VERIFY_REQUEST / CLIENT_HELLO"];
	s93 -> s94 [label="PSK_SERVER_HELLO / TIMEOUT"];
	s93 -> s1 [label="SERVER_HELLO_DONE / Alert(FATAL,UNEXPECTED_MESSAGE)"];
	s93 -> s1 [label="CHANGE_CIPHER_SPEC / TIMEOUT"];
	s93 -> s1 [label="FINISHED / Alert(FATAL,INTERNAL_ERROR)"];
	s93 -> s1 [label="HELLO_REQUEST / TIMEOUT"];
	s93 -> s1 [label="APPLICATION / Alert(FATAL,UNEXPECTED_MESSAGE)"];
	s93 -> s1 [label="Alert(WARNING,CLOSE_NOTIFY) / TIMEOUT"];
	s93 -> s1 [label="Alert(FATAL,UNEXPECTED_MESSAGE) / TIMEOUT"];
	s94 -> s120 [label="HELLO_VERIFY_REQUEST / CLIENT_HELLO"];
	s94 -> s1 [label="PSK_SERVER_HELLO / Alert(FATAL,UNEXPECTED_MESSAGE)"];
	s94 -> s95 [label="SERVER_HELLO_DONE / PSK_CLIENT_KEY_EXCHANGE|CHANGE_CIPHER_SPEC|FINISHED"];
	s94 -> s1 [label="CHANGE_CIPHER_SPEC / TIMEOUT"];
	s94 -> s1 [label="FINISHED / Alert(FATAL,INTERNAL_ERROR)"];
	s94 -> s1 [label="HELLO_REQUEST / TIMEOUT"];
	s94 -> s1 [label="APPLICATION / Alert(FATAL,UNEXPECTED_MESSAGE)"];
	s94 -> s1 [label="Alert(WARNING,CLOSE_NOTIFY) / TIMEOUT"];
	s94 -> s1 [label="Alert(FATAL,UNEXPECTED_MESSAGE) / TIMEOUT"];
	s95 -> s1 [label="HELLO_VERIFY_REQUEST / Alert(FATAL,UNEXPECTED_MESSAGE)"];
	s95 -> s1 [label="PSK_SERVER_HELLO / Alert(FATAL,UNEXPECTED_MESSAGE)"];
	s95 -> s1 [label="SERVER_HELLO_DONE / Alert(FATAL,UNEXPECTED_MESSAGE)"];
	s95 -> s96 [label="CHANGE_CIPHER_SPEC / TIMEOUT"];
	s95 -> s1 [label="FINISHED / Alert(FATAL,UNEXPECTED_MESSAGE)"];
	s95 -> s1 [label="HELLO_REQUEST / TIMEOUT"];
	s95 -> s1 [label="APPLICATION / Alert(FATAL,UNEXPECTED_MESSAGE)"];
	s95 -> s1 [label="Alert(WARNING,CLOSE_NOTIFY) / TIMEOUT"];
	s95 -> s1 [label="Alert(FATAL,UNEXPECTED_MESSAGE) / TIMEOUT"];
	s96 -> s1 [label="HELLO_VERIFY_REQUEST / Alert(FATAL,UNEXPECTED_MESSAGE)"];
	s96 -> s1 [label="PSK_SERVER_HELLO / Alert(FATAL,UNEXPECTED_MESSAGE)"];
	s96 -> s1 [label="SERVER_HELLO_DONE / Alert(FATAL,UNEXPECTED_MESSAGE)"];
	s96 -> s1 [label="CHANGE_CIPHER_SPEC / TIMEOUT"];
	s96 -> s65 [label="FINISHED / TIMEOUT"];
	s96 -> s1 [label="HELLO_REQUEST / TIMEOUT"];
	s96 -> s97 [label="APPLICATION / TIMEOUT"];
	s96 -> s7 [label="Alert(WARNING,CLOSE_NOTIFY) / TIMEOUT"];
	s96 -> s67 [label="Alert(FATAL,UNEXPECTED_MESSAGE) / TIMEOUT"];
	s97 -> s1 [label="HELLO_VERIFY_REQUEST / Alert(FATAL,UNEXPECTED_MESSAGE)"];
	s97 -> s1 [label="PSK_SERVER_HELLO / Alert(FATAL,UNEXPECTED_MESSAGE)"];
	s97 -> s1 [label="SERVER_HELLO_DONE / Alert(FATAL,UNEXPECTED_MESSAGE)"];
	s97 -> s1 [label="CHANGE_CIPHER_SPEC / TIMEOUT"];
	s97 -> s65 [label="FINISHED / APPLICATION"];
	s97 -> s1 [label="HELLO_REQUEST / TIMEOUT"];
	s97 -> s97 [label="APPLICATION / TIMEOUT"];
	s97 -> s8 [label="Alert(WARNING,CLOSE_NOTIFY) / TIMEOUT"];
	s97 -> s66 [label="Alert(FATAL,UNEXPECTED_MESSAGE) / TIMEOUT"];
	s98 -> s1 [label="HELLO_VERIFY_REQUEST / TIMEOUT"];
	s98 -> s1 [label="PSK_SERVER_HELLO / Alert(FATAL,UNEXPECTED_MESSAGE)"];
	s98 -> s1 [label="SERVER_HELLO_DONE / PSK_CLIENT_KEY_EXCHANGE|CHANGE_CIPHER_SPEC|FINISHED|Alert(FATAL,UNEXPECTED_MESSAGE)"];
	s98 -> s1 [label="CHANGE_CIPHER_SPEC / TIMEOUT"];
	s98 -> s1 [label="FINISHED / Alert(FATAL,INTERNAL_ERROR)"];
	s98 -> s1 [label="HELLO_REQUEST / TIMEOUT"];
	s98 -> s1 [label="APPLICATION / Alert(FATAL,UNEXPECTED_MESSAGE)"];
	s98 -> s1 [label="Alert(WARNING,CLOSE_NOTIFY) / TIMEOUT"];
	s98 -> s1 [label="Alert(FATAL,UNEXPECTED_MESSAGE) / TIMEOUT"];
	s99 -> s1 [label="HELLO_VERIFY_REQUEST / CLIENT_HELLO+|Alert(FATAL,UNEXPECTED_MESSAGE)"];
	s99 -> s1 [label="PSK_SERVER_HELLO / Alert(FATAL,UNEXPECTED_MESSAGE)"];
	s99 -> s1 [label="SERVER_HELLO_DONE / PSK_CLIENT_KEY_EXCHANGE|CHANGE_CIPHER_SPEC|FINISHED|Alert(FATAL,UNEXPECTED_MESSAGE)"];
	s99 -> s1 [label="CHANGE_CIPHER_SPEC / TIMEOUT"];
	s99 -> s1 [label="FINISHED / Alert(FATAL,INTERNAL_ERROR)"];
	s99 -> s1 [label="HELLO_REQUEST / TIMEOUT"];
	s99 -> s1 [label="APPLICATION / Alert(FATAL,UNEXPECTED_MESSAGE)"];
	s99 -> s1 [label="Alert(WARNING,CLOSE_NOTIFY) / TIMEOUT"];
	s99 -> s1 [label="Alert(FATAL,UNEXPECTED_MESSAGE) / TIMEOUT"];
	s100 -> s75 [label="HELLO_VERIFY_REQUEST / CLIENT_HELLO"];
	s100 -> s1 [label="PSK_SERVER_HELLO / Alert(FATAL,UNEXPECTED_MESSAGE)"];
	s100 -> s15 [label="SERVER_HELLO_DONE / PSK_CLIENT_KEY_EXCHANGE|CHANGE_CIPHER_SPEC|FINISHED"];
	s100 -> s1 [label="CHANGE_CIPHER_SPEC / TIMEOUT"];
	s100 -> s1 [label="FINISHED / Alert(FATAL,INTERNAL_ERROR)"];
	s100 -> s1 [label="HELLO_REQUEST / TIMEOUT"];
	s100 -> s1 [label="APPLICATION / Alert(FATAL,UNEXPECTED_MESSAGE)"];
	s100 -> s1 [label="Alert(WARNING,CLOSE_NOTIFY) / TIMEOUT"];
	s100 -> s1 [label="Alert(FATAL,UNEXPECTED_MESSAGE) / TIMEOUT"];
	s101 -> s72 [label="HELLO_VERIFY_REQUEST / CLIENT_HELLO"];
	s101 -> s1 [label="PSK_SERVER_HELLO / Alert(FATAL,UNEXPECTED_MESSAGE)"];
	s101 -> s15 [label="SERVER_HELLO_DONE / PSK_CLIENT_KEY_EXCHANGE|CHANGE_CIPHER_SPEC|FINISHED"];
	s101 -> s1 [label="CHANGE_CIPHER_SPEC / TIMEOUT"];
	s101 -> s1 [label="FINISHED / Alert(FATAL,INTERNAL_ERROR)"];
	s101 -> s1 [label="HELLO_REQUEST / TIMEOUT"];
	s101 -> s1 [label="APPLICATION / Alert(FATAL,UNEXPECTED_MESSAGE)"];
	s101 -> s1 [label="Alert(WARNING,CLOSE_NOTIFY) / TIMEOUT"];
	s101 -> s1 [label="Alert(FATAL,UNEXPECTED_MESSAGE) / TIMEOUT"];
	s102 -> s76 [label="HELLO_VERIFY_REQUEST / CLIENT_HELLO"];
	s102 -> s1 [label="PSK_SERVER_HELLO / Alert(FATAL,UNEXPECTED_MESSAGE)"];
	s102 -> s15 [label="SERVER_HELLO_DONE / PSK_CLIENT_KEY_EXCHANGE|CHANGE_CIPHER_SPEC|FINISHED"];
	s102 -> s1 [label="CHANGE_CIPHER_SPEC / TIMEOUT"];
	s102 -> s1 [label="FINISHED / Alert(FATAL,INTERNAL_ERROR)"];
	s102 -> s1 [label="HELLO_REQUEST / TIMEOUT"];
	s102 -> s1 [label="APPLICATION / Alert(FATAL,UNEXPECTED_MESSAGE)"];
	s102 -> s1 [label="Alert(WARNING,CLOSE_NOTIFY) / TIMEOUT"];
	s102 -> s1 [label="Alert(FATAL,UNEXPECTED_MESSAGE) / TIMEOUT"];
	s103 -> s104 [label="HELLO_VERIFY_REQUEST / TIMEOUT"];
	s103 -> s105 [label="PSK_SERVER_HELLO / TIMEOUT"];
	s103 -> s104 [label="SERVER_HELLO_DONE / TIMEOUT"];
	s103 -> s1 [label="CHANGE_CIPHER_SPEC / TIMEOUT"];
	s103 -> s104 [label="FINISHED / TIMEOUT"];
	s103 -> s1 [label="HELLO_REQUEST / TIMEOUT"];
	s103 -> s1 [label="APPLICATION / Alert(FATAL,UNEXPECTED_MESSAGE)"];
	s103 -> s1 [label="Alert(WARNING,CLOSE_NOTIFY) / TIMEOUT"];
	s103 -> s1 [label="Alert(FATAL,UNEXPECTED_MESSAGE) / TIMEOUT"];
	s104 -> s1 [label="HELLO_VERIFY_REQUEST / Alert(FATAL,UNEXPECTED_MESSAGE)"];
	s104 -> s1 [label="PSK_SERVER_HELLO / Alert(FATAL,UNEXPECTED_MESSAGE)"];
	s104 -> s1 [label="SERVER_HELLO_DONE / Alert(FATAL,UNEXPECTED_MESSAGE)"];
	s104 -> s106 [label="CHANGE_CIPHER_SPEC / TIMEOUT"];
	s104 -> s1 [label="FINISHED / Alert(FATAL,UNEXPECTED_MESSAGE)"];
	s104 -> s1 [label="HELLO_REQUEST / TIMEOUT"];
	s104 -> s1 [label="APPLICATION / Alert(FATAL,UNEXPECTED_MESSAGE)"];
	s104 -> s1 [label="Alert(WARNING,CLOSE_NOTIFY) / TIMEOUT"];
	s104 -> s1 [label="Alert(FATAL,UNEXPECTED_MESSAGE) / TIMEOUT"];
	s105 -> s1 [label="HELLO_VERIFY_REQUEST / Alert(FATAL,UNEXPECTED_MESSAGE)"];
	s105 -> s1 [label="PSK_SERVER_HELLO / Alert(FATAL,UNEXPECTED_MESSAGE)"];
	s105 -> s1 [label="SERVER_HELLO_DONE / Alert(FATAL,UNEXPECTED_MESSAGE)"];
	s105 -> s1 [label="CHANGE_CIPHER_SPEC / TIMEOUT"];
	s105 -> s1 [label="FINISHED / Alert(FATAL,UNEXPECTED_MESSAGE)"];
	s105 -> s1 [label="HELLO_REQUEST / TIMEOUT"];
	s105 -> s1 [label="APPLICATION / Alert(FATAL,UNEXPECTED_MESSAGE)"];
	s105 -> s1 [label="Alert(WARNING,CLOSE_NOTIFY) / TIMEOUT"];
	s105 -> s1 [label="Alert(FATAL,UNEXPECTED_MESSAGE) / TIMEOUT"];
	s106 -> s1 [label="HELLO_VERIFY_REQUEST / Alert(FATAL,UNEXPECTED_MESSAGE)"];
	s106 -> s1 [label="PSK_SERVER_HELLO / Alert(FATAL,UNEXPECTED_MESSAGE)"];
	s106 -> s1 [label="SERVER_HELLO_DONE / Alert(FATAL,UNEXPECTED_MESSAGE)"];
	s106 -> s1 [label="CHANGE_CIPHER_SPEC / TIMEOUT"];
	s106 -> s1 [label="FINISHED / Alert(FATAL,DECRYPT_ERROR)"];
	s106 -> s1 [label="HELLO_REQUEST / TIMEOUT"];
	s106 -> s106 [label="APPLICATION / TIMEOUT"];
	s106 -> s106 [label="Alert(WARNING,CLOSE_NOTIFY) / TIMEOUT"];
	s106 -> s106 [label="Alert(FATAL,UNEXPECTED_MESSAGE) / TIMEOUT"];
	s107 -> s108 [label="HELLO_VERIFY_REQUEST / TIMEOUT"];
	s107 -> s109 [label="PSK_SERVER_HELLO / TIMEOUT"];
	s107 -> s108 [label="SERVER_HELLO_DONE / TIMEOUT"];
	s107 -> s1 [label="CHANGE_CIPHER_SPEC / TIMEOUT"];
	s107 -> s108 [label="FINISHED / TIMEOUT"];
	s107 -> s1 [label="HELLO_REQUEST / TIMEOUT"];
	s107 -> s1 [label="APPLICATION / Alert(FATAL,UNEXPECTED_MESSAGE)"];
	s107 -> s1 [label="Alert(WARNING,CLOSE_NOTIFY) / TIMEOUT"];
	s107 -> s1 [label="Alert(FATAL,UNEXPECTED_MESSAGE) / TIMEOUT"];
	s108 -> s13 [label="HELLO_VERIFY_REQUEST / CLIENT_HELLO"];
	s108 -> s1 [label="PSK_SERVER_HELLO / Alert(FATAL,UNEXPECTED_MESSAGE)"];
	s108 -> s104 [label="SERVER_HELLO_DONE / PSK_CLIENT_KEY_EXCHANGE|CHANGE_CIPHER_SPEC|FINISHED"];
	s108 -> s1 [label="CHANGE_CIPHER_SPEC / TIMEOUT"];
	s108 -> s1 [label="FINISHED / Alert(FATAL,INTERNAL_ERROR)"];
	s108 -> s1 [label="HELLO_REQUEST / TIMEOUT"];
	s108 -> s1 [label="APPLICATION / Alert(FATAL,UNEXPECTED_MESSAGE)"];
	s108 -> s1 [label="Alert(WARNING,CLOSE_NOTIFY) / TIMEOUT"];
	s108 -> s1 [label="Alert(FATAL,UNEXPECTED_MESSAGE) / TIMEOUT"];
	s109 -> s13 [label="HELLO_VERIFY_REQUEST / CLIENT_HELLO"];
	s109 -> s1 [label="PSK_SERVER_HELLO / Alert(FATAL,UNEXPECTED_MESSAGE)"];
	s109 -> s110 [label="SERVER_HELLO_DONE / PSK_CLIENT_KEY_EXCHANGE|CHANGE_CIPHER_SPEC|UNKNOWN_MESSAGE"];
	s109 -> s1 [label="CHANGE_CIPHER_SPEC / TIMEOUT"];
	s109 -> s1 [label="FINISHED / Alert(FATAL,INTERNAL_ERROR)"];
	s109 -> s1 [label="HELLO_REQUEST / TIMEOUT"];
	s109 -> s1 [label="APPLICATION / Alert(FATAL,UNEXPECTED_MESSAGE)"];
	s109 -> s1 [label="Alert(WARNING,CLOSE_NOTIFY) / TIMEOUT"];
	s109 -> s1 [label="Alert(FATAL,UNEXPECTED_MESSAGE) / TIMEOUT"];
	s110 -> s1 [label="HELLO_VERIFY_REQUEST / UNKNOWN_MESSAGE"];
	s110 -> s1 [label="PSK_SERVER_HELLO / UNKNOWN_MESSAGE"];
	s110 -> s1 [label="SERVER_HELLO_DONE / UNKNOWN_MESSAGE"];
	s110 -> s1 [label="CHANGE_CIPHER_SPEC / TIMEOUT"];
	s110 -> s1 [label="FINISHED / UNKNOWN_MESSAGE"];
	s110 -> s1 [label="HELLO_REQUEST / TIMEOUT"];
	s110 -> s1 [label="APPLICATION / UNKNOWN_MESSAGE"];
	s110 -> s1 [label="Alert(WARNING,CLOSE_NOTIFY) / TIMEOUT"];
	s110 -> s1 [label="Alert(FATAL,UNEXPECTED_MESSAGE) / TIMEOUT"];
	s111 -> s112 [label="HELLO_VERIFY_REQUEST / CLIENT_HELLO"];
	s111 -> s1 [label="PSK_SERVER_HELLO / Alert(FATAL,UNEXPECTED_MESSAGE)"];
	s111 -> s15 [label="SERVER_HELLO_DONE / PSK_CLIENT_KEY_EXCHANGE|CHANGE_CIPHER_SPEC|FINISHED"];
	s111 -> s1 [label="CHANGE_CIPHER_SPEC / TIMEOUT"];
	s111 -> s1 [label="FINISHED / Alert(FATAL,INTERNAL_ERROR)"];
	s111 -> s1 [label="HELLO_REQUEST / TIMEOUT"];
	s111 -> s1 [label="APPLICATION / Alert(FATAL,UNEXPECTED_MESSAGE)"];
	s111 -> s1 [label="Alert(WARNING,CLOSE_NOTIFY) / TIMEOUT"];
	s111 -> s1 [label="Alert(FATAL,UNEXPECTED_MESSAGE) / TIMEOUT"];
	s112 -> s113 [label="HELLO_VERIFY_REQUEST / CLIENT_HELLO"];
	s112 -> s1 [label="PSK_SERVER_HELLO / Alert(FATAL,UNEXPECTED_MESSAGE)"];
	s112 -> s1 [label="SERVER_HELLO_DONE / Alert(FATAL,UNEXPECTED_MESSAGE)"];
	s112 -> s1 [label="CHANGE_CIPHER_SPEC / TIMEOUT"];
	s112 -> s1 [label="FINISHED / Alert(FATAL,INTERNAL_ERROR)"];
	s112 -> s1 [label="HELLO_REQUEST / TIMEOUT"];
	s112 -> s68 [label="APPLICATION / TIMEOUT"];
	s112 -> s1 [label="Alert(WARNING,CLOSE_NOTIFY) / TIMEOUT"];
	s112 -> s1 [label="Alert(FATAL,UNEXPECTED_MESSAGE) / TIMEOUT"];
	s113 -> s114 [label="HELLO_VERIFY_REQUEST / TIMEOUT"];
	s113 -> s109 [label="PSK_SERVER_HELLO / TIMEOUT"];
	s113 -> s114 [label="SERVER_HELLO_DONE / TIMEOUT"];
	s113 -> s1 [label="CHANGE_CIPHER_SPEC / TIMEOUT"];
	s113 -> s114 [label="FINISHED / TIMEOUT"];
	s113 -> s1 [label="HELLO_REQUEST / TIMEOUT"];
	s113 -> s1 [label="APPLICATION / Alert(FATAL,UNEXPECTED_MESSAGE)"];
	s113 -> s1 [label="Alert(WARNING,CLOSE_NOTIFY) / TIMEOUT"];
	s113 -> s1 [label="Alert(FATAL,UNEXPECTED_MESSAGE) / TIMEOUT"];
	s114 -> s116 [label="HELLO_VERIFY_REQUEST / CLIENT_HELLO"];
	s114 -> s1 [label="PSK_SERVER_HELLO / Alert(FATAL,UNEXPECTED_MESSAGE)"];
	s114 -> s104 [label="SERVER_HELLO_DONE / PSK_CLIENT_KEY_EXCHANGE|CHANGE_CIPHER_SPEC|FINISHED"];
	s114 -> s1 [label="CHANGE_CIPHER_SPEC / TIMEOUT"];
	s114 -> s1 [label="FINISHED / Alert(FATAL,INTERNAL_ERROR)"];
	s114 -> s1 [label="HELLO_REQUEST / TIMEOUT"];
	s114 -> s1 [label="APPLICATION / Alert(FATAL,UNEXPECTED_MESSAGE)"];
	s114 -> s1 [label="Alert(WARNING,CLOSE_NOTIFY) / TIMEOUT"];
	s114 -> s1 [label="Alert(FATAL,UNEXPECTED_MESSAGE) / TIMEOUT"];
	s115 -> s109 [label="HELLO_VERIFY_REQUEST / TIMEOUT"];
	s115 -> s109 [label="PSK_SERVER_HELLO / TIMEOUT"];
	s115 -> s109 [label="SERVER_HELLO_DONE / TIMEOUT"];
	s115 -> s1 [label="CHANGE_CIPHER_SPEC / TIMEOUT"];
	s115 -> s109 [label="FINISHED / TIMEOUT"];
	s115 -> s1 [label="HELLO_REQUEST / TIMEOUT"];
	s115 -> s1 [label="APPLICATION / Alert(FATAL,UNEXPECTED_MESSAGE)"];
	s115 -> s1 [label="Alert(WARNING,CLOSE_NOTIFY) / TIMEOUT"];
	s115 -> s1 [label="Alert(FATAL,UNEXPECTED_MESSAGE) / TIMEOUT"];
	s116 -> s116 [label="HELLO_VERIFY_REQUEST / CLIENT_HELLO"];
	s116 -> s121 [label="PSK_SERVER_HELLO / TIMEOUT"];
	s116 -> s1 [label="SERVER_HELLO_DONE / Alert(FATAL,UNEXPECTED_MESSAGE)"];
	s116 -> s1 [label="CHANGE_CIPHER_SPEC / TIMEOUT"];
	s116 -> s1 [label="FINISHED / Alert(FATAL,INTERNAL_ERROR)"];
	s116 -> s1 [label="HELLO_REQUEST / TIMEOUT"];
	s116 -> s13 [label="APPLICATION / TIMEOUT"];
	s116 -> s1 [label="Alert(WARNING,CLOSE_NOTIFY) / TIMEOUT"];
	s116 -> s1 [label="Alert(FATAL,UNEXPECTED_MESSAGE) / TIMEOUT"];
	s117 -> s119 [label="HELLO_VERIFY_REQUEST / CLIENT_HELLO"];
	s117 -> s118 [label="PSK_SERVER_HELLO / TIMEOUT"];
	s117 -> s1 [label="SERVER_HELLO_DONE / Alert(FATAL,UNEXPECTED_MESSAGE)"];
	s117 -> s1 [label="CHANGE_CIPHER_SPEC / TIMEOUT"];
	s117 -> s1 [label="FINISHED / Alert(FATAL,INTERNAL_ERROR)"];
	s117 -> s1 [label="HELLO_REQUEST / TIMEOUT"];
	s117 -> s139 [label="APPLICATION / TIMEOUT"];
	s117 -> s1 [label="Alert(WARNING,CLOSE_NOTIFY) / TIMEOUT"];
	s117 -> s1 [label="Alert(FATAL,UNEXPECTED_MESSAGE) / TIMEOUT"];
	s118 -> s90 [label="HELLO_VERIFY_REQUEST / CLIENT_HELLO"];
	s118 -> s1 [label="PSK_SERVER_HELLO / Alert(FATAL,UNEXPECTED_MESSAGE)"];
	s118 -> s15 [label="SERVER_HELLO_DONE / PSK_CLIENT_KEY_EXCHANGE|CHANGE_CIPHER_SPEC|FINISHED"];
	s118 -> s1 [label="CHANGE_CIPHER_SPEC / TIMEOUT"];
	s118 -> s1 [label="FINISHED / Alert(FATAL,INTERNAL_ERROR)"];
	s118 -> s1 [label="HELLO_REQUEST / TIMEOUT"];
	s118 -> s1 [label="APPLICATION / Alert(FATAL,UNEXPECTED_MESSAGE)"];
	s118 -> s1 [label="Alert(WARNING,CLOSE_NOTIFY) / TIMEOUT"];
	s118 -> s1 [label="Alert(FATAL,UNEXPECTED_MESSAGE) / TIMEOUT"];
	s119 -> s90 [label="HELLO_VERIFY_REQUEST / CLIENT_HELLO"];
	s119 -> s94 [label="PSK_SERVER_HELLO / TIMEOUT"];
	s119 -> s1 [label="SERVER_HELLO_DONE / Alert(FATAL,UNEXPECTED_MESSAGE)"];
	s119 -> s1 [label="CHANGE_CIPHER_SPEC / TIMEOUT"];
	s119 -> s1 [label="FINISHED / Alert(FATAL,INTERNAL_ERROR)"];
	s119 -> s1 [label="HELLO_REQUEST / TIMEOUT"];
	s119 -> s21 [label="APPLICATION / TIMEOUT"];
	s119 -> s1 [label="Alert(WARNING,CLOSE_NOTIFY) / TIMEOUT"];
	s119 -> s1 [label="Alert(FATAL,UNEXPECTED_MESSAGE) / TIMEOUT"];
	s120 -> s120 [label="HELLO_VERIFY_REQUEST / CLIENT_HELLO"];
	s120 -> s121 [label="PSK_SERVER_HELLO / TIMEOUT"];
	s120 -> s1 [label="SERVER_HELLO_DONE / Alert(FATAL,UNEXPECTED_MESSAGE)"];
	s120 -> s1 [label="CHANGE_CIPHER_SPEC / TIMEOUT"];
	s120 -> s1 [label="FINISHED / Alert(FATAL,INTERNAL_ERROR)"];
	s120 -> s1 [label="HELLO_REQUEST / TIMEOUT"];
	s120 -> s1 [label="APPLICATION / Alert(FATAL,UNEXPECTED_MESSAGE)"];
	s120 -> s1 [label="Alert(WARNING,CLOSE_NOTIFY) / TIMEOUT"];
	s120 -> s1 [label="Alert(FATAL,UNEXPECTED_MESSAGE) / TIMEOUT"];
	s121 -> s120 [label="HELLO_VERIFY_REQUEST / CLIENT_HELLO"];
	s121 -> s1 [label="PSK_SERVER_HELLO / Alert(FATAL,UNEXPECTED_MESSAGE)"];
	s121 -> s122 [label="SERVER_HELLO_DONE / PSK_CLIENT_KEY_EXCHANGE|CHANGE_CIPHER_SPEC|FINISHED"];
	s121 -> s1 [label="CHANGE_CIPHER_SPEC / TIMEOUT"];
	s121 -> s1 [label="FINISHED / Alert(FATAL,INTERNAL_ERROR)"];
	s121 -> s1 [label="HELLO_REQUEST / TIMEOUT"];
	s121 -> s1 [label="APPLICATION / Alert(FATAL,UNEXPECTED_MESSAGE)"];
	s121 -> s1 [label="Alert(WARNING,CLOSE_NOTIFY) / TIMEOUT"];
	s121 -> s1 [label="Alert(FATAL,UNEXPECTED_MESSAGE) / TIMEOUT"];
	s122 -> s1 [label="HELLO_VERIFY_REQUEST / Alert(FATAL,UNEXPECTED_MESSAGE)"];
	s122 -> s1 [label="PSK_SERVER_HELLO / Alert(FATAL,UNEXPECTED_MESSAGE)"];
	s122 -> s1 [label="SERVER_HELLO_DONE / Alert(FATAL,UNEXPECTED_MESSAGE)"];
	s122 -> s123 [label="CHANGE_CIPHER_SPEC / TIMEOUT"];
	s122 -> s1 [label="FINISHED / Alert(FATAL,UNEXPECTED_MESSAGE)"];
	s122 -> s1 [label="HELLO_REQUEST / TIMEOUT"];
	s122 -> s1 [label="APPLICATION / Alert(FATAL,UNEXPECTED_MESSAGE)"];
	s122 -> s1 [label="Alert(WARNING,CLOSE_NOTIFY) / TIMEOUT"];
	s122 -> s1 [label="Alert(FATAL,UNEXPECTED_MESSAGE) / TIMEOUT"];
	s123 -> s1 [label="HELLO_VERIFY_REQUEST / Alert(FATAL,UNEXPECTED_MESSAGE)"];
	s123 -> s1 [label="PSK_SERVER_HELLO / Alert(FATAL,UNEXPECTED_MESSAGE)"];
	s123 -> s1 [label="SERVER_HELLO_DONE / Alert(FATAL,UNEXPECTED_MESSAGE)"];
	s123 -> s1 [label="CHANGE_CIPHER_SPEC / TIMEOUT"];
	s123 -> s124 [label="FINISHED / TIMEOUT"];
	s123 -> s1 [label="HELLO_REQUEST / TIMEOUT"];
	s123 -> s97 [label="APPLICATION / TIMEOUT"];
	s123 -> s7 [label="Alert(WARNING,CLOSE_NOTIFY) / TIMEOUT"];
	s123 -> s67 [label="Alert(FATAL,UNEXPECTED_MESSAGE) / TIMEOUT"];
	s124 -> s125 [label="HELLO_VERIFY_REQUEST / TIMEOUT"];
	s124 -> s125 [label="PSK_SERVER_HELLO / TIMEOUT"];
	s124 -> s125 [label="SERVER_HELLO_DONE / TIMEOUT"];
	s124 -> s1 [label="CHANGE_CIPHER_SPEC / TIMEOUT"];
	s124 -> s124 [label="FINISHED / TIMEOUT"];
	s124 -> s11 [label="HELLO_REQUEST / CLIENT_HELLO"];
	s124 -> s124 [label="APPLICATION / APPLICATION"];
	s124 -> s1 [label="Alert(WARNING,CLOSE_NOTIFY) / Alert(WARNING,CLOSE_NOTIFY)"];
	s124 -> s1 [label="Alert(FATAL,UNEXPECTED_MESSAGE) / TIMEOUT"];
	s125 -> s125 [label="HELLO_VERIFY_REQUEST / TIMEOUT"];
	s125 -> s125 [label="PSK_SERVER_HELLO / TIMEOUT"];
	s125 -> s125 [label="SERVER_HELLO_DONE / TIMEOUT"];
	s125 -> s1 [label="CHANGE_CIPHER_SPEC / TIMEOUT"];
	s125 -> s125 [label="FINISHED / TIMEOUT"];
	s125 -> s11 [label="HELLO_REQUEST / CLIENT_HELLO"];
	s125 -> s1 [label="APPLICATION / Alert(FATAL,UNEXPECTED_MESSAGE)"];
	s125 -> s1 [label="Alert(WARNING,CLOSE_NOTIFY) / TIMEOUT"];
	s125 -> s1 [label="Alert(FATAL,UNEXPECTED_MESSAGE) / TIMEOUT"];
	s126 -> s129 [label="HELLO_VERIFY_REQUEST / TIMEOUT"];
	s126 -> s129 [label="PSK_SERVER_HELLO / TIMEOUT"];
	s126 -> s129 [label="SERVER_HELLO_DONE / TIMEOUT"];
	s126 -> s1 [label="CHANGE_CIPHER_SPEC / TIMEOUT"];
	s126 -> s126 [label="FINISHED / TIMEOUT"];
	s126 -> s130 [label="HELLO_REQUEST / CLIENT_HELLO"];
	s126 -> s1 [label="APPLICATION / Alert(FATAL,UNEXPECTED_MESSAGE)"];
	s126 -> s1 [label="Alert(WARNING,CLOSE_NOTIFY) / TIMEOUT"];
	s126 -> s1 [label="Alert(FATAL,UNEXPECTED_MESSAGE) / TIMEOUT"];
	s127 -> s132 [label="HELLO_VERIFY_REQUEST / TIMEOUT"];
	s127 -> s127 [label="PSK_SERVER_HELLO / TIMEOUT"];
	s127 -> s131 [label="SERVER_HELLO_DONE / TIMEOUT"];
	s127 -> s1 [label="CHANGE_CIPHER_SPEC / TIMEOUT"];
	s127 -> s127 [label="FINISHED / TIMEOUT"];
	s127 -> s128 [label="HELLO_REQUEST / CLIENT_HELLO"];
	s127 -> s1 [label="APPLICATION / Alert(FATAL,UNEXPECTED_MESSAGE)"];
	s127 -> s1 [label="Alert(WARNING,CLOSE_NOTIFY) / TIMEOUT"];
	s127 -> s1 [label="Alert(FATAL,UNEXPECTED_MESSAGE) / TIMEOUT"];
	s128 -> s160 [label="HELLO_VERIFY_REQUEST / CLIENT_HELLO"];
	s128 -> s148 [label="PSK_SERVER_HELLO / TIMEOUT"];
	s128 -> s1 [label="SERVER_HELLO_DONE / Alert(FATAL,UNEXPECTED_MESSAGE)"];
	s128 -> s1 [label="CHANGE_CIPHER_SPEC / TIMEOUT"];
	s128 -> s1 [label="FINISHED / Alert(FATAL,INTERNAL_ERROR)"];
	s128 -> s1 [label="HELLO_REQUEST / TIMEOUT"];
	s128 -> s141 [label="APPLICATION / TIMEOUT"];
	s128 -> s1 [label="Alert(WARNING,CLOSE_NOTIFY) / TIMEOUT"];
	s128 -> s1 [label="Alert(FATAL,UNEXPECTED_MESSAGE) / TIMEOUT"];
	s129 -> s129 [label="HELLO_VERIFY_REQUEST / TIMEOUT"];
	s129 -> s129 [label="PSK_SERVER_HELLO / TIMEOUT"];
	s129 -> s129 [label="SERVER_HELLO_DONE / TIMEOUT"];
	s129 -> s1 [label="CHANGE_CIPHER_SPEC / TIMEOUT"];
	s129 -> s129 [label="FINISHED / TIMEOUT"];
	s129 -> s133 [label="HELLO_REQUEST / CLIENT_HELLO"];
	s129 -> s1 [label="APPLICATION / Alert(FATAL,UNEXPECTED_MESSAGE)"];
	s129 -> s1 [label="Alert(WARNING,CLOSE_NOTIFY) / TIMEOUT"];
	s129 -> s1 [label="Alert(FATAL,UNEXPECTED_MESSAGE) / TIMEOUT"];
	s130 -> s43 [label="HELLO_VERIFY_REQUEST / CLIENT_HELLO"];
	s130 -> s153 [label="PSK_SERVER_HELLO / TIMEOUT"];
	s130 -> s1 [label="SERVER_HELLO_DONE / Alert(FATAL,UNEXPECTED_MESSAGE)"];
	s130 -> s1 [label="CHANGE_CIPHER_SPEC / TIMEOUT"];
	s130 -> s1 [label="FINISHED / Alert(FATAL,INTERNAL_ERROR)"];
	s130 -> s1 [label="HELLO_REQUEST / TIMEOUT"];
	s130 -> s140 [label="APPLICATION / TIMEOUT"];
	s130 -> s1 [label="Alert(WARNING,CLOSE_NOTIFY) / TIMEOUT"];
	s130 -> s1 [label="Alert(FATAL,UNEXPECTED_MESSAGE) / TIMEOUT"];
	s131 -> s131 [label="HELLO_VERIFY_REQUEST / TIMEOUT"];
	s131 -> s131 [label="PSK_SERVER_HELLO / TIMEOUT"];
	s131 -> s131 [label="SERVER_HELLO_DONE / TIMEOUT"];
	s131 -> s1 [label="CHANGE_CIPHER_SPEC / TIMEOUT"];
	s131 -> s131 [label="FINISHED / TIMEOUT"];
	s131 -> s136 [label="HELLO_REQUEST / CLIENT_HELLO"];
	s131 -> s1 [label="APPLICATION / Alert(FATAL,UNEXPECTED_MESSAGE)"];
	s131 -> s1 [label="Alert(WARNING,CLOSE_NOTIFY) / TIMEOUT"];
	s131 -> s1 [label="Alert(FATAL,UNEXPECTED_MESSAGE) / TIMEOUT"];
	s132 -> s132 [label="HELLO_VERIFY_REQUEST / TIMEOUT"];
	s132 -> s132 [label="PSK_SERVER_HELLO / TIMEOUT"];
	s132 -> s134 [label="SERVER_HELLO_DONE / TIMEOUT"];
	s132 -> s1 [label="CHANGE_CIPHER_SPEC / TIMEOUT"];
	s132 -> s132 [label="FINISHED / TIMEOUT"];
	s132 -> s135 [label="HELLO_REQUEST / CLIENT_HELLO"];
	s132 -> s1 [label="APPLICATION / Alert(FATAL,UNEXPECTED_MESSAGE)"];
	s132 -> s1 [label="Alert(WARNING,CLOSE_NOTIFY) / TIMEOUT"];
	s132 -> s1 [label="Alert(FATAL,UNEXPECTED_MESSAGE) / TIMEOUT"];
	s133 -> s146 [label="HELLO_VERIFY_REQUEST / CLIENT_HELLO"];
	s133 -> s150 [label="PSK_SERVER_HELLO / TIMEOUT"];
	s133 -> s1 [label="SERVER_HELLO_DONE / Alert(FATAL,UNEXPECTED_MESSAGE)"];
	s133 -> s1 [label="CHANGE_CIPHER_SPEC / TIMEOUT"];
	s133 -> s1 [label="FINISHED / Alert(FATAL,INTERNAL_ERROR)"];
	s133 -> s1 [label="HELLO_REQUEST / TIMEOUT"];
	s133 -> s143 [label="APPLICATION / TIMEOUT"];
	s133 -> s1 [label="Alert(WARNING,CLOSE_NOTIFY) / TIMEOUT"];
	s133 -> s1 [label="Alert(FATAL,UNEXPECTED_MESSAGE) / TIMEOUT"];
	s134 -> s134 [label="HELLO_VERIFY_REQUEST / TIMEOUT"];
	s134 -> s134 [label="PSK_SERVER_HELLO / TIMEOUT"];
	s134 -> s134 [label="SERVER_HELLO_DONE / TIMEOUT"];
	s134 -> s1 [label="CHANGE_CIPHER_SPEC / TIMEOUT"];
	s134 -> s134 [label="FINISHED / TIMEOUT"];
	s134 -> s137 [label="HELLO_REQUEST / CLIENT_HELLO"];
	s134 -> s1 [label="APPLICATION / Alert(FATAL,UNEXPECTED_MESSAGE)"];
	s134 -> s1 [label="Alert(WARNING,CLOSE_NOTIFY) / TIMEOUT"];
	s134 -> s1 [label="Alert(FATAL,UNEXPECTED_MESSAGE) / TIMEOUT"];
	s135 -> s51 [label="HELLO_VERIFY_REQUEST / CLIENT_HELLO"];
	s135 -> s149 [label="PSK_SERVER_HELLO / TIMEOUT"];
	s135 -> s1 [label="SERVER_HELLO_DONE / Alert(FATAL,UNEXPECTED_MESSAGE)"];
	s135 -> s1 [label="CHANGE_CIPHER_SPEC / TIMEOUT"];
	s135 -> s1 [label="FINISHED / Alert(FATAL,INTERNAL_ERROR)"];
	s135 -> s1 [label="HELLO_REQUEST / TIMEOUT"];
	s135 -> s144 [label="APPLICATION / TIMEOUT"];
	s135 -> s1 [label="Alert(WARNING,CLOSE_NOTIFY) / TIMEOUT"];
	s135 -> s1 [label="Alert(FATAL,UNEXPECTED_MESSAGE) / TIMEOUT"];
	s136 -> s48 [label="HELLO_VERIFY_REQUEST / CLIENT_HELLO"];
	s136 -> s152 [label="PSK_SERVER_HELLO / TIMEOUT"];
	s136 -> s1 [label="SERVER_HELLO_DONE / Alert(FATAL,UNEXPECTED_MESSAGE)"];
	s136 -> s1 [label="CHANGE_CIPHER_SPEC / TIMEOUT"];
	s136 -> s1 [label="FINISHED / Alert(FATAL,INTERNAL_ERROR)"];
	s136 -> s1 [label="HELLO_REQUEST / TIMEOUT"];
	s136 -> s142 [label="APPLICATION / TIMEOUT"];
	s136 -> s1 [label="Alert(WARNING,CLOSE_NOTIFY) / TIMEOUT"];
	s136 -> s1 [label="Alert(FATAL,UNEXPECTED_MESSAGE) / TIMEOUT"];
	s137 -> s138 [label="HELLO_VERIFY_REQUEST / CLIENT_HELLO"];
	s137 -> s151 [label="PSK_SERVER_HELLO / TIMEOUT"];
	s137 -> s1 [label="SERVER_HELLO_DONE / Alert(FATAL,UNEXPECTED_MESSAGE)"];
	s137 -> s1 [label="CHANGE_CIPHER_SPEC / TIMEOUT"];
	s137 -> s1 [label="FINISHED / Alert(FATAL,INTERNAL_ERROR)"];
	s137 -> s1 [label="HELLO_REQUEST / TIMEOUT"];
	s137 -> s145 [label="APPLICATION / TIMEOUT"];
	s137 -> s1 [label="Alert(WARNING,CLOSE_NOTIFY) / TIMEOUT"];
	s137 -> s1 [label="Alert(FATAL,UNEXPECTED_MESSAGE) / TIMEOUT"];
	s138 -> s157 [label="HELLO_VERIFY_REQUEST / CLIENT_HELLO"];
	s138 -> s94 [label="PSK_SERVER_HELLO / TIMEOUT"];
	s138 -> s1 [label="SERVER_HELLO_DONE / Alert(FATAL,UNEXPECTED_MESSAGE)"];
	s138 -> s1 [label="CHANGE_CIPHER_SPEC / TIMEOUT"];
	s138 -> s1 [label="FINISHED / Alert(FATAL,INTERNAL_ERROR)"];
	s138 -> s1 [label="HELLO_REQUEST / TIMEOUT"];
	s138 -> s63 [label="APPLICATION / TIMEOUT"];
	s138 -> s1 [label="Alert(WARNING,CLOSE_NOTIFY) / TIMEOUT"];
	s138 -> s1 [label="Alert(FATAL,UNEXPECTED_MESSAGE) / TIMEOUT"];
	s139 -> s21 [label="HELLO_VERIFY_REQUEST / CLIENT_HELLO"];
	s139 -> s69 [label="PSK_SERVER_HELLO / TIMEOUT"];
	s139 -> s1 [label="SERVER_HELLO_DONE / Alert(FATAL,UNEXPECTED_MESSAGE)"];
	s139 -> s1 [label="CHANGE_CIPHER_SPEC / TIMEOUT"];
	s139 -> s1 [label="FINISHED / Alert(FATAL,INTERNAL_ERROR)"];
	s139 -> s1 [label="HELLO_REQUEST / TIMEOUT"];
	s139 -> s1 [label="APPLICATION / TIMEOUT"];
	s139 -> s1 [label="Alert(WARNING,CLOSE_NOTIFY) / TIMEOUT"];
	s139 -> s1 [label="Alert(FATAL,UNEXPECTED_MESSAGE) / TIMEOUT"];
	s140 -> s49 [label="HELLO_VERIFY_REQUEST / CLIENT_HELLO"];
	s140 -> s69 [label="PSK_SERVER_HELLO / TIMEOUT"];
	s140 -> s1 [label="SERVER_HELLO_DONE / Alert(FATAL,UNEXPECTED_MESSAGE)"];
	s140 -> s1 [label="CHANGE_CIPHER_SPEC / TIMEOUT"];
	s140 -> s1 [label="FINISHED / Alert(FATAL,INTERNAL_ERROR)"];
	s140 -> s1 [label="HELLO_REQUEST / TIMEOUT"];
	s140 -> s1 [label="APPLICATION / TIMEOUT"];
	s140 -> s1 [label="Alert(WARNING,CLOSE_NOTIFY) / TIMEOUT"];
	s140 -> s1 [label="Alert(FATAL,UNEXPECTED_MESSAGE) / TIMEOUT"];
	s141 -> s45 [label="HELLO_VERIFY_REQUEST / CLIENT_HELLO"];
	s141 -> s69 [label="PSK_SERVER_HELLO / TIMEOUT"];
	s141 -> s1 [label="SERVER_HELLO_DONE / Alert(FATAL,UNEXPECTED_MESSAGE)"];
	s141 -> s1 [label="CHANGE_CIPHER_SPEC / TIMEOUT"];
	s141 -> s1 [label="FINISHED / Alert(FATAL,INTERNAL_ERROR)"];
	s141 -> s1 [label="HELLO_REQUEST / TIMEOUT"];
	s141 -> s1 [label="APPLICATION / TIMEOUT"];
	s141 -> s1 [label="Alert(WARNING,CLOSE_NOTIFY) / TIMEOUT"];
	s141 -> s1 [label="Alert(FATAL,UNEXPECTED_MESSAGE) / TIMEOUT"];
	s142 -> s58 [label="HELLO_VERIFY_REQUEST / CLIENT_HELLO"];
	s142 -> s69 [label="PSK_SERVER_HELLO / TIMEOUT"];
	s142 -> s1 [label="SERVER_HELLO_DONE / Alert(FATAL,UNEXPECTED_MESSAGE)"];
	s142 -> s1 [label="CHANGE_CIPHER_SPEC / TIMEOUT"];
	s142 -> s1 [label="FINISHED / Alert(FATAL,INTERNAL_ERROR)"];
	s142 -> s1 [label="HELLO_REQUEST / TIMEOUT"];
	s142 -> s1 [label="APPLICATION / TIMEOUT"];
	s142 -> s1 [label="Alert(WARNING,CLOSE_NOTIFY) / TIMEOUT"];
	s142 -> s1 [label="Alert(FATAL,UNEXPECTED_MESSAGE) / TIMEOUT"];
	s143 -> s57 [label="HELLO_VERIFY_REQUEST / CLIENT_HELLO"];
	s143 -> s69 [label="PSK_SERVER_HELLO / TIMEOUT"];
	s143 -> s1 [label="SERVER_HELLO_DONE / Alert(FATAL,UNEXPECTED_MESSAGE)"];
	s143 -> s1 [label="CHANGE_CIPHER_SPEC / TIMEOUT"];
	s143 -> s1 [label="FINISHED / Alert(FATAL,INTERNAL_ERROR)"];
	s143 -> s1 [label="HELLO_REQUEST / TIMEOUT"];
	s143 -> s1 [label="APPLICATION / TIMEOUT"];
	s143 -> s1 [label="Alert(WARNING,CLOSE_NOTIFY) / TIMEOUT"];
	s143 -> s1 [label="Alert(FATAL,UNEXPECTED_MESSAGE) / TIMEOUT"];
	s144 -> s55 [label="HELLO_VERIFY_REQUEST / CLIENT_HELLO"];
	s144 -> s69 [label="PSK_SERVER_HELLO / TIMEOUT"];
	s144 -> s1 [label="SERVER_HELLO_DONE / Alert(FATAL,UNEXPECTED_MESSAGE)"];
	s144 -> s1 [label="CHANGE_CIPHER_SPEC / TIMEOUT"];
	s144 -> s1 [label="FINISHED / Alert(FATAL,INTERNAL_ERROR)"];
	s144 -> s1 [label="HELLO_REQUEST / TIMEOUT"];
	s144 -> s1 [label="APPLICATION / TIMEOUT"];
	s144 -> s1 [label="Alert(WARNING,CLOSE_NOTIFY) / TIMEOUT"];
	s144 -> s1 [label="Alert(FATAL,UNEXPECTED_MESSAGE) / TIMEOUT"];
	s145 -> s63 [label="HELLO_VERIFY_REQUEST / CLIENT_HELLO"];
	s145 -> s69 [label="PSK_SERVER_HELLO / TIMEOUT"];
	s145 -> s1 [label="SERVER_HELLO_DONE / Alert(FATAL,UNEXPECTED_MESSAGE)"];
	s145 -> s1 [label="CHANGE_CIPHER_SPEC / TIMEOUT"];
	s145 -> s1 [label="FINISHED / Alert(FATAL,INTERNAL_ERROR)"];
	s145 -> s1 [label="HELLO_REQUEST / TIMEOUT"];
	s145 -> s1 [label="APPLICATION / TIMEOUT"];
	s145 -> s1 [label="Alert(WARNING,CLOSE_NOTIFY) / TIMEOUT"];
	s145 -> s1 [label="Alert(FATAL,UNEXPECTED_MESSAGE) / TIMEOUT"];
	s146 -> s155 [label="HELLO_VERIFY_REQUEST / CLIENT_HELLO"];
	s146 -> s94 [label="PSK_SERVER_HELLO / TIMEOUT"];
	s146 -> s1 [label="SERVER_HELLO_DONE / Alert(FATAL,UNEXPECTED_MESSAGE)"];
	s146 -> s1 [label="CHANGE_CIPHER_SPEC / TIMEOUT"];
	s146 -> s1 [label="FINISHED / Alert(FATAL,INTERNAL_ERROR)"];
	s146 -> s1 [label="HELLO_REQUEST / TIMEOUT"];
	s146 -> s57 [label="APPLICATION / TIMEOUT"];
	s146 -> s1 [label="Alert(WARNING,CLOSE_NOTIFY) / TIMEOUT"];
	s146 -> s1 [label="Alert(FATAL,UNEXPECTED_MESSAGE) / TIMEOUT"];
	s147 -> s116 [label="HELLO_VERIFY_REQUEST / CLIENT_HELLO"];
	s147 -> s1 [label="PSK_SERVER_HELLO / Alert(FATAL,UNEXPECTED_MESSAGE)"];
	s147 -> s15 [label="SERVER_HELLO_DONE / PSK_CLIENT_KEY_EXCHANGE|CHANGE_CIPHER_SPEC|FINISHED"];
	s147 -> s1 [label="CHANGE_CIPHER_SPEC / TIMEOUT"];
	s147 -> s1 [label="FINISHED / Alert(FATAL,INTERNAL_ERROR)"];
	s147 -> s1 [label="HELLO_REQUEST / TIMEOUT"];
	s147 -> s1 [label="APPLICATION / Alert(FATAL,UNEXPECTED_MESSAGE)"];
	s147 -> s1 [label="Alert(WARNING,CLOSE_NOTIFY) / TIMEOUT"];
	s147 -> s1 [label="Alert(FATAL,UNEXPECTED_MESSAGE) / TIMEOUT"];
	s148 -> s159 [label="HELLO_VERIFY_REQUEST / CLIENT_HELLO"];
	s148 -> s1 [label="PSK_SERVER_HELLO / Alert(FATAL,UNEXPECTED_MESSAGE)"];
	s148 -> s15 [label="SERVER_HELLO_DONE / PSK_CLIENT_KEY_EXCHANGE|CHANGE_CIPHER_SPEC|FINISHED"];
	s148 -> s1 [label="CHANGE_CIPHER_SPEC / TIMEOUT"];
	s148 -> s1 [label="FINISHED / Alert(FATAL,INTERNAL_ERROR)"];
	s148 -> s1 [label="HELLO_REQUEST / TIMEOUT"];
	s148 -> s1 [label="APPLICATION / Alert(FATAL,UNEXPECTED_MESSAGE)"];
	s148 -> s1 [label="Alert(WARNING,CLOSE_NOTIFY) / TIMEOUT"];
	s148 -> s1 [label="Alert(FATAL,UNEXPECTED_MESSAGE) / TIMEOUT"];
	s149 -> s158 [label="HELLO_VERIFY_REQUEST / CLIENT_HELLO"];
	s149 -> s1 [label="PSK_SERVER_HELLO / Alert(FATAL,UNEXPECTED_MESSAGE)"];
	s149 -> s15 [label="SERVER_HELLO_DONE / PSK_CLIENT_KEY_EXCHANGE|CHANGE_CIPHER_SPEC|FINISHED"];
	s149 -> s1 [label="CHANGE_CIPHER_SPEC / TIMEOUT"];
	s149 -> s1 [label="FINISHED / Alert(FATAL,INTERNAL_ERROR)"];
	s149 -> s1 [label="HELLO_REQUEST / TIMEOUT"];
	s149 -> s1 [label="APPLICATION / Alert(FATAL,UNEXPECTED_MESSAGE)"];
	s149 -> s1 [label="Alert(WARNING,CLOSE_NOTIFY) / TIMEOUT"];
	s149 -> s1 [label="Alert(FATAL,UNEXPECTED_MESSAGE) / TIMEOUT"];
	s150 -> s155 [label="HELLO_VERIFY_REQUEST / CLIENT_HELLO"];
	s150 -> s1 [label="PSK_SERVER_HELLO / Alert(FATAL,UNEXPECTED_MESSAGE)"];
	s150 -> s15 [label="SERVER_HELLO_DONE / PSK_CLIENT_KEY_EXCHANGE|CHANGE_CIPHER_SPEC|FINISHED"];
	s150 -> s1 [label="CHANGE_CIPHER_SPEC / TIMEOUT"];
	s150 -> s1 [label="FINISHED / Alert(FATAL,INTERNAL_ERROR)"];
	s150 -> s1 [label="HELLO_REQUEST / TIMEOUT"];
	s150 -> s1 [label="APPLICATION / Alert(FATAL,UNEXPECTED_MESSAGE)"];
	s150 -> s1 [label="Alert(WARNING,CLOSE_NOTIFY) / TIMEOUT"];
	s150 -> s1 [label="Alert(FATAL,UNEXPECTED_MESSAGE) / TIMEOUT"];
	s151 -> s157 [label="HELLO_VERIFY_REQUEST / CLIENT_HELLO"];
	s151 -> s1 [label="PSK_SERVER_HELLO / Alert(FATAL,UNEXPECTED_MESSAGE)"];
	s151 -> s15 [label="SERVER_HELLO_DONE / PSK_CLIENT_KEY_EXCHANGE|CHANGE_CIPHER_SPEC|FINISHED"];
	s151 -> s1 [label="CHANGE_CIPHER_SPEC / TIMEOUT"];
	s151 -> s1 [label="FINISHED / Alert(FATAL,INTERNAL_ERROR)"];
	s151 -> s1 [label="HELLO_REQUEST / TIMEOUT"];
	s151 -> s1 [label="APPLICATION / Alert(FATAL,UNEXPECTED_MESSAGE)"];
	s151 -> s1 [label="Alert(WARNING,CLOSE_NOTIFY) / TIMEOUT"];
	s151 -> s1 [label="Alert(FATAL,UNEXPECTED_MESSAGE) / TIMEOUT"];
	s152 -> s156 [label="HELLO_VERIFY_REQUEST / CLIENT_HELLO"];
	s152 -> s1 [label="PSK_SERVER_HELLO / Alert(FATAL,UNEXPECTED_MESSAGE)"];
	s152 -> s15 [label="SERVER_HELLO_DONE / PSK_CLIENT_KEY_EXCHANGE|CHANGE_CIPHER_SPEC|FINISHED"];
	s152 -> s1 [label="CHANGE_CIPHER_SPEC / TIMEOUT"];
	s152 -> s1 [label="FINISHED / Alert(FATAL,INTERNAL_ERROR)"];
	s152 -> s1 [label="HELLO_REQUEST / TIMEOUT"];
	s152 -> s1 [label="APPLICATION / Alert(FATAL,UNEXPECTED_MESSAGE)"];
	s152 -> s1 [label="Alert(WARNING,CLOSE_NOTIFY) / TIMEOUT"];
	s152 -> s1 [label="Alert(FATAL,UNEXPECTED_MESSAGE) / TIMEOUT"];
	s153 -> s154 [label="HELLO_VERIFY_REQUEST / CLIENT_HELLO"];
	s153 -> s1 [label="PSK_SERVER_HELLO / Alert(FATAL,UNEXPECTED_MESSAGE)"];
	s153 -> s15 [label="SERVER_HELLO_DONE / PSK_CLIENT_KEY_EXCHANGE|CHANGE_CIPHER_SPEC|FINISHED"];
	s153 -> s1 [label="CHANGE_CIPHER_SPEC / TIMEOUT"];
	s153 -> s1 [label="FINISHED / Alert(FATAL,INTERNAL_ERROR)"];
	s153 -> s1 [label="HELLO_REQUEST / TIMEOUT"];
	s153 -> s1 [label="APPLICATION / Alert(FATAL,UNEXPECTED_MESSAGE)"];
	s153 -> s1 [label="Alert(WARNING,CLOSE_NOTIFY) / TIMEOUT"];
	s153 -> s1 [label="Alert(FATAL,UNEXPECTED_MESSAGE) / TIMEOUT"];
	s154 -> s75 [label="HELLO_VERIFY_REQUEST / CLIENT_HELLO"];
	s154 -> s92 [label="PSK_SERVER_HELLO / TIMEOUT"];
	s154 -> s1 [label="SERVER_HELLO_DONE / Alert(FATAL,UNEXPECTED_MESSAGE)"];
	s154 -> s1 [label="CHANGE_CIPHER_SPEC / TIMEOUT"];
	s154 -> s1 [label="FINISHED / Alert(FATAL,INTERNAL_ERROR)"];
	s154 -> s1 [label="HELLO_REQUEST / TIMEOUT"];
	s154 -> s59 [label="APPLICATION / TIMEOUT"];
	s154 -> s1 [label="Alert(WARNING,CLOSE_NOTIFY) / TIMEOUT"];
	s154 -> s1 [label="Alert(FATAL,UNEXPECTED_MESSAGE) / TIMEOUT"];
	s155 -> s74 [label="HELLO_VERIFY_REQUEST / CLIENT_HELLO"];
	s155 -> s92 [label="PSK_SERVER_HELLO / TIMEOUT"];
	s155 -> s1 [label="SERVER_HELLO_DONE / Alert(FATAL,UNEXPECTED_MESSAGE)"];
	s155 -> s1 [label="CHANGE_CIPHER_SPEC / TIMEOUT"];
	s155 -> s1 [label="FINISHED / Alert(FATAL,INTERNAL_ERROR)"];
	s155 -> s1 [label="HELLO_REQUEST / TIMEOUT"];
	s155 -> s62 [label="APPLICATION / TIMEOUT"];
	s155 -> s1 [label="Alert(WARNING,CLOSE_NOTIFY) / TIMEOUT"];
	s155 -> s1 [label="Alert(FATAL,UNEXPECTED_MESSAGE) / TIMEOUT"];
	s156 -> s73 [label="HELLO_VERIFY_REQUEST / CLIENT_HELLO"];
	s156 -> s99 [label="PSK_SERVER_HELLO / TIMEOUT"];
	s156 -> s1 [label="SERVER_HELLO_DONE / Alert(FATAL,UNEXPECTED_MESSAGE)"];
	s156 -> s1 [label="CHANGE_CIPHER_SPEC / TIMEOUT"];
	s156 -> s1 [label="FINISHED / Alert(FATAL,INTERNAL_ERROR)"];
	s156 -> s1 [label="HELLO_REQUEST / TIMEOUT"];
	s156 -> s61 [label="APPLICATION / TIMEOUT"];
	s156 -> s1 [label="Alert(WARNING,CLOSE_NOTIFY) / TIMEOUT"];
	s156 -> s1 [label="Alert(FATAL,UNEXPECTED_MESSAGE) / TIMEOUT"];
	s157 -> s72 [label="HELLO_VERIFY_REQUEST / CLIENT_HELLO"];
	s157 -> s99 [label="PSK_SERVER_HELLO / TIMEOUT"];
	s157 -> s1 [label="SERVER_HELLO_DONE / Alert(FATAL,UNEXPECTED_MESSAGE)"];
	s157 -> s1 [label="CHANGE_CIPHER_SPEC / TIMEOUT"];
	s157 -> s1 [label="FINISHED / Alert(FATAL,INTERNAL_ERROR)"];
	s157 -> s1 [label="HELLO_REQUEST / TIMEOUT"];
	s157 -> s64 [label="APPLICATION / TIMEOUT"];
	s157 -> s1 [label="Alert(WARNING,CLOSE_NOTIFY) / TIMEOUT"];
	s157 -> s1 [label="Alert(FATAL,UNEXPECTED_MESSAGE) / TIMEOUT"];
	s158 -> s76 [label="HELLO_VERIFY_REQUEST / CLIENT_HELLO"];
	s158 -> s77 [label="PSK_SERVER_HELLO / TIMEOUT"];
	s158 -> s1 [label="SERVER_HELLO_DONE / Alert(FATAL,UNEXPECTED_MESSAGE)"];
	s158 -> s1 [label="CHANGE_CIPHER_SPEC / TIMEOUT"];
	s158 -> s1 [label="FINISHED / Alert(FATAL,INTERNAL_ERROR)"];
	s158 -> s1 [label="HELLO_REQUEST / TIMEOUT"];
	s158 -> s60 [label="APPLICATION / TIMEOUT"];
	s158 -> s1 [label="Alert(WARNING,CLOSE_NOTIFY) / TIMEOUT"];
	s158 -> s1 [label="Alert(FATAL,UNEXPECTED_MESSAGE) / TIMEOUT"];
	s159 -> s0 [label="HELLO_VERIFY_REQUEST / CLIENT_HELLO"];
	s159 -> s77 [label="PSK_SERVER_HELLO / TIMEOUT"];
	s159 -> s1 [label="SERVER_HELLO_DONE / Alert(FATAL,UNEXPECTED_MESSAGE)"];
	s159 -> s1 [label="CHANGE_CIPHER_SPEC / TIMEOUT"];
	s159 -> s1 [label="FINISHED / Alert(FATAL,INTERNAL_ERROR)"];
	s159 -> s1 [label="HELLO_REQUEST / TIMEOUT"];
	s159 -> s54 [label="APPLICATION / TIMEOUT"];
	s159 -> s1 [label="Alert(WARNING,CLOSE_NOTIFY) / TIMEOUT"];
	s159 -> s1 [label="Alert(FATAL,UNEXPECTED_MESSAGE) / TIMEOUT"];
	s160 -> s159 [label="HELLO_VERIFY_REQUEST / CLIENT_HELLO"];
	s160 -> s94 [label="PSK_SERVER_HELLO / TIMEOUT"];
	s160 -> s1 [label="SERVER_HELLO_DONE / Alert(FATAL,UNEXPECTED_MESSAGE)"];
	s160 -> s1 [label="CHANGE_CIPHER_SPEC / TIMEOUT"];
	s160 -> s1 [label="FINISHED / Alert(FATAL,INTERNAL_ERROR)"];
	s160 -> s1 [label="HELLO_REQUEST / TIMEOUT"];
	s160 -> s45 [label="APPLICATION / TIMEOUT"];
	s160 -> s1 [label="Alert(WARNING,CLOSE_NOTIFY) / TIMEOUT"];
	s160 -> s1 [label="Alert(FATAL,UNEXPECTED_MESSAGE) / TIMEOUT"];

__start0 [label="" shape="none" width="0" height="0"];
__start0 -> s0;

}
