digraph g {

	s0 [shape="circle" label="s0"];
	s1 [shape="circle" label="s1"];
	s2 [shape="circle" label="s2"];
	s3 [shape="circle" label="s3"];
	s4 [shape="circle" label="s4"];
	s5 [shape="circle" label="s5"];
	s6 [shape="circle" label="s6"];
	s7 [shape="circle" label="s7"];
	s8 [shape="circle" label="s8"];
	s9 [shape="circle" label="s9"];
	s10 [shape="circle" label="s10"];
	s11 [shape="circle" label="s11"];
	s12 [shape="circle" label="s12"];
	s13 [shape="circle" label="s13"];
	s14 [shape="circle" label="s14"];
	s15 [shape="circle" label="s15"];
	s16 [shape="circle" label="s16"];
	s17 [shape="circle" label="s17"];
	s18 [shape="circle" label="s18"];
	s19 [shape="circle" label="s19"];
	s20 [shape="circle" label="s20"];
	s21 [shape="circle" label="s21"];
	s22 [shape="circle" label="s22"];
	s23 [shape="circle" label="s23"];
	s24 [shape="circle" label="s24"];
	s25 [shape="circle" label="s25"];
	s26 [shape="circle" label="s26"];
	s27 [shape="circle" label="s27"];
	s28 [shape="circle" label="s28"];
	s0 -> s7 [label="HELLO_VERIFY_REQUEST / CLIENT_HELLO+"];
	s0 -> s2 [label="ECDH_SERVER_HELLO / CLIENT_HELLO"];
	s0 -> s1 [label="ECDH_SERVER_KEY_EXCHANGE / CLIENT_HELLO|Alert(FATAL,DECODE_ERROR)"];
	s0 -> s1 [label="RSA_SIGN_CERTIFICATE_REQUEST / CLIENT_HELLO|Alert(FATAL,DECODE_ERROR)"];
	s0 -> s1 [label="RSA_FIXED_ECDH_CERTIFICATE_REQUEST / CLIENT_HELLO|Alert(FATAL,DECODE_ERROR)"];
	s0 -> s1 [label="RSA_FIXED_DH_CERTIFICATE_REQUEST / CLIENT_HELLO|Alert(FATAL,DECODE_ERROR)"];
	s0 -> s1 [label="DSS_SIGN_CERTIFICATE_REQUEST / CLIENT_HELLO|Alert(FATAL,DECODE_ERROR)"];
	s0 -> s1 [label="DSS_FIXED_DH_CERTIFICATE_REQUEST / CLIENT_HELLO|Alert(FATAL,DECODE_ERROR)"];
	s0 -> s1 [label="ECDSA_SIGN_CERTIFICATE_REQUEST / CLIENT_HELLO|Alert(FATAL,DECODE_ERROR)"];
	s0 -> s1 [label="HELLO_REQUEST / CLIENT_HELLO|Alert(FATAL,DECODE_ERROR)"];
	s0 -> s1 [label="SERVER_HELLO_DONE / CLIENT_HELLO|Alert(FATAL,DECODE_ERROR)"];
	s0 -> s3 [label="CHANGE_CIPHER_SPEC / CLIENT_HELLO"];
	s0 -> s1 [label="FINISHED / CLIENT_HELLO|Alert(FATAL,DECODE_ERROR)"];
	s0 -> s4 [label="APPLICATION / CLIENT_HELLO"];
	s0 -> s1 [label="CERTIFICATE / CLIENT_HELLO|Alert(FATAL,DECODE_ERROR)"];
	s0 -> s1 [label="EMPTY_CERTIFICATE / CLIENT_HELLO|Alert(FATAL,DECODE_ERROR)"];
	s0 -> s1 [label="Alert(WARNING,CLOSE_NOTIFY) / CLIENT_HELLO"];
	s0 -> s1 [label="Alert(FATAL,UNEXPECTED_MESSAGE) / CLIENT_HELLO"];
	s1 -> s1 [label="HELLO_VERIFY_REQUEST / SOCKET_CLOSED"];
	s1 -> s1 [label="ECDH_SERVER_HELLO / SOCKET_CLOSED"];
	s1 -> s1 [label="ECDH_SERVER_KEY_EXCHANGE / SOCKET_CLOSED"];
	s1 -> s1 [label="RSA_SIGN_CERTIFICATE_REQUEST / SOCKET_CLOSED"];
	s1 -> s1 [label="RSA_FIXED_ECDH_CERTIFICATE_REQUEST / SOCKET_CLOSED"];
	s1 -> s1 [label="RSA_FIXED_DH_CERTIFICATE_REQUEST / SOCKET_CLOSED"];
	s1 -> s1 [label="DSS_SIGN_CERTIFICATE_REQUEST / SOCKET_CLOSED"];
	s1 -> s1 [label="DSS_FIXED_DH_CERTIFICATE_REQUEST / SOCKET_CLOSED"];
	s1 -> s1 [label="ECDSA_SIGN_CERTIFICATE_REQUEST / SOCKET_CLOSED"];
	s1 -> s1 [label="HELLO_REQUEST / SOCKET_CLOSED"];
	s1 -> s1 [label="SERVER_HELLO_DONE / SOCKET_CLOSED"];
	s1 -> s1 [label="CHANGE_CIPHER_SPEC / SOCKET_CLOSED"];
	s1 -> s1 [label="FINISHED / SOCKET_CLOSED"];
	s1 -> s1 [label="APPLICATION / SOCKET_CLOSED"];
	s1 -> s1 [label="CERTIFICATE / SOCKET_CLOSED"];
	s1 -> s1 [label="EMPTY_CERTIFICATE / SOCKET_CLOSED"];
	s1 -> s1 [label="Alert(WARNING,CLOSE_NOTIFY) / SOCKET_CLOSED"];
	s1 -> s1 [label="Alert(FATAL,UNEXPECTED_MESSAGE) / SOCKET_CLOSED"];
	s2 -> s1 [label="HELLO_VERIFY_REQUEST / Alert(FATAL,DECODE_ERROR)"];
	s2 -> s1 [label="ECDH_SERVER_HELLO / Alert(FATAL,DECODE_ERROR)"];
	s2 -> s1 [label="ECDH_SERVER_KEY_EXCHANGE / Alert(FATAL,DECODE_ERROR)"];
	s2 -> s1 [label="RSA_SIGN_CERTIFICATE_REQUEST / Alert(FATAL,DECODE_ERROR)"];
	s2 -> s1 [label="RSA_FIXED_ECDH_CERTIFICATE_REQUEST / Alert(FATAL,DECODE_ERROR)"];
	s2 -> s1 [label="RSA_FIXED_DH_CERTIFICATE_REQUEST / Alert(FATAL,DECODE_ERROR)"];
	s2 -> s1 [label="DSS_SIGN_CERTIFICATE_REQUEST / Alert(FATAL,DECODE_ERROR)"];
	s2 -> s1 [label="DSS_FIXED_DH_CERTIFICATE_REQUEST / Alert(FATAL,DECODE_ERROR)"];
	s2 -> s1 [label="ECDSA_SIGN_CERTIFICATE_REQUEST / Alert(FATAL,DECODE_ERROR)"];
	s2 -> s5 [label="HELLO_REQUEST / TIMEOUT"];
	s2 -> s1 [label="SERVER_HELLO_DONE / Alert(FATAL,DECODE_ERROR)"];
	s2 -> s3 [label="CHANGE_CIPHER_SPEC / TIMEOUT"];
	s2 -> s1 [label="FINISHED / Alert(FATAL,DECODE_ERROR)"];
	s2 -> s2 [label="APPLICATION / TIMEOUT"];
	s2 -> s6 [label="CERTIFICATE / TIMEOUT"];
	s2 -> s1 [label="EMPTY_CERTIFICATE / Alert(FATAL,DECODE_ERROR)"];
	s2 -> s1 [label="Alert(WARNING,CLOSE_NOTIFY) / TIMEOUT"];
	s2 -> s1 [label="Alert(FATAL,UNEXPECTED_MESSAGE) / TIMEOUT"];
	s3 -> s3 [label="HELLO_VERIFY_REQUEST / TIMEOUT"];
	s3 -> s3 [label="ECDH_SERVER_HELLO / TIMEOUT"];
	s3 -> s3 [label="ECDH_SERVER_KEY_EXCHANGE / TIMEOUT"];
	s3 -> s3 [label="RSA_SIGN_CERTIFICATE_REQUEST / TIMEOUT"];
	s3 -> s3 [label="RSA_FIXED_ECDH_CERTIFICATE_REQUEST / TIMEOUT"];
	s3 -> s3 [label="RSA_FIXED_DH_CERTIFICATE_REQUEST / TIMEOUT"];
	s3 -> s3 [label="DSS_SIGN_CERTIFICATE_REQUEST / TIMEOUT"];
	s3 -> s3 [label="DSS_FIXED_DH_CERTIFICATE_REQUEST / TIMEOUT"];
	s3 -> s3 [label="ECDSA_SIGN_CERTIFICATE_REQUEST / TIMEOUT"];
	s3 -> s5 [label="HELLO_REQUEST / TIMEOUT"];
	s3 -> s3 [label="SERVER_HELLO_DONE / TIMEOUT"];
	s3 -> s3 [label="CHANGE_CIPHER_SPEC / TIMEOUT"];
	s3 -> s3 [label="FINISHED / TIMEOUT"];
	s3 -> s3 [label="APPLICATION / TIMEOUT"];
	s3 -> s3 [label="CERTIFICATE / TIMEOUT"];
	s3 -> s3 [label="EMPTY_CERTIFICATE / TIMEOUT"];
	s3 -> s3 [label="Alert(WARNING,CLOSE_NOTIFY) / TIMEOUT"];
	s3 -> s3 [label="Alert(FATAL,UNEXPECTED_MESSAGE) / TIMEOUT"];
	s4 -> s7 [label="HELLO_VERIFY_REQUEST / CLIENT_HELLO"];
	s4 -> s2 [label="ECDH_SERVER_HELLO / TIMEOUT"];
	s4 -> s1 [label="ECDH_SERVER_KEY_EXCHANGE / Alert(FATAL,DECODE_ERROR)"];
	s4 -> s1 [label="RSA_SIGN_CERTIFICATE_REQUEST / Alert(FATAL,DECODE_ERROR)"];
	s4 -> s1 [label="RSA_FIXED_ECDH_CERTIFICATE_REQUEST / Alert(FATAL,DECODE_ERROR)"];
	s4 -> s1 [label="RSA_FIXED_DH_CERTIFICATE_REQUEST / Alert(FATAL,DECODE_ERROR)"];
	s4 -> s1 [label="DSS_SIGN_CERTIFICATE_REQUEST / Alert(FATAL,DECODE_ERROR)"];
	s4 -> s1 [label="DSS_FIXED_DH_CERTIFICATE_REQUEST / Alert(FATAL,DECODE_ERROR)"];
	s4 -> s1 [label="ECDSA_SIGN_CERTIFICATE_REQUEST / Alert(FATAL,DECODE_ERROR)"];
	s4 -> s1 [label="HELLO_REQUEST / Alert(FATAL,DECODE_ERROR)"];
	s4 -> s1 [label="SERVER_HELLO_DONE / Alert(FATAL,DECODE_ERROR)"];
	s4 -> s3 [label="CHANGE_CIPHER_SPEC / TIMEOUT"];
	s4 -> s1 [label="FINISHED / Alert(FATAL,DECODE_ERROR)"];
	s4 -> s4 [label="APPLICATION / TIMEOUT"];
	s4 -> s1 [label="CERTIFICATE / Alert(FATAL,DECODE_ERROR)"];
	s4 -> s1 [label="EMPTY_CERTIFICATE / Alert(FATAL,DECODE_ERROR)"];
	s4 -> s1 [label="Alert(WARNING,CLOSE_NOTIFY) / TIMEOUT"];
	s4 -> s1 [label="Alert(FATAL,UNEXPECTED_MESSAGE) / TIMEOUT"];
	s5 -> s5 [label="HELLO_VERIFY_REQUEST / DISABLED"];
	s5 -> s5 [label="ECDH_SERVER_HELLO / DISABLED"];
	s5 -> s5 [label="ECDH_SERVER_KEY_EXCHANGE / DISABLED"];
	s5 -> s5 [label="RSA_SIGN_CERTIFICATE_REQUEST / DISABLED"];
	s5 -> s5 [label="RSA_FIXED_ECDH_CERTIFICATE_REQUEST / DISABLED"];
	s5 -> s5 [label="RSA_FIXED_DH_CERTIFICATE_REQUEST / DISABLED"];
	s5 -> s5 [label="DSS_SIGN_CERTIFICATE_REQUEST / DISABLED"];
	s5 -> s5 [label="DSS_FIXED_DH_CERTIFICATE_REQUEST / DISABLED"];
	s5 -> s5 [label="ECDSA_SIGN_CERTIFICATE_REQUEST / DISABLED"];
	s5 -> s5 [label="HELLO_REQUEST / DISABLED"];
	s5 -> s5 [label="SERVER_HELLO_DONE / DISABLED"];
	s5 -> s5 [label="CHANGE_CIPHER_SPEC / DISABLED"];
	s5 -> s5 [label="FINISHED / DISABLED"];
	s5 -> s5 [label="APPLICATION / DISABLED"];
	s5 -> s5 [label="CERTIFICATE / DISABLED"];
	s5 -> s5 [label="EMPTY_CERTIFICATE / DISABLED"];
	s5 -> s5 [label="Alert(WARNING,CLOSE_NOTIFY) / DISABLED"];
	s5 -> s5 [label="Alert(FATAL,UNEXPECTED_MESSAGE) / DISABLED"];
	s6 -> s1 [label="HELLO_VERIFY_REQUEST / Alert(FATAL,UNEXPECTED_MESSAGE)"];
	s6 -> s1 [label="ECDH_SERVER_HELLO / Alert(FATAL,UNEXPECTED_MESSAGE)"];
	s6 -> s28 [label="ECDH_SERVER_KEY_EXCHANGE / TIMEOUT"];
	s6 -> s1 [label="RSA_SIGN_CERTIFICATE_REQUEST / Alert(FATAL,UNEXPECTED_MESSAGE)"];
	s6 -> s1 [label="RSA_FIXED_ECDH_CERTIFICATE_REQUEST / Alert(FATAL,UNEXPECTED_MESSAGE)"];
	s6 -> s1 [label="RSA_FIXED_DH_CERTIFICATE_REQUEST / Alert(FATAL,UNEXPECTED_MESSAGE)"];
	s6 -> s1 [label="DSS_SIGN_CERTIFICATE_REQUEST / Alert(FATAL,UNEXPECTED_MESSAGE)"];
	s6 -> s1 [label="DSS_FIXED_DH_CERTIFICATE_REQUEST / Alert(FATAL,UNEXPECTED_MESSAGE)"];
	s6 -> s1 [label="ECDSA_SIGN_CERTIFICATE_REQUEST / Alert(FATAL,UNEXPECTED_MESSAGE)"];
	s6 -> s5 [label="HELLO_REQUEST / TIMEOUT"];
	s6 -> s1 [label="SERVER_HELLO_DONE / Alert(FATAL,UNEXPECTED_MESSAGE)"];
	s6 -> s3 [label="CHANGE_CIPHER_SPEC / TIMEOUT"];
	s6 -> s1 [label="FINISHED / Alert(FATAL,UNEXPECTED_MESSAGE)"];
	s6 -> s6 [label="APPLICATION / TIMEOUT"];
	s6 -> s1 [label="CERTIFICATE / Alert(FATAL,UNEXPECTED_MESSAGE)"];
	s6 -> s1 [label="EMPTY_CERTIFICATE / Alert(FATAL,UNEXPECTED_MESSAGE)"];
	s6 -> s1 [label="Alert(WARNING,CLOSE_NOTIFY) / TIMEOUT"];
	s6 -> s1 [label="Alert(FATAL,UNEXPECTED_MESSAGE) / TIMEOUT"];
	s7 -> s8 [label="HELLO_VERIFY_REQUEST / CLIENT_HELLO"];
	s7 -> s9 [label="ECDH_SERVER_HELLO / TIMEOUT"];
	s7 -> s1 [label="ECDH_SERVER_KEY_EXCHANGE / Alert(FATAL,DECODE_ERROR)"];
	s7 -> s1 [label="RSA_SIGN_CERTIFICATE_REQUEST / Alert(FATAL,DECODE_ERROR)"];
	s7 -> s1 [label="RSA_FIXED_ECDH_CERTIFICATE_REQUEST / Alert(FATAL,DECODE_ERROR)"];
	s7 -> s1 [label="RSA_FIXED_DH_CERTIFICATE_REQUEST / Alert(FATAL,DECODE_ERROR)"];
	s7 -> s1 [label="DSS_SIGN_CERTIFICATE_REQUEST / Alert(FATAL,DECODE_ERROR)"];
	s7 -> s1 [label="DSS_FIXED_DH_CERTIFICATE_REQUEST / Alert(FATAL,DECODE_ERROR)"];
	s7 -> s1 [label="ECDSA_SIGN_CERTIFICATE_REQUEST / Alert(FATAL,DECODE_ERROR)"];
	s7 -> s7 [label="HELLO_REQUEST / CLIENT_HELLO"];
	s7 -> s1 [label="SERVER_HELLO_DONE / Alert(FATAL,DECODE_ERROR)"];
	s7 -> s3 [label="CHANGE_CIPHER_SPEC / TIMEOUT"];
	s7 -> s1 [label="FINISHED / Alert(FATAL,DECODE_ERROR)"];
	s7 -> s7 [label="APPLICATION / TIMEOUT"];
	s7 -> s1 [label="CERTIFICATE / Alert(FATAL,DECODE_ERROR)"];
	s7 -> s1 [label="EMPTY_CERTIFICATE / Alert(FATAL,DECODE_ERROR)"];
	s7 -> s1 [label="Alert(WARNING,CLOSE_NOTIFY) / TIMEOUT"];
	s7 -> s1 [label="Alert(FATAL,UNEXPECTED_MESSAGE) / TIMEOUT"];
	s8 -> s8 [label="HELLO_VERIFY_REQUEST / CLIENT_HELLO"];
	s8 -> s2 [label="ECDH_SERVER_HELLO / TIMEOUT"];
	s8 -> s1 [label="ECDH_SERVER_KEY_EXCHANGE / Alert(FATAL,DECODE_ERROR)"];
	s8 -> s1 [label="RSA_SIGN_CERTIFICATE_REQUEST / Alert(FATAL,DECODE_ERROR)"];
	s8 -> s1 [label="RSA_FIXED_ECDH_CERTIFICATE_REQUEST / Alert(FATAL,DECODE_ERROR)"];
	s8 -> s1 [label="RSA_FIXED_DH_CERTIFICATE_REQUEST / Alert(FATAL,DECODE_ERROR)"];
	s8 -> s1 [label="DSS_SIGN_CERTIFICATE_REQUEST / Alert(FATAL,DECODE_ERROR)"];
	s8 -> s1 [label="DSS_FIXED_DH_CERTIFICATE_REQUEST / Alert(FATAL,DECODE_ERROR)"];
	s8 -> s1 [label="ECDSA_SIGN_CERTIFICATE_REQUEST / Alert(FATAL,DECODE_ERROR)"];
	s8 -> s5 [label="HELLO_REQUEST / TIMEOUT"];
	s8 -> s1 [label="SERVER_HELLO_DONE / Alert(FATAL,DECODE_ERROR)"];
	s8 -> s3 [label="CHANGE_CIPHER_SPEC / TIMEOUT"];
	s8 -> s1 [label="FINISHED / Alert(FATAL,DECODE_ERROR)"];
	s8 -> s8 [label="APPLICATION / TIMEOUT"];
	s8 -> s1 [label="CERTIFICATE / Alert(FATAL,DECODE_ERROR)"];
	s8 -> s1 [label="EMPTY_CERTIFICATE / Alert(FATAL,DECODE_ERROR)"];
	s8 -> s1 [label="Alert(WARNING,CLOSE_NOTIFY) / TIMEOUT"];
	s8 -> s1 [label="Alert(FATAL,UNEXPECTED_MESSAGE) / TIMEOUT"];
	s9 -> s1 [label="HELLO_VERIFY_REQUEST / Alert(FATAL,DECODE_ERROR)"];
	s9 -> s1 [label="ECDH_SERVER_HELLO / Alert(FATAL,DECODE_ERROR)"];
	s9 -> s1 [label="ECDH_SERVER_KEY_EXCHANGE / Alert(FATAL,DECODE_ERROR)"];
	s9 -> s1 [label="RSA_SIGN_CERTIFICATE_REQUEST / Alert(FATAL,DECODE_ERROR)"];
	s9 -> s1 [label="RSA_FIXED_ECDH_CERTIFICATE_REQUEST / Alert(FATAL,DECODE_ERROR)"];
	s9 -> s1 [label="RSA_FIXED_DH_CERTIFICATE_REQUEST / Alert(FATAL,DECODE_ERROR)"];
	s9 -> s1 [label="DSS_SIGN_CERTIFICATE_REQUEST / Alert(FATAL,DECODE_ERROR)"];
	s9 -> s1 [label="DSS_FIXED_DH_CERTIFICATE_REQUEST / Alert(FATAL,DECODE_ERROR)"];
	s9 -> s1 [label="ECDSA_SIGN_CERTIFICATE_REQUEST / Alert(FATAL,DECODE_ERROR)"];
	s9 -> s10 [label="HELLO_REQUEST / CLIENT_HELLO"];
	s9 -> s1 [label="SERVER_HELLO_DONE / Alert(FATAL,DECODE_ERROR)"];
	s9 -> s3 [label="CHANGE_CIPHER_SPEC / TIMEOUT"];
	s9 -> s1 [label="FINISHED / Alert(FATAL,DECODE_ERROR)"];
	s9 -> s9 [label="APPLICATION / TIMEOUT"];
	s9 -> s11 [label="CERTIFICATE / TIMEOUT"];
	s9 -> s1 [label="EMPTY_CERTIFICATE / Alert(FATAL,DECODE_ERROR)"];
	s9 -> s1 [label="Alert(WARNING,CLOSE_NOTIFY) / TIMEOUT"];
	s9 -> s1 [label="Alert(FATAL,UNEXPECTED_MESSAGE) / TIMEOUT"];
	s10 -> s9 [label="HELLO_VERIFY_REQUEST / TIMEOUT"];
	s10 -> s9 [label="ECDH_SERVER_HELLO / TIMEOUT"];
	s10 -> s9 [label="ECDH_SERVER_KEY_EXCHANGE / TIMEOUT"];
	s10 -> s9 [label="RSA_SIGN_CERTIFICATE_REQUEST / TIMEOUT"];
	s10 -> s9 [label="RSA_FIXED_ECDH_CERTIFICATE_REQUEST / TIMEOUT"];
	s10 -> s9 [label="RSA_FIXED_DH_CERTIFICATE_REQUEST / TIMEOUT"];
	s10 -> s9 [label="DSS_SIGN_CERTIFICATE_REQUEST / TIMEOUT"];
	s10 -> s9 [label="DSS_FIXED_DH_CERTIFICATE_REQUEST / TIMEOUT"];
	s10 -> s9 [label="ECDSA_SIGN_CERTIFICATE_REQUEST / TIMEOUT"];
	s10 -> s10 [label="HELLO_REQUEST / CLIENT_HELLO"];
	s10 -> s9 [label="SERVER_HELLO_DONE / TIMEOUT"];
	s10 -> s3 [label="CHANGE_CIPHER_SPEC / TIMEOUT"];
	s10 -> s9 [label="FINISHED / TIMEOUT"];
	s10 -> s10 [label="APPLICATION / TIMEOUT"];
	s10 -> s9 [label="CERTIFICATE / TIMEOUT"];
	s10 -> s9 [label="EMPTY_CERTIFICATE / TIMEOUT"];
	s10 -> s1 [label="Alert(WARNING,CLOSE_NOTIFY) / TIMEOUT"];
	s10 -> s1 [label="Alert(FATAL,UNEXPECTED_MESSAGE) / TIMEOUT"];
	s11 -> s1 [label="HELLO_VERIFY_REQUEST / Alert(FATAL,UNEXPECTED_MESSAGE)"];
	s11 -> s1 [label="ECDH_SERVER_HELLO / Alert(FATAL,UNEXPECTED_MESSAGE)"];
	s11 -> s12 [label="ECDH_SERVER_KEY_EXCHANGE / TIMEOUT"];
	s11 -> s1 [label="RSA_SIGN_CERTIFICATE_REQUEST / Alert(FATAL,UNEXPECTED_MESSAGE)"];
	s11 -> s1 [label="RSA_FIXED_ECDH_CERTIFICATE_REQUEST / Alert(FATAL,UNEXPECTED_MESSAGE)"];
	s11 -> s1 [label="RSA_FIXED_DH_CERTIFICATE_REQUEST / Alert(FATAL,UNEXPECTED_MESSAGE)"];
	s11 -> s1 [label="DSS_SIGN_CERTIFICATE_REQUEST / Alert(FATAL,UNEXPECTED_MESSAGE)"];
	s11 -> s1 [label="DSS_FIXED_DH_CERTIFICATE_REQUEST / Alert(FATAL,UNEXPECTED_MESSAGE)"];
	s11 -> s1 [label="ECDSA_SIGN_CERTIFICATE_REQUEST / Alert(FATAL,UNEXPECTED_MESSAGE)"];
	s11 -> s15 [label="HELLO_REQUEST / CLIENT_HELLO"];
	s11 -> s1 [label="SERVER_HELLO_DONE / Alert(FATAL,UNEXPECTED_MESSAGE)"];
	s11 -> s3 [label="CHANGE_CIPHER_SPEC / TIMEOUT"];
	s11 -> s1 [label="FINISHED / Alert(FATAL,UNEXPECTED_MESSAGE)"];
	s11 -> s11 [label="APPLICATION / TIMEOUT"];
	s11 -> s1 [label="CERTIFICATE / Alert(FATAL,UNEXPECTED_MESSAGE)"];
	s11 -> s1 [label="EMPTY_CERTIFICATE / Alert(FATAL,UNEXPECTED_MESSAGE)"];
	s11 -> s1 [label="Alert(WARNING,CLOSE_NOTIFY) / TIMEOUT"];
	s11 -> s1 [label="Alert(FATAL,UNEXPECTED_MESSAGE) / TIMEOUT"];
	s12 -> s1 [label="HELLO_VERIFY_REQUEST / Alert(FATAL,DECODE_ERROR)"];
	s12 -> s1 [label="ECDH_SERVER_HELLO / Alert(FATAL,DECODE_ERROR)"];
	s12 -> s1 [label="ECDH_SERVER_KEY_EXCHANGE / Alert(FATAL,DECODE_ERROR)"];
	s12 -> s23 [label="RSA_SIGN_CERTIFICATE_REQUEST / TIMEOUT"];
	s12 -> s23 [label="RSA_FIXED_ECDH_CERTIFICATE_REQUEST / TIMEOUT"];
	s12 -> s23 [label="RSA_FIXED_DH_CERTIFICATE_REQUEST / TIMEOUT"];
	s12 -> s23 [label="DSS_SIGN_CERTIFICATE_REQUEST / TIMEOUT"];
	s12 -> s23 [label="DSS_FIXED_DH_CERTIFICATE_REQUEST / TIMEOUT"];
	s12 -> s23 [label="ECDSA_SIGN_CERTIFICATE_REQUEST / TIMEOUT"];
	s12 -> s13 [label="HELLO_REQUEST / CLIENT_HELLO"];
	s12 -> s18 [label="SERVER_HELLO_DONE / ECDH_CLIENT_KEY_EXCHANGE|CHANGE_CIPHER_SPEC|FINISHED"];
	s12 -> s3 [label="CHANGE_CIPHER_SPEC / TIMEOUT"];
	s12 -> s1 [label="FINISHED / Alert(FATAL,DECODE_ERROR)"];
	s12 -> s12 [label="APPLICATION / TIMEOUT"];
	s12 -> s1 [label="CERTIFICATE / Alert(FATAL,DECODE_ERROR)"];
	s12 -> s1 [label="EMPTY_CERTIFICATE / Alert(FATAL,DECODE_ERROR)"];
	s12 -> s1 [label="Alert(WARNING,CLOSE_NOTIFY) / TIMEOUT"];
	s12 -> s1 [label="Alert(FATAL,UNEXPECTED_MESSAGE) / TIMEOUT"];
	s13 -> s14 [label="HELLO_VERIFY_REQUEST / TIMEOUT"];
	s13 -> s14 [label="ECDH_SERVER_HELLO / TIMEOUT"];
	s13 -> s14 [label="ECDH_SERVER_KEY_EXCHANGE / TIMEOUT"];
	s13 -> s14 [label="RSA_SIGN_CERTIFICATE_REQUEST / TIMEOUT"];
	s13 -> s14 [label="RSA_FIXED_ECDH_CERTIFICATE_REQUEST / TIMEOUT"];
	s13 -> s14 [label="RSA_FIXED_DH_CERTIFICATE_REQUEST / TIMEOUT"];
	s13 -> s14 [label="DSS_SIGN_CERTIFICATE_REQUEST / TIMEOUT"];
	s13 -> s14 [label="DSS_FIXED_DH_CERTIFICATE_REQUEST / TIMEOUT"];
	s13 -> s14 [label="ECDSA_SIGN_CERTIFICATE_REQUEST / TIMEOUT"];
	s13 -> s13 [label="HELLO_REQUEST / CLIENT_HELLO"];
	s13 -> s14 [label="SERVER_HELLO_DONE / TIMEOUT"];
	s13 -> s3 [label="CHANGE_CIPHER_SPEC / TIMEOUT"];
	s13 -> s14 [label="FINISHED / TIMEOUT"];
	s13 -> s13 [label="APPLICATION / TIMEOUT"];
	s13 -> s14 [label="CERTIFICATE / TIMEOUT"];
	s13 -> s14 [label="EMPTY_CERTIFICATE / TIMEOUT"];
	s13 -> s1 [label="Alert(WARNING,CLOSE_NOTIFY) / TIMEOUT"];
	s13 -> s1 [label="Alert(FATAL,UNEXPECTED_MESSAGE) / TIMEOUT"];
	s14 -> s17 [label="HELLO_VERIFY_REQUEST / TIMEOUT"];
	s14 -> s17 [label="ECDH_SERVER_HELLO / TIMEOUT"];
	s14 -> s17 [label="ECDH_SERVER_KEY_EXCHANGE / TIMEOUT"];
	s14 -> s17 [label="RSA_SIGN_CERTIFICATE_REQUEST / TIMEOUT"];
	s14 -> s17 [label="RSA_FIXED_ECDH_CERTIFICATE_REQUEST / TIMEOUT"];
	s14 -> s17 [label="RSA_FIXED_DH_CERTIFICATE_REQUEST / TIMEOUT"];
	s14 -> s17 [label="DSS_SIGN_CERTIFICATE_REQUEST / TIMEOUT"];
	s14 -> s17 [label="DSS_FIXED_DH_CERTIFICATE_REQUEST / TIMEOUT"];
	s14 -> s17 [label="ECDSA_SIGN_CERTIFICATE_REQUEST / TIMEOUT"];
	s14 -> s13 [label="HELLO_REQUEST / CLIENT_HELLO"];
	s14 -> s17 [label="SERVER_HELLO_DONE / TIMEOUT"];
	s14 -> s3 [label="CHANGE_CIPHER_SPEC / TIMEOUT"];
	s14 -> s17 [label="FINISHED / TIMEOUT"];
	s14 -> s14 [label="APPLICATION / TIMEOUT"];
	s14 -> s17 [label="CERTIFICATE / TIMEOUT"];
	s14 -> s17 [label="EMPTY_CERTIFICATE / TIMEOUT"];
	s14 -> s1 [label="Alert(WARNING,CLOSE_NOTIFY) / TIMEOUT"];
	s14 -> s1 [label="Alert(FATAL,UNEXPECTED_MESSAGE) / TIMEOUT"];
	s15 -> s16 [label="HELLO_VERIFY_REQUEST / TIMEOUT"];
	s15 -> s16 [label="ECDH_SERVER_HELLO / TIMEOUT"];
	s15 -> s16 [label="ECDH_SERVER_KEY_EXCHANGE / TIMEOUT"];
	s15 -> s19 [label="RSA_SIGN_CERTIFICATE_REQUEST / TIMEOUT"];
	s15 -> s19 [label="RSA_FIXED_ECDH_CERTIFICATE_REQUEST / TIMEOUT"];
	s15 -> s19 [label="RSA_FIXED_DH_CERTIFICATE_REQUEST / TIMEOUT"];
	s15 -> s19 [label="DSS_SIGN_CERTIFICATE_REQUEST / TIMEOUT"];
	s15 -> s19 [label="DSS_FIXED_DH_CERTIFICATE_REQUEST / TIMEOUT"];
	s15 -> s19 [label="ECDSA_SIGN_CERTIFICATE_REQUEST / TIMEOUT"];
	s15 -> s15 [label="HELLO_REQUEST / CLIENT_HELLO"];
	s15 -> s16 [label="SERVER_HELLO_DONE / TIMEOUT"];
	s15 -> s3 [label="CHANGE_CIPHER_SPEC / TIMEOUT"];
	s15 -> s16 [label="FINISHED / TIMEOUT"];
	s15 -> s15 [label="APPLICATION / TIMEOUT"];
	s15 -> s16 [label="CERTIFICATE / TIMEOUT"];
	s15 -> s16 [label="EMPTY_CERTIFICATE / TIMEOUT"];
	s15 -> s1 [label="Alert(WARNING,CLOSE_NOTIFY) / TIMEOUT"];
	s15 -> s1 [label="Alert(FATAL,UNEXPECTED_MESSAGE) / TIMEOUT"];
	s16 -> s11 [label="HELLO_VERIFY_REQUEST / TIMEOUT"];
	s16 -> s11 [label="ECDH_SERVER_HELLO / TIMEOUT"];
	s16 -> s11 [label="ECDH_SERVER_KEY_EXCHANGE / TIMEOUT"];
	s16 -> s20 [label="RSA_SIGN_CERTIFICATE_REQUEST / TIMEOUT"];
	s16 -> s20 [label="RSA_FIXED_ECDH_CERTIFICATE_REQUEST / TIMEOUT"];
	s16 -> s20 [label="RSA_FIXED_DH_CERTIFICATE_REQUEST / TIMEOUT"];
	s16 -> s20 [label="DSS_SIGN_CERTIFICATE_REQUEST / TIMEOUT"];
	s16 -> s20 [label="DSS_FIXED_DH_CERTIFICATE_REQUEST / TIMEOUT"];
	s16 -> s20 [label="ECDSA_SIGN_CERTIFICATE_REQUEST / TIMEOUT"];
	s16 -> s15 [label="HELLO_REQUEST / CLIENT_HELLO"];
	s16 -> s11 [label="SERVER_HELLO_DONE / TIMEOUT"];
	s16 -> s3 [label="CHANGE_CIPHER_SPEC / TIMEOUT"];
	s16 -> s11 [label="FINISHED / TIMEOUT"];
	s16 -> s16 [label="APPLICATION / TIMEOUT"];
	s16 -> s11 [label="CERTIFICATE / TIMEOUT"];
	s16 -> s11 [label="EMPTY_CERTIFICATE / TIMEOUT"];
	s16 -> s1 [label="Alert(WARNING,CLOSE_NOTIFY) / TIMEOUT"];
	s16 -> s1 [label="Alert(FATAL,UNEXPECTED_MESSAGE) / TIMEOUT"];
	s17 -> s12 [label="HELLO_VERIFY_REQUEST / TIMEOUT"];
	s17 -> s12 [label="ECDH_SERVER_HELLO / TIMEOUT"];
	s17 -> s12 [label="ECDH_SERVER_KEY_EXCHANGE / TIMEOUT"];
	s17 -> s12 [label="RSA_SIGN_CERTIFICATE_REQUEST / TIMEOUT"];
	s17 -> s12 [label="RSA_FIXED_ECDH_CERTIFICATE_REQUEST / TIMEOUT"];
	s17 -> s12 [label="RSA_FIXED_DH_CERTIFICATE_REQUEST / TIMEOUT"];
	s17 -> s12 [label="DSS_SIGN_CERTIFICATE_REQUEST / TIMEOUT"];
	s17 -> s12 [label="DSS_FIXED_DH_CERTIFICATE_REQUEST / TIMEOUT"];
	s17 -> s12 [label="ECDSA_SIGN_CERTIFICATE_REQUEST / TIMEOUT"];
	s17 -> s13 [label="HELLO_REQUEST / CLIENT_HELLO"];
	s17 -> s12 [label="SERVER_HELLO_DONE / TIMEOUT"];
	s17 -> s3 [label="CHANGE_CIPHER_SPEC / TIMEOUT"];
	s17 -> s12 [label="FINISHED / TIMEOUT"];
	s17 -> s17 [label="APPLICATION / TIMEOUT"];
	s17 -> s12 [label="CERTIFICATE / TIMEOUT"];
	s17 -> s12 [label="EMPTY_CERTIFICATE / TIMEOUT"];
	s17 -> s1 [label="Alert(WARNING,CLOSE_NOTIFY) / TIMEOUT"];
	s17 -> s1 [label="Alert(FATAL,UNEXPECTED_MESSAGE) / TIMEOUT"];
	s18 -> s1 [label="HELLO_VERIFY_REQUEST / Alert(FATAL,UNEXPECTED_MESSAGE)"];
	s18 -> s1 [label="ECDH_SERVER_HELLO / Alert(FATAL,UNEXPECTED_MESSAGE)"];
	s18 -> s1 [label="ECDH_SERVER_KEY_EXCHANGE / Alert(FATAL,UNEXPECTED_MESSAGE)"];
	s18 -> s1 [label="RSA_SIGN_CERTIFICATE_REQUEST / Alert(FATAL,UNEXPECTED_MESSAGE)"];
	s18 -> s1 [label="RSA_FIXED_ECDH_CERTIFICATE_REQUEST / Alert(FATAL,UNEXPECTED_MESSAGE)"];
	s18 -> s1 [label="RSA_FIXED_DH_CERTIFICATE_REQUEST / Alert(FATAL,UNEXPECTED_MESSAGE)"];
	s18 -> s1 [label="DSS_SIGN_CERTIFICATE_REQUEST / Alert(FATAL,UNEXPECTED_MESSAGE)"];
	s18 -> s1 [label="DSS_FIXED_DH_CERTIFICATE_REQUEST / Alert(FATAL,UNEXPECTED_MESSAGE)"];
	s18 -> s1 [label="ECDSA_SIGN_CERTIFICATE_REQUEST / Alert(FATAL,UNEXPECTED_MESSAGE)"];
	s18 -> s5 [label="HELLO_REQUEST / TIMEOUT"];
	s18 -> s1 [label="SERVER_HELLO_DONE / Alert(FATAL,UNEXPECTED_MESSAGE)"];
	s18 -> s21 [label="CHANGE_CIPHER_SPEC / TIMEOUT"];
	s18 -> s1 [label="FINISHED / Alert(FATAL,UNEXPECTED_MESSAGE)"];
	s18 -> s18 [label="APPLICATION / TIMEOUT"];
	s18 -> s1 [label="CERTIFICATE / Alert(FATAL,UNEXPECTED_MESSAGE)"];
	s18 -> s1 [label="EMPTY_CERTIFICATE / Alert(FATAL,UNEXPECTED_MESSAGE)"];
	s18 -> s1 [label="Alert(WARNING,CLOSE_NOTIFY) / TIMEOUT"];
	s18 -> s1 [label="Alert(FATAL,UNEXPECTED_MESSAGE) / TIMEOUT"];
	s19 -> s20 [label="HELLO_VERIFY_REQUEST / TIMEOUT"];
	s19 -> s20 [label="ECDH_SERVER_HELLO / TIMEOUT"];
	s19 -> s20 [label="ECDH_SERVER_KEY_EXCHANGE / TIMEOUT"];
	s19 -> s20 [label="RSA_SIGN_CERTIFICATE_REQUEST / TIMEOUT"];
	s19 -> s20 [label="RSA_FIXED_ECDH_CERTIFICATE_REQUEST / TIMEOUT"];
	s19 -> s20 [label="RSA_FIXED_DH_CERTIFICATE_REQUEST / TIMEOUT"];
	s19 -> s20 [label="DSS_SIGN_CERTIFICATE_REQUEST / TIMEOUT"];
	s19 -> s20 [label="DSS_FIXED_DH_CERTIFICATE_REQUEST / TIMEOUT"];
	s19 -> s20 [label="ECDSA_SIGN_CERTIFICATE_REQUEST / TIMEOUT"];
	s19 -> s15 [label="HELLO_REQUEST / CLIENT_HELLO"];
	s19 -> s20 [label="SERVER_HELLO_DONE / TIMEOUT"];
	s19 -> s3 [label="CHANGE_CIPHER_SPEC / TIMEOUT"];
	s19 -> s20 [label="FINISHED / TIMEOUT"];
	s19 -> s19 [label="APPLICATION / TIMEOUT"];
	s19 -> s11 [label="CERTIFICATE / TIMEOUT"];
	s19 -> s20 [label="EMPTY_CERTIFICATE / TIMEOUT"];
	s19 -> s1 [label="Alert(WARNING,CLOSE_NOTIFY) / TIMEOUT"];
	s19 -> s1 [label="Alert(FATAL,UNEXPECTED_MESSAGE) / TIMEOUT"];
	s20 -> s1 [label="HELLO_VERIFY_REQUEST / Alert(FATAL,UNEXPECTED_MESSAGE)"];
	s20 -> s1 [label="ECDH_SERVER_HELLO / Alert(FATAL,UNEXPECTED_MESSAGE)"];
	s20 -> s1 [label="ECDH_SERVER_KEY_EXCHANGE / Alert(FATAL,ILLEGAL_PARAMETER)"];
	s20 -> s1 [label="RSA_SIGN_CERTIFICATE_REQUEST / Alert(FATAL,UNEXPECTED_MESSAGE)"];
	s20 -> s1 [label="RSA_FIXED_ECDH_CERTIFICATE_REQUEST / Alert(FATAL,UNEXPECTED_MESSAGE)"];
	s20 -> s1 [label="RSA_FIXED_DH_CERTIFICATE_REQUEST / Alert(FATAL,UNEXPECTED_MESSAGE)"];
	s20 -> s1 [label="DSS_SIGN_CERTIFICATE_REQUEST / Alert(FATAL,UNEXPECTED_MESSAGE)"];
	s20 -> s1 [label="DSS_FIXED_DH_CERTIFICATE_REQUEST / Alert(FATAL,UNEXPECTED_MESSAGE)"];
	s20 -> s1 [label="ECDSA_SIGN_CERTIFICATE_REQUEST / Alert(FATAL,UNEXPECTED_MESSAGE)"];
	s20 -> s15 [label="HELLO_REQUEST / CLIENT_HELLO"];
	s20 -> s1 [label="SERVER_HELLO_DONE / Alert(FATAL,UNEXPECTED_MESSAGE)"];
	s20 -> s3 [label="CHANGE_CIPHER_SPEC / TIMEOUT"];
	s20 -> s1 [label="FINISHED / Alert(FATAL,UNEXPECTED_MESSAGE)"];
	s20 -> s20 [label="APPLICATION / TIMEOUT"];
	s20 -> s1 [label="CERTIFICATE / Alert(FATAL,UNEXPECTED_MESSAGE)"];
	s20 -> s1 [label="EMPTY_CERTIFICATE / Alert(FATAL,UNEXPECTED_MESSAGE)"];
	s20 -> s1 [label="Alert(WARNING,CLOSE_NOTIFY) / TIMEOUT"];
	s20 -> s1 [label="Alert(FATAL,UNEXPECTED_MESSAGE) / TIMEOUT"];
	s21 -> s1 [label="HELLO_VERIFY_REQUEST / Alert(FATAL,DECODE_ERROR)"];
	s21 -> s1 [label="ECDH_SERVER_HELLO / Alert(FATAL,DECODE_ERROR)"];
	s21 -> s1 [label="ECDH_SERVER_KEY_EXCHANGE / Alert(FATAL,DECODE_ERROR)"];
	s21 -> s1 [label="RSA_SIGN_CERTIFICATE_REQUEST / Alert(FATAL,DECODE_ERROR)"];
	s21 -> s1 [label="RSA_FIXED_ECDH_CERTIFICATE_REQUEST / Alert(FATAL,DECODE_ERROR)"];
	s21 -> s1 [label="RSA_FIXED_DH_CERTIFICATE_REQUEST / Alert(FATAL,DECODE_ERROR)"];
	s21 -> s1 [label="DSS_SIGN_CERTIFICATE_REQUEST / Alert(FATAL,DECODE_ERROR)"];
	s21 -> s1 [label="DSS_FIXED_DH_CERTIFICATE_REQUEST / Alert(FATAL,DECODE_ERROR)"];
	s21 -> s1 [label="ECDSA_SIGN_CERTIFICATE_REQUEST / Alert(FATAL,DECODE_ERROR)"];
	s21 -> s5 [label="HELLO_REQUEST / TIMEOUT"];
	s21 -> s1 [label="SERVER_HELLO_DONE / Alert(FATAL,DECODE_ERROR)"];
	s21 -> s3 [label="CHANGE_CIPHER_SPEC / TIMEOUT"];
	s21 -> s22 [label="FINISHED / TIMEOUT"];
	s21 -> s21 [label="APPLICATION / TIMEOUT"];
	s21 -> s1 [label="CERTIFICATE / Alert(FATAL,DECODE_ERROR)"];
	s21 -> s1 [label="EMPTY_CERTIFICATE / Alert(FATAL,DECODE_ERROR)"];
	s21 -> s1 [label="Alert(WARNING,CLOSE_NOTIFY) / TIMEOUT"];
	s21 -> s1 [label="Alert(FATAL,UNEXPECTED_MESSAGE) / TIMEOUT"];
	s22 -> s22 [label="HELLO_VERIFY_REQUEST / TIMEOUT"];
	s22 -> s22 [label="ECDH_SERVER_HELLO / TIMEOUT"];
	s22 -> s22 [label="ECDH_SERVER_KEY_EXCHANGE / TIMEOUT"];
	s22 -> s22 [label="RSA_SIGN_CERTIFICATE_REQUEST / TIMEOUT"];
	s22 -> s22 [label="RSA_FIXED_ECDH_CERTIFICATE_REQUEST / TIMEOUT"];
	s22 -> s22 [label="RSA_FIXED_DH_CERTIFICATE_REQUEST / TIMEOUT"];
	s22 -> s22 [label="DSS_SIGN_CERTIFICATE_REQUEST / TIMEOUT"];
	s22 -> s22 [label="DSS_FIXED_DH_CERTIFICATE_REQUEST / TIMEOUT"];
	s22 -> s22 [label="ECDSA_SIGN_CERTIFICATE_REQUEST / TIMEOUT"];
	s22 -> s8 [label="HELLO_REQUEST / CLIENT_HELLO"];
	s22 -> s22 [label="SERVER_HELLO_DONE / TIMEOUT"];
	s22 -> s1 [label="CHANGE_CIPHER_SPEC / TIMEOUT"];
	s22 -> s22 [label="FINISHED / TIMEOUT"];
	s22 -> s22 [label="APPLICATION / APPLICATION"];
	s22 -> s22 [label="CERTIFICATE / TIMEOUT"];
	s22 -> s22 [label="EMPTY_CERTIFICATE / TIMEOUT"];
	s22 -> s1 [label="Alert(WARNING,CLOSE_NOTIFY) / Alert(WARNING,CLOSE_NOTIFY)"];
	s22 -> s1 [label="Alert(FATAL,UNEXPECTED_MESSAGE) / TIMEOUT"];
	s23 -> s1 [label="HELLO_VERIFY_REQUEST / Alert(FATAL,DECODE_ERROR)"];
	s23 -> s1 [label="ECDH_SERVER_HELLO / Alert(FATAL,DECODE_ERROR)"];
	s23 -> s1 [label="ECDH_SERVER_KEY_EXCHANGE / Alert(FATAL,DECODE_ERROR)"];
	s23 -> s1 [label="RSA_SIGN_CERTIFICATE_REQUEST / Alert(FATAL,DECODE_ERROR)"];
	s23 -> s1 [label="RSA_FIXED_ECDH_CERTIFICATE_REQUEST / Alert(FATAL,DECODE_ERROR)"];
	s23 -> s1 [label="RSA_FIXED_DH_CERTIFICATE_REQUEST / Alert(FATAL,DECODE_ERROR)"];
	s23 -> s1 [label="DSS_SIGN_CERTIFICATE_REQUEST / Alert(FATAL,DECODE_ERROR)"];
	s23 -> s1 [label="DSS_FIXED_DH_CERTIFICATE_REQUEST / Alert(FATAL,DECODE_ERROR)"];
	s23 -> s1 [label="ECDSA_SIGN_CERTIFICATE_REQUEST / Alert(FATAL,DECODE_ERROR)"];
	s23 -> s24 [label="HELLO_REQUEST / CLIENT_HELLO"];
	s23 -> s18 [label="SERVER_HELLO_DONE / RSA_CERTIFICATE|ECDH_CLIENT_KEY_EXCHANGE|CERTIFICATE_VERIFY|CHANGE_CIPHER_SPEC|FINISHED"];
	s23 -> s3 [label="CHANGE_CIPHER_SPEC / TIMEOUT"];
	s23 -> s1 [label="FINISHED / Alert(FATAL,DECODE_ERROR)"];
	s23 -> s23 [label="APPLICATION / TIMEOUT"];
	s23 -> s1 [label="CERTIFICATE / Alert(FATAL,DECODE_ERROR)"];
	s23 -> s1 [label="EMPTY_CERTIFICATE / Alert(FATAL,DECODE_ERROR)"];
	s23 -> s1 [label="Alert(WARNING,CLOSE_NOTIFY) / TIMEOUT"];
	s23 -> s1 [label="Alert(FATAL,UNEXPECTED_MESSAGE) / TIMEOUT"];
	s24 -> s25 [label="HELLO_VERIFY_REQUEST / TIMEOUT"];
	s24 -> s25 [label="ECDH_SERVER_HELLO / TIMEOUT"];
	s24 -> s25 [label="ECDH_SERVER_KEY_EXCHANGE / TIMEOUT"];
	s24 -> s25 [label="RSA_SIGN_CERTIFICATE_REQUEST / TIMEOUT"];
	s24 -> s25 [label="RSA_FIXED_ECDH_CERTIFICATE_REQUEST / TIMEOUT"];
	s24 -> s25 [label="RSA_FIXED_DH_CERTIFICATE_REQUEST / TIMEOUT"];
	s24 -> s25 [label="DSS_SIGN_CERTIFICATE_REQUEST / TIMEOUT"];
	s24 -> s25 [label="DSS_FIXED_DH_CERTIFICATE_REQUEST / TIMEOUT"];
	s24 -> s25 [label="ECDSA_SIGN_CERTIFICATE_REQUEST / TIMEOUT"];
	s24 -> s24 [label="HELLO_REQUEST / CLIENT_HELLO"];
	s24 -> s25 [label="SERVER_HELLO_DONE / TIMEOUT"];
	s24 -> s3 [label="CHANGE_CIPHER_SPEC / TIMEOUT"];
	s24 -> s25 [label="FINISHED / TIMEOUT"];
	s24 -> s24 [label="APPLICATION / TIMEOUT"];
	s24 -> s25 [label="CERTIFICATE / TIMEOUT"];
	s24 -> s25 [label="EMPTY_CERTIFICATE / TIMEOUT"];
	s24 -> s1 [label="Alert(WARNING,CLOSE_NOTIFY) / TIMEOUT"];
	s24 -> s1 [label="Alert(FATAL,UNEXPECTED_MESSAGE) / TIMEOUT"];
	s25 -> s26 [label="HELLO_VERIFY_REQUEST / TIMEOUT"];
	s25 -> s26 [label="ECDH_SERVER_HELLO / TIMEOUT"];
	s25 -> s26 [label="ECDH_SERVER_KEY_EXCHANGE / TIMEOUT"];
	s25 -> s26 [label="RSA_SIGN_CERTIFICATE_REQUEST / TIMEOUT"];
	s25 -> s26 [label="RSA_FIXED_ECDH_CERTIFICATE_REQUEST / TIMEOUT"];
	s25 -> s26 [label="RSA_FIXED_DH_CERTIFICATE_REQUEST / TIMEOUT"];
	s25 -> s26 [label="DSS_SIGN_CERTIFICATE_REQUEST / TIMEOUT"];
	s25 -> s26 [label="DSS_FIXED_DH_CERTIFICATE_REQUEST / TIMEOUT"];
	s25 -> s26 [label="ECDSA_SIGN_CERTIFICATE_REQUEST / TIMEOUT"];
	s25 -> s24 [label="HELLO_REQUEST / CLIENT_HELLO"];
	s25 -> s26 [label="SERVER_HELLO_DONE / TIMEOUT"];
	s25 -> s3 [label="CHANGE_CIPHER_SPEC / TIMEOUT"];
	s25 -> s26 [label="FINISHED / TIMEOUT"];
	s25 -> s25 [label="APPLICATION / TIMEOUT"];
	s25 -> s26 [label="CERTIFICATE / TIMEOUT"];
	s25 -> s26 [label="EMPTY_CERTIFICATE / TIMEOUT"];
	s25 -> s1 [label="Alert(WARNING,CLOSE_NOTIFY) / TIMEOUT"];
	s25 -> s1 [label="Alert(FATAL,UNEXPECTED_MESSAGE) / TIMEOUT"];
	s26 -> s27 [label="HELLO_VERIFY_REQUEST / TIMEOUT"];
	s26 -> s27 [label="ECDH_SERVER_HELLO / TIMEOUT"];
	s26 -> s27 [label="ECDH_SERVER_KEY_EXCHANGE / TIMEOUT"];
	s26 -> s27 [label="RSA_SIGN_CERTIFICATE_REQUEST / TIMEOUT"];
	s26 -> s27 [label="RSA_FIXED_ECDH_CERTIFICATE_REQUEST / TIMEOUT"];
	s26 -> s27 [label="RSA_FIXED_DH_CERTIFICATE_REQUEST / TIMEOUT"];
	s26 -> s27 [label="DSS_SIGN_CERTIFICATE_REQUEST / TIMEOUT"];
	s26 -> s27 [label="DSS_FIXED_DH_CERTIFICATE_REQUEST / TIMEOUT"];
	s26 -> s27 [label="ECDSA_SIGN_CERTIFICATE_REQUEST / TIMEOUT"];
	s26 -> s24 [label="HELLO_REQUEST / CLIENT_HELLO"];
	s26 -> s27 [label="SERVER_HELLO_DONE / TIMEOUT"];
	s26 -> s3 [label="CHANGE_CIPHER_SPEC / TIMEOUT"];
	s26 -> s27 [label="FINISHED / TIMEOUT"];
	s26 -> s26 [label="APPLICATION / TIMEOUT"];
	s26 -> s27 [label="CERTIFICATE / TIMEOUT"];
	s26 -> s27 [label="EMPTY_CERTIFICATE / TIMEOUT"];
	s26 -> s1 [label="Alert(WARNING,CLOSE_NOTIFY) / TIMEOUT"];
	s26 -> s1 [label="Alert(FATAL,UNEXPECTED_MESSAGE) / TIMEOUT"];
	s27 -> s23 [label="HELLO_VERIFY_REQUEST / TIMEOUT"];
	s27 -> s23 [label="ECDH_SERVER_HELLO / TIMEOUT"];
	s27 -> s23 [label="ECDH_SERVER_KEY_EXCHANGE / TIMEOUT"];
	s27 -> s23 [label="RSA_SIGN_CERTIFICATE_REQUEST / TIMEOUT"];
	s27 -> s23 [label="RSA_FIXED_ECDH_CERTIFICATE_REQUEST / TIMEOUT"];
	s27 -> s23 [label="RSA_FIXED_DH_CERTIFICATE_REQUEST / TIMEOUT"];
	s27 -> s23 [label="DSS_SIGN_CERTIFICATE_REQUEST / TIMEOUT"];
	s27 -> s23 [label="DSS_FIXED_DH_CERTIFICATE_REQUEST / TIMEOUT"];
	s27 -> s23 [label="ECDSA_SIGN_CERTIFICATE_REQUEST / TIMEOUT"];
	s27 -> s24 [label="HELLO_REQUEST / CLIENT_HELLO"];
	s27 -> s23 [label="SERVER_HELLO_DONE / TIMEOUT"];
	s27 -> s3 [label="CHANGE_CIPHER_SPEC / TIMEOUT"];
	s27 -> s23 [label="FINISHED / TIMEOUT"];
	s27 -> s27 [label="APPLICATION / TIMEOUT"];
	s27 -> s23 [label="CERTIFICATE / TIMEOUT"];
	s27 -> s23 [label="EMPTY_CERTIFICATE / TIMEOUT"];
	s27 -> s1 [label="Alert(WARNING,CLOSE_NOTIFY) / TIMEOUT"];
	s27 -> s1 [label="Alert(FATAL,UNEXPECTED_MESSAGE) / TIMEOUT"];
	s28 -> s1 [label="HELLO_VERIFY_REQUEST / Alert(FATAL,DECODE_ERROR)"];
	s28 -> s1 [label="ECDH_SERVER_HELLO / Alert(FATAL,DECODE_ERROR)"];
	s28 -> s1 [label="ECDH_SERVER_KEY_EXCHANGE / Alert(FATAL,DECODE_ERROR)"];
	s28 -> s2 [label="RSA_SIGN_CERTIFICATE_REQUEST / TIMEOUT"];
	s28 -> s2 [label="RSA_FIXED_ECDH_CERTIFICATE_REQUEST / TIMEOUT"];
	s28 -> s2 [label="RSA_FIXED_DH_CERTIFICATE_REQUEST / TIMEOUT"];
	s28 -> s2 [label="DSS_SIGN_CERTIFICATE_REQUEST / TIMEOUT"];
	s28 -> s2 [label="DSS_FIXED_DH_CERTIFICATE_REQUEST / TIMEOUT"];
	s28 -> s2 [label="ECDSA_SIGN_CERTIFICATE_REQUEST / TIMEOUT"];
	s28 -> s5 [label="HELLO_REQUEST / TIMEOUT"];
	s28 -> s18 [label="SERVER_HELLO_DONE / ECDH_CLIENT_KEY_EXCHANGE|CHANGE_CIPHER_SPEC|FINISHED"];
	s28 -> s3 [label="CHANGE_CIPHER_SPEC / TIMEOUT"];
	s28 -> s1 [label="FINISHED / Alert(FATAL,DECODE_ERROR)"];
	s28 -> s28 [label="APPLICATION / TIMEOUT"];
	s28 -> s1 [label="CERTIFICATE / Alert(FATAL,DECODE_ERROR)"];
	s28 -> s1 [label="EMPTY_CERTIFICATE / Alert(FATAL,DECODE_ERROR)"];
	s28 -> s1 [label="Alert(WARNING,CLOSE_NOTIFY) / TIMEOUT"];
	s28 -> s1 [label="Alert(FATAL,UNEXPECTED_MESSAGE) / TIMEOUT"];

__start0 [label="" shape="none" width="0" height="0"];
__start0 -> s0;

}
