digraph g {

	s0 [shape="circle" label="s0"];
	s1 [shape="circle" label="s1"];
	s2 [shape="circle" label="s2"];
	s3 [shape="circle" label="s3"];
	s4 [shape="circle" label="s4"];
	s5 [shape="circle" label="s5"];
	s6 [shape="circle" label="s6"];
	s7 [shape="circle" label="s7"];
	s8 [shape="circle" label="s8"];
	s9 [shape="circle" label="s9"];
	s10 [shape="circle" label="s10"];
	s11 [shape="circle" label="s11"];
	s12 [shape="circle" label="s12"];
	s13 [shape="circle" label="s13"];
	s14 [shape="circle" label="s14"];
	s15 [shape="circle" label="s15"];
	s16 [shape="circle" label="s16"];
	s17 [shape="circle" label="s17"];
	s18 [shape="circle" label="s18"];
	s19 [shape="circle" label="s19"];
	s20 [shape="circle" label="s20"];
	s21 [shape="circle" label="s21"];
	s22 [shape="circle" label="s22"];
	s23 [shape="circle" label="s23"];
	s24 [shape="circle" label="s24"];
	s25 [shape="circle" label="s25"];
	s26 [shape="circle" label="s26"];
	s27 [shape="circle" label="s27"];
	s28 [shape="circle" label="s28"];
	s29 [shape="circle" label="s29"];
	s30 [shape="circle" label="s30"];
	s31 [shape="circle" label="s31"];
	s32 [shape="circle" label="s32"];
	s33 [shape="circle" label="s33"];
	s34 [shape="circle" label="s34"];
	s35 [shape="circle" label="s35"];
	s36 [shape="circle" label="s36"];
	s37 [shape="circle" label="s37"];
	s38 [shape="circle" label="s38"];
	s39 [shape="circle" label="s39"];
	s40 [shape="circle" label="s40"];
	s41 [shape="circle" label="s41"];
	s42 [shape="circle" label="s42"];
	s43 [shape="circle" label="s43"];
	s44 [shape="circle" label="s44"];
	s45 [shape="circle" label="s45"];
	s46 [shape="circle" label="s46"];
	s47 [shape="circle" label="s47"];
	s48 [shape="circle" label="s48"];
	s49 [shape="circle" label="s49"];
	s50 [shape="circle" label="s50"];
	s51 [shape="circle" label="s51"];
	s52 [shape="circle" label="s52"];
	s53 [shape="circle" label="s53"];
	s54 [shape="circle" label="s54"];
	s55 [shape="circle" label="s55"];
	s56 [shape="circle" label="s56"];
	s57 [shape="circle" label="s57"];
	s58 [shape="circle" label="s58"];
	s59 [shape="circle" label="s59"];
	s60 [shape="circle" label="s60"];
	s61 [shape="circle" label="s61"];
	s62 [shape="circle" label="s62"];
	s63 [shape="circle" label="s63"];
	s64 [shape="circle" label="s64"];
	s65 [shape="circle" label="s65"];
	s66 [shape="circle" label="s66"];
	s67 [shape="circle" label="s67"];
	s68 [shape="circle" label="s68"];
	s69 [shape="circle" label="s69"];
	s70 [shape="circle" label="s70"];
	s71 [shape="circle" label="s71"];
	s0 -> s2 [label="ECDH_CLIENT_HELLO / HELLO_VERIFY_REQUEST"];
	s0 -> s1 [label="ECDH_CLIENT_KEY_EXCHANGE / TIMEOUT"];
	s0 -> s1 [label="CHANGE_CIPHER_SPEC / TIMEOUT"];
	s0 -> s1 [label="FINISHED / TIMEOUT"];
	s0 -> s0 [label="APPLICATION / TIMEOUT"];
	s0 -> s1 [label="CERTIFICATE / TIMEOUT"];
	s0 -> s1 [label="EMPTY_CERTIFICATE / TIMEOUT"];
	s0 -> s1 [label="CERTIFICATE_VERIFY / TIMEOUT"];
	s0 -> s0 [label="Alert(WARNING,CLOSE_NOTIFY) / TIMEOUT"];
	s0 -> s0 [label="Alert(FATAL,UNEXPECTED_MESSAGE) / TIMEOUT"];
	s1 -> s1 [label="ECDH_CLIENT_HELLO / TIMEOUT"];
	s1 -> s1 [label="ECDH_CLIENT_KEY_EXCHANGE / TIMEOUT"];
	s1 -> s1 [label="CHANGE_CIPHER_SPEC / TIMEOUT"];
	s1 -> s1 [label="FINISHED / TIMEOUT"];
	s1 -> s1 [label="APPLICATION / TIMEOUT"];
	s1 -> s1 [label="CERTIFICATE / TIMEOUT"];
	s1 -> s1 [label="EMPTY_CERTIFICATE / TIMEOUT"];
	s1 -> s1 [label="CERTIFICATE_VERIFY / TIMEOUT"];
	s1 -> s1 [label="Alert(WARNING,CLOSE_NOTIFY) / TIMEOUT"];
	s1 -> s1 [label="Alert(FATAL,UNEXPECTED_MESSAGE) / TIMEOUT"];
	s2 -> s6 [label="ECDH_CLIENT_HELLO / SERVER_HELLO,CERTIFICATE,ECDHE_SERVER_KEY_EXCHANGE,CERTIFICATE_REQUEST,SERVER_HELLO_DONE"];
	s2 -> s3 [label="ECDH_CLIENT_KEY_EXCHANGE / TIMEOUT"];
	s2 -> s1 [label="CHANGE_CIPHER_SPEC / TIMEOUT"];
	s2 -> s3 [label="FINISHED / TIMEOUT"];
	s2 -> s2 [label="APPLICATION / TIMEOUT"];
	s2 -> s3 [label="CERTIFICATE / TIMEOUT"];
	s2 -> s3 [label="EMPTY_CERTIFICATE / TIMEOUT"];
	s2 -> s3 [label="CERTIFICATE_VERIFY / TIMEOUT"];
	s2 -> s2 [label="Alert(WARNING,CLOSE_NOTIFY) / TIMEOUT"];
	s2 -> s2 [label="Alert(FATAL,UNEXPECTED_MESSAGE) / TIMEOUT"];
	s3 -> s4 [label="ECDH_CLIENT_HELLO / TIMEOUT"];
	s3 -> s3 [label="ECDH_CLIENT_KEY_EXCHANGE / TIMEOUT"];
	s3 -> s1 [label="CHANGE_CIPHER_SPEC / TIMEOUT"];
	s3 -> s3 [label="FINISHED / TIMEOUT"];
	s3 -> s3 [label="APPLICATION / TIMEOUT"];
	s3 -> s3 [label="CERTIFICATE / TIMEOUT"];
	s3 -> s3 [label="EMPTY_CERTIFICATE / TIMEOUT"];
	s3 -> s3 [label="CERTIFICATE_VERIFY / TIMEOUT"];
	s3 -> s3 [label="Alert(WARNING,CLOSE_NOTIFY) / TIMEOUT"];
	s3 -> s3 [label="Alert(FATAL,UNEXPECTED_MESSAGE) / TIMEOUT"];
	s4 -> s4 [label="ECDH_CLIENT_HELLO / TIMEOUT"];
	s4 -> s5 [label="ECDH_CLIENT_KEY_EXCHANGE / TIMEOUT"];
	s4 -> s1 [label="CHANGE_CIPHER_SPEC / TIMEOUT"];
	s4 -> s3 [label="FINISHED / Alert(FATAL,HANDSHAKE_FAILURE)"];
	s4 -> s4 [label="APPLICATION / TIMEOUT"];
	s4 -> s4 [label="CERTIFICATE / TIMEOUT"];
	s4 -> s3 [label="EMPTY_CERTIFICATE / Alert(FATAL,HANDSHAKE_FAILURE)"];
	s4 -> s3 [label="CERTIFICATE_VERIFY / Alert(FATAL,HANDSHAKE_FAILURE)"];
	s4 -> s3 [label="Alert(WARNING,CLOSE_NOTIFY) / Alert(WARNING,CLOSE_NOTIFY)"];
	s4 -> s3 [label="Alert(FATAL,UNEXPECTED_MESSAGE) / TIMEOUT"];
	s5 -> s4 [label="ECDH_CLIENT_HELLO / TIMEOUT"];
	s5 -> s3 [label="ECDH_CLIENT_KEY_EXCHANGE / Alert(FATAL,INTERNAL_ERROR)"];
	s5 -> s1 [label="CHANGE_CIPHER_SPEC / TIMEOUT"];
	s5 -> s3 [label="FINISHED / Alert(FATAL,HANDSHAKE_FAILURE)"];
	s5 -> s5 [label="APPLICATION / TIMEOUT"];
	s5 -> s5 [label="CERTIFICATE / TIMEOUT"];
	s5 -> s3 [label="EMPTY_CERTIFICATE / Alert(FATAL,HANDSHAKE_FAILURE)"];
	s5 -> s3 [label="CERTIFICATE_VERIFY / Alert(FATAL,HANDSHAKE_FAILURE)"];
	s5 -> s3 [label="Alert(WARNING,CLOSE_NOTIFY) / Alert(WARNING,CLOSE_NOTIFY)"];
	s5 -> s3 [label="Alert(FATAL,UNEXPECTED_MESSAGE) / TIMEOUT"];
	s6 -> s11 [label="ECDH_CLIENT_HELLO / SERVER_HELLO,CERTIFICATE,ECDHE_SERVER_KEY_EXCHANGE,CERTIFICATE_REQUEST,SERVER_HELLO_DONE"];
	s6 -> s12 [label="ECDH_CLIENT_KEY_EXCHANGE / TIMEOUT"];
	s6 -> s1 [label="CHANGE_CIPHER_SPEC / TIMEOUT"];
	s6 -> s8 [label="FINISHED / Alert(FATAL,HANDSHAKE_FAILURE)"];
	s6 -> s6 [label="APPLICATION / TIMEOUT"];
	s6 -> s18 [label="CERTIFICATE / TIMEOUT"];
	s6 -> s8 [label="EMPTY_CERTIFICATE / Alert(FATAL,HANDSHAKE_FAILURE)"];
	s6 -> s8 [label="CERTIFICATE_VERIFY / Alert(FATAL,HANDSHAKE_FAILURE)"];
	s6 -> s7 [label="Alert(WARNING,CLOSE_NOTIFY) / Alert(WARNING,CLOSE_NOTIFY)"];
	s6 -> s7 [label="Alert(FATAL,UNEXPECTED_MESSAGE) / TIMEOUT"];
	s7 -> s6 [label="ECDH_CLIENT_HELLO / SERVER_HELLO_DONE"];
	s7 -> s8 [label="ECDH_CLIENT_KEY_EXCHANGE / TIMEOUT"];
	s7 -> s1 [label="CHANGE_CIPHER_SPEC / TIMEOUT"];
	s7 -> s8 [label="FINISHED / TIMEOUT"];
	s7 -> s7 [label="APPLICATION / TIMEOUT"];
	s7 -> s8 [label="CERTIFICATE / TIMEOUT"];
	s7 -> s8 [label="EMPTY_CERTIFICATE / TIMEOUT"];
	s7 -> s8 [label="CERTIFICATE_VERIFY / TIMEOUT"];
	s7 -> s7 [label="Alert(WARNING,CLOSE_NOTIFY) / TIMEOUT"];
	s7 -> s7 [label="Alert(FATAL,UNEXPECTED_MESSAGE) / TIMEOUT"];
	s8 -> s6 [label="ECDH_CLIENT_HELLO / CERTIFICATE_REQUEST,SERVER_HELLO_DONE"];
	s8 -> s9 [label="ECDH_CLIENT_KEY_EXCHANGE / TIMEOUT"];
	s8 -> s1 [label="CHANGE_CIPHER_SPEC / TIMEOUT"];
	s8 -> s9 [label="FINISHED / TIMEOUT"];
	s8 -> s8 [label="APPLICATION / TIMEOUT"];
	s8 -> s9 [label="CERTIFICATE / TIMEOUT"];
	s8 -> s9 [label="EMPTY_CERTIFICATE / TIMEOUT"];
	s8 -> s9 [label="CERTIFICATE_VERIFY / TIMEOUT"];
	s8 -> s8 [label="Alert(WARNING,CLOSE_NOTIFY) / TIMEOUT"];
	s8 -> s8 [label="Alert(FATAL,UNEXPECTED_MESSAGE) / TIMEOUT"];
	s9 -> s6 [label="ECDH_CLIENT_HELLO / ECDHE_SERVER_KEY_EXCHANGE,CERTIFICATE_REQUEST,SERVER_HELLO_DONE"];
	s9 -> s10 [label="ECDH_CLIENT_KEY_EXCHANGE / TIMEOUT"];
	s9 -> s1 [label="CHANGE_CIPHER_SPEC / TIMEOUT"];
	s9 -> s10 [label="FINISHED / TIMEOUT"];
	s9 -> s9 [label="APPLICATION / TIMEOUT"];
	s9 -> s10 [label="CERTIFICATE / TIMEOUT"];
	s9 -> s10 [label="EMPTY_CERTIFICATE / TIMEOUT"];
	s9 -> s10 [label="CERTIFICATE_VERIFY / TIMEOUT"];
	s9 -> s9 [label="Alert(WARNING,CLOSE_NOTIFY) / TIMEOUT"];
	s9 -> s9 [label="Alert(FATAL,UNEXPECTED_MESSAGE) / TIMEOUT"];
	s10 -> s6 [label="ECDH_CLIENT_HELLO / CERTIFICATE,ECDHE_SERVER_KEY_EXCHANGE,CERTIFICATE_REQUEST,SERVER_HELLO_DONE"];
	s10 -> s2 [label="ECDH_CLIENT_KEY_EXCHANGE / TIMEOUT"];
	s10 -> s1 [label="CHANGE_CIPHER_SPEC / TIMEOUT"];
	s10 -> s2 [label="FINISHED / TIMEOUT"];
	s10 -> s10 [label="APPLICATION / TIMEOUT"];
	s10 -> s2 [label="CERTIFICATE / TIMEOUT"];
	s10 -> s2 [label="EMPTY_CERTIFICATE / TIMEOUT"];
	s10 -> s2 [label="CERTIFICATE_VERIFY / TIMEOUT"];
	s10 -> s10 [label="Alert(WARNING,CLOSE_NOTIFY) / TIMEOUT"];
	s10 -> s10 [label="Alert(FATAL,UNEXPECTED_MESSAGE) / TIMEOUT"];
	s11 -> s22 [label="ECDH_CLIENT_HELLO / SERVER_HELLO,CERTIFICATE,ECDHE_SERVER_KEY_EXCHANGE,CERTIFICATE_REQUEST,SERVER_HELLO_DONE"];
	s11 -> s66 [label="ECDH_CLIENT_KEY_EXCHANGE / TIMEOUT"];
	s11 -> s1 [label="CHANGE_CIPHER_SPEC / TIMEOUT"];
	s11 -> s28 [label="FINISHED / Alert(FATAL,HANDSHAKE_FAILURE)"];
	s11 -> s11 [label="APPLICATION / TIMEOUT"];
	s11 -> s60 [label="CERTIFICATE / TIMEOUT"];
	s11 -> s28 [label="EMPTY_CERTIFICATE / Alert(FATAL,HANDSHAKE_FAILURE)"];
	s11 -> s28 [label="CERTIFICATE_VERIFY / Alert(FATAL,HANDSHAKE_FAILURE)"];
	s11 -> s27 [label="Alert(WARNING,CLOSE_NOTIFY) / Alert(WARNING,CLOSE_NOTIFY)"];
	s11 -> s27 [label="Alert(FATAL,UNEXPECTED_MESSAGE) / TIMEOUT"];
	s12 -> s36 [label="ECDH_CLIENT_HELLO / SERVER_HELLO,CERTIFICATE,ECDHE_SERVER_KEY_EXCHANGE,CERTIFICATE_REQUEST,SERVER_HELLO_DONE"];
	s12 -> s9 [label="ECDH_CLIENT_KEY_EXCHANGE / Alert(FATAL,INTERNAL_ERROR)"];
	s12 -> s1 [label="CHANGE_CIPHER_SPEC / TIMEOUT"];
	s12 -> s9 [label="FINISHED / Alert(FATAL,HANDSHAKE_FAILURE)"];
	s12 -> s12 [label="APPLICATION / TIMEOUT"];
	s12 -> s13 [label="CERTIFICATE / TIMEOUT"];
	s12 -> s9 [label="EMPTY_CERTIFICATE / Alert(FATAL,HANDSHAKE_FAILURE)"];
	s12 -> s9 [label="CERTIFICATE_VERIFY / Alert(FATAL,HANDSHAKE_FAILURE)"];
	s12 -> s8 [label="Alert(WARNING,CLOSE_NOTIFY) / Alert(WARNING,CLOSE_NOTIFY)"];
	s12 -> s8 [label="Alert(FATAL,UNEXPECTED_MESSAGE) / TIMEOUT"];
	s13 -> s19 [label="ECDH_CLIENT_HELLO / SERVER_HELLO,CERTIFICATE,ECDHE_SERVER_KEY_EXCHANGE,CERTIFICATE_REQUEST,SERVER_HELLO_DONE"];
	s13 -> s10 [label="ECDH_CLIENT_KEY_EXCHANGE / Alert(FATAL,INTERNAL_ERROR)"];
	s13 -> s1 [label="CHANGE_CIPHER_SPEC / TIMEOUT"];
	s13 -> s10 [label="FINISHED / Alert(FATAL,HANDSHAKE_FAILURE)"];
	s13 -> s13 [label="APPLICATION / TIMEOUT"];
	s13 -> s14 [label="CERTIFICATE / TIMEOUT"];
	s13 -> s10 [label="EMPTY_CERTIFICATE / Alert(FATAL,HANDSHAKE_FAILURE)"];
	s13 -> s53 [label="CERTIFICATE_VERIFY / TIMEOUT"];
	s13 -> s9 [label="Alert(WARNING,CLOSE_NOTIFY) / Alert(WARNING,CLOSE_NOTIFY)"];
	s13 -> s9 [label="Alert(FATAL,UNEXPECTED_MESSAGE) / TIMEOUT"];
	s14 -> s15 [label="ECDH_CLIENT_HELLO / SERVER_HELLO,CERTIFICATE,ECDHE_SERVER_KEY_EXCHANGE,CERTIFICATE_REQUEST,SERVER_HELLO_DONE"];
	s14 -> s2 [label="ECDH_CLIENT_KEY_EXCHANGE / Alert(FATAL,INTERNAL_ERROR)"];
	s14 -> s1 [label="CHANGE_CIPHER_SPEC / TIMEOUT"];
	s14 -> s2 [label="FINISHED / Alert(FATAL,HANDSHAKE_FAILURE)"];
	s14 -> s14 [label="APPLICATION / TIMEOUT"];
	s14 -> s24 [label="CERTIFICATE / TIMEOUT"];
	s14 -> s2 [label="EMPTY_CERTIFICATE / Alert(FATAL,HANDSHAKE_FAILURE)"];
	s14 -> s37 [label="CERTIFICATE_VERIFY / TIMEOUT"];
	s14 -> s10 [label="Alert(WARNING,CLOSE_NOTIFY) / Alert(WARNING,CLOSE_NOTIFY)"];
	s14 -> s10 [label="Alert(FATAL,UNEXPECTED_MESSAGE) / TIMEOUT"];
	s15 -> s23 [label="ECDH_CLIENT_HELLO / SERVER_HELLO,CERTIFICATE,ECDHE_SERVER_KEY_EXCHANGE,CERTIFICATE_REQUEST,SERVER_HELLO_DONE"];
	s15 -> s6 [label="ECDH_CLIENT_KEY_EXCHANGE / TIMEOUT"];
	s15 -> s1 [label="CHANGE_CIPHER_SPEC / TIMEOUT"];
	s15 -> s7 [label="FINISHED / Alert(FATAL,HANDSHAKE_FAILURE)"];
	s15 -> s15 [label="APPLICATION / TIMEOUT"];
	s15 -> s6 [label="CERTIFICATE / TIMEOUT"];
	s15 -> s7 [label="EMPTY_CERTIFICATE / Alert(FATAL,HANDSHAKE_FAILURE)"];
	s15 -> s16 [label="CERTIFICATE_VERIFY / TIMEOUT"];
	s15 -> s31 [label="Alert(WARNING,CLOSE_NOTIFY) / Alert(WARNING,CLOSE_NOTIFY)"];
	s15 -> s31 [label="Alert(FATAL,UNEXPECTED_MESSAGE) / TIMEOUT"];
	s16 -> s21 [label="ECDH_CLIENT_HELLO / SERVER_HELLO,CERTIFICATE,ECDHE_SERVER_KEY_EXCHANGE,CERTIFICATE_REQUEST,SERVER_HELLO_DONE"];
	s16 -> s12 [label="ECDH_CLIENT_KEY_EXCHANGE / TIMEOUT"];
	s16 -> s17 [label="CHANGE_CIPHER_SPEC / TIMEOUT"];
	s16 -> s8 [label="FINISHED / Alert(FATAL,INTERNAL_ERROR)"];
	s16 -> s16 [label="APPLICATION / TIMEOUT"];
	s16 -> s16 [label="CERTIFICATE / TIMEOUT"];
	s16 -> s8 [label="EMPTY_CERTIFICATE / Alert(FATAL,HANDSHAKE_FAILURE)"];
	s16 -> s8 [label="CERTIFICATE_VERIFY / Alert(FATAL,HANDSHAKE_FAILURE)"];
	s16 -> s7 [label="Alert(WARNING,CLOSE_NOTIFY) / Alert(WARNING,CLOSE_NOTIFY)"];
	s16 -> s7 [label="Alert(FATAL,UNEXPECTED_MESSAGE) / TIMEOUT"];
	s17 -> s1 [label="ECDH_CLIENT_HELLO / Alert(FATAL,INTERNAL_ERROR)"];
	s17 -> s68 [label="ECDH_CLIENT_KEY_EXCHANGE / TIMEOUT"];
	s17 -> s17 [label="CHANGE_CIPHER_SPEC / TIMEOUT"];
	s17 -> s1 [label="FINISHED / Alert(FATAL,INTERNAL_ERROR)"];
	s17 -> s17 [label="APPLICATION / TIMEOUT"];
	s17 -> s17 [label="CERTIFICATE / TIMEOUT"];
	s17 -> s1 [label="EMPTY_CERTIFICATE / Alert(FATAL,HANDSHAKE_FAILURE)"];
	s17 -> s1 [label="CERTIFICATE_VERIFY / Alert(FATAL,HANDSHAKE_FAILURE)"];
	s17 -> s1 [label="Alert(WARNING,CLOSE_NOTIFY) / Alert(WARNING,CLOSE_NOTIFY)"];
	s17 -> s1 [label="Alert(FATAL,UNEXPECTED_MESSAGE) / TIMEOUT"];
	s18 -> s60 [label="ECDH_CLIENT_HELLO / SERVER_HELLO,CERTIFICATE,ECDHE_SERVER_KEY_EXCHANGE,CERTIFICATE_REQUEST,SERVER_HELLO_DONE"];
	s18 -> s54 [label="ECDH_CLIENT_KEY_EXCHANGE / TIMEOUT"];
	s18 -> s1 [label="CHANGE_CIPHER_SPEC / TIMEOUT"];
	s18 -> s9 [label="FINISHED / Alert(FATAL,HANDSHAKE_FAILURE)"];
	s18 -> s18 [label="APPLICATION / TIMEOUT"];
	s18 -> s57 [label="CERTIFICATE / TIMEOUT"];
	s18 -> s9 [label="EMPTY_CERTIFICATE / Alert(FATAL,HANDSHAKE_FAILURE)"];
	s18 -> s20 [label="CERTIFICATE_VERIFY / TIMEOUT"];
	s18 -> s8 [label="Alert(WARNING,CLOSE_NOTIFY) / Alert(WARNING,CLOSE_NOTIFY)"];
	s18 -> s8 [label="Alert(FATAL,UNEXPECTED_MESSAGE) / TIMEOUT"];
	s19 -> s23 [label="ECDH_CLIENT_HELLO / SERVER_HELLO,CERTIFICATE,ECDHE_SERVER_KEY_EXCHANGE,CERTIFICATE_REQUEST,SERVER_HELLO_DONE"];
	s19 -> s15 [label="ECDH_CLIENT_KEY_EXCHANGE / TIMEOUT"];
	s19 -> s1 [label="CHANGE_CIPHER_SPEC / TIMEOUT"];
	s19 -> s31 [label="FINISHED / Alert(FATAL,HANDSHAKE_FAILURE)"];
	s19 -> s19 [label="APPLICATION / TIMEOUT"];
	s19 -> s15 [label="CERTIFICATE / TIMEOUT"];
	s19 -> s31 [label="EMPTY_CERTIFICATE / Alert(FATAL,HANDSHAKE_FAILURE)"];
	s19 -> s16 [label="CERTIFICATE_VERIFY / TIMEOUT"];
	s19 -> s32 [label="Alert(WARNING,CLOSE_NOTIFY) / Alert(WARNING,CLOSE_NOTIFY)"];
	s19 -> s32 [label="Alert(FATAL,UNEXPECTED_MESSAGE) / TIMEOUT"];
	s20 -> s20 [label="ECDH_CLIENT_HELLO / SERVER_HELLO,CERTIFICATE,ECDHE_SERVER_KEY_EXCHANGE,CERTIFICATE_REQUEST,SERVER_HELLO_DONE"];
	s20 -> s53 [label="ECDH_CLIENT_KEY_EXCHANGE / TIMEOUT"];
	s20 -> s1 [label="CHANGE_CIPHER_SPEC / TIMEOUT"];
	s20 -> s10 [label="FINISHED / Alert(FATAL,INTERNAL_ERROR)"];
	s20 -> s20 [label="APPLICATION / TIMEOUT"];
	s20 -> s20 [label="CERTIFICATE / TIMEOUT"];
	s20 -> s10 [label="EMPTY_CERTIFICATE / Alert(FATAL,HANDSHAKE_FAILURE)"];
	s20 -> s10 [label="CERTIFICATE_VERIFY / Alert(FATAL,HANDSHAKE_FAILURE)"];
	s20 -> s9 [label="Alert(WARNING,CLOSE_NOTIFY) / Alert(WARNING,CLOSE_NOTIFY)"];
	s20 -> s9 [label="Alert(FATAL,UNEXPECTED_MESSAGE) / TIMEOUT"];
	s21 -> s21 [label="ECDH_CLIENT_HELLO / SERVER_HELLO,CERTIFICATE,ECDHE_SERVER_KEY_EXCHANGE,CERTIFICATE_REQUEST,SERVER_HELLO_DONE"];
	s21 -> s63 [label="ECDH_CLIENT_KEY_EXCHANGE / TIMEOUT"];
	s21 -> s17 [label="CHANGE_CIPHER_SPEC / TIMEOUT"];
	s21 -> s28 [label="FINISHED / Alert(FATAL,INTERNAL_ERROR)"];
	s21 -> s21 [label="APPLICATION / TIMEOUT"];
	s21 -> s21 [label="CERTIFICATE / TIMEOUT"];
	s21 -> s28 [label="EMPTY_CERTIFICATE / Alert(FATAL,HANDSHAKE_FAILURE)"];
	s21 -> s16 [label="CERTIFICATE_VERIFY / TIMEOUT"];
	s21 -> s27 [label="Alert(WARNING,CLOSE_NOTIFY) / Alert(WARNING,CLOSE_NOTIFY)"];
	s21 -> s27 [label="Alert(FATAL,UNEXPECTED_MESSAGE) / TIMEOUT"];
	s22 -> s62 [label="ECDH_CLIENT_HELLO / SERVER_HELLO,CERTIFICATE,ECDHE_SERVER_KEY_EXCHANGE,CERTIFICATE_REQUEST,SERVER_HELLO_DONE"];
	s22 -> s38 [label="ECDH_CLIENT_KEY_EXCHANGE / TIMEOUT"];
	s22 -> s1 [label="CHANGE_CIPHER_SPEC / TIMEOUT"];
	s22 -> s33 [label="FINISHED / Alert(FATAL,HANDSHAKE_FAILURE)"];
	s22 -> s22 [label="APPLICATION / TIMEOUT"];
	s22 -> s23 [label="CERTIFICATE / TIMEOUT"];
	s22 -> s33 [label="EMPTY_CERTIFICATE / Alert(FATAL,HANDSHAKE_FAILURE)"];
	s22 -> s33 [label="CERTIFICATE_VERIFY / Alert(FATAL,HANDSHAKE_FAILURE)"];
	s22 -> s30 [label="Alert(WARNING,CLOSE_NOTIFY) / Alert(WARNING,CLOSE_NOTIFY)"];
	s22 -> s30 [label="Alert(FATAL,UNEXPECTED_MESSAGE) / TIMEOUT"];
	s23 -> s23 [label="ECDH_CLIENT_HELLO / SERVER_HELLO,CERTIFICATE,ECDHE_SERVER_KEY_EXCHANGE,CERTIFICATE_REQUEST,SERVER_HELLO_DONE"];
	s23 -> s24 [label="ECDH_CLIENT_KEY_EXCHANGE / TIMEOUT"];
	s23 -> s1 [label="CHANGE_CIPHER_SPEC / TIMEOUT"];
	s23 -> s25 [label="FINISHED / Alert(FATAL,HANDSHAKE_FAILURE)"];
	s23 -> s23 [label="APPLICATION / TIMEOUT"];
	s23 -> s23 [label="CERTIFICATE / TIMEOUT"];
	s23 -> s25 [label="EMPTY_CERTIFICATE / Alert(FATAL,HANDSHAKE_FAILURE)"];
	s23 -> s20 [label="CERTIFICATE_VERIFY / TIMEOUT"];
	s23 -> s33 [label="Alert(WARNING,CLOSE_NOTIFY) / Alert(WARNING,CLOSE_NOTIFY)"];
	s23 -> s33 [label="Alert(FATAL,UNEXPECTED_MESSAGE) / TIMEOUT"];
	s24 -> s6 [label="ECDH_CLIENT_HELLO / SERVER_HELLO,CERTIFICATE,ECDHE_SERVER_KEY_EXCHANGE,CERTIFICATE_REQUEST,SERVER_HELLO_DONE"];
	s24 -> s3 [label="ECDH_CLIENT_KEY_EXCHANGE / Alert(FATAL,INTERNAL_ERROR)"];
	s24 -> s1 [label="CHANGE_CIPHER_SPEC / TIMEOUT"];
	s24 -> s3 [label="FINISHED / Alert(FATAL,HANDSHAKE_FAILURE)"];
	s24 -> s24 [label="APPLICATION / TIMEOUT"];
	s24 -> s24 [label="CERTIFICATE / TIMEOUT"];
	s24 -> s3 [label="EMPTY_CERTIFICATE / Alert(FATAL,HANDSHAKE_FAILURE)"];
	s24 -> s37 [label="CERTIFICATE_VERIFY / TIMEOUT"];
	s24 -> s2 [label="Alert(WARNING,CLOSE_NOTIFY) / Alert(WARNING,CLOSE_NOTIFY)"];
	s24 -> s2 [label="Alert(FATAL,UNEXPECTED_MESSAGE) / TIMEOUT"];
	s25 -> s26 [label="ECDH_CLIENT_HELLO / TIMEOUT"];
	s25 -> s29 [label="ECDH_CLIENT_KEY_EXCHANGE / TIMEOUT"];
	s25 -> s1 [label="CHANGE_CIPHER_SPEC / TIMEOUT"];
	s25 -> s29 [label="FINISHED / TIMEOUT"];
	s25 -> s25 [label="APPLICATION / TIMEOUT"];
	s25 -> s29 [label="CERTIFICATE / TIMEOUT"];
	s25 -> s29 [label="EMPTY_CERTIFICATE / TIMEOUT"];
	s25 -> s29 [label="CERTIFICATE_VERIFY / TIMEOUT"];
	s25 -> s25 [label="Alert(WARNING,CLOSE_NOTIFY) / TIMEOUT"];
	s25 -> s25 [label="Alert(FATAL,UNEXPECTED_MESSAGE) / TIMEOUT"];
	s26 -> s11 [label="ECDH_CLIENT_HELLO / TIMEOUT"];
	s26 -> s5 [label="ECDH_CLIENT_KEY_EXCHANGE / TIMEOUT"];
	s26 -> s1 [label="CHANGE_CIPHER_SPEC / TIMEOUT"];
	s26 -> s27 [label="FINISHED / Alert(FATAL,HANDSHAKE_FAILURE)"];
	s26 -> s26 [label="APPLICATION / TIMEOUT"];
	s26 -> s26 [label="CERTIFICATE / TIMEOUT"];
	s26 -> s27 [label="EMPTY_CERTIFICATE / Alert(FATAL,HANDSHAKE_FAILURE)"];
	s26 -> s27 [label="CERTIFICATE_VERIFY / Alert(FATAL,HANDSHAKE_FAILURE)"];
	s26 -> s29 [label="Alert(WARNING,CLOSE_NOTIFY) / Alert(WARNING,CLOSE_NOTIFY)"];
	s26 -> s29 [label="Alert(FATAL,UNEXPECTED_MESSAGE) / TIMEOUT"];
	s27 -> s52 [label="ECDH_CLIENT_HELLO / TIMEOUT"];
	s27 -> s28 [label="ECDH_CLIENT_KEY_EXCHANGE / TIMEOUT"];
	s27 -> s1 [label="CHANGE_CIPHER_SPEC / TIMEOUT"];
	s27 -> s28 [label="FINISHED / TIMEOUT"];
	s27 -> s27 [label="APPLICATION / TIMEOUT"];
	s27 -> s28 [label="CERTIFICATE / TIMEOUT"];
	s27 -> s28 [label="EMPTY_CERTIFICATE / TIMEOUT"];
	s27 -> s28 [label="CERTIFICATE_VERIFY / TIMEOUT"];
	s27 -> s27 [label="Alert(WARNING,CLOSE_NOTIFY) / TIMEOUT"];
	s27 -> s27 [label="Alert(FATAL,UNEXPECTED_MESSAGE) / TIMEOUT"];
	s28 -> s51 [label="ECDH_CLIENT_HELLO / TIMEOUT"];
	s28 -> s32 [label="ECDH_CLIENT_KEY_EXCHANGE / TIMEOUT"];
	s28 -> s1 [label="CHANGE_CIPHER_SPEC / TIMEOUT"];
	s28 -> s32 [label="FINISHED / TIMEOUT"];
	s28 -> s28 [label="APPLICATION / TIMEOUT"];
	s28 -> s32 [label="CERTIFICATE / TIMEOUT"];
	s28 -> s32 [label="EMPTY_CERTIFICATE / TIMEOUT"];
	s28 -> s32 [label="CERTIFICATE_VERIFY / TIMEOUT"];
	s28 -> s28 [label="Alert(WARNING,CLOSE_NOTIFY) / TIMEOUT"];
	s28 -> s28 [label="Alert(FATAL,UNEXPECTED_MESSAGE) / TIMEOUT"];
	s29 -> s50 [label="ECDH_CLIENT_HELLO / TIMEOUT"];
	s29 -> s27 [label="ECDH_CLIENT_KEY_EXCHANGE / TIMEOUT"];
	s29 -> s1 [label="CHANGE_CIPHER_SPEC / TIMEOUT"];
	s29 -> s27 [label="FINISHED / TIMEOUT"];
	s29 -> s29 [label="APPLICATION / TIMEOUT"];
	s29 -> s27 [label="CERTIFICATE / TIMEOUT"];
	s29 -> s27 [label="EMPTY_CERTIFICATE / TIMEOUT"];
	s29 -> s27 [label="CERTIFICATE_VERIFY / TIMEOUT"];
	s29 -> s29 [label="Alert(WARNING,CLOSE_NOTIFY) / TIMEOUT"];
	s29 -> s29 [label="Alert(FATAL,UNEXPECTED_MESSAGE) / TIMEOUT"];
	s30 -> s35 [label="ECDH_CLIENT_HELLO / TIMEOUT"];
	s30 -> s33 [label="ECDH_CLIENT_KEY_EXCHANGE / TIMEOUT"];
	s30 -> s1 [label="CHANGE_CIPHER_SPEC / TIMEOUT"];
	s30 -> s33 [label="FINISHED / TIMEOUT"];
	s30 -> s30 [label="APPLICATION / TIMEOUT"];
	s30 -> s33 [label="CERTIFICATE / TIMEOUT"];
	s30 -> s33 [label="EMPTY_CERTIFICATE / TIMEOUT"];
	s30 -> s33 [label="CERTIFICATE_VERIFY / TIMEOUT"];
	s30 -> s30 [label="Alert(WARNING,CLOSE_NOTIFY) / TIMEOUT"];
	s30 -> s30 [label="Alert(FATAL,UNEXPECTED_MESSAGE) / TIMEOUT"];
	s31 -> s6 [label="ECDH_CLIENT_HELLO / TIMEOUT"];
	s31 -> s7 [label="ECDH_CLIENT_KEY_EXCHANGE / TIMEOUT"];
	s31 -> s1 [label="CHANGE_CIPHER_SPEC / TIMEOUT"];
	s31 -> s7 [label="FINISHED / TIMEOUT"];
	s31 -> s31 [label="APPLICATION / TIMEOUT"];
	s31 -> s7 [label="CERTIFICATE / TIMEOUT"];
	s31 -> s7 [label="EMPTY_CERTIFICATE / TIMEOUT"];
	s31 -> s7 [label="CERTIFICATE_VERIFY / TIMEOUT"];
	s31 -> s31 [label="Alert(WARNING,CLOSE_NOTIFY) / TIMEOUT"];
	s31 -> s31 [label="Alert(FATAL,UNEXPECTED_MESSAGE) / TIMEOUT"];
	s32 -> s49 [label="ECDH_CLIENT_HELLO / TIMEOUT"];
	s32 -> s31 [label="ECDH_CLIENT_KEY_EXCHANGE / TIMEOUT"];
	s32 -> s1 [label="CHANGE_CIPHER_SPEC / TIMEOUT"];
	s32 -> s31 [label="FINISHED / TIMEOUT"];
	s32 -> s32 [label="APPLICATION / TIMEOUT"];
	s32 -> s31 [label="CERTIFICATE / TIMEOUT"];
	s32 -> s31 [label="EMPTY_CERTIFICATE / TIMEOUT"];
	s32 -> s31 [label="CERTIFICATE_VERIFY / TIMEOUT"];
	s32 -> s32 [label="Alert(WARNING,CLOSE_NOTIFY) / TIMEOUT"];
	s32 -> s32 [label="Alert(FATAL,UNEXPECTED_MESSAGE) / TIMEOUT"];
	s33 -> s34 [label="ECDH_CLIENT_HELLO / TIMEOUT"];
	s33 -> s25 [label="ECDH_CLIENT_KEY_EXCHANGE / TIMEOUT"];
	s33 -> s1 [label="CHANGE_CIPHER_SPEC / TIMEOUT"];
	s33 -> s25 [label="FINISHED / TIMEOUT"];
	s33 -> s33 [label="APPLICATION / TIMEOUT"];
	s33 -> s25 [label="CERTIFICATE / TIMEOUT"];
	s33 -> s25 [label="EMPTY_CERTIFICATE / TIMEOUT"];
	s33 -> s25 [label="CERTIFICATE_VERIFY / TIMEOUT"];
	s33 -> s33 [label="Alert(WARNING,CLOSE_NOTIFY) / TIMEOUT"];
	s33 -> s33 [label="Alert(FATAL,UNEXPECTED_MESSAGE) / TIMEOUT"];
	s34 -> s49 [label="ECDH_CLIENT_HELLO / TIMEOUT"];
	s34 -> s5 [label="ECDH_CLIENT_KEY_EXCHANGE / TIMEOUT"];
	s34 -> s1 [label="CHANGE_CIPHER_SPEC / TIMEOUT"];
	s34 -> s29 [label="FINISHED / Alert(FATAL,HANDSHAKE_FAILURE)"];
	s34 -> s34 [label="APPLICATION / TIMEOUT"];
	s34 -> s34 [label="CERTIFICATE / TIMEOUT"];
	s34 -> s29 [label="EMPTY_CERTIFICATE / Alert(FATAL,HANDSHAKE_FAILURE)"];
	s34 -> s29 [label="CERTIFICATE_VERIFY / Alert(FATAL,HANDSHAKE_FAILURE)"];
	s34 -> s25 [label="Alert(WARNING,CLOSE_NOTIFY) / Alert(WARNING,CLOSE_NOTIFY)"];
	s34 -> s25 [label="Alert(FATAL,UNEXPECTED_MESSAGE) / TIMEOUT"];
	s35 -> s51 [label="ECDH_CLIENT_HELLO / TIMEOUT"];
	s35 -> s5 [label="ECDH_CLIENT_KEY_EXCHANGE / TIMEOUT"];
	s35 -> s1 [label="CHANGE_CIPHER_SPEC / TIMEOUT"];
	s35 -> s25 [label="FINISHED / Alert(FATAL,HANDSHAKE_FAILURE)"];
	s35 -> s35 [label="APPLICATION / TIMEOUT"];
	s35 -> s35 [label="CERTIFICATE / TIMEOUT"];
	s35 -> s25 [label="EMPTY_CERTIFICATE / Alert(FATAL,HANDSHAKE_FAILURE)"];
	s35 -> s25 [label="CERTIFICATE_VERIFY / Alert(FATAL,HANDSHAKE_FAILURE)"];
	s35 -> s33 [label="Alert(WARNING,CLOSE_NOTIFY) / Alert(WARNING,CLOSE_NOTIFY)"];
	s35 -> s33 [label="Alert(FATAL,UNEXPECTED_MESSAGE) / TIMEOUT"];
	s36 -> s71 [label="ECDH_CLIENT_HELLO / SERVER_HELLO,CERTIFICATE,ECDHE_SERVER_KEY_EXCHANGE,CERTIFICATE_REQUEST,SERVER_HELLO_DONE"];
	s36 -> s39 [label="ECDH_CLIENT_KEY_EXCHANGE / TIMEOUT"];
	s36 -> s1 [label="CHANGE_CIPHER_SPEC / TIMEOUT"];
	s36 -> s32 [label="FINISHED / Alert(FATAL,HANDSHAKE_FAILURE)"];
	s36 -> s36 [label="APPLICATION / TIMEOUT"];
	s36 -> s19 [label="CERTIFICATE / TIMEOUT"];
	s36 -> s32 [label="EMPTY_CERTIFICATE / Alert(FATAL,HANDSHAKE_FAILURE)"];
	s36 -> s32 [label="CERTIFICATE_VERIFY / Alert(FATAL,HANDSHAKE_FAILURE)"];
	s36 -> s28 [label="Alert(WARNING,CLOSE_NOTIFY) / Alert(WARNING,CLOSE_NOTIFY)"];
	s36 -> s28 [label="Alert(FATAL,UNEXPECTED_MESSAGE) / TIMEOUT"];
	s37 -> s21 [label="ECDH_CLIENT_HELLO / SERVER_HELLO,CERTIFICATE,ECDHE_SERVER_KEY_EXCHANGE,CERTIFICATE_REQUEST,SERVER_HELLO_DONE"];
	s37 -> s3 [label="ECDH_CLIENT_KEY_EXCHANGE / Alert(FATAL,INTERNAL_ERROR)"];
	s37 -> s68 [label="CHANGE_CIPHER_SPEC / TIMEOUT"];
	s37 -> s3 [label="FINISHED / Alert(FATAL,HANDSHAKE_FAILURE)"];
	s37 -> s37 [label="APPLICATION / TIMEOUT"];
	s37 -> s37 [label="CERTIFICATE / TIMEOUT"];
	s37 -> s3 [label="EMPTY_CERTIFICATE / Alert(FATAL,HANDSHAKE_FAILURE)"];
	s37 -> s3 [label="CERTIFICATE_VERIFY / Alert(FATAL,HANDSHAKE_FAILURE)"];
	s37 -> s2 [label="Alert(WARNING,CLOSE_NOTIFY) / Alert(WARNING,CLOSE_NOTIFY)"];
	s37 -> s2 [label="Alert(FATAL,UNEXPECTED_MESSAGE) / TIMEOUT"];
	s38 -> s40 [label="ECDH_CLIENT_HELLO / SERVER_HELLO,CERTIFICATE,ECDHE_SERVER_KEY_EXCHANGE,CERTIFICATE_REQUEST,SERVER_HELLO_DONE"];
	s38 -> s25 [label="ECDH_CLIENT_KEY_EXCHANGE / Alert(FATAL,INTERNAL_ERROR)"];
	s38 -> s1 [label="CHANGE_CIPHER_SPEC / TIMEOUT"];
	s38 -> s25 [label="FINISHED / Alert(FATAL,HANDSHAKE_FAILURE)"];
	s38 -> s38 [label="APPLICATION / TIMEOUT"];
	s38 -> s24 [label="CERTIFICATE / TIMEOUT"];
	s38 -> s25 [label="EMPTY_CERTIFICATE / Alert(FATAL,HANDSHAKE_FAILURE)"];
	s38 -> s25 [label="CERTIFICATE_VERIFY / Alert(FATAL,HANDSHAKE_FAILURE)"];
	s38 -> s33 [label="Alert(WARNING,CLOSE_NOTIFY) / Alert(WARNING,CLOSE_NOTIFY)"];
	s38 -> s33 [label="Alert(FATAL,UNEXPECTED_MESSAGE) / TIMEOUT"];
	s39 -> s41 [label="ECDH_CLIENT_HELLO / SERVER_HELLO,CERTIFICATE,ECDHE_SERVER_KEY_EXCHANGE,CERTIFICATE_REQUEST,SERVER_HELLO_DONE"];
	s39 -> s31 [label="ECDH_CLIENT_KEY_EXCHANGE / Alert(FATAL,INTERNAL_ERROR)"];
	s39 -> s1 [label="CHANGE_CIPHER_SPEC / TIMEOUT"];
	s39 -> s31 [label="FINISHED / Alert(FATAL,HANDSHAKE_FAILURE)"];
	s39 -> s39 [label="APPLICATION / TIMEOUT"];
	s39 -> s15 [label="CERTIFICATE / TIMEOUT"];
	s39 -> s31 [label="EMPTY_CERTIFICATE / Alert(FATAL,HANDSHAKE_FAILURE)"];
	s39 -> s31 [label="CERTIFICATE_VERIFY / Alert(FATAL,HANDSHAKE_FAILURE)"];
	s39 -> s32 [label="Alert(WARNING,CLOSE_NOTIFY) / Alert(WARNING,CLOSE_NOTIFY)"];
	s39 -> s32 [label="Alert(FATAL,UNEXPECTED_MESSAGE) / TIMEOUT"];
	s40 -> s62 [label="ECDH_CLIENT_HELLO / SERVER_HELLO,CERTIFICATE,ECDHE_SERVER_KEY_EXCHANGE,CERTIFICATE_REQUEST,SERVER_HELLO_DONE"];
	s40 -> s65 [label="ECDH_CLIENT_KEY_EXCHANGE / TIMEOUT"];
	s40 -> s1 [label="CHANGE_CIPHER_SPEC / TIMEOUT"];
	s40 -> s44 [label="FINISHED / Alert(FATAL,HANDSHAKE_FAILURE)"];
	s40 -> s40 [label="APPLICATION / TIMEOUT"];
	s40 -> s23 [label="CERTIFICATE / TIMEOUT"];
	s40 -> s44 [label="EMPTY_CERTIFICATE / Alert(FATAL,HANDSHAKE_FAILURE)"];
	s40 -> s44 [label="CERTIFICATE_VERIFY / Alert(FATAL,HANDSHAKE_FAILURE)"];
	s40 -> s3 [label="Alert(WARNING,CLOSE_NOTIFY) / Alert(WARNING,CLOSE_NOTIFY)"];
	s40 -> s3 [label="Alert(FATAL,UNEXPECTED_MESSAGE) / TIMEOUT"];
	s41 -> s42 [label="ECDH_CLIENT_HELLO / SERVER_HELLO,CERTIFICATE,ECDHE_SERVER_KEY_EXCHANGE,CERTIFICATE_REQUEST,SERVER_HELLO_DONE"];
	s41 -> s43 [label="ECDH_CLIENT_KEY_EXCHANGE / TIMEOUT"];
	s41 -> s1 [label="CHANGE_CIPHER_SPEC / TIMEOUT"];
	s41 -> s29 [label="FINISHED / Alert(FATAL,HANDSHAKE_FAILURE)"];
	s41 -> s41 [label="APPLICATION / TIMEOUT"];
	s41 -> s23 [label="CERTIFICATE / TIMEOUT"];
	s41 -> s29 [label="EMPTY_CERTIFICATE / Alert(FATAL,HANDSHAKE_FAILURE)"];
	s41 -> s29 [label="CERTIFICATE_VERIFY / Alert(FATAL,HANDSHAKE_FAILURE)"];
	s41 -> s25 [label="Alert(WARNING,CLOSE_NOTIFY) / Alert(WARNING,CLOSE_NOTIFY)"];
	s41 -> s25 [label="Alert(FATAL,UNEXPECTED_MESSAGE) / TIMEOUT"];
	s42 -> s62 [label="ECDH_CLIENT_HELLO / SERVER_HELLO,CERTIFICATE,ECDHE_SERVER_KEY_EXCHANGE,CERTIFICATE_REQUEST,SERVER_HELLO_DONE"];
	s42 -> s45 [label="ECDH_CLIENT_KEY_EXCHANGE / TIMEOUT"];
	s42 -> s1 [label="CHANGE_CIPHER_SPEC / TIMEOUT"];
	s42 -> s47 [label="FINISHED / Alert(FATAL,HANDSHAKE_FAILURE)"];
	s42 -> s42 [label="APPLICATION / TIMEOUT"];
	s42 -> s23 [label="CERTIFICATE / TIMEOUT"];
	s42 -> s47 [label="EMPTY_CERTIFICATE / Alert(FATAL,HANDSHAKE_FAILURE)"];
	s42 -> s47 [label="CERTIFICATE_VERIFY / Alert(FATAL,HANDSHAKE_FAILURE)"];
	s42 -> s44 [label="Alert(WARNING,CLOSE_NOTIFY) / Alert(WARNING,CLOSE_NOTIFY)"];
	s42 -> s44 [label="Alert(FATAL,UNEXPECTED_MESSAGE) / TIMEOUT"];
	s43 -> s45 [label="ECDH_CLIENT_HELLO / SERVER_HELLO,CERTIFICATE,ECDHE_SERVER_KEY_EXCHANGE,CERTIFICATE_REQUEST,SERVER_HELLO_DONE"];
	s43 -> s27 [label="ECDH_CLIENT_KEY_EXCHANGE / Alert(FATAL,INTERNAL_ERROR)"];
	s43 -> s1 [label="CHANGE_CIPHER_SPEC / TIMEOUT"];
	s43 -> s27 [label="FINISHED / Alert(FATAL,HANDSHAKE_FAILURE)"];
	s43 -> s43 [label="APPLICATION / TIMEOUT"];
	s43 -> s24 [label="CERTIFICATE / TIMEOUT"];
	s43 -> s27 [label="EMPTY_CERTIFICATE / Alert(FATAL,HANDSHAKE_FAILURE)"];
	s43 -> s27 [label="CERTIFICATE_VERIFY / Alert(FATAL,HANDSHAKE_FAILURE)"];
	s43 -> s29 [label="Alert(WARNING,CLOSE_NOTIFY) / Alert(WARNING,CLOSE_NOTIFY)"];
	s43 -> s29 [label="Alert(FATAL,UNEXPECTED_MESSAGE) / TIMEOUT"];
	s44 -> s46 [label="ECDH_CLIENT_HELLO / TIMEOUT"];
	s44 -> s47 [label="ECDH_CLIENT_KEY_EXCHANGE / TIMEOUT"];
	s44 -> s1 [label="CHANGE_CIPHER_SPEC / TIMEOUT"];
	s44 -> s47 [label="FINISHED / TIMEOUT"];
	s44 -> s44 [label="APPLICATION / TIMEOUT"];
	s44 -> s47 [label="CERTIFICATE / TIMEOUT"];
	s44 -> s47 [label="EMPTY_CERTIFICATE / TIMEOUT"];
	s44 -> s47 [label="CERTIFICATE_VERIFY / TIMEOUT"];
	s44 -> s44 [label="Alert(WARNING,CLOSE_NOTIFY) / TIMEOUT"];
	s44 -> s44 [label="Alert(FATAL,UNEXPECTED_MESSAGE) / TIMEOUT"];
	s45 -> s62 [label="ECDH_CLIENT_HELLO / SERVER_HELLO,CERTIFICATE,ECDHE_SERVER_KEY_EXCHANGE,CERTIFICATE_REQUEST,SERVER_HELLO_DONE"];
	s45 -> s22 [label="ECDH_CLIENT_KEY_EXCHANGE / TIMEOUT"];
	s45 -> s1 [label="CHANGE_CIPHER_SPEC / TIMEOUT"];
	s45 -> s30 [label="FINISHED / Alert(FATAL,HANDSHAKE_FAILURE)"];
	s45 -> s45 [label="APPLICATION / TIMEOUT"];
	s45 -> s23 [label="CERTIFICATE / TIMEOUT"];
	s45 -> s30 [label="EMPTY_CERTIFICATE / Alert(FATAL,HANDSHAKE_FAILURE)"];
	s45 -> s30 [label="CERTIFICATE_VERIFY / Alert(FATAL,HANDSHAKE_FAILURE)"];
	s45 -> s47 [label="Alert(WARNING,CLOSE_NOTIFY) / Alert(WARNING,CLOSE_NOTIFY)"];
	s45 -> s47 [label="Alert(FATAL,UNEXPECTED_MESSAGE) / TIMEOUT"];
	s46 -> s50 [label="ECDH_CLIENT_HELLO / TIMEOUT"];
	s46 -> s5 [label="ECDH_CLIENT_KEY_EXCHANGE / TIMEOUT"];
	s46 -> s1 [label="CHANGE_CIPHER_SPEC / TIMEOUT"];
	s46 -> s30 [label="FINISHED / Alert(FATAL,HANDSHAKE_FAILURE)"];
	s46 -> s46 [label="APPLICATION / TIMEOUT"];
	s46 -> s46 [label="CERTIFICATE / TIMEOUT"];
	s46 -> s30 [label="EMPTY_CERTIFICATE / Alert(FATAL,HANDSHAKE_FAILURE)"];
	s46 -> s30 [label="CERTIFICATE_VERIFY / Alert(FATAL,HANDSHAKE_FAILURE)"];
	s46 -> s47 [label="Alert(WARNING,CLOSE_NOTIFY) / Alert(WARNING,CLOSE_NOTIFY)"];
	s46 -> s47 [label="Alert(FATAL,UNEXPECTED_MESSAGE) / TIMEOUT"];
	s47 -> s48 [label="ECDH_CLIENT_HELLO / TIMEOUT"];
	s47 -> s30 [label="ECDH_CLIENT_KEY_EXCHANGE / TIMEOUT"];
	s47 -> s1 [label="CHANGE_CIPHER_SPEC / TIMEOUT"];
	s47 -> s30 [label="FINISHED / TIMEOUT"];
	s47 -> s47 [label="APPLICATION / TIMEOUT"];
	s47 -> s30 [label="CERTIFICATE / TIMEOUT"];
	s47 -> s30 [label="EMPTY_CERTIFICATE / TIMEOUT"];
	s47 -> s30 [label="CERTIFICATE_VERIFY / TIMEOUT"];
	s47 -> s47 [label="Alert(WARNING,CLOSE_NOTIFY) / TIMEOUT"];
	s47 -> s47 [label="Alert(FATAL,UNEXPECTED_MESSAGE) / TIMEOUT"];
	s48 -> s52 [label="ECDH_CLIENT_HELLO / TIMEOUT"];
	s48 -> s5 [label="ECDH_CLIENT_KEY_EXCHANGE / TIMEOUT"];
	s48 -> s1 [label="CHANGE_CIPHER_SPEC / TIMEOUT"];
	s48 -> s33 [label="FINISHED / Alert(FATAL,HANDSHAKE_FAILURE)"];
	s48 -> s48 [label="APPLICATION / TIMEOUT"];
	s48 -> s48 [label="CERTIFICATE / TIMEOUT"];
	s48 -> s33 [label="EMPTY_CERTIFICATE / Alert(FATAL,HANDSHAKE_FAILURE)"];
	s48 -> s33 [label="CERTIFICATE_VERIFY / Alert(FATAL,HANDSHAKE_FAILURE)"];
	s48 -> s30 [label="Alert(WARNING,CLOSE_NOTIFY) / Alert(WARNING,CLOSE_NOTIFY)"];
	s48 -> s30 [label="Alert(FATAL,UNEXPECTED_MESSAGE) / TIMEOUT"];
	s49 -> s11 [label="ECDH_CLIENT_HELLO / CERTIFICATE,ECDHE_SERVER_KEY_EXCHANGE,CERTIFICATE_REQUEST,SERVER_HELLO_DONE"];
	s49 -> s67 [label="ECDH_CLIENT_KEY_EXCHANGE / TIMEOUT"];
	s49 -> s1 [label="CHANGE_CIPHER_SPEC / TIMEOUT"];
	s49 -> s7 [label="FINISHED / Alert(FATAL,HANDSHAKE_FAILURE)"];
	s49 -> s49 [label="APPLICATION / TIMEOUT"];
	s49 -> s49 [label="CERTIFICATE / TIMEOUT"];
	s49 -> s7 [label="EMPTY_CERTIFICATE / Alert(FATAL,HANDSHAKE_FAILURE)"];
	s49 -> s7 [label="CERTIFICATE_VERIFY / Alert(FATAL,HANDSHAKE_FAILURE)"];
	s49 -> s31 [label="Alert(WARNING,CLOSE_NOTIFY) / Alert(WARNING,CLOSE_NOTIFY)"];
	s49 -> s31 [label="Alert(FATAL,UNEXPECTED_MESSAGE) / TIMEOUT"];
	s50 -> s11 [label="ECDH_CLIENT_HELLO / SERVER_HELLO_DONE"];
	s50 -> s50 [label="ECDH_CLIENT_KEY_EXCHANGE / TIMEOUT"];
	s50 -> s1 [label="CHANGE_CIPHER_SPEC / TIMEOUT"];
	s50 -> s28 [label="FINISHED / Alert(FATAL,HANDSHAKE_FAILURE)"];
	s50 -> s50 [label="APPLICATION / TIMEOUT"];
	s50 -> s50 [label="CERTIFICATE / TIMEOUT"];
	s50 -> s28 [label="EMPTY_CERTIFICATE / Alert(FATAL,HANDSHAKE_FAILURE)"];
	s50 -> s28 [label="CERTIFICATE_VERIFY / Alert(FATAL,HANDSHAKE_FAILURE)"];
	s50 -> s27 [label="Alert(WARNING,CLOSE_NOTIFY) / Alert(WARNING,CLOSE_NOTIFY)"];
	s50 -> s27 [label="Alert(FATAL,UNEXPECTED_MESSAGE) / TIMEOUT"];
	s51 -> s11 [label="ECDH_CLIENT_HELLO / ECDHE_SERVER_KEY_EXCHANGE,CERTIFICATE_REQUEST,SERVER_HELLO_DONE"];
	s51 -> s51 [label="ECDH_CLIENT_KEY_EXCHANGE / TIMEOUT"];
	s51 -> s1 [label="CHANGE_CIPHER_SPEC / TIMEOUT"];
	s51 -> s31 [label="FINISHED / Alert(FATAL,HANDSHAKE_FAILURE)"];
	s51 -> s51 [label="APPLICATION / TIMEOUT"];
	s51 -> s51 [label="CERTIFICATE / TIMEOUT"];
	s51 -> s31 [label="EMPTY_CERTIFICATE / Alert(FATAL,HANDSHAKE_FAILURE)"];
	s51 -> s31 [label="CERTIFICATE_VERIFY / Alert(FATAL,HANDSHAKE_FAILURE)"];
	s51 -> s32 [label="Alert(WARNING,CLOSE_NOTIFY) / Alert(WARNING,CLOSE_NOTIFY)"];
	s51 -> s32 [label="Alert(FATAL,UNEXPECTED_MESSAGE) / TIMEOUT"];
	s52 -> s11 [label="ECDH_CLIENT_HELLO / CERTIFICATE_REQUEST,SERVER_HELLO_DONE"];
	s52 -> s52 [label="ECDH_CLIENT_KEY_EXCHANGE / TIMEOUT"];
	s52 -> s1 [label="CHANGE_CIPHER_SPEC / TIMEOUT"];
	s52 -> s32 [label="FINISHED / Alert(FATAL,HANDSHAKE_FAILURE)"];
	s52 -> s52 [label="APPLICATION / TIMEOUT"];
	s52 -> s52 [label="CERTIFICATE / TIMEOUT"];
	s52 -> s32 [label="EMPTY_CERTIFICATE / Alert(FATAL,HANDSHAKE_FAILURE)"];
	s52 -> s32 [label="CERTIFICATE_VERIFY / Alert(FATAL,HANDSHAKE_FAILURE)"];
	s52 -> s28 [label="Alert(WARNING,CLOSE_NOTIFY) / Alert(WARNING,CLOSE_NOTIFY)"];
	s52 -> s28 [label="Alert(FATAL,UNEXPECTED_MESSAGE) / TIMEOUT"];
	s53 -> s21 [label="ECDH_CLIENT_HELLO / SERVER_HELLO,CERTIFICATE,ECDHE_SERVER_KEY_EXCHANGE,CERTIFICATE_REQUEST,SERVER_HELLO_DONE"];
	s53 -> s2 [label="ECDH_CLIENT_KEY_EXCHANGE / Alert(FATAL,INTERNAL_ERROR)"];
	s53 -> s68 [label="CHANGE_CIPHER_SPEC / TIMEOUT"];
	s53 -> s2 [label="FINISHED / Alert(FATAL,HANDSHAKE_FAILURE)"];
	s53 -> s53 [label="APPLICATION / TIMEOUT"];
	s53 -> s37 [label="CERTIFICATE / TIMEOUT"];
	s53 -> s2 [label="EMPTY_CERTIFICATE / Alert(FATAL,HANDSHAKE_FAILURE)"];
	s53 -> s2 [label="CERTIFICATE_VERIFY / Alert(FATAL,HANDSHAKE_FAILURE)"];
	s53 -> s10 [label="Alert(WARNING,CLOSE_NOTIFY) / Alert(WARNING,CLOSE_NOTIFY)"];
	s53 -> s10 [label="Alert(FATAL,UNEXPECTED_MESSAGE) / TIMEOUT"];
	s54 -> s19 [label="ECDH_CLIENT_HELLO / SERVER_HELLO,CERTIFICATE,ECDHE_SERVER_KEY_EXCHANGE,CERTIFICATE_REQUEST,SERVER_HELLO_DONE"];
	s54 -> s10 [label="ECDH_CLIENT_KEY_EXCHANGE / Alert(FATAL,INTERNAL_ERROR)"];
	s54 -> s1 [label="CHANGE_CIPHER_SPEC / TIMEOUT"];
	s54 -> s10 [label="FINISHED / Alert(FATAL,HANDSHAKE_FAILURE)"];
	s54 -> s54 [label="APPLICATION / TIMEOUT"];
	s54 -> s14 [label="CERTIFICATE / TIMEOUT"];
	s54 -> s10 [label="EMPTY_CERTIFICATE / Alert(FATAL,HANDSHAKE_FAILURE)"];
	s54 -> s55 [label="CERTIFICATE_VERIFY / TIMEOUT"];
	s54 -> s9 [label="Alert(WARNING,CLOSE_NOTIFY) / Alert(WARNING,CLOSE_NOTIFY)"];
	s54 -> s9 [label="Alert(FATAL,UNEXPECTED_MESSAGE) / TIMEOUT"];
	s55 -> s21 [label="ECDH_CLIENT_HELLO / SERVER_HELLO,CERTIFICATE,ECDHE_SERVER_KEY_EXCHANGE,CERTIFICATE_REQUEST,SERVER_HELLO_DONE"];
	s55 -> s2 [label="ECDH_CLIENT_KEY_EXCHANGE / Alert(FATAL,INTERNAL_ERROR)"];
	s55 -> s58 [label="CHANGE_CIPHER_SPEC / TIMEOUT"];
	s55 -> s1 [label="FINISHED / CHANGE_CIPHER_SPEC,FINISHED"];
	s55 -> s56 [label="APPLICATION / TIMEOUT"];
	s55 -> s37 [label="CERTIFICATE / TIMEOUT"];
	s55 -> s2 [label="EMPTY_CERTIFICATE / Alert(FATAL,HANDSHAKE_FAILURE)"];
	s55 -> s2 [label="CERTIFICATE_VERIFY / Alert(FATAL,HANDSHAKE_FAILURE)"];
	s55 -> s10 [label="Alert(WARNING,CLOSE_NOTIFY) / Alert(WARNING,CLOSE_NOTIFY)"];
	s55 -> s10 [label="Alert(FATAL,UNEXPECTED_MESSAGE) / TIMEOUT"];
	s56 -> s21 [label="ECDH_CLIENT_HELLO / SERVER_HELLO,CERTIFICATE,ECDHE_SERVER_KEY_EXCHANGE,CERTIFICATE_REQUEST,SERVER_HELLO_DONE"];
	s56 -> s2 [label="ECDH_CLIENT_KEY_EXCHANGE / Alert(FATAL,INTERNAL_ERROR)"];
	s56 -> s58 [label="CHANGE_CIPHER_SPEC / TIMEOUT"];
	s56 -> s1 [label="FINISHED / CHANGE_CIPHER_SPEC,FINISHED,APPLICATION"];
	s56 -> s56 [label="APPLICATION / TIMEOUT"];
	s56 -> s37 [label="CERTIFICATE / TIMEOUT"];
	s56 -> s2 [label="EMPTY_CERTIFICATE / Alert(FATAL,HANDSHAKE_FAILURE)"];
	s56 -> s2 [label="CERTIFICATE_VERIFY / Alert(FATAL,HANDSHAKE_FAILURE)"];
	s56 -> s10 [label="Alert(WARNING,CLOSE_NOTIFY) / Alert(WARNING,CLOSE_NOTIFY)"];
	s56 -> s10 [label="Alert(FATAL,UNEXPECTED_MESSAGE) / TIMEOUT"];
	s57 -> s19 [label="ECDH_CLIENT_HELLO / SERVER_HELLO,CERTIFICATE,ECDHE_SERVER_KEY_EXCHANGE,CERTIFICATE_REQUEST,SERVER_HELLO_DONE"];
	s57 -> s14 [label="ECDH_CLIENT_KEY_EXCHANGE / TIMEOUT"];
	s57 -> s1 [label="CHANGE_CIPHER_SPEC / TIMEOUT"];
	s57 -> s10 [label="FINISHED / Alert(FATAL,HANDSHAKE_FAILURE)"];
	s57 -> s57 [label="APPLICATION / TIMEOUT"];
	s57 -> s70 [label="CERTIFICATE / TIMEOUT"];
	s57 -> s10 [label="EMPTY_CERTIFICATE / Alert(FATAL,HANDSHAKE_FAILURE)"];
	s57 -> s20 [label="CERTIFICATE_VERIFY / TIMEOUT"];
	s57 -> s9 [label="Alert(WARNING,CLOSE_NOTIFY) / Alert(WARNING,CLOSE_NOTIFY)"];
	s57 -> s9 [label="Alert(FATAL,UNEXPECTED_MESSAGE) / TIMEOUT"];
	s58 -> s1 [label="ECDH_CLIENT_HELLO / Alert(FATAL,INTERNAL_ERROR)"];
	s58 -> s1 [label="ECDH_CLIENT_KEY_EXCHANGE / Alert(FATAL,INTERNAL_ERROR)"];
	s58 -> s58 [label="CHANGE_CIPHER_SPEC / TIMEOUT"];
	s58 -> s59 [label="FINISHED / CHANGE_CIPHER_SPEC,FINISHED"];
	s58 -> s69 [label="APPLICATION / TIMEOUT"];
	s58 -> s68 [label="CERTIFICATE / TIMEOUT"];
	s58 -> s1 [label="EMPTY_CERTIFICATE / Alert(FATAL,HANDSHAKE_FAILURE)"];
	s58 -> s1 [label="CERTIFICATE_VERIFY / Alert(FATAL,HANDSHAKE_FAILURE)"];
	s58 -> s1 [label="Alert(WARNING,CLOSE_NOTIFY) / Alert(WARNING,CLOSE_NOTIFY)"];
	s58 -> s1 [label="Alert(FATAL,UNEXPECTED_MESSAGE) / TIMEOUT"];
	s59 -> s59 [label="ECDH_CLIENT_HELLO / Alert(WARNING,NO_RENEGOTIATION)"];
	s59 -> s59 [label="ECDH_CLIENT_KEY_EXCHANGE / TIMEOUT"];
	s59 -> s1 [label="CHANGE_CIPHER_SPEC / TIMEOUT"];
	s59 -> s59 [label="FINISHED / TIMEOUT"];
	s59 -> s59 [label="APPLICATION / APPLICATION"];
	s59 -> s59 [label="CERTIFICATE / TIMEOUT"];
	s59 -> s59 [label="EMPTY_CERTIFICATE / TIMEOUT"];
	s59 -> s59 [label="CERTIFICATE_VERIFY / TIMEOUT"];
	s59 -> s1 [label="Alert(WARNING,CLOSE_NOTIFY) / Alert(WARNING,CLOSE_NOTIFY)"];
	s59 -> s1 [label="Alert(FATAL,UNEXPECTED_MESSAGE) / TIMEOUT"];
	s60 -> s23 [label="ECDH_CLIENT_HELLO / SERVER_HELLO,CERTIFICATE,ECDHE_SERVER_KEY_EXCHANGE,CERTIFICATE_REQUEST,SERVER_HELLO_DONE"];
	s60 -> s61 [label="ECDH_CLIENT_KEY_EXCHANGE / TIMEOUT"];
	s60 -> s1 [label="CHANGE_CIPHER_SPEC / TIMEOUT"];
	s60 -> s32 [label="FINISHED / Alert(FATAL,HANDSHAKE_FAILURE)"];
	s60 -> s60 [label="APPLICATION / TIMEOUT"];
	s60 -> s19 [label="CERTIFICATE / TIMEOUT"];
	s60 -> s32 [label="EMPTY_CERTIFICATE / Alert(FATAL,HANDSHAKE_FAILURE)"];
	s60 -> s20 [label="CERTIFICATE_VERIFY / TIMEOUT"];
	s60 -> s28 [label="Alert(WARNING,CLOSE_NOTIFY) / Alert(WARNING,CLOSE_NOTIFY)"];
	s60 -> s28 [label="Alert(FATAL,UNEXPECTED_MESSAGE) / TIMEOUT"];
	s61 -> s23 [label="ECDH_CLIENT_HELLO / SERVER_HELLO,CERTIFICATE,ECDHE_SERVER_KEY_EXCHANGE,CERTIFICATE_REQUEST,SERVER_HELLO_DONE"];
	s61 -> s31 [label="ECDH_CLIENT_KEY_EXCHANGE / Alert(FATAL,INTERNAL_ERROR)"];
	s61 -> s1 [label="CHANGE_CIPHER_SPEC / TIMEOUT"];
	s61 -> s31 [label="FINISHED / Alert(FATAL,HANDSHAKE_FAILURE)"];
	s61 -> s61 [label="APPLICATION / TIMEOUT"];
	s61 -> s15 [label="CERTIFICATE / TIMEOUT"];
	s61 -> s31 [label="EMPTY_CERTIFICATE / Alert(FATAL,HANDSHAKE_FAILURE)"];
	s61 -> s15 [label="CERTIFICATE_VERIFY / TIMEOUT"];
	s61 -> s32 [label="Alert(WARNING,CLOSE_NOTIFY) / Alert(WARNING,CLOSE_NOTIFY)"];
	s61 -> s32 [label="Alert(FATAL,UNEXPECTED_MESSAGE) / TIMEOUT"];
	s62 -> s62 [label="ECDH_CLIENT_HELLO / SERVER_HELLO,CERTIFICATE,ECDHE_SERVER_KEY_EXCHANGE,CERTIFICATE_REQUEST,SERVER_HELLO_DONE"];
	s62 -> s37 [label="ECDH_CLIENT_KEY_EXCHANGE / TIMEOUT"];
	s62 -> s1 [label="CHANGE_CIPHER_SPEC / TIMEOUT"];
	s62 -> s3 [label="FINISHED / Alert(FATAL,HANDSHAKE_FAILURE)"];
	s62 -> s62 [label="APPLICATION / TIMEOUT"];
	s62 -> s23 [label="CERTIFICATE / TIMEOUT"];
	s62 -> s3 [label="EMPTY_CERTIFICATE / Alert(FATAL,HANDSHAKE_FAILURE)"];
	s62 -> s3 [label="CERTIFICATE_VERIFY / Alert(FATAL,HANDSHAKE_FAILURE)"];
	s62 -> s3 [label="Alert(WARNING,CLOSE_NOTIFY) / Alert(WARNING,CLOSE_NOTIFY)"];
	s62 -> s3 [label="Alert(FATAL,UNEXPECTED_MESSAGE) / TIMEOUT"];
	s63 -> s21 [label="ECDH_CLIENT_HELLO / SERVER_HELLO,CERTIFICATE,ECDHE_SERVER_KEY_EXCHANGE,CERTIFICATE_REQUEST,SERVER_HELLO_DONE"];
	s63 -> s32 [label="ECDH_CLIENT_KEY_EXCHANGE / Alert(FATAL,INTERNAL_ERROR)"];
	s63 -> s68 [label="CHANGE_CIPHER_SPEC / TIMEOUT"];
	s63 -> s32 [label="FINISHED / Alert(FATAL,HANDSHAKE_FAILURE)"];
	s63 -> s63 [label="APPLICATION / TIMEOUT"];
	s63 -> s64 [label="CERTIFICATE / TIMEOUT"];
	s63 -> s32 [label="EMPTY_CERTIFICATE / Alert(FATAL,HANDSHAKE_FAILURE)"];
	s63 -> s39 [label="CERTIFICATE_VERIFY / TIMEOUT"];
	s63 -> s28 [label="Alert(WARNING,CLOSE_NOTIFY) / Alert(WARNING,CLOSE_NOTIFY)"];
	s63 -> s28 [label="Alert(FATAL,UNEXPECTED_MESSAGE) / TIMEOUT"];
	s64 -> s21 [label="ECDH_CLIENT_HELLO / SERVER_HELLO,CERTIFICATE,ECDHE_SERVER_KEY_EXCHANGE,CERTIFICATE_REQUEST,SERVER_HELLO_DONE"];
	s64 -> s31 [label="ECDH_CLIENT_KEY_EXCHANGE / Alert(FATAL,INTERNAL_ERROR)"];
	s64 -> s68 [label="CHANGE_CIPHER_SPEC / TIMEOUT"];
	s64 -> s31 [label="FINISHED / Alert(FATAL,HANDSHAKE_FAILURE)"];
	s64 -> s64 [label="APPLICATION / TIMEOUT"];
	s64 -> s15 [label="CERTIFICATE / TIMEOUT"];
	s64 -> s31 [label="EMPTY_CERTIFICATE / Alert(FATAL,HANDSHAKE_FAILURE)"];
	s64 -> s15 [label="CERTIFICATE_VERIFY / TIMEOUT"];
	s64 -> s32 [label="Alert(WARNING,CLOSE_NOTIFY) / Alert(WARNING,CLOSE_NOTIFY)"];
	s64 -> s32 [label="Alert(FATAL,UNEXPECTED_MESSAGE) / TIMEOUT"];
	s65 -> s62 [label="ECDH_CLIENT_HELLO / SERVER_HELLO,CERTIFICATE,ECDHE_SERVER_KEY_EXCHANGE,CERTIFICATE_REQUEST,SERVER_HELLO_DONE"];
	s65 -> s47 [label="ECDH_CLIENT_KEY_EXCHANGE / Alert(FATAL,INTERNAL_ERROR)"];
	s65 -> s1 [label="CHANGE_CIPHER_SPEC / TIMEOUT"];
	s65 -> s47 [label="FINISHED / Alert(FATAL,HANDSHAKE_FAILURE)"];
	s65 -> s65 [label="APPLICATION / TIMEOUT"];
	s65 -> s24 [label="CERTIFICATE / TIMEOUT"];
	s65 -> s47 [label="EMPTY_CERTIFICATE / Alert(FATAL,HANDSHAKE_FAILURE)"];
	s65 -> s47 [label="CERTIFICATE_VERIFY / Alert(FATAL,HANDSHAKE_FAILURE)"];
	s65 -> s44 [label="Alert(WARNING,CLOSE_NOTIFY) / Alert(WARNING,CLOSE_NOTIFY)"];
	s65 -> s44 [label="Alert(FATAL,UNEXPECTED_MESSAGE) / TIMEOUT"];
	s66 -> s71 [label="ECDH_CLIENT_HELLO / SERVER_HELLO,CERTIFICATE,ECDHE_SERVER_KEY_EXCHANGE,CERTIFICATE_REQUEST,SERVER_HELLO_DONE"];
	s66 -> s32 [label="ECDH_CLIENT_KEY_EXCHANGE / Alert(FATAL,INTERNAL_ERROR)"];
	s66 -> s1 [label="CHANGE_CIPHER_SPEC / TIMEOUT"];
	s66 -> s32 [label="FINISHED / Alert(FATAL,HANDSHAKE_FAILURE)"];
	s66 -> s66 [label="APPLICATION / TIMEOUT"];
	s66 -> s61 [label="CERTIFICATE / TIMEOUT"];
	s66 -> s32 [label="EMPTY_CERTIFICATE / Alert(FATAL,HANDSHAKE_FAILURE)"];
	s66 -> s32 [label="CERTIFICATE_VERIFY / Alert(FATAL,HANDSHAKE_FAILURE)"];
	s66 -> s28 [label="Alert(WARNING,CLOSE_NOTIFY) / Alert(WARNING,CLOSE_NOTIFY)"];
	s66 -> s28 [label="Alert(FATAL,UNEXPECTED_MESSAGE) / TIMEOUT"];
	s67 -> s36 [label="ECDH_CLIENT_HELLO / CERTIFICATE,ECDHE_SERVER_KEY_EXCHANGE,CERTIFICATE_REQUEST,SERVER_HELLO_DONE"];
	s67 -> s8 [label="ECDH_CLIENT_KEY_EXCHANGE / Alert(FATAL,INTERNAL_ERROR)"];
	s67 -> s1 [label="CHANGE_CIPHER_SPEC / TIMEOUT"];
	s67 -> s8 [label="FINISHED / Alert(FATAL,HANDSHAKE_FAILURE)"];
	s67 -> s67 [label="APPLICATION / TIMEOUT"];
	s67 -> s67 [label="CERTIFICATE / TIMEOUT"];
	s67 -> s8 [label="EMPTY_CERTIFICATE / Alert(FATAL,HANDSHAKE_FAILURE)"];
	s67 -> s8 [label="CERTIFICATE_VERIFY / Alert(FATAL,HANDSHAKE_FAILURE)"];
	s67 -> s7 [label="Alert(WARNING,CLOSE_NOTIFY) / Alert(WARNING,CLOSE_NOTIFY)"];
	s67 -> s7 [label="Alert(FATAL,UNEXPECTED_MESSAGE) / TIMEOUT"];
	s68 -> s1 [label="ECDH_CLIENT_HELLO / Alert(FATAL,INTERNAL_ERROR)"];
	s68 -> s1 [label="ECDH_CLIENT_KEY_EXCHANGE / Alert(FATAL,INTERNAL_ERROR)"];
	s68 -> s68 [label="CHANGE_CIPHER_SPEC / TIMEOUT"];
	s68 -> s1 [label="FINISHED / Alert(FATAL,HANDSHAKE_FAILURE)"];
	s68 -> s68 [label="APPLICATION / TIMEOUT"];
	s68 -> s68 [label="CERTIFICATE / TIMEOUT"];
	s68 -> s1 [label="EMPTY_CERTIFICATE / Alert(FATAL,HANDSHAKE_FAILURE)"];
	s68 -> s1 [label="CERTIFICATE_VERIFY / Alert(FATAL,HANDSHAKE_FAILURE)"];
	s68 -> s1 [label="Alert(WARNING,CLOSE_NOTIFY) / Alert(WARNING,CLOSE_NOTIFY)"];
	s68 -> s1 [label="Alert(FATAL,UNEXPECTED_MESSAGE) / TIMEOUT"];
	s69 -> s1 [label="ECDH_CLIENT_HELLO / Alert(FATAL,INTERNAL_ERROR)"];
	s69 -> s1 [label="ECDH_CLIENT_KEY_EXCHANGE / Alert(FATAL,INTERNAL_ERROR)"];
	s69 -> s58 [label="CHANGE_CIPHER_SPEC / TIMEOUT"];
	s69 -> s59 [label="FINISHED / CHANGE_CIPHER_SPEC,FINISHED,APPLICATION"];
	s69 -> s69 [label="APPLICATION / TIMEOUT"];
	s69 -> s68 [label="CERTIFICATE / TIMEOUT"];
	s69 -> s1 [label="EMPTY_CERTIFICATE / Alert(FATAL,HANDSHAKE_FAILURE)"];
	s69 -> s1 [label="CERTIFICATE_VERIFY / Alert(FATAL,HANDSHAKE_FAILURE)"];
	s69 -> s1 [label="Alert(WARNING,CLOSE_NOTIFY) / Alert(WARNING,CLOSE_NOTIFY)"];
	s69 -> s1 [label="Alert(FATAL,UNEXPECTED_MESSAGE) / TIMEOUT"];
	s70 -> s15 [label="ECDH_CLIENT_HELLO / SERVER_HELLO,CERTIFICATE,ECDHE_SERVER_KEY_EXCHANGE,CERTIFICATE_REQUEST,SERVER_HELLO_DONE"];
	s70 -> s24 [label="ECDH_CLIENT_KEY_EXCHANGE / TIMEOUT"];
	s70 -> s1 [label="CHANGE_CIPHER_SPEC / TIMEOUT"];
	s70 -> s2 [label="FINISHED / Alert(FATAL,HANDSHAKE_FAILURE)"];
	s70 -> s70 [label="APPLICATION / TIMEOUT"];
	s70 -> s23 [label="CERTIFICATE / TIMEOUT"];
	s70 -> s2 [label="EMPTY_CERTIFICATE / Alert(FATAL,HANDSHAKE_FAILURE)"];
	s70 -> s20 [label="CERTIFICATE_VERIFY / TIMEOUT"];
	s70 -> s10 [label="Alert(WARNING,CLOSE_NOTIFY) / Alert(WARNING,CLOSE_NOTIFY)"];
	s70 -> s10 [label="Alert(FATAL,UNEXPECTED_MESSAGE) / TIMEOUT"];
	s71 -> s40 [label="ECDH_CLIENT_HELLO / SERVER_HELLO,CERTIFICATE,ECDHE_SERVER_KEY_EXCHANGE,CERTIFICATE_REQUEST,SERVER_HELLO_DONE"];
	s71 -> s41 [label="ECDH_CLIENT_KEY_EXCHANGE / TIMEOUT"];
	s71 -> s1 [label="CHANGE_CIPHER_SPEC / TIMEOUT"];
	s71 -> s25 [label="FINISHED / Alert(FATAL,HANDSHAKE_FAILURE)"];
	s71 -> s71 [label="APPLICATION / TIMEOUT"];
	s71 -> s23 [label="CERTIFICATE / TIMEOUT"];
	s71 -> s25 [label="EMPTY_CERTIFICATE / Alert(FATAL,HANDSHAKE_FAILURE)"];
	s71 -> s25 [label="CERTIFICATE_VERIFY / Alert(FATAL,HANDSHAKE_FAILURE)"];
	s71 -> s33 [label="Alert(WARNING,CLOSE_NOTIFY) / Alert(WARNING,CLOSE_NOTIFY)"];
	s71 -> s33 [label="Alert(FATAL,UNEXPECTED_MESSAGE) / TIMEOUT"];

__start0 [label="" shape="none" width="0" height="0"];
__start0 -> s0;

}
