digraph g {

	s0 [shape="circle" label="s0"];
	s1 [shape="circle" label="s1"];
	s2 [shape="circle" label="s2"];
	s3 [shape="circle" label="s3"];
	s4 [shape="circle" label="s4"];
	s0 -> s2 [label="ECDH_CLIENT_HELLO / HELLO_VERIFY_REQUEST"];
	s0 -> s1 [label="ECDH_CLIENT_KEY_EXCHANGE / TIMEOUT"];
	s0 -> s1 [label="CHANGE_CIPHER_SPEC / TIMEOUT"];
	s0 -> s1 [label="FINISHED / TIMEOUT"];
	s0 -> s0 [label="APPLICATION / TIMEOUT"];
	s0 -> s1 [label="CERTIFICATE / TIMEOUT"];
	s0 -> s1 [label="EMPTY_CERTIFICATE / TIMEOUT"];
	s0 -> s1 [label="CERTIFICATE_VERIFY / TIMEOUT"];
	s0 -> s0 [label="Alert(WARNING,CLOSE_NOTIFY) / TIMEOUT"];
	s0 -> s0 [label="Alert(FATAL,UNEXPECTED_MESSAGE) / TIMEOUT"];
	s1 -> s1 [label="ECDH_CLIENT_HELLO / TIMEOUT"];
	s1 -> s1 [label="ECDH_CLIENT_KEY_EXCHANGE / TIMEOUT"];
	s1 -> s1 [label="CHANGE_CIPHER_SPEC / TIMEOUT"];
	s1 -> s1 [label="FINISHED / TIMEOUT"];
	s1 -> s1 [label="APPLICATION / TIMEOUT"];
	s1 -> s1 [label="CERTIFICATE / TIMEOUT"];
	s1 -> s1 [label="EMPTY_CERTIFICATE / TIMEOUT"];
	s1 -> s1 [label="CERTIFICATE_VERIFY / TIMEOUT"];
	s1 -> s1 [label="Alert(WARNING,CLOSE_NOTIFY) / TIMEOUT"];
	s1 -> s1 [label="Alert(FATAL,UNEXPECTED_MESSAGE) / TIMEOUT"];
	s2 -> s2 [label="ECDH_CLIENT_HELLO / SERVER_HELLO,CERTIFICATE,ECDHE_SERVER_KEY_EXCHANGE,CERTIFICATE_REQUEST,SERVER_HELLO_DONE"];
	s2 -> s3 [label="ECDH_CLIENT_KEY_EXCHANGE / TIMEOUT"];
	s2 -> s1 [label="CHANGE_CIPHER_SPEC / TIMEOUT"];
	s2 -> s3 [label="FINISHED / TIMEOUT"];
	s2 -> s2 [label="APPLICATION / TIMEOUT"];
	s2 -> s3 [label="CERTIFICATE / TIMEOUT"];
	s2 -> s3 [label="EMPTY_CERTIFICATE / TIMEOUT"];
	s2 -> s3 [label="CERTIFICATE_VERIFY / TIMEOUT"];
	s2 -> s2 [label="Alert(WARNING,CLOSE_NOTIFY) / TIMEOUT"];
	s2 -> s2 [label="Alert(FATAL,UNEXPECTED_MESSAGE) / TIMEOUT"];
	s3 -> s4 [label="ECDH_CLIENT_HELLO / TIMEOUT"];
	s3 -> s3 [label="ECDH_CLIENT_KEY_EXCHANGE / TIMEOUT"];
	s3 -> s1 [label="CHANGE_CIPHER_SPEC / TIMEOUT"];
	s3 -> s3 [label="FINISHED / TIMEOUT"];
	s3 -> s3 [label="APPLICATION / TIMEOUT"];
	s3 -> s3 [label="CERTIFICATE / TIMEOUT"];
	s3 -> s3 [label="EMPTY_CERTIFICATE / TIMEOUT"];
	s3 -> s3 [label="CERTIFICATE_VERIFY / TIMEOUT"];
	s3 -> s3 [label="Alert(WARNING,CLOSE_NOTIFY) / TIMEOUT"];
	s3 -> s3 [label="Alert(FATAL,UNEXPECTED_MESSAGE) / TIMEOUT"];
	s4 -> s4 [label="ECDH_CLIENT_HELLO / TIMEOUT"];
	s4 -> s4 [label="ECDH_CLIENT_KEY_EXCHANGE / TIMEOUT"];
	s4 -> s1 [label="CHANGE_CIPHER_SPEC / TIMEOUT"];
	s4 -> s3 [label="FINISHED / Alert(FATAL,HANDSHAKE_FAILURE)"];
	s4 -> s4 [label="APPLICATION / TIMEOUT"];
	s4 -> s4 [label="CERTIFICATE / TIMEOUT"];
	s4 -> s3 [label="EMPTY_CERTIFICATE / Alert(FATAL,HANDSHAKE_FAILURE)"];
	s4 -> s3 [label="CERTIFICATE_VERIFY / Alert(FATAL,HANDSHAKE_FAILURE)"];
	s4 -> s3 [label="Alert(WARNING,CLOSE_NOTIFY) / Alert(WARNING,CLOSE_NOTIFY)"];
	s4 -> s3 [label="Alert(FATAL,UNEXPECTED_MESSAGE) / TIMEOUT"];

__start0 [label="" shape="none" width="0" height="0"];
__start0 -> s0;

}
