digraph g {

	s0 [shape="circle" label="s0"];
	s1 [shape="circle" label="s1"];
	s2 [shape="circle" label="s2"];
	s3 [shape="circle" label="s3"];
	s4 [shape="circle" label="s4"];
	s5 [shape="circle" label="s5"];
	s6 [shape="circle" label="s6"];
	s7 [shape="circle" label="s7"];
	s8 [shape="circle" label="s8"];
	s9 [shape="circle" label="s9"];
	s10 [shape="circle" label="s10"];
	s11 [shape="circle" label="s11"];
	s12 [shape="circle" label="s12"];
	s13 [shape="circle" label="s13"];
	s14 [shape="circle" label="s14"];
	s15 [shape="circle" label="s15"];
	s16 [shape="circle" label="s16"];
	s17 [shape="circle" label="s17"];
	s0 -> s5 [label="HELLO_VERIFY_REQUEST / CLIENT_HELLO+"];
	s0 -> s1 [label="PSK_SERVER_HELLO / CLIENT_HELLO"];
	s0 -> s3 [label="SERVER_HELLO_DONE / CLIENT_HELLO,Alert(FATAL,UNEXPECTED_MESSAGE)"];
	s0 -> s14 [label="CHANGE_CIPHER_SPEC / CLIENT_HELLO"];
	s0 -> s3 [label="FINISHED / CLIENT_HELLO,Alert(FATAL,INTERNAL_ERROR)"];
	s0 -> s3 [label="APPLICATION_DATA / CLIENT_HELLO,Alert(FATAL,UNEXPECTED_MESSAGE)"];
	s0 -> s6 [label="HELLO_REQUEST / CLIENT_HELLO"];
	s0 -> s3 [label="APPLICATION / CLIENT_HELLO,Alert(FATAL,UNEXPECTED_MESSAGE)"];
	s0 -> s3 [label="Alert(WARNING,CLOSE_NOTIFY) / CLIENT_HELLO"];
	s0 -> s3 [label="Alert(FATAL,UNEXPECTED_MESSAGE) / CLIENT_HELLO"];
	s1 -> s10 [label="HELLO_VERIFY_REQUEST / CLIENT_HELLO"];
	s1 -> s3 [label="PSK_SERVER_HELLO / Alert(FATAL,UNEXPECTED_MESSAGE)"];
	s1 -> s2 [label="SERVER_HELLO_DONE / PSK_CLIENT_KEY_EXCHANGE,CHANGE_CIPHER_SPEC,FINISHED"];
	s1 -> s7 [label="CHANGE_CIPHER_SPEC / TIMEOUT"];
	s1 -> s3 [label="FINISHED / Alert(FATAL,INTERNAL_ERROR)"];
	s1 -> s3 [label="APPLICATION_DATA / Alert(FATAL,UNEXPECTED_MESSAGE)"];
	s1 -> s3 [label="HELLO_REQUEST / TIMEOUT"];
	s1 -> s3 [label="APPLICATION / Alert(FATAL,UNEXPECTED_MESSAGE)"];
	s1 -> s3 [label="Alert(WARNING,CLOSE_NOTIFY) / TIMEOUT"];
	s1 -> s3 [label="Alert(FATAL,UNEXPECTED_MESSAGE) / TIMEOUT"];
	s2 -> s3 [label="HELLO_VERIFY_REQUEST / Alert(FATAL,UNEXPECTED_MESSAGE)"];
	s2 -> s3 [label="PSK_SERVER_HELLO / Alert(FATAL,UNEXPECTED_MESSAGE)"];
	s2 -> s3 [label="SERVER_HELLO_DONE / Alert(FATAL,UNEXPECTED_MESSAGE)"];
	s2 -> s4 [label="CHANGE_CIPHER_SPEC / TIMEOUT"];
	s2 -> s3 [label="FINISHED / Alert(FATAL,UNEXPECTED_MESSAGE)"];
	s2 -> s3 [label="APPLICATION_DATA / Alert(FATAL,UNEXPECTED_MESSAGE)"];
	s2 -> s3 [label="HELLO_REQUEST / TIMEOUT"];
	s2 -> s3 [label="APPLICATION / Alert(FATAL,UNEXPECTED_MESSAGE)"];
	s2 -> s3 [label="Alert(WARNING,CLOSE_NOTIFY) / TIMEOUT"];
	s2 -> s3 [label="Alert(FATAL,UNEXPECTED_MESSAGE) / TIMEOUT"];
	s3 -> s3 [label="HELLO_VERIFY_REQUEST / TIMEOUT"];
	s3 -> s3 [label="PSK_SERVER_HELLO / TIMEOUT"];
	s3 -> s3 [label="SERVER_HELLO_DONE / TIMEOUT"];
	s3 -> s3 [label="CHANGE_CIPHER_SPEC / TIMEOUT"];
	s3 -> s3 [label="FINISHED / TIMEOUT"];
	s3 -> s3 [label="APPLICATION_DATA / TIMEOUT"];
	s3 -> s3 [label="HELLO_REQUEST / TIMEOUT"];
	s3 -> s3 [label="APPLICATION / TIMEOUT"];
	s3 -> s3 [label="Alert(WARNING,CLOSE_NOTIFY) / TIMEOUT"];
	s3 -> s3 [label="Alert(FATAL,UNEXPECTED_MESSAGE) / TIMEOUT"];
	s4 -> s3 [label="HELLO_VERIFY_REQUEST / Alert(FATAL,UNEXPECTED_MESSAGE)"];
	s4 -> s3 [label="PSK_SERVER_HELLO / Alert(FATAL,UNEXPECTED_MESSAGE)"];
	s4 -> s3 [label="SERVER_HELLO_DONE / Alert(FATAL,UNEXPECTED_MESSAGE)"];
	s4 -> s3 [label="CHANGE_CIPHER_SPEC / TIMEOUT"];
	s4 -> s12 [label="FINISHED / TIMEOUT"];
	s4 -> s4 [label="APPLICATION_DATA / TIMEOUT"];
	s4 -> s3 [label="HELLO_REQUEST / TIMEOUT"];
	s4 -> s4 [label="APPLICATION / TIMEOUT"];
	s4 -> s4 [label="Alert(WARNING,CLOSE_NOTIFY) / TIMEOUT"];
	s4 -> s4 [label="Alert(FATAL,UNEXPECTED_MESSAGE) / TIMEOUT"];
	s5 -> s10 [label="HELLO_VERIFY_REQUEST / CLIENT_HELLO"];
	s5 -> s1 [label="PSK_SERVER_HELLO / TIMEOUT"];
	s5 -> s3 [label="SERVER_HELLO_DONE / Alert(FATAL,UNEXPECTED_MESSAGE)"];
	s5 -> s7 [label="CHANGE_CIPHER_SPEC / TIMEOUT"];
	s5 -> s3 [label="FINISHED / Alert(FATAL,INTERNAL_ERROR)"];
	s5 -> s3 [label="APPLICATION_DATA / Alert(FATAL,UNEXPECTED_MESSAGE)"];
	s5 -> s3 [label="HELLO_REQUEST / TIMEOUT"];
	s5 -> s3 [label="APPLICATION / Alert(FATAL,UNEXPECTED_MESSAGE)"];
	s5 -> s3 [label="Alert(WARNING,CLOSE_NOTIFY) / TIMEOUT"];
	s5 -> s3 [label="Alert(FATAL,UNEXPECTED_MESSAGE) / TIMEOUT"];
	s6 -> s6 [label="HELLO_VERIFY_REQUEST / TIMEOUT"];
	s6 -> s6 [label="PSK_SERVER_HELLO / TIMEOUT"];
	s6 -> s6 [label="SERVER_HELLO_DONE / TIMEOUT"];
	s6 -> s7 [label="CHANGE_CIPHER_SPEC / TIMEOUT"];
	s6 -> s6 [label="FINISHED / TIMEOUT"];
	s6 -> s3 [label="APPLICATION_DATA / Alert(FATAL,UNEXPECTED_MESSAGE)"];
	s6 -> s3 [label="HELLO_REQUEST / TIMEOUT"];
	s6 -> s3 [label="APPLICATION / Alert(FATAL,UNEXPECTED_MESSAGE)"];
	s6 -> s3 [label="Alert(WARNING,CLOSE_NOTIFY) / TIMEOUT"];
	s6 -> s3 [label="Alert(FATAL,UNEXPECTED_MESSAGE) / TIMEOUT"];
	s7 -> s8 [label="HELLO_VERIFY_REQUEST / TIMEOUT"];
	s7 -> s8 [label="PSK_SERVER_HELLO / TIMEOUT"];
	s7 -> s8 [label="SERVER_HELLO_DONE / TIMEOUT"];
	s7 -> s7 [label="CHANGE_CIPHER_SPEC / TIMEOUT"];
	s7 -> s8 [label="FINISHED / TIMEOUT"];
	s7 -> s7 [label="APPLICATION_DATA / TIMEOUT"];
	s7 -> s3 [label="HELLO_REQUEST / TIMEOUT"];
	s7 -> s8 [label="APPLICATION / TIMEOUT"];
	s7 -> s8 [label="Alert(WARNING,CLOSE_NOTIFY) / TIMEOUT"];
	s7 -> s8 [label="Alert(FATAL,UNEXPECTED_MESSAGE) / TIMEOUT"];
	s8 -> s9 [label="HELLO_VERIFY_REQUEST / TIMEOUT"];
	s8 -> s9 [label="PSK_SERVER_HELLO / TIMEOUT"];
	s8 -> s9 [label="SERVER_HELLO_DONE / TIMEOUT"];
	s8 -> s7 [label="CHANGE_CIPHER_SPEC / TIMEOUT"];
	s8 -> s9 [label="FINISHED / TIMEOUT"];
	s8 -> s7 [label="APPLICATION_DATA / TIMEOUT"];
	s8 -> s3 [label="HELLO_REQUEST / TIMEOUT"];
	s8 -> s9 [label="APPLICATION / TIMEOUT"];
	s8 -> s9 [label="Alert(WARNING,CLOSE_NOTIFY) / TIMEOUT"];
	s8 -> s9 [label="Alert(FATAL,UNEXPECTED_MESSAGE) / TIMEOUT"];
	s9 -> s9 [label="HELLO_VERIFY_REQUEST / TIMEOUT"];
	s9 -> s9 [label="PSK_SERVER_HELLO / TIMEOUT"];
	s9 -> s9 [label="SERVER_HELLO_DONE / TIMEOUT"];
	s9 -> s7 [label="CHANGE_CIPHER_SPEC / TIMEOUT"];
	s9 -> s9 [label="FINISHED / TIMEOUT"];
	s9 -> s3 [label="APPLICATION_DATA / Alert(FATAL,UNEXPECTED_MESSAGE)"];
	s9 -> s3 [label="HELLO_REQUEST / TIMEOUT"];
	s9 -> s9 [label="APPLICATION / TIMEOUT"];
	s9 -> s9 [label="Alert(WARNING,CLOSE_NOTIFY) / TIMEOUT"];
	s9 -> s9 [label="Alert(FATAL,UNEXPECTED_MESSAGE) / TIMEOUT"];
	s10 -> s15 [label="HELLO_VERIFY_REQUEST / CLIENT_HELLO"];
	s10 -> s1 [label="PSK_SERVER_HELLO / TIMEOUT"];
	s10 -> s3 [label="SERVER_HELLO_DONE / Alert(FATAL,UNEXPECTED_MESSAGE)"];
	s10 -> s11 [label="CHANGE_CIPHER_SPEC / TIMEOUT"];
	s10 -> s3 [label="FINISHED / Alert(FATAL,INTERNAL_ERROR)"];
	s10 -> s3 [label="APPLICATION_DATA / Alert(FATAL,UNEXPECTED_MESSAGE)"];
	s10 -> s3 [label="HELLO_REQUEST / TIMEOUT"];
	s10 -> s3 [label="APPLICATION / Alert(FATAL,UNEXPECTED_MESSAGE)"];
	s10 -> s3 [label="Alert(WARNING,CLOSE_NOTIFY) / TIMEOUT"];
	s10 -> s3 [label="Alert(FATAL,UNEXPECTED_MESSAGE) / TIMEOUT"];
	s11 -> s7 [label="HELLO_VERIFY_REQUEST / TIMEOUT"];
	s11 -> s7 [label="PSK_SERVER_HELLO / TIMEOUT"];
	s11 -> s7 [label="SERVER_HELLO_DONE / TIMEOUT"];
	s11 -> s11 [label="CHANGE_CIPHER_SPEC / TIMEOUT"];
	s11 -> s7 [label="FINISHED / TIMEOUT"];
	s11 -> s11 [label="APPLICATION_DATA / TIMEOUT"];
	s11 -> s3 [label="HELLO_REQUEST / TIMEOUT"];
	s11 -> s7 [label="APPLICATION / TIMEOUT"];
	s11 -> s7 [label="Alert(WARNING,CLOSE_NOTIFY) / TIMEOUT"];
	s11 -> s7 [label="Alert(FATAL,UNEXPECTED_MESSAGE) / TIMEOUT"];
	s12 -> s13 [label="HELLO_VERIFY_REQUEST / TIMEOUT"];
	s12 -> s13 [label="PSK_SERVER_HELLO / TIMEOUT"];
	s12 -> s13 [label="SERVER_HELLO_DONE / TIMEOUT"];
	s12 -> s3 [label="CHANGE_CIPHER_SPEC / TIMEOUT"];
	s12 -> s12 [label="FINISHED / TIMEOUT"];
	s12 -> s3 [label="APPLICATION_DATA / TIMEOUT"];
	s12 -> s15 [label="HELLO_REQUEST / CLIENT_HELLO"];
	s12 -> s12 [label="APPLICATION / TIMEOUT"];
	s12 -> s3 [label="Alert(WARNING,CLOSE_NOTIFY) / Alert(WARNING,CLOSE_NOTIFY)"];
	s12 -> s3 [label="Alert(FATAL,UNEXPECTED_MESSAGE) / TIMEOUT"];
	s13 -> s13 [label="HELLO_VERIFY_REQUEST / TIMEOUT"];
	s13 -> s13 [label="PSK_SERVER_HELLO / TIMEOUT"];
	s13 -> s13 [label="SERVER_HELLO_DONE / TIMEOUT"];
	s13 -> s3 [label="CHANGE_CIPHER_SPEC / TIMEOUT"];
	s13 -> s13 [label="FINISHED / TIMEOUT"];
	s13 -> s3 [label="APPLICATION_DATA / TIMEOUT"];
	s13 -> s15 [label="HELLO_REQUEST / CLIENT_HELLO"];
	s13 -> s3 [label="APPLICATION / Alert(FATAL,UNEXPECTED_MESSAGE)"];
	s13 -> s3 [label="Alert(WARNING,CLOSE_NOTIFY) / TIMEOUT"];
	s13 -> s3 [label="Alert(FATAL,UNEXPECTED_MESSAGE) / TIMEOUT"];
	s14 -> s17 [label="HELLO_VERIFY_REQUEST / TIMEOUT"];
	s14 -> s17 [label="PSK_SERVER_HELLO / TIMEOUT"];
	s14 -> s17 [label="SERVER_HELLO_DONE / TIMEOUT"];
	s14 -> s14 [label="CHANGE_CIPHER_SPEC / TIMEOUT"];
	s14 -> s17 [label="FINISHED / TIMEOUT"];
	s14 -> s14 [label="APPLICATION_DATA / TIMEOUT"];
	s14 -> s3 [label="HELLO_REQUEST / TIMEOUT"];
	s14 -> s17 [label="APPLICATION / TIMEOUT"];
	s14 -> s17 [label="Alert(WARNING,CLOSE_NOTIFY) / TIMEOUT"];
	s14 -> s17 [label="Alert(FATAL,UNEXPECTED_MESSAGE) / TIMEOUT"];
	s15 -> s15 [label="HELLO_VERIFY_REQUEST / CLIENT_HELLO"];
	s15 -> s1 [label="PSK_SERVER_HELLO / TIMEOUT"];
	s15 -> s3 [label="SERVER_HELLO_DONE / Alert(FATAL,UNEXPECTED_MESSAGE)"];
	s15 -> s16 [label="CHANGE_CIPHER_SPEC / TIMEOUT"];
	s15 -> s3 [label="FINISHED / Alert(FATAL,INTERNAL_ERROR)"];
	s15 -> s3 [label="APPLICATION_DATA / Alert(FATAL,UNEXPECTED_MESSAGE)"];
	s15 -> s3 [label="HELLO_REQUEST / TIMEOUT"];
	s15 -> s3 [label="APPLICATION / Alert(FATAL,UNEXPECTED_MESSAGE)"];
	s15 -> s3 [label="Alert(WARNING,CLOSE_NOTIFY) / TIMEOUT"];
	s15 -> s3 [label="Alert(FATAL,UNEXPECTED_MESSAGE) / TIMEOUT"];
	s16 -> s11 [label="HELLO_VERIFY_REQUEST / TIMEOUT"];
	s16 -> s11 [label="PSK_SERVER_HELLO / TIMEOUT"];
	s16 -> s11 [label="SERVER_HELLO_DONE / TIMEOUT"];
	s16 -> s16 [label="CHANGE_CIPHER_SPEC / TIMEOUT"];
	s16 -> s11 [label="FINISHED / TIMEOUT"];
	s16 -> s16 [label="APPLICATION_DATA / TIMEOUT"];
	s16 -> s3 [label="HELLO_REQUEST / TIMEOUT"];
	s16 -> s11 [label="APPLICATION / TIMEOUT"];
	s16 -> s11 [label="Alert(WARNING,CLOSE_NOTIFY) / TIMEOUT"];
	s16 -> s11 [label="Alert(FATAL,UNEXPECTED_MESSAGE) / TIMEOUT"];
	s17 -> s17 [label="HELLO_VERIFY_REQUEST / TIMEOUT"];
	s17 -> s17 [label="PSK_SERVER_HELLO / TIMEOUT"];
	s17 -> s17 [label="SERVER_HELLO_DONE / TIMEOUT"];
	s17 -> s14 [label="CHANGE_CIPHER_SPEC / TIMEOUT"];
	s17 -> s17 [label="FINISHED / TIMEOUT"];
	s17 -> s3 [label="APPLICATION_DATA / Alert(FATAL,UNEXPECTED_MESSAGE)"];
	s17 -> s3 [label="HELLO_REQUEST / TIMEOUT"];
	s17 -> s17 [label="APPLICATION / TIMEOUT"];
	s17 -> s17 [label="Alert(WARNING,CLOSE_NOTIFY) / TIMEOUT"];
	s17 -> s17 [label="Alert(FATAL,UNEXPECTED_MESSAGE) / TIMEOUT"];

__start0 [label="" shape="none" width="0" height="0"];
__start0 -> s0;

}
