digraph g {

	s0 [shape="circle" label="s0"];
	s1 [shape="circle" label="s1"];
	s2 [shape="circle" label="s2"];
	s3 [shape="circle" label="s3"];
	s4 [shape="circle" label="s4"];
	s5 [shape="circle" label="s5"];
	s6 [shape="circle" label="s6"];
	s7 [shape="circle" label="s7"];
	s8 [shape="circle" label="s8"];
	s9 [shape="circle" label="s9"];
	s10 [shape="circle" label="s10"];
	s11 [shape="circle" label="s11"];
	s12 [shape="circle" label="s12"];
	s13 [shape="circle" label="s13"];
	s14 [shape="circle" label="s14"];
	s15 [shape="circle" label="s15"];
	s16 [shape="circle" label="s16"];
	s17 [shape="circle" label="s17"];
	s18 [shape="circle" label="s18"];
	s19 [shape="circle" label="s19"];
	s20 [shape="circle" label="s20"];
	s21 [shape="circle" label="s21"];
	s22 [shape="circle" label="s22"];
	s23 [shape="circle" label="s23"];
	s24 [shape="circle" label="s24"];
	s25 [shape="circle" label="s25"];
	s26 [shape="circle" label="s26"];
	s27 [shape="circle" label="s27"];
	s28 [shape="circle" label="s28"];
	s29 [shape="circle" label="s29"];
	s30 [shape="circle" label="s30"];
	s31 [shape="circle" label="s31"];
	s0 -> s5 [label="HELLO_VERIFY_REQUEST / CLIENT_HELLO+"];
	s0 -> s1 [label="PSK_SERVER_HELLO / CLIENT_HELLO"];
	s0 -> s3 [label="PSK_SERVER_HELLO_EPOCH_1 / CLIENT_HELLO"];
	s0 -> s3 [label="SERVER_HELLO_DONE / CLIENT_HELLO,Alert(FATAL,UNEXPECTED_MESSAGE)"];
	s0 -> s15 [label="CHANGE_CIPHER_SPEC / CLIENT_HELLO"];
	s0 -> s3 [label="FINISHED / CLIENT_HELLO,Alert(FATAL,INTERNAL_ERROR)"];
	s0 -> s3 [label="FINISHED_EPOCH_0 / CLIENT_HELLO,Alert(FATAL,INTERNAL_ERROR)"];
	s0 -> s3 [label="APPLICATION_EPOCH_0 / TIMEOUT"];
	s0 -> s3 [label="APPLICATION / TIMEOUT"];
	s0 -> s3 [label="Alert(WARNING,CLOSE_NOTIFY) / CLIENT_HELLO"];
	s0 -> s3 [label="Alert(FATAL,UNEXPECTED_MESSAGE) / CLIENT_HELLO"];
	s1 -> s5 [label="HELLO_VERIFY_REQUEST / CLIENT_HELLO"];
	s1 -> s3 [label="PSK_SERVER_HELLO / Alert(FATAL,UNEXPECTED_MESSAGE)"];
	s1 -> s3 [label="PSK_SERVER_HELLO_EPOCH_1 / TIMEOUT"];
	s1 -> s2 [label="SERVER_HELLO_DONE / PSK_CLIENT_KEY_EXCHANGE,CHANGE_CIPHER_SPEC,FINISHED"];
	s1 -> s3 [label="CHANGE_CIPHER_SPEC / TIMEOUT"];
	s1 -> s3 [label="FINISHED / Alert(FATAL,INTERNAL_ERROR)"];
	s1 -> s3 [label="FINISHED_EPOCH_0 / Alert(FATAL,INTERNAL_ERROR)"];
	s1 -> s3 [label="APPLICATION_EPOCH_0 / TIMEOUT"];
	s1 -> s3 [label="APPLICATION / TIMEOUT"];
	s1 -> s3 [label="Alert(WARNING,CLOSE_NOTIFY) / TIMEOUT"];
	s1 -> s3 [label="Alert(FATAL,UNEXPECTED_MESSAGE) / TIMEOUT"];
	s2 -> s3 [label="HELLO_VERIFY_REQUEST / Alert(FATAL,UNEXPECTED_MESSAGE)"];
	s2 -> s3 [label="PSK_SERVER_HELLO / Alert(FATAL,UNEXPECTED_MESSAGE)"];
	s2 -> s3 [label="PSK_SERVER_HELLO_EPOCH_1 / TIMEOUT"];
	s2 -> s3 [label="SERVER_HELLO_DONE / Alert(FATAL,UNEXPECTED_MESSAGE)"];
	s2 -> s4 [label="CHANGE_CIPHER_SPEC / TIMEOUT"];
	s2 -> s3 [label="FINISHED / Alert(FATAL,UNEXPECTED_MESSAGE)"];
	s2 -> s3 [label="FINISHED_EPOCH_0 / Alert(FATAL,UNEXPECTED_MESSAGE)"];
	s2 -> s3 [label="APPLICATION_EPOCH_0 / TIMEOUT"];
	s2 -> s3 [label="APPLICATION / TIMEOUT"];
	s2 -> s3 [label="Alert(WARNING,CLOSE_NOTIFY) / TIMEOUT"];
	s2 -> s3 [label="Alert(FATAL,UNEXPECTED_MESSAGE) / TIMEOUT"];
	s3 -> s3 [label="HELLO_VERIFY_REQUEST / TIMEOUT"];
	s3 -> s3 [label="PSK_SERVER_HELLO / TIMEOUT"];
	s3 -> s3 [label="PSK_SERVER_HELLO_EPOCH_1 / TIMEOUT"];
	s3 -> s3 [label="SERVER_HELLO_DONE / TIMEOUT"];
	s3 -> s3 [label="CHANGE_CIPHER_SPEC / TIMEOUT"];
	s3 -> s3 [label="FINISHED / TIMEOUT"];
	s3 -> s3 [label="FINISHED_EPOCH_0 / TIMEOUT"];
	s3 -> s3 [label="APPLICATION_EPOCH_0 / TIMEOUT"];
	s3 -> s3 [label="APPLICATION / TIMEOUT"];
	s3 -> s3 [label="Alert(WARNING,CLOSE_NOTIFY) / TIMEOUT"];
	s3 -> s3 [label="Alert(FATAL,UNEXPECTED_MESSAGE) / TIMEOUT"];
	s4 -> s3 [label="HELLO_VERIFY_REQUEST / Alert(FATAL,UNEXPECTED_MESSAGE)"];
	s4 -> s3 [label="PSK_SERVER_HELLO / Alert(FATAL,UNEXPECTED_MESSAGE)"];
	s4 -> s3 [label="PSK_SERVER_HELLO_EPOCH_1 / Alert(FATAL,UNEXPECTED_MESSAGE)"];
	s4 -> s3 [label="SERVER_HELLO_DONE / Alert(FATAL,UNEXPECTED_MESSAGE)"];
	s4 -> s11 [label="CHANGE_CIPHER_SPEC / TIMEOUT"];
	s4 -> s17 [label="FINISHED / TIMEOUT"];
	s4 -> s3 [label="FINISHED_EPOCH_0 / TIMEOUT"];
	s4 -> s4 [label="APPLICATION_EPOCH_0 / TIMEOUT"];
	s4 -> s6 [label="APPLICATION / TIMEOUT"];
	s4 -> s7 [label="Alert(WARNING,CLOSE_NOTIFY) / TIMEOUT"];
	s4 -> s14 [label="Alert(FATAL,UNEXPECTED_MESSAGE) / TIMEOUT"];
	s5 -> s5 [label="HELLO_VERIFY_REQUEST / CLIENT_HELLO"];
	s5 -> s1 [label="PSK_SERVER_HELLO / TIMEOUT"];
	s5 -> s3 [label="PSK_SERVER_HELLO_EPOCH_1 / TIMEOUT"];
	s5 -> s3 [label="SERVER_HELLO_DONE / Alert(FATAL,UNEXPECTED_MESSAGE)"];
	s5 -> s3 [label="CHANGE_CIPHER_SPEC / TIMEOUT"];
	s5 -> s3 [label="FINISHED / Alert(FATAL,INTERNAL_ERROR)"];
	s5 -> s3 [label="FINISHED_EPOCH_0 / Alert(FATAL,INTERNAL_ERROR)"];
	s5 -> s3 [label="APPLICATION_EPOCH_0 / TIMEOUT"];
	s5 -> s3 [label="APPLICATION / TIMEOUT"];
	s5 -> s3 [label="Alert(WARNING,CLOSE_NOTIFY) / TIMEOUT"];
	s5 -> s3 [label="Alert(FATAL,UNEXPECTED_MESSAGE) / TIMEOUT"];
	s6 -> s3 [label="HELLO_VERIFY_REQUEST / Alert(FATAL,UNEXPECTED_MESSAGE)"];
	s6 -> s3 [label="PSK_SERVER_HELLO / Alert(FATAL,UNEXPECTED_MESSAGE)"];
	s6 -> s3 [label="PSK_SERVER_HELLO_EPOCH_1 / Alert(FATAL,UNEXPECTED_MESSAGE)"];
	s6 -> s3 [label="SERVER_HELLO_DONE / Alert(FATAL,UNEXPECTED_MESSAGE)"];
	s6 -> s3 [label="CHANGE_CIPHER_SPEC / TIMEOUT"];
	s6 -> s19 [label="FINISHED / TIMEOUT"];
	s6 -> s3 [label="FINISHED_EPOCH_0 / TIMEOUT"];
	s6 -> s10 [label="APPLICATION_EPOCH_0 / TIMEOUT"];
	s6 -> s6 [label="APPLICATION / TIMEOUT"];
	s6 -> s13 [label="Alert(WARNING,CLOSE_NOTIFY) / TIMEOUT"];
	s6 -> s14 [label="Alert(FATAL,UNEXPECTED_MESSAGE) / TIMEOUT"];
	s7 -> s3 [label="HELLO_VERIFY_REQUEST / Alert(FATAL,UNEXPECTED_MESSAGE)"];
	s7 -> s3 [label="PSK_SERVER_HELLO / Alert(FATAL,UNEXPECTED_MESSAGE)"];
	s7 -> s3 [label="PSK_SERVER_HELLO_EPOCH_1 / Alert(FATAL,UNEXPECTED_MESSAGE)"];
	s7 -> s3 [label="SERVER_HELLO_DONE / Alert(FATAL,UNEXPECTED_MESSAGE)"];
	s7 -> s3 [label="CHANGE_CIPHER_SPEC / TIMEOUT"];
	s7 -> s8 [label="FINISHED / TIMEOUT"];
	s7 -> s3 [label="FINISHED_EPOCH_0 / TIMEOUT"];
	s7 -> s9 [label="APPLICATION_EPOCH_0 / TIMEOUT"];
	s7 -> s13 [label="APPLICATION / TIMEOUT"];
	s7 -> s13 [label="Alert(WARNING,CLOSE_NOTIFY) / TIMEOUT"];
	s7 -> s13 [label="Alert(FATAL,UNEXPECTED_MESSAGE) / TIMEOUT"];
	s8 -> s3 [label="HELLO_VERIFY_REQUEST / Alert(WARNING,CLOSE_NOTIFY)"];
	s8 -> s3 [label="PSK_SERVER_HELLO / Alert(WARNING,CLOSE_NOTIFY)"];
	s8 -> s3 [label="PSK_SERVER_HELLO_EPOCH_1 / Alert(WARNING,CLOSE_NOTIFY)"];
	s8 -> s3 [label="SERVER_HELLO_DONE / Alert(WARNING,CLOSE_NOTIFY)"];
	s8 -> s3 [label="CHANGE_CIPHER_SPEC / Alert(WARNING,CLOSE_NOTIFY)"];
	s8 -> s3 [label="FINISHED / Alert(WARNING,CLOSE_NOTIFY)"];
	s8 -> s3 [label="FINISHED_EPOCH_0 / Alert(WARNING,CLOSE_NOTIFY)"];
	s8 -> s3 [label="APPLICATION_EPOCH_0 / Alert(WARNING,CLOSE_NOTIFY)"];
	s8 -> s3 [label="APPLICATION / Alert(WARNING,CLOSE_NOTIFY)"];
	s8 -> s3 [label="Alert(WARNING,CLOSE_NOTIFY) / Alert(WARNING,CLOSE_NOTIFY)"];
	s8 -> s3 [label="Alert(FATAL,UNEXPECTED_MESSAGE) / Alert(WARNING,CLOSE_NOTIFY)"];
	s9 -> s3 [label="HELLO_VERIFY_REQUEST / TIMEOUT"];
	s9 -> s3 [label="PSK_SERVER_HELLO / TIMEOUT"];
	s9 -> s3 [label="PSK_SERVER_HELLO_EPOCH_1 / TIMEOUT"];
	s9 -> s3 [label="SERVER_HELLO_DONE / TIMEOUT"];
	s9 -> s11 [label="CHANGE_CIPHER_SPEC / TIMEOUT"];
	s9 -> s3 [label="FINISHED / TIMEOUT"];
	s9 -> s3 [label="FINISHED_EPOCH_0 / TIMEOUT"];
	s9 -> s9 [label="APPLICATION_EPOCH_0 / TIMEOUT"];
	s9 -> s7 [label="APPLICATION / TIMEOUT"];
	s9 -> s7 [label="Alert(WARNING,CLOSE_NOTIFY) / TIMEOUT"];
	s9 -> s7 [label="Alert(FATAL,UNEXPECTED_MESSAGE) / TIMEOUT"];
	s10 -> s3 [label="HELLO_VERIFY_REQUEST / TIMEOUT"];
	s10 -> s3 [label="PSK_SERVER_HELLO / TIMEOUT"];
	s10 -> s3 [label="PSK_SERVER_HELLO_EPOCH_1 / TIMEOUT"];
	s10 -> s3 [label="SERVER_HELLO_DONE / TIMEOUT"];
	s10 -> s11 [label="CHANGE_CIPHER_SPEC / TIMEOUT"];
	s10 -> s3 [label="FINISHED / TIMEOUT"];
	s10 -> s3 [label="FINISHED_EPOCH_0 / TIMEOUT"];
	s10 -> s10 [label="APPLICATION_EPOCH_0 / TIMEOUT"];
	s10 -> s6 [label="APPLICATION / TIMEOUT"];
	s10 -> s6 [label="Alert(WARNING,CLOSE_NOTIFY) / TIMEOUT"];
	s10 -> s6 [label="Alert(FATAL,UNEXPECTED_MESSAGE) / TIMEOUT"];
	s11 -> s3 [label="HELLO_VERIFY_REQUEST / TIMEOUT"];
	s11 -> s3 [label="PSK_SERVER_HELLO / TIMEOUT"];
	s11 -> s3 [label="PSK_SERVER_HELLO_EPOCH_1 / TIMEOUT"];
	s11 -> s3 [label="SERVER_HELLO_DONE / TIMEOUT"];
	s11 -> s11 [label="CHANGE_CIPHER_SPEC / TIMEOUT"];
	s11 -> s3 [label="FINISHED / TIMEOUT"];
	s11 -> s3 [label="FINISHED_EPOCH_0 / TIMEOUT"];
	s11 -> s11 [label="APPLICATION_EPOCH_0 / TIMEOUT"];
	s11 -> s12 [label="APPLICATION / TIMEOUT"];
	s11 -> s12 [label="Alert(WARNING,CLOSE_NOTIFY) / TIMEOUT"];
	s11 -> s12 [label="Alert(FATAL,UNEXPECTED_MESSAGE) / TIMEOUT"];
	s12 -> s3 [label="HELLO_VERIFY_REQUEST / TIMEOUT"];
	s12 -> s3 [label="PSK_SERVER_HELLO / TIMEOUT"];
	s12 -> s3 [label="PSK_SERVER_HELLO_EPOCH_1 / Alert(FATAL,UNEXPECTED_MESSAGE)"];
	s12 -> s3 [label="SERVER_HELLO_DONE / TIMEOUT"];
	s12 -> s11 [label="CHANGE_CIPHER_SPEC / TIMEOUT"];
	s12 -> s3 [label="FINISHED / TIMEOUT"];
	s12 -> s3 [label="FINISHED_EPOCH_0 / TIMEOUT"];
	s12 -> s11 [label="APPLICATION_EPOCH_0 / TIMEOUT"];
	s12 -> s12 [label="APPLICATION / TIMEOUT"];
	s12 -> s12 [label="Alert(WARNING,CLOSE_NOTIFY) / TIMEOUT"];
	s12 -> s12 [label="Alert(FATAL,UNEXPECTED_MESSAGE) / TIMEOUT"];
	s13 -> s3 [label="HELLO_VERIFY_REQUEST / Alert(FATAL,UNEXPECTED_MESSAGE)"];
	s13 -> s3 [label="PSK_SERVER_HELLO / Alert(FATAL,UNEXPECTED_MESSAGE)"];
	s13 -> s3 [label="PSK_SERVER_HELLO_EPOCH_1 / Alert(FATAL,UNEXPECTED_MESSAGE)"];
	s13 -> s3 [label="SERVER_HELLO_DONE / Alert(FATAL,UNEXPECTED_MESSAGE)"];
	s13 -> s3 [label="CHANGE_CIPHER_SPEC / TIMEOUT"];
	s13 -> s8 [label="FINISHED / TIMEOUT"];
	s13 -> s3 [label="FINISHED_EPOCH_0 / TIMEOUT"];
	s13 -> s29 [label="APPLICATION_EPOCH_0 / TIMEOUT"];
	s13 -> s13 [label="APPLICATION / TIMEOUT"];
	s13 -> s13 [label="Alert(WARNING,CLOSE_NOTIFY) / TIMEOUT"];
	s13 -> s13 [label="Alert(FATAL,UNEXPECTED_MESSAGE) / TIMEOUT"];
	s14 -> s3 [label="HELLO_VERIFY_REQUEST / Alert(FATAL,UNEXPECTED_MESSAGE)"];
	s14 -> s3 [label="PSK_SERVER_HELLO / Alert(FATAL,UNEXPECTED_MESSAGE)"];
	s14 -> s3 [label="PSK_SERVER_HELLO_EPOCH_1 / Alert(FATAL,UNEXPECTED_MESSAGE)"];
	s14 -> s3 [label="SERVER_HELLO_DONE / Alert(FATAL,UNEXPECTED_MESSAGE)"];
	s14 -> s3 [label="CHANGE_CIPHER_SPEC / TIMEOUT"];
	s14 -> s3 [label="FINISHED / TIMEOUT"];
	s14 -> s3 [label="FINISHED_EPOCH_0 / TIMEOUT"];
	s14 -> s18 [label="APPLICATION_EPOCH_0 / TIMEOUT"];
	s14 -> s14 [label="APPLICATION / TIMEOUT"];
	s14 -> s14 [label="Alert(WARNING,CLOSE_NOTIFY) / TIMEOUT"];
	s14 -> s14 [label="Alert(FATAL,UNEXPECTED_MESSAGE) / TIMEOUT"];
	s15 -> s3 [label="HELLO_VERIFY_REQUEST / TIMEOUT"];
	s15 -> s3 [label="PSK_SERVER_HELLO / TIMEOUT"];
	s15 -> s3 [label="PSK_SERVER_HELLO_EPOCH_1 / TIMEOUT"];
	s15 -> s3 [label="SERVER_HELLO_DONE / TIMEOUT"];
	s15 -> s15 [label="CHANGE_CIPHER_SPEC / TIMEOUT"];
	s15 -> s3 [label="FINISHED / TIMEOUT"];
	s15 -> s3 [label="FINISHED_EPOCH_0 / TIMEOUT"];
	s15 -> s15 [label="APPLICATION_EPOCH_0 / TIMEOUT"];
	s15 -> s16 [label="APPLICATION / TIMEOUT"];
	s15 -> s16 [label="Alert(WARNING,CLOSE_NOTIFY) / TIMEOUT"];
	s15 -> s16 [label="Alert(FATAL,UNEXPECTED_MESSAGE) / TIMEOUT"];
	s16 -> s3 [label="HELLO_VERIFY_REQUEST / TIMEOUT"];
	s16 -> s3 [label="PSK_SERVER_HELLO / TIMEOUT"];
	s16 -> s3 [label="PSK_SERVER_HELLO_EPOCH_1 / TIMEOUT"];
	s16 -> s3 [label="SERVER_HELLO_DONE / TIMEOUT"];
	s16 -> s15 [label="CHANGE_CIPHER_SPEC / TIMEOUT"];
	s16 -> s3 [label="FINISHED / TIMEOUT"];
	s16 -> s3 [label="FINISHED_EPOCH_0 / Alert(FATAL,INTERNAL_ERROR)"];
	s16 -> s3 [label="APPLICATION_EPOCH_0 / TIMEOUT"];
	s16 -> s16 [label="APPLICATION / TIMEOUT"];
	s16 -> s16 [label="Alert(WARNING,CLOSE_NOTIFY) / TIMEOUT"];
	s16 -> s16 [label="Alert(FATAL,UNEXPECTED_MESSAGE) / TIMEOUT"];
	s17 -> s3 [label="HELLO_VERIFY_REQUEST / TIMEOUT"];
	s17 -> s3 [label="PSK_SERVER_HELLO / TIMEOUT"];
	s17 -> s3 [label="PSK_SERVER_HELLO_EPOCH_1 / TIMEOUT"];
	s17 -> s3 [label="SERVER_HELLO_DONE / TIMEOUT"];
	s17 -> s3 [label="CHANGE_CIPHER_SPEC / TIMEOUT"];
	s17 -> s19 [label="FINISHED / TIMEOUT"];
	s17 -> s22 [label="FINISHED_EPOCH_0 / TIMEOUT"];
	s17 -> s22 [label="APPLICATION_EPOCH_0 / TIMEOUT"];
	s17 -> s19 [label="APPLICATION / TIMEOUT"];
	s17 -> s3 [label="Alert(WARNING,CLOSE_NOTIFY) / Alert(WARNING,CLOSE_NOTIFY)"];
	s17 -> s3 [label="Alert(FATAL,UNEXPECTED_MESSAGE) / TIMEOUT"];
	s18 -> s3 [label="HELLO_VERIFY_REQUEST / TIMEOUT"];
	s18 -> s3 [label="PSK_SERVER_HELLO / TIMEOUT"];
	s18 -> s3 [label="PSK_SERVER_HELLO_EPOCH_1 / TIMEOUT"];
	s18 -> s3 [label="SERVER_HELLO_DONE / TIMEOUT"];
	s18 -> s11 [label="CHANGE_CIPHER_SPEC / TIMEOUT"];
	s18 -> s3 [label="FINISHED / TIMEOUT"];
	s18 -> s3 [label="FINISHED_EPOCH_0 / TIMEOUT"];
	s18 -> s18 [label="APPLICATION_EPOCH_0 / TIMEOUT"];
	s18 -> s14 [label="APPLICATION / TIMEOUT"];
	s18 -> s14 [label="Alert(WARNING,CLOSE_NOTIFY) / TIMEOUT"];
	s18 -> s14 [label="Alert(FATAL,UNEXPECTED_MESSAGE) / TIMEOUT"];
	s19 -> s3 [label="HELLO_VERIFY_REQUEST / TIMEOUT"];
	s19 -> s3 [label="PSK_SERVER_HELLO / TIMEOUT"];
	s19 -> s3 [label="PSK_SERVER_HELLO_EPOCH_1 / TIMEOUT"];
	s19 -> s3 [label="SERVER_HELLO_DONE / TIMEOUT"];
	s19 -> s3 [label="CHANGE_CIPHER_SPEC / TIMEOUT"];
	s19 -> s23 [label="FINISHED / TIMEOUT"];
	s19 -> s20 [label="FINISHED_EPOCH_0 / TIMEOUT"];
	s19 -> s20 [label="APPLICATION_EPOCH_0 / TIMEOUT"];
	s19 -> s23 [label="APPLICATION / TIMEOUT"];
	s19 -> s3 [label="Alert(WARNING,CLOSE_NOTIFY) / Alert(WARNING,CLOSE_NOTIFY)"];
	s19 -> s3 [label="Alert(FATAL,UNEXPECTED_MESSAGE) / TIMEOUT"];
	s20 -> s21 [label="HELLO_VERIFY_REQUEST / TIMEOUT"];
	s20 -> s24 [label="PSK_SERVER_HELLO / TIMEOUT"];
	s20 -> s24 [label="PSK_SERVER_HELLO_EPOCH_1 / TIMEOUT"];
	s20 -> s21 [label="SERVER_HELLO_DONE / TIMEOUT"];
	s20 -> s3 [label="CHANGE_CIPHER_SPEC / TIMEOUT"];
	s20 -> s21 [label="FINISHED / TIMEOUT"];
	s20 -> s20 [label="FINISHED_EPOCH_0 / TIMEOUT"];
	s20 -> s20 [label="APPLICATION_EPOCH_0 / TIMEOUT"];
	s20 -> s21 [label="APPLICATION / TIMEOUT"];
	s20 -> s21 [label="Alert(WARNING,CLOSE_NOTIFY) / TIMEOUT"];
	s20 -> s21 [label="Alert(FATAL,UNEXPECTED_MESSAGE) / TIMEOUT"];
	s21 -> s19 [label="HELLO_VERIFY_REQUEST / TIMEOUT"];
	s21 -> s27 [label="PSK_SERVER_HELLO / TIMEOUT"];
	s21 -> s27 [label="PSK_SERVER_HELLO_EPOCH_1 / TIMEOUT"];
	s21 -> s19 [label="SERVER_HELLO_DONE / TIMEOUT"];
	s21 -> s3 [label="CHANGE_CIPHER_SPEC / TIMEOUT"];
	s21 -> s19 [label="FINISHED / TIMEOUT"];
	s21 -> s20 [label="FINISHED_EPOCH_0 / TIMEOUT"];
	s21 -> s20 [label="APPLICATION_EPOCH_0 / TIMEOUT"];
	s21 -> s19 [label="APPLICATION / TIMEOUT"];
	s21 -> s19 [label="Alert(WARNING,CLOSE_NOTIFY) / TIMEOUT"];
	s21 -> s19 [label="Alert(FATAL,UNEXPECTED_MESSAGE) / TIMEOUT"];
	s22 -> s17 [label="HELLO_VERIFY_REQUEST / TIMEOUT"];
	s22 -> s27 [label="PSK_SERVER_HELLO / TIMEOUT"];
	s22 -> s27 [label="PSK_SERVER_HELLO_EPOCH_1 / TIMEOUT"];
	s22 -> s17 [label="SERVER_HELLO_DONE / TIMEOUT"];
	s22 -> s3 [label="CHANGE_CIPHER_SPEC / TIMEOUT"];
	s22 -> s17 [label="FINISHED / TIMEOUT"];
	s22 -> s22 [label="FINISHED_EPOCH_0 / TIMEOUT"];
	s22 -> s22 [label="APPLICATION_EPOCH_0 / TIMEOUT"];
	s22 -> s17 [label="APPLICATION / TIMEOUT"];
	s22 -> s17 [label="Alert(WARNING,CLOSE_NOTIFY) / TIMEOUT"];
	s22 -> s17 [label="Alert(FATAL,UNEXPECTED_MESSAGE) / TIMEOUT"];
	s23 -> s3 [label="HELLO_VERIFY_REQUEST / TIMEOUT"];
	s23 -> s3 [label="PSK_SERVER_HELLO / TIMEOUT"];
	s23 -> s3 [label="PSK_SERVER_HELLO_EPOCH_1 / TIMEOUT"];
	s23 -> s3 [label="SERVER_HELLO_DONE / TIMEOUT"];
	s23 -> s3 [label="CHANGE_CIPHER_SPEC / TIMEOUT"];
	s23 -> s30 [label="FINISHED / TIMEOUT"];
	s23 -> s25 [label="FINISHED_EPOCH_0 / TIMEOUT"];
	s23 -> s25 [label="APPLICATION_EPOCH_0 / TIMEOUT"];
	s23 -> s30 [label="APPLICATION / TIMEOUT"];
	s23 -> s3 [label="Alert(WARNING,CLOSE_NOTIFY) / Alert(WARNING,CLOSE_NOTIFY)"];
	s23 -> s3 [label="Alert(FATAL,UNEXPECTED_MESSAGE) / TIMEOUT"];
	s24 -> s27 [label="HELLO_VERIFY_REQUEST / TIMEOUT"];
	s24 -> s27 [label="PSK_SERVER_HELLO / TIMEOUT"];
	s24 -> s27 [label="PSK_SERVER_HELLO_EPOCH_1 / TIMEOUT"];
	s24 -> s27 [label="SERVER_HELLO_DONE / TIMEOUT"];
	s24 -> s3 [label="CHANGE_CIPHER_SPEC / TIMEOUT"];
	s24 -> s27 [label="FINISHED / TIMEOUT"];
	s24 -> s3 [label="FINISHED_EPOCH_0 / TIMEOUT"];
	s24 -> s3 [label="APPLICATION_EPOCH_0 / TIMEOUT"];
	s24 -> s27 [label="APPLICATION / TIMEOUT"];
	s24 -> s27 [label="Alert(WARNING,CLOSE_NOTIFY) / TIMEOUT"];
	s24 -> s27 [label="Alert(FATAL,UNEXPECTED_MESSAGE) / TIMEOUT"];
	s25 -> s26 [label="HELLO_VERIFY_REQUEST / TIMEOUT"];
	s25 -> s26 [label="PSK_SERVER_HELLO / TIMEOUT"];
	s25 -> s26 [label="PSK_SERVER_HELLO_EPOCH_1 / TIMEOUT"];
	s25 -> s26 [label="SERVER_HELLO_DONE / TIMEOUT"];
	s25 -> s3 [label="CHANGE_CIPHER_SPEC / TIMEOUT"];
	s25 -> s26 [label="FINISHED / TIMEOUT"];
	s25 -> s25 [label="FINISHED_EPOCH_0 / TIMEOUT"];
	s25 -> s25 [label="APPLICATION_EPOCH_0 / TIMEOUT"];
	s25 -> s26 [label="APPLICATION / TIMEOUT"];
	s25 -> s26 [label="Alert(WARNING,CLOSE_NOTIFY) / TIMEOUT"];
	s25 -> s26 [label="Alert(FATAL,UNEXPECTED_MESSAGE) / TIMEOUT"];
	s26 -> s28 [label="HELLO_VERIFY_REQUEST / TIMEOUT"];
	s26 -> s24 [label="PSK_SERVER_HELLO / TIMEOUT"];
	s26 -> s24 [label="PSK_SERVER_HELLO_EPOCH_1 / TIMEOUT"];
	s26 -> s28 [label="SERVER_HELLO_DONE / TIMEOUT"];
	s26 -> s3 [label="CHANGE_CIPHER_SPEC / TIMEOUT"];
	s26 -> s28 [label="FINISHED / TIMEOUT"];
	s26 -> s25 [label="FINISHED_EPOCH_0 / TIMEOUT"];
	s26 -> s25 [label="APPLICATION_EPOCH_0 / TIMEOUT"];
	s26 -> s28 [label="APPLICATION / TIMEOUT"];
	s26 -> s28 [label="Alert(WARNING,CLOSE_NOTIFY) / TIMEOUT"];
	s26 -> s28 [label="Alert(FATAL,UNEXPECTED_MESSAGE) / TIMEOUT"];
	s27 -> s3 [label="HELLO_VERIFY_REQUEST / TIMEOUT"];
	s27 -> s3 [label="PSK_SERVER_HELLO / TIMEOUT"];
	s27 -> s3 [label="PSK_SERVER_HELLO_EPOCH_1 / TIMEOUT"];
	s27 -> s3 [label="SERVER_HELLO_DONE / TIMEOUT"];
	s27 -> s3 [label="CHANGE_CIPHER_SPEC / TIMEOUT"];
	s27 -> s27 [label="FINISHED / TIMEOUT"];
	s27 -> s3 [label="FINISHED_EPOCH_0 / TIMEOUT"];
	s27 -> s3 [label="APPLICATION_EPOCH_0 / TIMEOUT"];
	s27 -> s27 [label="APPLICATION / TIMEOUT"];
	s27 -> s3 [label="Alert(WARNING,CLOSE_NOTIFY) / Alert(WARNING,CLOSE_NOTIFY)"];
	s27 -> s3 [label="Alert(FATAL,UNEXPECTED_MESSAGE) / TIMEOUT"];
	s28 -> s23 [label="HELLO_VERIFY_REQUEST / TIMEOUT"];
	s28 -> s27 [label="PSK_SERVER_HELLO / TIMEOUT"];
	s28 -> s27 [label="PSK_SERVER_HELLO_EPOCH_1 / TIMEOUT"];
	s28 -> s23 [label="SERVER_HELLO_DONE / TIMEOUT"];
	s28 -> s3 [label="CHANGE_CIPHER_SPEC / TIMEOUT"];
	s28 -> s23 [label="FINISHED / TIMEOUT"];
	s28 -> s25 [label="FINISHED_EPOCH_0 / TIMEOUT"];
	s28 -> s25 [label="APPLICATION_EPOCH_0 / TIMEOUT"];
	s28 -> s23 [label="APPLICATION / TIMEOUT"];
	s28 -> s23 [label="Alert(WARNING,CLOSE_NOTIFY) / TIMEOUT"];
	s28 -> s23 [label="Alert(FATAL,UNEXPECTED_MESSAGE) / TIMEOUT"];
	s29 -> s3 [label="HELLO_VERIFY_REQUEST / TIMEOUT"];
	s29 -> s3 [label="PSK_SERVER_HELLO / TIMEOUT"];
	s29 -> s3 [label="PSK_SERVER_HELLO_EPOCH_1 / TIMEOUT"];
	s29 -> s3 [label="SERVER_HELLO_DONE / TIMEOUT"];
	s29 -> s3 [label="CHANGE_CIPHER_SPEC / TIMEOUT"];
	s29 -> s3 [label="FINISHED / TIMEOUT"];
	s29 -> s3 [label="FINISHED_EPOCH_0 / TIMEOUT"];
	s29 -> s29 [label="APPLICATION_EPOCH_0 / TIMEOUT"];
	s29 -> s9 [label="APPLICATION / TIMEOUT"];
	s29 -> s9 [label="Alert(WARNING,CLOSE_NOTIFY) / TIMEOUT"];
	s29 -> s9 [label="Alert(FATAL,UNEXPECTED_MESSAGE) / TIMEOUT"];
	s30 -> s3 [label="HELLO_VERIFY_REQUEST / TIMEOUT"];
	s30 -> s3 [label="PSK_SERVER_HELLO / TIMEOUT"];
	s30 -> s3 [label="PSK_SERVER_HELLO_EPOCH_1 / TIMEOUT"];
	s30 -> s3 [label="SERVER_HELLO_DONE / TIMEOUT"];
	s30 -> s3 [label="CHANGE_CIPHER_SPEC / TIMEOUT"];
	s30 -> s27 [label="FINISHED / TIMEOUT"];
	s30 -> s31 [label="FINISHED_EPOCH_0 / TIMEOUT"];
	s30 -> s31 [label="APPLICATION_EPOCH_0 / TIMEOUT"];
	s30 -> s27 [label="APPLICATION / TIMEOUT"];
	s30 -> s3 [label="Alert(WARNING,CLOSE_NOTIFY) / Alert(WARNING,CLOSE_NOTIFY)"];
	s30 -> s3 [label="Alert(FATAL,UNEXPECTED_MESSAGE) / TIMEOUT"];
	s31 -> s25 [label="HELLO_VERIFY_REQUEST / TIMEOUT"];
	s31 -> s25 [label="PSK_SERVER_HELLO / TIMEOUT"];
	s31 -> s25 [label="PSK_SERVER_HELLO_EPOCH_1 / TIMEOUT"];
	s31 -> s25 [label="SERVER_HELLO_DONE / TIMEOUT"];
	s31 -> s3 [label="CHANGE_CIPHER_SPEC / TIMEOUT"];
	s31 -> s25 [label="FINISHED / TIMEOUT"];
	s31 -> s31 [label="FINISHED_EPOCH_0 / TIMEOUT"];
	s31 -> s31 [label="APPLICATION_EPOCH_0 / TIMEOUT"];
	s31 -> s25 [label="APPLICATION / TIMEOUT"];
	s31 -> s25 [label="Alert(WARNING,CLOSE_NOTIFY) / TIMEOUT"];
	s31 -> s25 [label="Alert(FATAL,UNEXPECTED_MESSAGE) / TIMEOUT"];

__start0 [label="" shape="none" width="0" height="0"];
__start0 -> s0;

}
