digraph g {

	s0 [shape="circle" label="s0"];
	s1 [shape="circle" label="s1"];
	s2 [shape="circle" label="s2"];
	s3 [shape="circle" label="s3"];
	s4 [shape="circle" label="s4"];
	s5 [shape="circle" label="s5"];
	s6 [shape="circle" label="s6"];
	s7 [shape="circle" label="s7"];
	s8 [shape="circle" label="s8"];
	s9 [shape="circle" label="s9"];
	s10 [shape="circle" label="s10"];
	s11 [shape="circle" label="s11"];
	s12 [shape="circle" label="s12"];
	s13 [shape="circle" label="s13"];
	s14 [shape="circle" label="s14"];
	s15 [shape="circle" label="s15"];
	s16 [shape="circle" label="s16"];
	s17 [shape="circle" label="s17"];
	s0 -> s3 [label="ECDH_CLIENT_HELLO / HELLO_VERIFY_REQUEST+"];
	s0 -> s1 [label="ECDH_CLIENT_KEY_EXCHANGE / TIMEOUT"];
	s0 -> s4 [label="CHANGE_CIPHER_SPEC / TIMEOUT"];
	s0 -> s1 [label="FINISHED / TIMEOUT"];
	s0 -> s0 [label="APPLICATION / TIMEOUT"];
	s0 -> s1 [label="CERTIFICATE / TIMEOUT"];
	s0 -> s1 [label="EMPTY_CERTIFICATE / TIMEOUT"];
	s0 -> s1 [label="CERTIFICATE_VERIFY / TIMEOUT"];
	s0 -> s0 [label="Alert(WARNING,CLOSE_NOTIFY) / TIMEOUT"];
	s0 -> s0 [label="Alert(FATAL,UNEXPECTED_MESSAGE) / TIMEOUT"];
	s1 -> s1 [label="ECDH_CLIENT_HELLO / TIMEOUT"];
	s1 -> s1 [label="ECDH_CLIENT_KEY_EXCHANGE / TIMEOUT"];
	s1 -> s4 [label="CHANGE_CIPHER_SPEC / TIMEOUT"];
	s1 -> s1 [label="FINISHED / TIMEOUT"];
	s1 -> s2 [label="APPLICATION / Alert(FATAL,UNEXPECTED_MESSAGE)"];
	s1 -> s1 [label="CERTIFICATE / TIMEOUT"];
	s1 -> s1 [label="EMPTY_CERTIFICATE / TIMEOUT"];
	s1 -> s1 [label="CERTIFICATE_VERIFY / TIMEOUT"];
	s1 -> s2 [label="Alert(WARNING,CLOSE_NOTIFY) / Alert(WARNING,CLOSE_NOTIFY)"];
	s1 -> s2 [label="Alert(FATAL,UNEXPECTED_MESSAGE) / TIMEOUT"];
	s2 -> s2 [label="ECDH_CLIENT_HELLO / SOCKET_CLOSED"];
	s2 -> s2 [label="ECDH_CLIENT_KEY_EXCHANGE / SOCKET_CLOSED"];
	s2 -> s2 [label="CHANGE_CIPHER_SPEC / SOCKET_CLOSED"];
	s2 -> s2 [label="FINISHED / SOCKET_CLOSED"];
	s2 -> s2 [label="APPLICATION / SOCKET_CLOSED"];
	s2 -> s2 [label="CERTIFICATE / SOCKET_CLOSED"];
	s2 -> s2 [label="EMPTY_CERTIFICATE / SOCKET_CLOSED"];
	s2 -> s2 [label="CERTIFICATE_VERIFY / SOCKET_CLOSED"];
	s2 -> s2 [label="Alert(WARNING,CLOSE_NOTIFY) / SOCKET_CLOSED"];
	s2 -> s2 [label="Alert(FATAL,UNEXPECTED_MESSAGE) / SOCKET_CLOSED"];
	s3 -> s6 [label="ECDH_CLIENT_HELLO / SERVER_HELLO|ECDSA_CERTIFICATE|ECDHE_SERVER_KEY_EXCHANGE|CERTIFICATE_REQUEST|SERVER_HELLO_DONE"];
	s3 -> s5 [label="ECDH_CLIENT_KEY_EXCHANGE / HELLO_VERIFY_REQUEST+"];
	s3 -> s4 [label="CHANGE_CIPHER_SPEC / TIMEOUT"];
	s3 -> s5 [label="FINISHED / HELLO_VERIFY_REQUEST+"];
	s3 -> s2 [label="APPLICATION / Alert(FATAL,UNEXPECTED_MESSAGE)"];
	s3 -> s5 [label="CERTIFICATE / HELLO_VERIFY_REQUEST+"];
	s3 -> s5 [label="EMPTY_CERTIFICATE / HELLO_VERIFY_REQUEST+"];
	s3 -> s5 [label="CERTIFICATE_VERIFY / HELLO_VERIFY_REQUEST+"];
	s3 -> s2 [label="Alert(WARNING,CLOSE_NOTIFY) / Alert(WARNING,CLOSE_NOTIFY)"];
	s3 -> s2 [label="Alert(FATAL,UNEXPECTED_MESSAGE) / TIMEOUT"];
	s4 -> s4 [label="ECDH_CLIENT_HELLO / TIMEOUT"];
	s4 -> s4 [label="ECDH_CLIENT_KEY_EXCHANGE / TIMEOUT"];
	s4 -> s4 [label="CHANGE_CIPHER_SPEC / TIMEOUT"];
	s4 -> s4 [label="FINISHED / TIMEOUT"];
	s4 -> s4 [label="APPLICATION / TIMEOUT"];
	s4 -> s4 [label="CERTIFICATE / TIMEOUT"];
	s4 -> s4 [label="EMPTY_CERTIFICATE / TIMEOUT"];
	s4 -> s4 [label="CERTIFICATE_VERIFY / TIMEOUT"];
	s4 -> s4 [label="Alert(WARNING,CLOSE_NOTIFY) / TIMEOUT"];
	s4 -> s4 [label="Alert(FATAL,UNEXPECTED_MESSAGE) / TIMEOUT"];
	s5 -> s1 [label="ECDH_CLIENT_HELLO / TIMEOUT"];
	s5 -> s5 [label="ECDH_CLIENT_KEY_EXCHANGE / HELLO_VERIFY_REQUEST+"];
	s5 -> s4 [label="CHANGE_CIPHER_SPEC / TIMEOUT"];
	s5 -> s5 [label="FINISHED / HELLO_VERIFY_REQUEST+"];
	s5 -> s2 [label="APPLICATION / Alert(FATAL,UNEXPECTED_MESSAGE)"];
	s5 -> s5 [label="CERTIFICATE / HELLO_VERIFY_REQUEST+"];
	s5 -> s5 [label="EMPTY_CERTIFICATE / HELLO_VERIFY_REQUEST+"];
	s5 -> s5 [label="CERTIFICATE_VERIFY / HELLO_VERIFY_REQUEST+"];
	s5 -> s2 [label="Alert(WARNING,CLOSE_NOTIFY) / Alert(WARNING,CLOSE_NOTIFY)"];
	s5 -> s2 [label="Alert(FATAL,UNEXPECTED_MESSAGE) / TIMEOUT"];
	s6 -> s1 [label="ECDH_CLIENT_HELLO / TIMEOUT"];
	s6 -> s8 [label="ECDH_CLIENT_KEY_EXCHANGE / TIMEOUT"];
	s6 -> s4 [label="CHANGE_CIPHER_SPEC / TIMEOUT"];
	s6 -> s1 [label="FINISHED / TIMEOUT"];
	s6 -> s2 [label="APPLICATION / Alert(FATAL,UNEXPECTED_MESSAGE)"];
	s6 -> s9 [label="CERTIFICATE / TIMEOUT"];
	s6 -> s7 [label="EMPTY_CERTIFICATE / TIMEOUT"];
	s6 -> s1 [label="CERTIFICATE_VERIFY / TIMEOUT"];
	s6 -> s2 [label="Alert(WARNING,CLOSE_NOTIFY) / Alert(WARNING,CLOSE_NOTIFY)"];
	s6 -> s2 [label="Alert(FATAL,UNEXPECTED_MESSAGE) / TIMEOUT"];
	s7 -> s1 [label="ECDH_CLIENT_HELLO / TIMEOUT"];
	s7 -> s8 [label="ECDH_CLIENT_KEY_EXCHANGE / TIMEOUT"];
	s7 -> s4 [label="CHANGE_CIPHER_SPEC / TIMEOUT"];
	s7 -> s1 [label="FINISHED / TIMEOUT"];
	s7 -> s2 [label="APPLICATION / Alert(FATAL,UNEXPECTED_MESSAGE)"];
	s7 -> s1 [label="CERTIFICATE / TIMEOUT"];
	s7 -> s1 [label="EMPTY_CERTIFICATE / TIMEOUT"];
	s7 -> s1 [label="CERTIFICATE_VERIFY / TIMEOUT"];
	s7 -> s2 [label="Alert(WARNING,CLOSE_NOTIFY) / Alert(WARNING,CLOSE_NOTIFY)"];
	s7 -> s2 [label="Alert(FATAL,UNEXPECTED_MESSAGE) / TIMEOUT"];
	s8 -> s15 [label="ECDH_CLIENT_HELLO / TIMEOUT"];
	s8 -> s15 [label="ECDH_CLIENT_KEY_EXCHANGE / TIMEOUT"];
	s8 -> s11 [label="CHANGE_CIPHER_SPEC / TIMEOUT"];
	s8 -> s15 [label="FINISHED / TIMEOUT"];
	s8 -> s2 [label="APPLICATION / Alert(FATAL,UNEXPECTED_MESSAGE)"];
	s8 -> s15 [label="CERTIFICATE / TIMEOUT"];
	s8 -> s15 [label="EMPTY_CERTIFICATE / TIMEOUT"];
	s8 -> s2 [label="CERTIFICATE_VERIFY / Alert(FATAL,NO_CERTIFICATE_RESERVED)"];
	s8 -> s2 [label="Alert(WARNING,CLOSE_NOTIFY) / Alert(WARNING,CLOSE_NOTIFY)"];
	s8 -> s2 [label="Alert(FATAL,UNEXPECTED_MESSAGE) / TIMEOUT"];
	s9 -> s1 [label="ECDH_CLIENT_HELLO / TIMEOUT"];
	s9 -> s10 [label="ECDH_CLIENT_KEY_EXCHANGE / TIMEOUT"];
	s9 -> s4 [label="CHANGE_CIPHER_SPEC / TIMEOUT"];
	s9 -> s1 [label="FINISHED / TIMEOUT"];
	s9 -> s2 [label="APPLICATION / Alert(FATAL,UNEXPECTED_MESSAGE)"];
	s9 -> s1 [label="CERTIFICATE / TIMEOUT"];
	s9 -> s1 [label="EMPTY_CERTIFICATE / TIMEOUT"];
	s9 -> s1 [label="CERTIFICATE_VERIFY / TIMEOUT"];
	s9 -> s2 [label="Alert(WARNING,CLOSE_NOTIFY) / Alert(WARNING,CLOSE_NOTIFY)"];
	s9 -> s2 [label="Alert(FATAL,UNEXPECTED_MESSAGE) / TIMEOUT"];
	s10 -> s15 [label="ECDH_CLIENT_HELLO / TIMEOUT"];
	s10 -> s15 [label="ECDH_CLIENT_KEY_EXCHANGE / TIMEOUT"];
	s10 -> s13 [label="CHANGE_CIPHER_SPEC / TIMEOUT"];
	s10 -> s15 [label="FINISHED / TIMEOUT"];
	s10 -> s2 [label="APPLICATION / Alert(FATAL,UNEXPECTED_MESSAGE)"];
	s10 -> s15 [label="CERTIFICATE / TIMEOUT"];
	s10 -> s15 [label="EMPTY_CERTIFICATE / TIMEOUT"];
	s10 -> s2 [label="CERTIFICATE_VERIFY / Alert(FATAL,BAD_CERTIFICATE)"];
	s10 -> s2 [label="Alert(WARNING,CLOSE_NOTIFY) / Alert(WARNING,CLOSE_NOTIFY)"];
	s10 -> s2 [label="Alert(FATAL,UNEXPECTED_MESSAGE) / TIMEOUT"];
	s11 -> s12 [label="ECDH_CLIENT_HELLO / TIMEOUT"];
	s11 -> s12 [label="ECDH_CLIENT_KEY_EXCHANGE / TIMEOUT"];
	s11 -> s2 [label="CHANGE_CIPHER_SPEC / Alert(FATAL,DECODE_ERROR)"];
	s11 -> s2 [label="FINISHED / Alert(FATAL,NO_CERTIFICATE_RESERVED)"];
	s11 -> s16 [label="APPLICATION / TIMEOUT"];
	s11 -> s12 [label="CERTIFICATE / TIMEOUT"];
	s11 -> s12 [label="EMPTY_CERTIFICATE / TIMEOUT"];
	s11 -> s12 [label="CERTIFICATE_VERIFY / TIMEOUT"];
	s11 -> s2 [label="Alert(WARNING,CLOSE_NOTIFY) / Alert(WARNING,CLOSE_NOTIFY)"];
	s11 -> s2 [label="Alert(FATAL,UNEXPECTED_MESSAGE) / TIMEOUT"];
	s12 -> s12 [label="ECDH_CLIENT_HELLO / TIMEOUT"];
	s12 -> s12 [label="ECDH_CLIENT_KEY_EXCHANGE / TIMEOUT"];
	s12 -> s2 [label="CHANGE_CIPHER_SPEC / Alert(FATAL,DECODE_ERROR)"];
	s12 -> s12 [label="FINISHED / TIMEOUT"];
	s12 -> s14 [label="APPLICATION / TIMEOUT"];
	s12 -> s12 [label="CERTIFICATE / TIMEOUT"];
	s12 -> s12 [label="EMPTY_CERTIFICATE / TIMEOUT"];
	s12 -> s12 [label="CERTIFICATE_VERIFY / TIMEOUT"];
	s12 -> s2 [label="Alert(WARNING,CLOSE_NOTIFY) / Alert(WARNING,CLOSE_NOTIFY)"];
	s12 -> s2 [label="Alert(FATAL,UNEXPECTED_MESSAGE) / TIMEOUT"];
	s13 -> s12 [label="ECDH_CLIENT_HELLO / TIMEOUT"];
	s13 -> s12 [label="ECDH_CLIENT_KEY_EXCHANGE / TIMEOUT"];
	s13 -> s2 [label="CHANGE_CIPHER_SPEC / Alert(FATAL,DECODE_ERROR)"];
	s13 -> s2 [label="FINISHED / Alert(FATAL,BAD_CERTIFICATE)"];
	s13 -> s17 [label="APPLICATION / TIMEOUT"];
	s13 -> s12 [label="CERTIFICATE / TIMEOUT"];
	s13 -> s12 [label="EMPTY_CERTIFICATE / TIMEOUT"];
	s13 -> s12 [label="CERTIFICATE_VERIFY / TIMEOUT"];
	s13 -> s2 [label="Alert(WARNING,CLOSE_NOTIFY) / Alert(WARNING,CLOSE_NOTIFY)"];
	s13 -> s2 [label="Alert(FATAL,UNEXPECTED_MESSAGE) / TIMEOUT"];
	s14 -> s14 [label="ECDH_CLIENT_HELLO / TIMEOUT"];
	s14 -> s14 [label="ECDH_CLIENT_KEY_EXCHANGE / TIMEOUT"];
	s14 -> s2 [label="CHANGE_CIPHER_SPEC / Alert(FATAL,DECODE_ERROR)"];
	s14 -> s14 [label="FINISHED / TIMEOUT"];
	s14 -> s4 [label="APPLICATION / TIMEOUT"];
	s14 -> s14 [label="CERTIFICATE / TIMEOUT"];
	s14 -> s14 [label="EMPTY_CERTIFICATE / TIMEOUT"];
	s14 -> s14 [label="CERTIFICATE_VERIFY / TIMEOUT"];
	s14 -> s2 [label="Alert(WARNING,CLOSE_NOTIFY) / Alert(WARNING,CLOSE_NOTIFY)"];
	s14 -> s2 [label="Alert(FATAL,UNEXPECTED_MESSAGE) / TIMEOUT"];
	s15 -> s15 [label="ECDH_CLIENT_HELLO / TIMEOUT"];
	s15 -> s15 [label="ECDH_CLIENT_KEY_EXCHANGE / TIMEOUT"];
	s15 -> s12 [label="CHANGE_CIPHER_SPEC / TIMEOUT"];
	s15 -> s15 [label="FINISHED / TIMEOUT"];
	s15 -> s2 [label="APPLICATION / Alert(FATAL,UNEXPECTED_MESSAGE)"];
	s15 -> s15 [label="CERTIFICATE / TIMEOUT"];
	s15 -> s15 [label="EMPTY_CERTIFICATE / TIMEOUT"];
	s15 -> s15 [label="CERTIFICATE_VERIFY / TIMEOUT"];
	s15 -> s2 [label="Alert(WARNING,CLOSE_NOTIFY) / Alert(WARNING,CLOSE_NOTIFY)"];
	s15 -> s2 [label="Alert(FATAL,UNEXPECTED_MESSAGE) / TIMEOUT"];
	s16 -> s14 [label="ECDH_CLIENT_HELLO / TIMEOUT"];
	s16 -> s14 [label="ECDH_CLIENT_KEY_EXCHANGE / TIMEOUT"];
	s16 -> s2 [label="CHANGE_CIPHER_SPEC / Alert(FATAL,DECODE_ERROR)"];
	s16 -> s2 [label="FINISHED / Alert(FATAL,NO_CERTIFICATE_RESERVED)"];
	s16 -> s4 [label="APPLICATION / TIMEOUT"];
	s16 -> s14 [label="CERTIFICATE / TIMEOUT"];
	s16 -> s14 [label="EMPTY_CERTIFICATE / TIMEOUT"];
	s16 -> s14 [label="CERTIFICATE_VERIFY / TIMEOUT"];
	s16 -> s2 [label="Alert(WARNING,CLOSE_NOTIFY) / Alert(WARNING,CLOSE_NOTIFY)"];
	s16 -> s2 [label="Alert(FATAL,UNEXPECTED_MESSAGE) / TIMEOUT"];
	s17 -> s14 [label="ECDH_CLIENT_HELLO / TIMEOUT"];
	s17 -> s14 [label="ECDH_CLIENT_KEY_EXCHANGE / TIMEOUT"];
	s17 -> s2 [label="CHANGE_CIPHER_SPEC / Alert(FATAL,DECODE_ERROR)"];
	s17 -> s2 [label="FINISHED / Alert(FATAL,BAD_CERTIFICATE)"];
	s17 -> s4 [label="APPLICATION / TIMEOUT"];
	s17 -> s14 [label="CERTIFICATE / TIMEOUT"];
	s17 -> s14 [label="EMPTY_CERTIFICATE / TIMEOUT"];
	s17 -> s14 [label="CERTIFICATE_VERIFY / TIMEOUT"];
	s17 -> s2 [label="Alert(WARNING,CLOSE_NOTIFY) / Alert(WARNING,CLOSE_NOTIFY)"];
	s17 -> s2 [label="Alert(FATAL,UNEXPECTED_MESSAGE) / TIMEOUT"];

__start0 [label="" shape="none" width="0" height="0"];
__start0 -> s0;

}
