digraph g {

	s0 [shape="circle" label="s0"];
	s1 [shape="circle" label="s1"];
	s2 [shape="circle" label="s2"];
	s3 [shape="circle" label="s3"];
	s4 [shape="circle" label="s4"];
	s5 [shape="circle" label="s5"];
	s0 -> s4 [label="HELLO_VERIFY_REQUEST / CLIENT_HELLO+"];
	s0 -> s2 [label="PSK_SERVER_HELLO / CLIENT_HELLO"];
	s0 -> s1 [label="SERVER_HELLO_DONE / CLIENT_HELLO|Alert(FATAL,UNEXPECTED_MESSAGE)"];
	s0 -> s1 [label="CHANGE_CIPHER_SPEC / CLIENT_HELLO"];
	s0 -> s1 [label="FINISHED / CLIENT_HELLO|Alert(FATAL,INTERNAL_ERROR)"];
	s0 -> s5 [label="HELLO_REQUEST / CLIENT_HELLO"];
	s0 -> s1 [label="APPLICATION / CLIENT_HELLO|Alert(FATAL,UNEXPECTED_MESSAGE)"];
	s0 -> s1 [label="Alert(WARNING,CLOSE_NOTIFY) / CLIENT_HELLO"];
	s0 -> s1 [label="Alert(FATAL,UNEXPECTED_MESSAGE) / CLIENT_HELLO"];
	s1 -> s1 [label="HELLO_VERIFY_REQUEST / TIMEOUT"];
	s1 -> s1 [label="PSK_SERVER_HELLO / TIMEOUT"];
	s1 -> s1 [label="SERVER_HELLO_DONE / TIMEOUT"];
	s1 -> s1 [label="CHANGE_CIPHER_SPEC / TIMEOUT"];
	s1 -> s1 [label="FINISHED / TIMEOUT"];
	s1 -> s1 [label="HELLO_REQUEST / TIMEOUT"];
	s1 -> s1 [label="APPLICATION / TIMEOUT"];
	s1 -> s1 [label="Alert(WARNING,CLOSE_NOTIFY) / TIMEOUT"];
	s1 -> s1 [label="Alert(FATAL,UNEXPECTED_MESSAGE) / TIMEOUT"];
	s2 -> s4 [label="HELLO_VERIFY_REQUEST / CLIENT_HELLO"];
	s2 -> s1 [label="PSK_SERVER_HELLO / Alert(FATAL,UNEXPECTED_MESSAGE)"];
	s2 -> s3 [label="SERVER_HELLO_DONE / PSK_CLIENT_KEY_EXCHANGE|CHANGE_CIPHER_SPEC|FINISHED"];
	s2 -> s1 [label="CHANGE_CIPHER_SPEC / TIMEOUT"];
	s2 -> s1 [label="FINISHED / Alert(FATAL,INTERNAL_ERROR)"];
	s2 -> s1 [label="HELLO_REQUEST / TIMEOUT"];
	s2 -> s1 [label="APPLICATION / Alert(FATAL,UNEXPECTED_MESSAGE)"];
	s2 -> s1 [label="Alert(WARNING,CLOSE_NOTIFY) / TIMEOUT"];
	s2 -> s1 [label="Alert(FATAL,UNEXPECTED_MESSAGE) / TIMEOUT"];
	s3 -> s1 [label="HELLO_VERIFY_REQUEST / Alert(FATAL,UNEXPECTED_MESSAGE)"];
	s3 -> s1 [label="PSK_SERVER_HELLO / Alert(FATAL,UNEXPECTED_MESSAGE)"];
	s3 -> s1 [label="SERVER_HELLO_DONE / Alert(FATAL,UNEXPECTED_MESSAGE)"];
	s3 -> s3 [label="CHANGE_CIPHER_SPEC / TIMEOUT"];
	s3 -> s1 [label="FINISHED / Alert(FATAL,UNEXPECTED_MESSAGE)"];
	s3 -> s1 [label="HELLO_REQUEST / TIMEOUT"];
	s3 -> s1 [label="APPLICATION / Alert(FATAL,UNEXPECTED_MESSAGE)"];
	s3 -> s1 [label="Alert(WARNING,CLOSE_NOTIFY) / TIMEOUT"];
	s3 -> s1 [label="Alert(FATAL,UNEXPECTED_MESSAGE) / TIMEOUT"];
	s4 -> s4 [label="HELLO_VERIFY_REQUEST / CLIENT_HELLO"];
	s4 -> s2 [label="PSK_SERVER_HELLO / TIMEOUT"];
	s4 -> s1 [label="SERVER_HELLO_DONE / Alert(FATAL,UNEXPECTED_MESSAGE)"];
	s4 -> s1 [label="CHANGE_CIPHER_SPEC / TIMEOUT"];
	s4 -> s1 [label="FINISHED / Alert(FATAL,INTERNAL_ERROR)"];
	s4 -> s1 [label="HELLO_REQUEST / TIMEOUT"];
	s4 -> s1 [label="APPLICATION / Alert(FATAL,UNEXPECTED_MESSAGE)"];
	s4 -> s1 [label="Alert(WARNING,CLOSE_NOTIFY) / TIMEOUT"];
	s4 -> s1 [label="Alert(FATAL,UNEXPECTED_MESSAGE) / TIMEOUT"];
	s5 -> s5 [label="HELLO_VERIFY_REQUEST / TIMEOUT"];
	s5 -> s5 [label="PSK_SERVER_HELLO / TIMEOUT"];
	s5 -> s5 [label="SERVER_HELLO_DONE / TIMEOUT"];
	s5 -> s1 [label="CHANGE_CIPHER_SPEC / TIMEOUT"];
	s5 -> s5 [label="FINISHED / TIMEOUT"];
	s5 -> s1 [label="HELLO_REQUEST / TIMEOUT"];
	s5 -> s1 [label="APPLICATION / Alert(FATAL,UNEXPECTED_MESSAGE)"];
	s5 -> s1 [label="Alert(WARNING,CLOSE_NOTIFY) / TIMEOUT"];
	s5 -> s1 [label="Alert(FATAL,UNEXPECTED_MESSAGE) / TIMEOUT"];

__start0 [label="" shape="none" width="0" height="0"];
__start0 -> s0;

}
