digraph g {

	s0 [shape="doublecircle" label="s0"];
	s1 [shape="doublecircle" label="s1"];
	s2 [shape="circle" label="s2"];
	s3 [shape="doublecircle" label="s3"];
	s4 [shape="doublecircle" label="s4"];
	s5 [shape="doublecircle" label="s5"];
	s6 [shape="doublecircle" label="s6"];
	s7 [shape="doublecircle" label="s7"];
	s8 [shape="doublecircle" label="s8"];
	s9 [shape="doublecircle" label="s9"];
	s10 [shape="doublecircle" label="s10"];
	s11 [shape="doublecircle" label="s11"];
	s12 [shape="doublecircle" label="s12"];
	s13 [shape="doublecircle" label="s13"];
	s14 [shape="doublecircle" label="s14"];
	s15 [shape="doublecircle" label="s15"];
	s16 [shape="doublecircle" label="s16"];
	s17 [shape="doublecircle" label="s17"];
	s18 [shape="doublecircle" label="s18"];
	s19 [shape="doublecircle" label="s19"];
	s20 [shape="doublecircle" label="s20"];
	s0 -> s1 [label="I_HELLO_VERIFY_REQUEST"];
	s0 -> s1 [label="I_ECDH_SERVER_HELLO"];
	s0 -> s1 [label="I_ECDH_SERVER_KEY_EXCHANGE"];
	s0 -> s1 [label="I_RSA_SIGN_CERTIFICATE_REQUEST"];
	s0 -> s1 [label="I_RSA_FIXED_ECDH_CERTIFICATE_REQUEST"];
	s0 -> s1 [label="I_RSA_FIXED_DH_CERTIFICATE_REQUEST"];
	s0 -> s1 [label="I_DSS_SIGN_CERTIFICATE_REQUEST"];
	s0 -> s1 [label="I_DSS_FIXED_DH_CERTIFICATE_REQUEST"];
	s0 -> s1 [label="I_ECDSA_SIGN_CERTIFICATE_REQUEST"];
	s0 -> s1 [label="I_SERVER_HELLO_DONE"];
	s0 -> s1 [label="I_CHANGE_CIPHER_SPEC"];
	s0 -> s1 [label="I_FINISHED"];
	s0 -> s1 [label="I_APPLICATION"];
	s0 -> s1 [label="I_CERTIFICATE"];
	s0 -> s1 [label="I_EMPTY_CERTIFICATE"];
	s0 -> s1 [label="I_Alert(WARNING,CLOSE_NOTIFY)"];
	s0 -> s1 [label="I_Alert(FATAL,UNEXPECTED_MESSAGE)"];
	s0 -> s1 [label="O_SOCKET_CLOSED"];
	s0 -> s1 [label="O_ECDH_CLIENT_KEY_EXCHANGE"];
	s0 -> s1 [label="O_CHANGE_CIPHER_SPEC"];
	s0 -> s1 [label="O_FINISHED"];
	s0 -> s1 [label="O_Alert(FATAL,BAD_CERTIFICATE)"];
	s0 -> s1 [label="O_Alert(WARNING,CLOSE_NOTIFY)"];
	s0 -> s1 [label="O_Alert(FATAL,INTERNAL_ERROR)"];
	s0 -> s1 [label="O_APPLICATION"];
	s0 -> s1 [label="O_RSA_CERTIFICATE"];
	s0 -> s1 [label="O_CERTIFICATE_VERIFY"];
	s0 -> s1 [label="O_Alert(FATAL,UNEXPECTED_MESSAGE)"];
	s0 -> s3 [label="O_CLIENT_HELLO"];
	s0 -> s1 [label="O_Alert(FATAL,HANDSHAKE_FAILURE)"];
	s1 -> s1 [label="I_HELLO_VERIFY_REQUEST"];
	s1 -> s1 [label="I_ECDH_SERVER_HELLO"];
	s1 -> s1 [label="I_ECDH_SERVER_KEY_EXCHANGE"];
	s1 -> s1 [label="I_RSA_SIGN_CERTIFICATE_REQUEST"];
	s1 -> s1 [label="I_RSA_FIXED_ECDH_CERTIFICATE_REQUEST"];
	s1 -> s1 [label="I_RSA_FIXED_DH_CERTIFICATE_REQUEST"];
	s1 -> s1 [label="I_DSS_SIGN_CERTIFICATE_REQUEST"];
	s1 -> s1 [label="I_DSS_FIXED_DH_CERTIFICATE_REQUEST"];
	s1 -> s1 [label="I_ECDSA_SIGN_CERTIFICATE_REQUEST"];
	s1 -> s1 [label="I_SERVER_HELLO_DONE"];
	s1 -> s1 [label="I_CHANGE_CIPHER_SPEC"];
	s1 -> s1 [label="I_FINISHED"];
	s1 -> s1 [label="I_APPLICATION"];
	s1 -> s1 [label="I_CERTIFICATE"];
	s1 -> s1 [label="I_EMPTY_CERTIFICATE"];
	s1 -> s1 [label="I_Alert(WARNING,CLOSE_NOTIFY)"];
	s1 -> s1 [label="I_Alert(FATAL,UNEXPECTED_MESSAGE)"];
	s1 -> s1 [label="O_SOCKET_CLOSED"];
	s1 -> s1 [label="O_ECDH_CLIENT_KEY_EXCHANGE"];
	s1 -> s2 [label="O_CHANGE_CIPHER_SPEC"];
	s1 -> s1 [label="O_FINISHED"];
	s1 -> s1 [label="O_Alert(FATAL,BAD_CERTIFICATE)"];
	s1 -> s1 [label="O_Alert(WARNING,CLOSE_NOTIFY)"];
	s1 -> s1 [label="O_Alert(FATAL,INTERNAL_ERROR)"];
	s1 -> s2 [label="O_APPLICATION"];
	s1 -> s1 [label="O_RSA_CERTIFICATE"];
	s1 -> s1 [label="O_CERTIFICATE_VERIFY"];
	s1 -> s1 [label="O_Alert(FATAL,UNEXPECTED_MESSAGE)"];
	s1 -> s1 [label="O_CLIENT_HELLO"];
	s1 -> s1 [label="O_Alert(FATAL,HANDSHAKE_FAILURE)"];
	s2 -> s2 [label="I_HELLO_VERIFY_REQUEST"];
	s2 -> s2 [label="I_ECDH_SERVER_HELLO"];
	s2 -> s2 [label="I_ECDH_SERVER_KEY_EXCHANGE"];
	s2 -> s2 [label="I_RSA_SIGN_CERTIFICATE_REQUEST"];
	s2 -> s2 [label="I_RSA_FIXED_ECDH_CERTIFICATE_REQUEST"];
	s2 -> s2 [label="I_RSA_FIXED_DH_CERTIFICATE_REQUEST"];
	s2 -> s2 [label="I_DSS_SIGN_CERTIFICATE_REQUEST"];
	s2 -> s2 [label="I_DSS_FIXED_DH_CERTIFICATE_REQUEST"];
	s2 -> s2 [label="I_ECDSA_SIGN_CERTIFICATE_REQUEST"];
	s2 -> s2 [label="I_SERVER_HELLO_DONE"];
	s2 -> s2 [label="I_CHANGE_CIPHER_SPEC"];
	s2 -> s2 [label="I_FINISHED"];
	s2 -> s2 [label="I_APPLICATION"];
	s2 -> s2 [label="I_CERTIFICATE"];
	s2 -> s2 [label="I_EMPTY_CERTIFICATE"];
	s2 -> s2 [label="I_Alert(WARNING,CLOSE_NOTIFY)"];
	s2 -> s2 [label="I_Alert(FATAL,UNEXPECTED_MESSAGE)"];
	s2 -> s2 [label="O_SOCKET_CLOSED"];
	s2 -> s2 [label="O_ECDH_CLIENT_KEY_EXCHANGE"];
	s2 -> s2 [label="O_CHANGE_CIPHER_SPEC"];
	s2 -> s2 [label="O_FINISHED"];
	s2 -> s2 [label="O_Alert(FATAL,BAD_CERTIFICATE)"];
	s2 -> s2 [label="O_Alert(WARNING,CLOSE_NOTIFY)"];
	s2 -> s2 [label="O_Alert(FATAL,INTERNAL_ERROR)"];
	s2 -> s2 [label="O_APPLICATION"];
	s2 -> s2 [label="O_RSA_CERTIFICATE"];
	s2 -> s2 [label="O_CERTIFICATE_VERIFY"];
	s2 -> s2 [label="O_Alert(FATAL,UNEXPECTED_MESSAGE)"];
	s2 -> s2 [label="O_CLIENT_HELLO"];
	s2 -> s2 [label="O_Alert(FATAL,HANDSHAKE_FAILURE)"];
	s3 -> s4 [label="I_HELLO_VERIFY_REQUEST"];
	s3 -> s6 [label="I_ECDH_SERVER_HELLO"];
	s3 -> s1 [label="I_ECDH_SERVER_KEY_EXCHANGE"];
	s3 -> s1 [label="I_RSA_SIGN_CERTIFICATE_REQUEST"];
	s3 -> s1 [label="I_RSA_FIXED_ECDH_CERTIFICATE_REQUEST"];
	s3 -> s1 [label="I_RSA_FIXED_DH_CERTIFICATE_REQUEST"];
	s3 -> s1 [label="I_DSS_SIGN_CERTIFICATE_REQUEST"];
	s3 -> s1 [label="I_DSS_FIXED_DH_CERTIFICATE_REQUEST"];
	s3 -> s1 [label="I_ECDSA_SIGN_CERTIFICATE_REQUEST"];
	s3 -> s1 [label="I_SERVER_HELLO_DONE"];
	s3 -> s1 [label="I_CHANGE_CIPHER_SPEC"];
	s3 -> s1 [label="I_FINISHED"];
	s3 -> s3 [label="I_APPLICATION"];
	s3 -> s1 [label="I_CERTIFICATE"];
	s3 -> s1 [label="I_EMPTY_CERTIFICATE"];
	s3 -> s1 [label="I_Alert(WARNING,CLOSE_NOTIFY)"];
	s3 -> s1 [label="I_Alert(FATAL,UNEXPECTED_MESSAGE)"];
	s3 -> s1 [label="O_SOCKET_CLOSED"];
	s3 -> s1 [label="O_ECDH_CLIENT_KEY_EXCHANGE"];
	s3 -> s1 [label="O_CHANGE_CIPHER_SPEC"];
	s3 -> s1 [label="O_FINISHED"];
	s3 -> s1 [label="O_Alert(FATAL,BAD_CERTIFICATE)"];
	s3 -> s1 [label="O_Alert(WARNING,CLOSE_NOTIFY)"];
	s3 -> s1 [label="O_Alert(FATAL,INTERNAL_ERROR)"];
	s3 -> s1 [label="O_APPLICATION"];
	s3 -> s1 [label="O_RSA_CERTIFICATE"];
	s3 -> s1 [label="O_CERTIFICATE_VERIFY"];
	s3 -> s1 [label="O_Alert(FATAL,UNEXPECTED_MESSAGE)"];
	s3 -> s3 [label="O_CLIENT_HELLO"];
	s3 -> s1 [label="O_Alert(FATAL,HANDSHAKE_FAILURE)"];
	s4 -> s1 [label="I_HELLO_VERIFY_REQUEST"];
	s4 -> s1 [label="I_ECDH_SERVER_HELLO"];
	s4 -> s1 [label="I_ECDH_SERVER_KEY_EXCHANGE"];
	s4 -> s1 [label="I_RSA_SIGN_CERTIFICATE_REQUEST"];
	s4 -> s1 [label="I_RSA_FIXED_ECDH_CERTIFICATE_REQUEST"];
	s4 -> s1 [label="I_RSA_FIXED_DH_CERTIFICATE_REQUEST"];
	s4 -> s1 [label="I_DSS_SIGN_CERTIFICATE_REQUEST"];
	s4 -> s1 [label="I_DSS_FIXED_DH_CERTIFICATE_REQUEST"];
	s4 -> s1 [label="I_ECDSA_SIGN_CERTIFICATE_REQUEST"];
	s4 -> s1 [label="I_SERVER_HELLO_DONE"];
	s4 -> s1 [label="I_CHANGE_CIPHER_SPEC"];
	s4 -> s1 [label="I_FINISHED"];
	s4 -> s1 [label="I_APPLICATION"];
	s4 -> s1 [label="I_CERTIFICATE"];
	s4 -> s1 [label="I_EMPTY_CERTIFICATE"];
	s4 -> s1 [label="I_Alert(WARNING,CLOSE_NOTIFY)"];
	s4 -> s1 [label="I_Alert(FATAL,UNEXPECTED_MESSAGE)"];
	s4 -> s1 [label="O_SOCKET_CLOSED"];
	s4 -> s1 [label="O_ECDH_CLIENT_KEY_EXCHANGE"];
	s4 -> s1 [label="O_CHANGE_CIPHER_SPEC"];
	s4 -> s1 [label="O_FINISHED"];
	s4 -> s1 [label="O_Alert(FATAL,BAD_CERTIFICATE)"];
	s4 -> s1 [label="O_Alert(WARNING,CLOSE_NOTIFY)"];
	s4 -> s1 [label="O_Alert(FATAL,INTERNAL_ERROR)"];
	s4 -> s1 [label="O_APPLICATION"];
	s4 -> s1 [label="O_RSA_CERTIFICATE"];
	s4 -> s1 [label="O_CERTIFICATE_VERIFY"];
	s4 -> s1 [label="O_Alert(FATAL,UNEXPECTED_MESSAGE)"];
	s4 -> s5 [label="O_CLIENT_HELLO"];
	s4 -> s1 [label="O_Alert(FATAL,HANDSHAKE_FAILURE)"];
	s5 -> s1 [label="I_HELLO_VERIFY_REQUEST"];
	s5 -> s6 [label="I_ECDH_SERVER_HELLO"];
	s5 -> s1 [label="I_ECDH_SERVER_KEY_EXCHANGE"];
	s5 -> s1 [label="I_RSA_SIGN_CERTIFICATE_REQUEST"];
	s5 -> s1 [label="I_RSA_FIXED_ECDH_CERTIFICATE_REQUEST"];
	s5 -> s1 [label="I_RSA_FIXED_DH_CERTIFICATE_REQUEST"];
	s5 -> s1 [label="I_DSS_SIGN_CERTIFICATE_REQUEST"];
	s5 -> s1 [label="I_DSS_FIXED_DH_CERTIFICATE_REQUEST"];
	s5 -> s1 [label="I_ECDSA_SIGN_CERTIFICATE_REQUEST"];
	s5 -> s1 [label="I_SERVER_HELLO_DONE"];
	s5 -> s1 [label="I_CHANGE_CIPHER_SPEC"];
	s5 -> s1 [label="I_FINISHED"];
	s5 -> s5 [label="I_APPLICATION"];
	s5 -> s1 [label="I_CERTIFICATE"];
	s5 -> s1 [label="I_EMPTY_CERTIFICATE"];
	s5 -> s1 [label="I_Alert(WARNING,CLOSE_NOTIFY)"];
	s5 -> s1 [label="I_Alert(FATAL,UNEXPECTED_MESSAGE)"];
	s5 -> s1 [label="O_SOCKET_CLOSED"];
	s5 -> s1 [label="O_ECDH_CLIENT_KEY_EXCHANGE"];
	s5 -> s1 [label="O_CHANGE_CIPHER_SPEC"];
	s5 -> s1 [label="O_FINISHED"];
	s5 -> s1 [label="O_Alert(FATAL,BAD_CERTIFICATE)"];
	s5 -> s1 [label="O_Alert(WARNING,CLOSE_NOTIFY)"];
	s5 -> s1 [label="O_Alert(FATAL,INTERNAL_ERROR)"];
	s5 -> s1 [label="O_APPLICATION"];
	s5 -> s1 [label="O_RSA_CERTIFICATE"];
	s5 -> s1 [label="O_CERTIFICATE_VERIFY"];
	s5 -> s1 [label="O_Alert(FATAL,UNEXPECTED_MESSAGE)"];
	s5 -> s1 [label="O_CLIENT_HELLO"];
	s5 -> s1 [label="O_Alert(FATAL,HANDSHAKE_FAILURE)"];
	s6 -> s1 [label="I_HELLO_VERIFY_REQUEST"];
	s6 -> s1 [label="I_ECDH_SERVER_HELLO"];
	s6 -> s1 [label="I_ECDH_SERVER_KEY_EXCHANGE"];
	s6 -> s1 [label="I_RSA_SIGN_CERTIFICATE_REQUEST"];
	s6 -> s1 [label="I_RSA_FIXED_ECDH_CERTIFICATE_REQUEST"];
	s6 -> s1 [label="I_RSA_FIXED_DH_CERTIFICATE_REQUEST"];
	s6 -> s1 [label="I_DSS_SIGN_CERTIFICATE_REQUEST"];
	s6 -> s1 [label="I_DSS_FIXED_DH_CERTIFICATE_REQUEST"];
	s6 -> s1 [label="I_ECDSA_SIGN_CERTIFICATE_REQUEST"];
	s6 -> s1 [label="I_SERVER_HELLO_DONE"];
	s6 -> s1 [label="I_CHANGE_CIPHER_SPEC"];
	s6 -> s1 [label="I_FINISHED"];
	s6 -> s6 [label="I_APPLICATION"];
	s6 -> s7 [label="I_CERTIFICATE"];
	s6 -> s1 [label="I_EMPTY_CERTIFICATE"];
	s6 -> s1 [label="I_Alert(WARNING,CLOSE_NOTIFY)"];
	s6 -> s1 [label="I_Alert(FATAL,UNEXPECTED_MESSAGE)"];
	s6 -> s1 [label="O_SOCKET_CLOSED"];
	s6 -> s1 [label="O_ECDH_CLIENT_KEY_EXCHANGE"];
	s6 -> s1 [label="O_CHANGE_CIPHER_SPEC"];
	s6 -> s1 [label="O_FINISHED"];
	s6 -> s1 [label="O_Alert(FATAL,BAD_CERTIFICATE)"];
	s6 -> s1 [label="O_Alert(WARNING,CLOSE_NOTIFY)"];
	s6 -> s1 [label="O_Alert(FATAL,INTERNAL_ERROR)"];
	s6 -> s1 [label="O_APPLICATION"];
	s6 -> s1 [label="O_RSA_CERTIFICATE"];
	s6 -> s1 [label="O_CERTIFICATE_VERIFY"];
	s6 -> s1 [label="O_Alert(FATAL,UNEXPECTED_MESSAGE)"];
	s6 -> s1 [label="O_CLIENT_HELLO"];
	s6 -> s1 [label="O_Alert(FATAL,HANDSHAKE_FAILURE)"];
	s7 -> s1 [label="I_HELLO_VERIFY_REQUEST"];
	s7 -> s1 [label="I_ECDH_SERVER_HELLO"];
	s7 -> s8 [label="I_ECDH_SERVER_KEY_EXCHANGE"];
	s7 -> s1 [label="I_RSA_SIGN_CERTIFICATE_REQUEST"];
	s7 -> s1 [label="I_RSA_FIXED_ECDH_CERTIFICATE_REQUEST"];
	s7 -> s1 [label="I_RSA_FIXED_DH_CERTIFICATE_REQUEST"];
	s7 -> s1 [label="I_DSS_SIGN_CERTIFICATE_REQUEST"];
	s7 -> s1 [label="I_DSS_FIXED_DH_CERTIFICATE_REQUEST"];
	s7 -> s1 [label="I_ECDSA_SIGN_CERTIFICATE_REQUEST"];
	s7 -> s1 [label="I_SERVER_HELLO_DONE"];
	s7 -> s1 [label="I_CHANGE_CIPHER_SPEC"];
	s7 -> s1 [label="I_FINISHED"];
	s7 -> s7 [label="I_APPLICATION"];
	s7 -> s1 [label="I_CERTIFICATE"];
	s7 -> s1 [label="I_EMPTY_CERTIFICATE"];
	s7 -> s1 [label="I_Alert(WARNING,CLOSE_NOTIFY)"];
	s7 -> s1 [label="I_Alert(FATAL,UNEXPECTED_MESSAGE)"];
	s7 -> s1 [label="O_SOCKET_CLOSED"];
	s7 -> s1 [label="O_ECDH_CLIENT_KEY_EXCHANGE"];
	s7 -> s1 [label="O_CHANGE_CIPHER_SPEC"];
	s7 -> s1 [label="O_FINISHED"];
	s7 -> s1 [label="O_Alert(FATAL,BAD_CERTIFICATE)"];
	s7 -> s1 [label="O_Alert(WARNING,CLOSE_NOTIFY)"];
	s7 -> s1 [label="O_Alert(FATAL,INTERNAL_ERROR)"];
	s7 -> s1 [label="O_APPLICATION"];
	s7 -> s1 [label="O_RSA_CERTIFICATE"];
	s7 -> s1 [label="O_CERTIFICATE_VERIFY"];
	s7 -> s1 [label="O_Alert(FATAL,UNEXPECTED_MESSAGE)"];
	s7 -> s1 [label="O_CLIENT_HELLO"];
	s7 -> s1 [label="O_Alert(FATAL,HANDSHAKE_FAILURE)"];
	s8 -> s1 [label="I_HELLO_VERIFY_REQUEST"];
	s8 -> s1 [label="I_ECDH_SERVER_HELLO"];
	s8 -> s1 [label="I_ECDH_SERVER_KEY_EXCHANGE"];
	s8 -> s9 [label="I_RSA_SIGN_CERTIFICATE_REQUEST"];
	s8 -> s9 [label="I_RSA_FIXED_ECDH_CERTIFICATE_REQUEST"];
	s8 -> s9 [label="I_RSA_FIXED_DH_CERTIFICATE_REQUEST"];
	s8 -> s18 [label="I_DSS_SIGN_CERTIFICATE_REQUEST"];
	s8 -> s18 [label="I_DSS_FIXED_DH_CERTIFICATE_REQUEST"];
	s8 -> s18 [label="I_ECDSA_SIGN_CERTIFICATE_REQUEST"];
	s8 -> s20 [label="I_SERVER_HELLO_DONE"];
	s8 -> s1 [label="I_CHANGE_CIPHER_SPEC"];
	s8 -> s1 [label="I_FINISHED"];
	s8 -> s8 [label="I_APPLICATION"];
	s8 -> s1 [label="I_CERTIFICATE"];
	s8 -> s1 [label="I_EMPTY_CERTIFICATE"];
	s8 -> s1 [label="I_Alert(WARNING,CLOSE_NOTIFY)"];
	s8 -> s1 [label="I_Alert(FATAL,UNEXPECTED_MESSAGE)"];
	s8 -> s1 [label="O_SOCKET_CLOSED"];
	s8 -> s1 [label="O_ECDH_CLIENT_KEY_EXCHANGE"];
	s8 -> s1 [label="O_CHANGE_CIPHER_SPEC"];
	s8 -> s1 [label="O_FINISHED"];
	s8 -> s1 [label="O_Alert(FATAL,BAD_CERTIFICATE)"];
	s8 -> s1 [label="O_Alert(WARNING,CLOSE_NOTIFY)"];
	s8 -> s1 [label="O_Alert(FATAL,INTERNAL_ERROR)"];
	s8 -> s1 [label="O_APPLICATION"];
	s8 -> s1 [label="O_RSA_CERTIFICATE"];
	s8 -> s1 [label="O_CERTIFICATE_VERIFY"];
	s8 -> s1 [label="O_Alert(FATAL,UNEXPECTED_MESSAGE)"];
	s8 -> s1 [label="O_CLIENT_HELLO"];
	s8 -> s1 [label="O_Alert(FATAL,HANDSHAKE_FAILURE)"];
	s9 -> s1 [label="I_HELLO_VERIFY_REQUEST"];
	s9 -> s1 [label="I_ECDH_SERVER_HELLO"];
	s9 -> s1 [label="I_ECDH_SERVER_KEY_EXCHANGE"];
	s9 -> s1 [label="I_RSA_SIGN_CERTIFICATE_REQUEST"];
	s9 -> s1 [label="I_RSA_FIXED_ECDH_CERTIFICATE_REQUEST"];
	s9 -> s1 [label="I_RSA_FIXED_DH_CERTIFICATE_REQUEST"];
	s9 -> s1 [label="I_DSS_SIGN_CERTIFICATE_REQUEST"];
	s9 -> s1 [label="I_DSS_FIXED_DH_CERTIFICATE_REQUEST"];
	s9 -> s1 [label="I_ECDSA_SIGN_CERTIFICATE_REQUEST"];
	s9 -> s10 [label="I_SERVER_HELLO_DONE"];
	s9 -> s1 [label="I_CHANGE_CIPHER_SPEC"];
	s9 -> s1 [label="I_FINISHED"];
	s9 -> s9 [label="I_APPLICATION"];
	s9 -> s1 [label="I_CERTIFICATE"];
	s9 -> s1 [label="I_EMPTY_CERTIFICATE"];
	s9 -> s1 [label="I_Alert(WARNING,CLOSE_NOTIFY)"];
	s9 -> s1 [label="I_Alert(FATAL,UNEXPECTED_MESSAGE)"];
	s9 -> s1 [label="O_SOCKET_CLOSED"];
	s9 -> s1 [label="O_ECDH_CLIENT_KEY_EXCHANGE"];
	s9 -> s1 [label="O_CHANGE_CIPHER_SPEC"];
	s9 -> s1 [label="O_FINISHED"];
	s9 -> s1 [label="O_Alert(FATAL,BAD_CERTIFICATE)"];
	s9 -> s1 [label="O_Alert(WARNING,CLOSE_NOTIFY)"];
	s9 -> s1 [label="O_Alert(FATAL,INTERNAL_ERROR)"];
	s9 -> s1 [label="O_APPLICATION"];
	s9 -> s1 [label="O_RSA_CERTIFICATE"];
	s9 -> s1 [label="O_CERTIFICATE_VERIFY"];
	s9 -> s1 [label="O_Alert(FATAL,UNEXPECTED_MESSAGE)"];
	s9 -> s1 [label="O_CLIENT_HELLO"];
	s9 -> s1 [label="O_Alert(FATAL,HANDSHAKE_FAILURE)"];
	s10 -> s1 [label="I_HELLO_VERIFY_REQUEST"];
	s10 -> s1 [label="I_ECDH_SERVER_HELLO"];
	s10 -> s1 [label="I_ECDH_SERVER_KEY_EXCHANGE"];
	s10 -> s1 [label="I_RSA_SIGN_CERTIFICATE_REQUEST"];
	s10 -> s1 [label="I_RSA_FIXED_ECDH_CERTIFICATE_REQUEST"];
	s10 -> s1 [label="I_RSA_FIXED_DH_CERTIFICATE_REQUEST"];
	s10 -> s1 [label="I_DSS_SIGN_CERTIFICATE_REQUEST"];
	s10 -> s1 [label="I_DSS_FIXED_DH_CERTIFICATE_REQUEST"];
	s10 -> s1 [label="I_ECDSA_SIGN_CERTIFICATE_REQUEST"];
	s10 -> s1 [label="I_SERVER_HELLO_DONE"];
	s10 -> s1 [label="I_CHANGE_CIPHER_SPEC"];
	s10 -> s1 [label="I_FINISHED"];
	s10 -> s1 [label="I_APPLICATION"];
	s10 -> s1 [label="I_CERTIFICATE"];
	s10 -> s1 [label="I_EMPTY_CERTIFICATE"];
	s10 -> s1 [label="I_Alert(WARNING,CLOSE_NOTIFY)"];
	s10 -> s1 [label="I_Alert(FATAL,UNEXPECTED_MESSAGE)"];
	s10 -> s1 [label="O_SOCKET_CLOSED"];
	s10 -> s1 [label="O_ECDH_CLIENT_KEY_EXCHANGE"];
	s10 -> s1 [label="O_CHANGE_CIPHER_SPEC"];
	s10 -> s1 [label="O_FINISHED"];
	s10 -> s1 [label="O_Alert(FATAL,BAD_CERTIFICATE)"];
	s10 -> s1 [label="O_Alert(WARNING,CLOSE_NOTIFY)"];
	s10 -> s1 [label="O_Alert(FATAL,INTERNAL_ERROR)"];
	s10 -> s1 [label="O_APPLICATION"];
	s10 -> s11 [label="O_RSA_CERTIFICATE"];
	s10 -> s1 [label="O_CERTIFICATE_VERIFY"];
	s10 -> s1 [label="O_Alert(FATAL,UNEXPECTED_MESSAGE)"];
	s10 -> s1 [label="O_CLIENT_HELLO"];
	s10 -> s1 [label="O_Alert(FATAL,HANDSHAKE_FAILURE)"];
	s11 -> s1 [label="I_HELLO_VERIFY_REQUEST"];
	s11 -> s1 [label="I_ECDH_SERVER_HELLO"];
	s11 -> s1 [label="I_ECDH_SERVER_KEY_EXCHANGE"];
	s11 -> s1 [label="I_RSA_SIGN_CERTIFICATE_REQUEST"];
	s11 -> s1 [label="I_RSA_FIXED_ECDH_CERTIFICATE_REQUEST"];
	s11 -> s1 [label="I_RSA_FIXED_DH_CERTIFICATE_REQUEST"];
	s11 -> s1 [label="I_DSS_SIGN_CERTIFICATE_REQUEST"];
	s11 -> s1 [label="I_DSS_FIXED_DH_CERTIFICATE_REQUEST"];
	s11 -> s1 [label="I_ECDSA_SIGN_CERTIFICATE_REQUEST"];
	s11 -> s1 [label="I_SERVER_HELLO_DONE"];
	s11 -> s1 [label="I_CHANGE_CIPHER_SPEC"];
	s11 -> s1 [label="I_FINISHED"];
	s11 -> s1 [label="I_APPLICATION"];
	s11 -> s1 [label="I_CERTIFICATE"];
	s11 -> s1 [label="I_EMPTY_CERTIFICATE"];
	s11 -> s1 [label="I_Alert(WARNING,CLOSE_NOTIFY)"];
	s11 -> s1 [label="I_Alert(FATAL,UNEXPECTED_MESSAGE)"];
	s11 -> s1 [label="O_SOCKET_CLOSED"];
	s11 -> s12 [label="O_ECDH_CLIENT_KEY_EXCHANGE"];
	s11 -> s1 [label="O_CHANGE_CIPHER_SPEC"];
	s11 -> s1 [label="O_FINISHED"];
	s11 -> s1 [label="O_Alert(FATAL,BAD_CERTIFICATE)"];
	s11 -> s1 [label="O_Alert(WARNING,CLOSE_NOTIFY)"];
	s11 -> s1 [label="O_Alert(FATAL,INTERNAL_ERROR)"];
	s11 -> s1 [label="O_APPLICATION"];
	s11 -> s1 [label="O_RSA_CERTIFICATE"];
	s11 -> s1 [label="O_CERTIFICATE_VERIFY"];
	s11 -> s1 [label="O_Alert(FATAL,UNEXPECTED_MESSAGE)"];
	s11 -> s1 [label="O_CLIENT_HELLO"];
	s11 -> s1 [label="O_Alert(FATAL,HANDSHAKE_FAILURE)"];
	s12 -> s1 [label="I_HELLO_VERIFY_REQUEST"];
	s12 -> s1 [label="I_ECDH_SERVER_HELLO"];
	s12 -> s1 [label="I_ECDH_SERVER_KEY_EXCHANGE"];
	s12 -> s1 [label="I_RSA_SIGN_CERTIFICATE_REQUEST"];
	s12 -> s1 [label="I_RSA_FIXED_ECDH_CERTIFICATE_REQUEST"];
	s12 -> s1 [label="I_RSA_FIXED_DH_CERTIFICATE_REQUEST"];
	s12 -> s1 [label="I_DSS_SIGN_CERTIFICATE_REQUEST"];
	s12 -> s1 [label="I_DSS_FIXED_DH_CERTIFICATE_REQUEST"];
	s12 -> s1 [label="I_ECDSA_SIGN_CERTIFICATE_REQUEST"];
	s12 -> s1 [label="I_SERVER_HELLO_DONE"];
	s12 -> s1 [label="I_CHANGE_CIPHER_SPEC"];
	s12 -> s1 [label="I_FINISHED"];
	s12 -> s1 [label="I_APPLICATION"];
	s12 -> s1 [label="I_CERTIFICATE"];
	s12 -> s1 [label="I_EMPTY_CERTIFICATE"];
	s12 -> s1 [label="I_Alert(WARNING,CLOSE_NOTIFY)"];
	s12 -> s1 [label="I_Alert(FATAL,UNEXPECTED_MESSAGE)"];
	s12 -> s1 [label="O_SOCKET_CLOSED"];
	s12 -> s1 [label="O_ECDH_CLIENT_KEY_EXCHANGE"];
	s12 -> s1 [label="O_CHANGE_CIPHER_SPEC"];
	s12 -> s1 [label="O_FINISHED"];
	s12 -> s1 [label="O_Alert(FATAL,BAD_CERTIFICATE)"];
	s12 -> s1 [label="O_Alert(WARNING,CLOSE_NOTIFY)"];
	s12 -> s1 [label="O_Alert(FATAL,INTERNAL_ERROR)"];
	s12 -> s1 [label="O_APPLICATION"];
	s12 -> s1 [label="O_RSA_CERTIFICATE"];
	s12 -> s13 [label="O_CERTIFICATE_VERIFY"];
	s12 -> s1 [label="O_Alert(FATAL,UNEXPECTED_MESSAGE)"];
	s12 -> s1 [label="O_CLIENT_HELLO"];
	s12 -> s1 [label="O_Alert(FATAL,HANDSHAKE_FAILURE)"];
	s13 -> s1 [label="I_HELLO_VERIFY_REQUEST"];
	s13 -> s1 [label="I_ECDH_SERVER_HELLO"];
	s13 -> s1 [label="I_ECDH_SERVER_KEY_EXCHANGE"];
	s13 -> s1 [label="I_RSA_SIGN_CERTIFICATE_REQUEST"];
	s13 -> s1 [label="I_RSA_FIXED_ECDH_CERTIFICATE_REQUEST"];
	s13 -> s1 [label="I_RSA_FIXED_DH_CERTIFICATE_REQUEST"];
	s13 -> s1 [label="I_DSS_SIGN_CERTIFICATE_REQUEST"];
	s13 -> s1 [label="I_DSS_FIXED_DH_CERTIFICATE_REQUEST"];
	s13 -> s1 [label="I_ECDSA_SIGN_CERTIFICATE_REQUEST"];
	s13 -> s1 [label="I_SERVER_HELLO_DONE"];
	s13 -> s1 [label="I_CHANGE_CIPHER_SPEC"];
	s13 -> s1 [label="I_FINISHED"];
	s13 -> s1 [label="I_APPLICATION"];
	s13 -> s1 [label="I_CERTIFICATE"];
	s13 -> s1 [label="I_EMPTY_CERTIFICATE"];
	s13 -> s1 [label="I_Alert(WARNING,CLOSE_NOTIFY)"];
	s13 -> s1 [label="I_Alert(FATAL,UNEXPECTED_MESSAGE)"];
	s13 -> s1 [label="O_SOCKET_CLOSED"];
	s13 -> s1 [label="O_ECDH_CLIENT_KEY_EXCHANGE"];
	s13 -> s14 [label="O_CHANGE_CIPHER_SPEC"];
	s13 -> s1 [label="O_FINISHED"];
	s13 -> s1 [label="O_Alert(FATAL,BAD_CERTIFICATE)"];
	s13 -> s1 [label="O_Alert(WARNING,CLOSE_NOTIFY)"];
	s13 -> s1 [label="O_Alert(FATAL,INTERNAL_ERROR)"];
	s13 -> s1 [label="O_APPLICATION"];
	s13 -> s1 [label="O_RSA_CERTIFICATE"];
	s13 -> s1 [label="O_CERTIFICATE_VERIFY"];
	s13 -> s1 [label="O_Alert(FATAL,UNEXPECTED_MESSAGE)"];
	s13 -> s1 [label="O_CLIENT_HELLO"];
	s13 -> s1 [label="O_Alert(FATAL,HANDSHAKE_FAILURE)"];
	s14 -> s1 [label="I_HELLO_VERIFY_REQUEST"];
	s14 -> s1 [label="I_ECDH_SERVER_HELLO"];
	s14 -> s1 [label="I_ECDH_SERVER_KEY_EXCHANGE"];
	s14 -> s1 [label="I_RSA_SIGN_CERTIFICATE_REQUEST"];
	s14 -> s1 [label="I_RSA_FIXED_ECDH_CERTIFICATE_REQUEST"];
	s14 -> s1 [label="I_RSA_FIXED_DH_CERTIFICATE_REQUEST"];
	s14 -> s1 [label="I_DSS_SIGN_CERTIFICATE_REQUEST"];
	s14 -> s1 [label="I_DSS_FIXED_DH_CERTIFICATE_REQUEST"];
	s14 -> s1 [label="I_ECDSA_SIGN_CERTIFICATE_REQUEST"];
	s14 -> s1 [label="I_SERVER_HELLO_DONE"];
	s14 -> s1 [label="I_CHANGE_CIPHER_SPEC"];
	s14 -> s1 [label="I_FINISHED"];
	s14 -> s1 [label="I_APPLICATION"];
	s14 -> s1 [label="I_CERTIFICATE"];
	s14 -> s1 [label="I_EMPTY_CERTIFICATE"];
	s14 -> s1 [label="I_Alert(WARNING,CLOSE_NOTIFY)"];
	s14 -> s1 [label="I_Alert(FATAL,UNEXPECTED_MESSAGE)"];
	s14 -> s1 [label="O_SOCKET_CLOSED"];
	s14 -> s1 [label="O_ECDH_CLIENT_KEY_EXCHANGE"];
	s14 -> s1 [label="O_CHANGE_CIPHER_SPEC"];
	s14 -> s15 [label="O_FINISHED"];
	s14 -> s1 [label="O_Alert(FATAL,BAD_CERTIFICATE)"];
	s14 -> s1 [label="O_Alert(WARNING,CLOSE_NOTIFY)"];
	s14 -> s1 [label="O_Alert(FATAL,INTERNAL_ERROR)"];
	s14 -> s1 [label="O_APPLICATION"];
	s14 -> s1 [label="O_RSA_CERTIFICATE"];
	s14 -> s1 [label="O_CERTIFICATE_VERIFY"];
	s14 -> s1 [label="O_Alert(FATAL,UNEXPECTED_MESSAGE)"];
	s14 -> s1 [label="O_CLIENT_HELLO"];
	s14 -> s1 [label="O_Alert(FATAL,HANDSHAKE_FAILURE)"];
	s15 -> s1 [label="I_HELLO_VERIFY_REQUEST"];
	s15 -> s1 [label="I_ECDH_SERVER_HELLO"];
	s15 -> s1 [label="I_ECDH_SERVER_KEY_EXCHANGE"];
	s15 -> s1 [label="I_RSA_SIGN_CERTIFICATE_REQUEST"];
	s15 -> s1 [label="I_RSA_FIXED_ECDH_CERTIFICATE_REQUEST"];
	s15 -> s1 [label="I_RSA_FIXED_DH_CERTIFICATE_REQUEST"];
	s15 -> s1 [label="I_DSS_SIGN_CERTIFICATE_REQUEST"];
	s15 -> s1 [label="I_DSS_FIXED_DH_CERTIFICATE_REQUEST"];
	s15 -> s1 [label="I_ECDSA_SIGN_CERTIFICATE_REQUEST"];
	s15 -> s1 [label="I_SERVER_HELLO_DONE"];
	s15 -> s16 [label="I_CHANGE_CIPHER_SPEC"];
	s15 -> s1 [label="I_FINISHED"];
	s15 -> s15 [label="I_APPLICATION"];
	s15 -> s1 [label="I_CERTIFICATE"];
	s15 -> s1 [label="I_EMPTY_CERTIFICATE"];
	s15 -> s1 [label="I_Alert(WARNING,CLOSE_NOTIFY)"];
	s15 -> s1 [label="I_Alert(FATAL,UNEXPECTED_MESSAGE)"];
	s15 -> s1 [label="O_SOCKET_CLOSED"];
	s15 -> s1 [label="O_ECDH_CLIENT_KEY_EXCHANGE"];
	s15 -> s1 [label="O_CHANGE_CIPHER_SPEC"];
	s15 -> s1 [label="O_FINISHED"];
	s15 -> s1 [label="O_Alert(FATAL,BAD_CERTIFICATE)"];
	s15 -> s1 [label="O_Alert(WARNING,CLOSE_NOTIFY)"];
	s15 -> s1 [label="O_Alert(FATAL,INTERNAL_ERROR)"];
	s15 -> s1 [label="O_APPLICATION"];
	s15 -> s1 [label="O_RSA_CERTIFICATE"];
	s15 -> s1 [label="O_CERTIFICATE_VERIFY"];
	s15 -> s1 [label="O_Alert(FATAL,UNEXPECTED_MESSAGE)"];
	s15 -> s1 [label="O_CLIENT_HELLO"];
	s15 -> s1 [label="O_Alert(FATAL,HANDSHAKE_FAILURE)"];
	s16 -> s1 [label="I_HELLO_VERIFY_REQUEST"];
	s16 -> s1 [label="I_ECDH_SERVER_HELLO"];
	s16 -> s1 [label="I_ECDH_SERVER_KEY_EXCHANGE"];
	s16 -> s1 [label="I_RSA_SIGN_CERTIFICATE_REQUEST"];
	s16 -> s1 [label="I_RSA_FIXED_ECDH_CERTIFICATE_REQUEST"];
	s16 -> s1 [label="I_RSA_FIXED_DH_CERTIFICATE_REQUEST"];
	s16 -> s1 [label="I_DSS_SIGN_CERTIFICATE_REQUEST"];
	s16 -> s1 [label="I_DSS_FIXED_DH_CERTIFICATE_REQUEST"];
	s16 -> s1 [label="I_ECDSA_SIGN_CERTIFICATE_REQUEST"];
	s16 -> s1 [label="I_SERVER_HELLO_DONE"];
	s16 -> s1 [label="I_CHANGE_CIPHER_SPEC"];
	s16 -> s17 [label="I_FINISHED"];
	s16 -> s16 [label="I_APPLICATION"];
	s16 -> s1 [label="I_CERTIFICATE"];
	s16 -> s1 [label="I_EMPTY_CERTIFICATE"];
	s16 -> s1 [label="I_Alert(WARNING,CLOSE_NOTIFY)"];
	s16 -> s1 [label="I_Alert(FATAL,UNEXPECTED_MESSAGE)"];
	s16 -> s1 [label="O_SOCKET_CLOSED"];
	s16 -> s1 [label="O_ECDH_CLIENT_KEY_EXCHANGE"];
	s16 -> s1 [label="O_CHANGE_CIPHER_SPEC"];
	s16 -> s1 [label="O_FINISHED"];
	s16 -> s1 [label="O_Alert(FATAL,BAD_CERTIFICATE)"];
	s16 -> s1 [label="O_Alert(WARNING,CLOSE_NOTIFY)"];
	s16 -> s1 [label="O_Alert(FATAL,INTERNAL_ERROR)"];
	s16 -> s1 [label="O_APPLICATION"];
	s16 -> s1 [label="O_RSA_CERTIFICATE"];
	s16 -> s1 [label="O_CERTIFICATE_VERIFY"];
	s16 -> s1 [label="O_Alert(FATAL,UNEXPECTED_MESSAGE)"];
	s16 -> s1 [label="O_CLIENT_HELLO"];
	s16 -> s1 [label="O_Alert(FATAL,HANDSHAKE_FAILURE)"];
	s17 -> s17 [label="I_HELLO_VERIFY_REQUEST"];
	s17 -> s17 [label="I_ECDH_SERVER_HELLO"];
	s17 -> s17 [label="I_ECDH_SERVER_KEY_EXCHANGE"];
	s17 -> s17 [label="I_RSA_SIGN_CERTIFICATE_REQUEST"];
	s17 -> s17 [label="I_RSA_FIXED_ECDH_CERTIFICATE_REQUEST"];
	s17 -> s17 [label="I_RSA_FIXED_DH_CERTIFICATE_REQUEST"];
	s17 -> s17 [label="I_DSS_SIGN_CERTIFICATE_REQUEST"];
	s17 -> s17 [label="I_DSS_FIXED_DH_CERTIFICATE_REQUEST"];
	s17 -> s17 [label="I_ECDSA_SIGN_CERTIFICATE_REQUEST"];
	s17 -> s17 [label="I_SERVER_HELLO_DONE"];
	s17 -> s1 [label="I_CHANGE_CIPHER_SPEC"];
	s17 -> s17 [label="I_FINISHED"];
	s17 -> s17 [label="I_APPLICATION"];
	s17 -> s17 [label="I_CERTIFICATE"];
	s17 -> s17 [label="I_EMPTY_CERTIFICATE"];
	s17 -> s1 [label="I_Alert(WARNING,CLOSE_NOTIFY)"];
	s17 -> s1 [label="I_Alert(FATAL,UNEXPECTED_MESSAGE)"];
	s17 -> s1 [label="O_SOCKET_CLOSED"];
	s17 -> s1 [label="O_ECDH_CLIENT_KEY_EXCHANGE"];
	s17 -> s1 [label="O_CHANGE_CIPHER_SPEC"];
	s17 -> s1 [label="O_FINISHED"];
	s17 -> s1 [label="O_Alert(FATAL,BAD_CERTIFICATE)"];
	s17 -> s1 [label="O_Alert(WARNING,CLOSE_NOTIFY)"];
	s17 -> s1 [label="O_Alert(FATAL,INTERNAL_ERROR)"];
	s17 -> s17 [label="O_APPLICATION"];
	s17 -> s1 [label="O_RSA_CERTIFICATE"];
	s17 -> s1 [label="O_CERTIFICATE_VERIFY"];
	s17 -> s1 [label="O_Alert(FATAL,UNEXPECTED_MESSAGE)"];
	s17 -> s1 [label="O_CLIENT_HELLO"];
	s17 -> s1 [label="O_Alert(FATAL,HANDSHAKE_FAILURE)"];
	s18 -> s1 [label="I_HELLO_VERIFY_REQUEST"];
	s18 -> s1 [label="I_ECDH_SERVER_HELLO"];
	s18 -> s1 [label="I_ECDH_SERVER_KEY_EXCHANGE"];
	s18 -> s1 [label="I_RSA_SIGN_CERTIFICATE_REQUEST"];
	s18 -> s1 [label="I_RSA_FIXED_ECDH_CERTIFICATE_REQUEST"];
	s18 -> s1 [label="I_RSA_FIXED_DH_CERTIFICATE_REQUEST"];
	s18 -> s1 [label="I_DSS_SIGN_CERTIFICATE_REQUEST"];
	s18 -> s1 [label="I_DSS_FIXED_DH_CERTIFICATE_REQUEST"];
	s18 -> s1 [label="I_ECDSA_SIGN_CERTIFICATE_REQUEST"];
	s18 -> s19 [label="I_SERVER_HELLO_DONE"];
	s18 -> s1 [label="I_CHANGE_CIPHER_SPEC"];
	s18 -> s1 [label="I_FINISHED"];
	s18 -> s18 [label="I_APPLICATION"];
	s18 -> s1 [label="I_CERTIFICATE"];
	s18 -> s1 [label="I_EMPTY_CERTIFICATE"];
	s18 -> s1 [label="I_Alert(WARNING,CLOSE_NOTIFY)"];
	s18 -> s1 [label="I_Alert(FATAL,UNEXPECTED_MESSAGE)"];
	s18 -> s1 [label="O_SOCKET_CLOSED"];
	s18 -> s1 [label="O_ECDH_CLIENT_KEY_EXCHANGE"];
	s18 -> s1 [label="O_CHANGE_CIPHER_SPEC"];
	s18 -> s1 [label="O_FINISHED"];
	s18 -> s1 [label="O_Alert(FATAL,BAD_CERTIFICATE)"];
	s18 -> s1 [label="O_Alert(WARNING,CLOSE_NOTIFY)"];
	s18 -> s1 [label="O_Alert(FATAL,INTERNAL_ERROR)"];
	s18 -> s1 [label="O_APPLICATION"];
	s18 -> s1 [label="O_RSA_CERTIFICATE"];
	s18 -> s1 [label="O_CERTIFICATE_VERIFY"];
	s18 -> s1 [label="O_Alert(FATAL,UNEXPECTED_MESSAGE)"];
	s18 -> s1 [label="O_CLIENT_HELLO"];
	s18 -> s1 [label="O_Alert(FATAL,HANDSHAKE_FAILURE)"];
	s19 -> s1 [label="I_HELLO_VERIFY_REQUEST"];
	s19 -> s1 [label="I_ECDH_SERVER_HELLO"];
	s19 -> s1 [label="I_ECDH_SERVER_KEY_EXCHANGE"];
	s19 -> s1 [label="I_RSA_SIGN_CERTIFICATE_REQUEST"];
	s19 -> s1 [label="I_RSA_FIXED_ECDH_CERTIFICATE_REQUEST"];
	s19 -> s1 [label="I_RSA_FIXED_DH_CERTIFICATE_REQUEST"];
	s19 -> s1 [label="I_DSS_SIGN_CERTIFICATE_REQUEST"];
	s19 -> s1 [label="I_DSS_FIXED_DH_CERTIFICATE_REQUEST"];
	s19 -> s1 [label="I_ECDSA_SIGN_CERTIFICATE_REQUEST"];
	s19 -> s1 [label="I_SERVER_HELLO_DONE"];
	s19 -> s1 [label="I_CHANGE_CIPHER_SPEC"];
	s19 -> s1 [label="I_FINISHED"];
	s19 -> s1 [label="I_APPLICATION"];
	s19 -> s1 [label="I_CERTIFICATE"];
	s19 -> s1 [label="I_EMPTY_CERTIFICATE"];
	s19 -> s1 [label="I_Alert(WARNING,CLOSE_NOTIFY)"];
	s19 -> s1 [label="I_Alert(FATAL,UNEXPECTED_MESSAGE)"];
	s19 -> s1 [label="O_SOCKET_CLOSED"];
	s19 -> s1 [label="O_ECDH_CLIENT_KEY_EXCHANGE"];
	s19 -> s1 [label="O_CHANGE_CIPHER_SPEC"];
	s19 -> s1 [label="O_FINISHED"];
	s19 -> s1 [label="O_Alert(FATAL,BAD_CERTIFICATE)"];
	s19 -> s1 [label="O_Alert(WARNING,CLOSE_NOTIFY)"];
	s19 -> s1 [label="O_Alert(FATAL,INTERNAL_ERROR)"];
	s19 -> s1 [label="O_APPLICATION"];
	s19 -> s1 [label="O_RSA_CERTIFICATE"];
	s19 -> s1 [label="O_CERTIFICATE_VERIFY"];
	s19 -> s1 [label="O_Alert(FATAL,UNEXPECTED_MESSAGE)"];
	s19 -> s1 [label="O_CLIENT_HELLO"];
	s19 -> s1 [label="O_Alert(FATAL,HANDSHAKE_FAILURE)"];
	s20 -> s1 [label="I_HELLO_VERIFY_REQUEST"];
	s20 -> s1 [label="I_ECDH_SERVER_HELLO"];
	s20 -> s1 [label="I_ECDH_SERVER_KEY_EXCHANGE"];
	s20 -> s1 [label="I_RSA_SIGN_CERTIFICATE_REQUEST"];
	s20 -> s1 [label="I_RSA_FIXED_ECDH_CERTIFICATE_REQUEST"];
	s20 -> s1 [label="I_RSA_FIXED_DH_CERTIFICATE_REQUEST"];
	s20 -> s1 [label="I_DSS_SIGN_CERTIFICATE_REQUEST"];
	s20 -> s1 [label="I_DSS_FIXED_DH_CERTIFICATE_REQUEST"];
	s20 -> s1 [label="I_ECDSA_SIGN_CERTIFICATE_REQUEST"];
	s20 -> s1 [label="I_SERVER_HELLO_DONE"];
	s20 -> s1 [label="I_CHANGE_CIPHER_SPEC"];
	s20 -> s1 [label="I_FINISHED"];
	s20 -> s1 [label="I_APPLICATION"];
	s20 -> s1 [label="I_CERTIFICATE"];
	s20 -> s1 [label="I_EMPTY_CERTIFICATE"];
	s20 -> s1 [label="I_Alert(WARNING,CLOSE_NOTIFY)"];
	s20 -> s1 [label="I_Alert(FATAL,UNEXPECTED_MESSAGE)"];
	s20 -> s1 [label="O_SOCKET_CLOSED"];
	s20 -> s13 [label="O_ECDH_CLIENT_KEY_EXCHANGE"];
	s20 -> s1 [label="O_CHANGE_CIPHER_SPEC"];
	s20 -> s1 [label="O_FINISHED"];
	s20 -> s1 [label="O_Alert(FATAL,BAD_CERTIFICATE)"];
	s20 -> s1 [label="O_Alert(WARNING,CLOSE_NOTIFY)"];
	s20 -> s1 [label="O_Alert(FATAL,INTERNAL_ERROR)"];
	s20 -> s1 [label="O_APPLICATION"];
	s20 -> s1 [label="O_RSA_CERTIFICATE"];
	s20 -> s1 [label="O_CERTIFICATE_VERIFY"];
	s20 -> s1 [label="O_Alert(FATAL,UNEXPECTED_MESSAGE)"];
	s20 -> s1 [label="O_CLIENT_HELLO"];
	s20 -> s1 [label="O_Alert(FATAL,HANDSHAKE_FAILURE)"];

__start0 [label="" shape="none" width="0" height="0"];
__start0 -> s0;

}
