digraph g {

	s0 [shape="circle" label="s0"];
	s1 [shape="circle" label="s1"];
	s2 [shape="circle" label="s2"];
	s3 [shape="circle" label="s3"];
	s4 [shape="circle" label="s4"];
	s5 [shape="circle" label="s5"];
	s6 [shape="circle" label="s6"];
	s7 [shape="circle" label="s7"];
	s8 [shape="circle" label="s8"];
	s9 [shape="circle" label="s9"];
	s10 [shape="circle" label="s10"];
	s11 [shape="circle" label="s11"];
	s12 [shape="circle" label="s12"];
	s13 [shape="circle" label="s13"];
	s14 [shape="circle" label="s14"];
	s15 [shape="circle" label="s15"];
	s16 [shape="circle" label="s16"];
	s17 [shape="circle" label="s17"];
	s18 [shape="circle" label="s18"];
	s19 [shape="circle" label="s19"];
	s20 [shape="circle" label="s20"];
	s21 [shape="circle" label="s21"];
	s22 [shape="circle" label="s22"];
	s23 [shape="circle" label="s23"];
	s24 [shape="circle" label="s24"];
	s25 [shape="circle" label="s25"];
	s26 [shape="circle" label="s26"];
	s0 -> s2 [label="HELLO_VERIFY_REQUEST / CLIENT_HELLO+"];
	s0 -> s3 [label="ECDH_SERVER_HELLO / CLIENT_HELLO"];
	s0 -> s1 [label="ECDH_SERVER_KEY_EXCHANGE / CLIENT_HELLO,Alert(FATAL,INTERNAL_ERROR)"];
	s0 -> s2 [label="RSA_SIGN_CERTIFICATE_REQUEST / CLIENT_HELLO"];
	s0 -> s2 [label="RSA_FIXED_ECDH_CERTIFICATE_REQUEST / CLIENT_HELLO"];
	s0 -> s2 [label="RSA_FIXED_DH_CERTIFICATE_REQUEST / CLIENT_HELLO"];
	s0 -> s2 [label="DSS_SIGN_CERTIFICATE_REQUEST / CLIENT_HELLO"];
	s0 -> s2 [label="DSS_FIXED_DH_CERTIFICATE_REQUEST / CLIENT_HELLO"];
	s0 -> s2 [label="ECDSA_SIGN_CERTIFICATE_REQUEST / CLIENT_HELLO"];
	s0 -> s1 [label="SERVER_HELLO_DONE / CLIENT_HELLO,Alert(FATAL,INTERNAL_ERROR)"];
	s0 -> s1 [label="CHANGE_CIPHER_SPEC / CLIENT_HELLO"];
	s0 -> s1 [label="FINISHED / CLIENT_HELLO,Alert(FATAL,INTERNAL_ERROR)"];
	s0 -> s2 [label="APPLICATION / CLIENT_HELLO"];
	s0 -> s1 [label="CERTIFICATE / CLIENT_HELLO,Alert(FATAL,INTERNAL_ERROR)"];
	s0 -> s1 [label="EMPTY_CERTIFICATE / CLIENT_HELLO,Alert(FATAL,INTERNAL_ERROR)"];
	s0 -> s1 [label="Alert(WARNING,CLOSE_NOTIFY) / CLIENT_HELLO,Alert(WARNING,CLOSE_NOTIFY)"];
	s0 -> s1 [label="Alert(FATAL,UNEXPECTED_MESSAGE) / CLIENT_HELLO"];
	s1 -> s1 [label="HELLO_VERIFY_REQUEST / TIMEOUT"];
	s1 -> s1 [label="ECDH_SERVER_HELLO / TIMEOUT"];
	s1 -> s1 [label="ECDH_SERVER_KEY_EXCHANGE / TIMEOUT"];
	s1 -> s1 [label="RSA_SIGN_CERTIFICATE_REQUEST / TIMEOUT"];
	s1 -> s1 [label="RSA_FIXED_ECDH_CERTIFICATE_REQUEST / TIMEOUT"];
	s1 -> s1 [label="RSA_FIXED_DH_CERTIFICATE_REQUEST / TIMEOUT"];
	s1 -> s1 [label="DSS_SIGN_CERTIFICATE_REQUEST / TIMEOUT"];
	s1 -> s1 [label="DSS_FIXED_DH_CERTIFICATE_REQUEST / TIMEOUT"];
	s1 -> s1 [label="ECDSA_SIGN_CERTIFICATE_REQUEST / TIMEOUT"];
	s1 -> s1 [label="SERVER_HELLO_DONE / TIMEOUT"];
	s1 -> s1 [label="CHANGE_CIPHER_SPEC / TIMEOUT"];
	s1 -> s1 [label="FINISHED / TIMEOUT"];
	s1 -> s1 [label="APPLICATION / TIMEOUT"];
	s1 -> s1 [label="CERTIFICATE / TIMEOUT"];
	s1 -> s1 [label="EMPTY_CERTIFICATE / TIMEOUT"];
	s1 -> s1 [label="Alert(WARNING,CLOSE_NOTIFY) / TIMEOUT"];
	s1 -> s1 [label="Alert(FATAL,UNEXPECTED_MESSAGE) / TIMEOUT"];
	s2 -> s2 [label="HELLO_VERIFY_REQUEST / CLIENT_HELLO"];
	s2 -> s3 [label="ECDH_SERVER_HELLO / TIMEOUT"];
	s2 -> s1 [label="ECDH_SERVER_KEY_EXCHANGE / Alert(FATAL,INTERNAL_ERROR)"];
	s2 -> s2 [label="RSA_SIGN_CERTIFICATE_REQUEST / TIMEOUT"];
	s2 -> s2 [label="RSA_FIXED_ECDH_CERTIFICATE_REQUEST / TIMEOUT"];
	s2 -> s2 [label="RSA_FIXED_DH_CERTIFICATE_REQUEST / TIMEOUT"];
	s2 -> s2 [label="DSS_SIGN_CERTIFICATE_REQUEST / TIMEOUT"];
	s2 -> s2 [label="DSS_FIXED_DH_CERTIFICATE_REQUEST / TIMEOUT"];
	s2 -> s2 [label="ECDSA_SIGN_CERTIFICATE_REQUEST / TIMEOUT"];
	s2 -> s1 [label="SERVER_HELLO_DONE / Alert(FATAL,INTERNAL_ERROR)"];
	s2 -> s1 [label="CHANGE_CIPHER_SPEC / TIMEOUT"];
	s2 -> s1 [label="FINISHED / Alert(FATAL,INTERNAL_ERROR)"];
	s2 -> s2 [label="APPLICATION / TIMEOUT"];
	s2 -> s1 [label="CERTIFICATE / Alert(FATAL,INTERNAL_ERROR)"];
	s2 -> s1 [label="EMPTY_CERTIFICATE / Alert(FATAL,INTERNAL_ERROR)"];
	s2 -> s1 [label="Alert(WARNING,CLOSE_NOTIFY) / Alert(WARNING,CLOSE_NOTIFY)"];
	s2 -> s1 [label="Alert(FATAL,UNEXPECTED_MESSAGE) / TIMEOUT"];
	s3 -> s3 [label="HELLO_VERIFY_REQUEST / CLIENT_HELLO"];
	s3 -> s3 [label="ECDH_SERVER_HELLO / TIMEOUT"];
	s3 -> s1 [label="ECDH_SERVER_KEY_EXCHANGE / Alert(FATAL,HANDSHAKE_FAILURE)"];
	s3 -> s3 [label="RSA_SIGN_CERTIFICATE_REQUEST / TIMEOUT"];
	s3 -> s3 [label="RSA_FIXED_ECDH_CERTIFICATE_REQUEST / TIMEOUT"];
	s3 -> s3 [label="RSA_FIXED_DH_CERTIFICATE_REQUEST / TIMEOUT"];
	s3 -> s3 [label="DSS_SIGN_CERTIFICATE_REQUEST / TIMEOUT"];
	s3 -> s3 [label="DSS_FIXED_DH_CERTIFICATE_REQUEST / TIMEOUT"];
	s3 -> s3 [label="ECDSA_SIGN_CERTIFICATE_REQUEST / TIMEOUT"];
	s3 -> s1 [label="SERVER_HELLO_DONE / Alert(FATAL,INTERNAL_ERROR)"];
	s3 -> s1 [label="CHANGE_CIPHER_SPEC / TIMEOUT"];
	s3 -> s1 [label="FINISHED / Alert(FATAL,INTERNAL_ERROR)"];
	s3 -> s3 [label="APPLICATION / TIMEOUT"];
	s3 -> s4 [label="CERTIFICATE / TIMEOUT"];
	s3 -> s3 [label="EMPTY_CERTIFICATE / TIMEOUT"];
	s3 -> s1 [label="Alert(WARNING,CLOSE_NOTIFY) / Alert(WARNING,CLOSE_NOTIFY)"];
	s3 -> s1 [label="Alert(FATAL,UNEXPECTED_MESSAGE) / TIMEOUT"];
	s4 -> s4 [label="HELLO_VERIFY_REQUEST / CLIENT_HELLO"];
	s4 -> s4 [label="ECDH_SERVER_HELLO / TIMEOUT"];
	s4 -> s5 [label="ECDH_SERVER_KEY_EXCHANGE / TIMEOUT"];
	s4 -> s3 [label="RSA_SIGN_CERTIFICATE_REQUEST / TIMEOUT"];
	s4 -> s3 [label="RSA_FIXED_ECDH_CERTIFICATE_REQUEST / TIMEOUT"];
	s4 -> s3 [label="RSA_FIXED_DH_CERTIFICATE_REQUEST / TIMEOUT"];
	s4 -> s3 [label="DSS_SIGN_CERTIFICATE_REQUEST / TIMEOUT"];
	s4 -> s3 [label="DSS_FIXED_DH_CERTIFICATE_REQUEST / TIMEOUT"];
	s4 -> s3 [label="ECDSA_SIGN_CERTIFICATE_REQUEST / TIMEOUT"];
	s4 -> s1 [label="SERVER_HELLO_DONE / Alert(FATAL,INTERNAL_ERROR)"];
	s4 -> s1 [label="CHANGE_CIPHER_SPEC / TIMEOUT"];
	s4 -> s1 [label="FINISHED / Alert(FATAL,INTERNAL_ERROR)"];
	s4 -> s4 [label="APPLICATION / TIMEOUT"];
	s4 -> s4 [label="CERTIFICATE / TIMEOUT"];
	s4 -> s3 [label="EMPTY_CERTIFICATE / TIMEOUT"];
	s4 -> s1 [label="Alert(WARNING,CLOSE_NOTIFY) / Alert(WARNING,CLOSE_NOTIFY)"];
	s4 -> s1 [label="Alert(FATAL,UNEXPECTED_MESSAGE) / TIMEOUT"];
	s5 -> s5 [label="HELLO_VERIFY_REQUEST / CLIENT_HELLO"];
	s5 -> s5 [label="ECDH_SERVER_HELLO / TIMEOUT"];
	s5 -> s1 [label="ECDH_SERVER_KEY_EXCHANGE / Alert(FATAL,HANDSHAKE_FAILURE)"];
	s5 -> s6 [label="RSA_SIGN_CERTIFICATE_REQUEST / TIMEOUT"];
	s5 -> s6 [label="RSA_FIXED_ECDH_CERTIFICATE_REQUEST / TIMEOUT"];
	s5 -> s6 [label="RSA_FIXED_DH_CERTIFICATE_REQUEST / TIMEOUT"];
	s5 -> s6 [label="DSS_SIGN_CERTIFICATE_REQUEST / TIMEOUT"];
	s5 -> s6 [label="DSS_FIXED_DH_CERTIFICATE_REQUEST / TIMEOUT"];
	s5 -> s7 [label="ECDSA_SIGN_CERTIFICATE_REQUEST / TIMEOUT"];
	s5 -> s8 [label="SERVER_HELLO_DONE / ECDH_CLIENT_KEY_EXCHANGE,CHANGE_CIPHER_SPEC,FINISHED"];
	s5 -> s1 [label="CHANGE_CIPHER_SPEC / TIMEOUT"];
	s5 -> s1 [label="FINISHED / Alert(FATAL,INTERNAL_ERROR)"];
	s5 -> s5 [label="APPLICATION / TIMEOUT"];
	s5 -> s13 [label="CERTIFICATE / TIMEOUT"];
	s5 -> s5 [label="EMPTY_CERTIFICATE / TIMEOUT"];
	s5 -> s1 [label="Alert(WARNING,CLOSE_NOTIFY) / Alert(WARNING,CLOSE_NOTIFY)"];
	s5 -> s1 [label="Alert(FATAL,UNEXPECTED_MESSAGE) / TIMEOUT"];
	s6 -> s23 [label="HELLO_VERIFY_REQUEST / CLIENT_HELLO"];
	s6 -> s23 [label="ECDH_SERVER_HELLO / TIMEOUT"];
	s6 -> s1 [label="ECDH_SERVER_KEY_EXCHANGE / Alert(FATAL,HANDSHAKE_FAILURE)"];
	s6 -> s23 [label="RSA_SIGN_CERTIFICATE_REQUEST / TIMEOUT"];
	s6 -> s23 [label="RSA_FIXED_ECDH_CERTIFICATE_REQUEST / TIMEOUT"];
	s6 -> s23 [label="RSA_FIXED_DH_CERTIFICATE_REQUEST / TIMEOUT"];
	s6 -> s23 [label="DSS_SIGN_CERTIFICATE_REQUEST / TIMEOUT"];
	s6 -> s23 [label="DSS_FIXED_DH_CERTIFICATE_REQUEST / TIMEOUT"];
	s6 -> s7 [label="ECDSA_SIGN_CERTIFICATE_REQUEST / TIMEOUT"];
	s6 -> s8 [label="SERVER_HELLO_DONE / EMPTY_CERTIFICATE,ECDH_CLIENT_KEY_EXCHANGE,CHANGE_CIPHER_SPEC,FINISHED"];
	s6 -> s1 [label="CHANGE_CIPHER_SPEC / TIMEOUT"];
	s6 -> s1 [label="FINISHED / Alert(FATAL,INTERNAL_ERROR)"];
	s6 -> s6 [label="APPLICATION / TIMEOUT"];
	s6 -> s20 [label="CERTIFICATE / TIMEOUT"];
	s6 -> s23 [label="EMPTY_CERTIFICATE / TIMEOUT"];
	s6 -> s1 [label="Alert(WARNING,CLOSE_NOTIFY) / Alert(WARNING,CLOSE_NOTIFY)"];
	s6 -> s1 [label="Alert(FATAL,UNEXPECTED_MESSAGE) / TIMEOUT"];
	s7 -> s7 [label="HELLO_VERIFY_REQUEST / CLIENT_HELLO"];
	s7 -> s7 [label="ECDH_SERVER_HELLO / TIMEOUT"];
	s7 -> s1 [label="ECDH_SERVER_KEY_EXCHANGE / Alert(FATAL,HANDSHAKE_FAILURE)"];
	s7 -> s23 [label="RSA_SIGN_CERTIFICATE_REQUEST / TIMEOUT"];
	s7 -> s23 [label="RSA_FIXED_ECDH_CERTIFICATE_REQUEST / TIMEOUT"];
	s7 -> s23 [label="RSA_FIXED_DH_CERTIFICATE_REQUEST / TIMEOUT"];
	s7 -> s23 [label="DSS_SIGN_CERTIFICATE_REQUEST / TIMEOUT"];
	s7 -> s23 [label="DSS_FIXED_DH_CERTIFICATE_REQUEST / TIMEOUT"];
	s7 -> s7 [label="ECDSA_SIGN_CERTIFICATE_REQUEST / TIMEOUT"];
	s7 -> s8 [label="SERVER_HELLO_DONE / ECDSA_CERTIFICATE,ECDH_CLIENT_KEY_EXCHANGE,CERTIFICATE_VERIFY,CHANGE_CIPHER_SPEC,FINISHED"];
	s7 -> s1 [label="CHANGE_CIPHER_SPEC / TIMEOUT"];
	s7 -> s1 [label="FINISHED / Alert(FATAL,INTERNAL_ERROR)"];
	s7 -> s7 [label="APPLICATION / TIMEOUT"];
	s7 -> s19 [label="CERTIFICATE / TIMEOUT"];
	s7 -> s7 [label="EMPTY_CERTIFICATE / TIMEOUT"];
	s7 -> s1 [label="Alert(WARNING,CLOSE_NOTIFY) / Alert(WARNING,CLOSE_NOTIFY)"];
	s7 -> s1 [label="Alert(FATAL,UNEXPECTED_MESSAGE) / TIMEOUT"];
	s8 -> s9 [label="HELLO_VERIFY_REQUEST / CLIENT_HELLO"];
	s8 -> s11 [label="ECDH_SERVER_HELLO / TIMEOUT"];
	s8 -> s1 [label="ECDH_SERVER_KEY_EXCHANGE / Alert(FATAL,HANDSHAKE_FAILURE)"];
	s8 -> s9 [label="RSA_SIGN_CERTIFICATE_REQUEST / TIMEOUT"];
	s8 -> s9 [label="RSA_FIXED_ECDH_CERTIFICATE_REQUEST / TIMEOUT"];
	s8 -> s9 [label="RSA_FIXED_DH_CERTIFICATE_REQUEST / TIMEOUT"];
	s8 -> s9 [label="DSS_SIGN_CERTIFICATE_REQUEST / TIMEOUT"];
	s8 -> s9 [label="DSS_FIXED_DH_CERTIFICATE_REQUEST / TIMEOUT"];
	s8 -> s9 [label="ECDSA_SIGN_CERTIFICATE_REQUEST / TIMEOUT"];
	s8 -> s1 [label="SERVER_HELLO_DONE / Alert(FATAL,INTERNAL_ERROR)"];
	s8 -> s8 [label="CHANGE_CIPHER_SPEC / TIMEOUT"];
	s8 -> s24 [label="FINISHED / APPLICATION"];
	s8 -> s8 [label="APPLICATION / TIMEOUT"];
	s8 -> s10 [label="CERTIFICATE / TIMEOUT"];
	s8 -> s9 [label="EMPTY_CERTIFICATE / TIMEOUT"];
	s8 -> s1 [label="Alert(WARNING,CLOSE_NOTIFY) / Alert(WARNING,CLOSE_NOTIFY)"];
	s8 -> s1 [label="Alert(FATAL,UNEXPECTED_MESSAGE) / TIMEOUT"];
	s9 -> s9 [label="HELLO_VERIFY_REQUEST / CLIENT_HELLO"];
	s9 -> s11 [label="ECDH_SERVER_HELLO / TIMEOUT"];
	s9 -> s1 [label="ECDH_SERVER_KEY_EXCHANGE / Alert(FATAL,HANDSHAKE_FAILURE)"];
	s9 -> s9 [label="RSA_SIGN_CERTIFICATE_REQUEST / TIMEOUT"];
	s9 -> s9 [label="RSA_FIXED_ECDH_CERTIFICATE_REQUEST / TIMEOUT"];
	s9 -> s9 [label="RSA_FIXED_DH_CERTIFICATE_REQUEST / TIMEOUT"];
	s9 -> s9 [label="DSS_SIGN_CERTIFICATE_REQUEST / TIMEOUT"];
	s9 -> s9 [label="DSS_FIXED_DH_CERTIFICATE_REQUEST / TIMEOUT"];
	s9 -> s9 [label="ECDSA_SIGN_CERTIFICATE_REQUEST / TIMEOUT"];
	s9 -> s1 [label="SERVER_HELLO_DONE / Alert(FATAL,INTERNAL_ERROR)"];
	s9 -> s9 [label="CHANGE_CIPHER_SPEC / TIMEOUT"];
	s9 -> s1 [label="FINISHED / Alert(FATAL,HANDSHAKE_FAILURE)"];
	s9 -> s9 [label="APPLICATION / TIMEOUT"];
	s9 -> s10 [label="CERTIFICATE / TIMEOUT"];
	s9 -> s9 [label="EMPTY_CERTIFICATE / TIMEOUT"];
	s9 -> s1 [label="Alert(WARNING,CLOSE_NOTIFY) / Alert(WARNING,CLOSE_NOTIFY)"];
	s9 -> s1 [label="Alert(FATAL,UNEXPECTED_MESSAGE) / TIMEOUT"];
	s10 -> s10 [label="HELLO_VERIFY_REQUEST / CLIENT_HELLO"];
	s10 -> s22 [label="ECDH_SERVER_HELLO / TIMEOUT"];
	s10 -> s9 [label="ECDH_SERVER_KEY_EXCHANGE / TIMEOUT"];
	s10 -> s9 [label="RSA_SIGN_CERTIFICATE_REQUEST / TIMEOUT"];
	s10 -> s9 [label="RSA_FIXED_ECDH_CERTIFICATE_REQUEST / TIMEOUT"];
	s10 -> s9 [label="RSA_FIXED_DH_CERTIFICATE_REQUEST / TIMEOUT"];
	s10 -> s9 [label="DSS_SIGN_CERTIFICATE_REQUEST / TIMEOUT"];
	s10 -> s9 [label="DSS_FIXED_DH_CERTIFICATE_REQUEST / TIMEOUT"];
	s10 -> s9 [label="ECDSA_SIGN_CERTIFICATE_REQUEST / TIMEOUT"];
	s10 -> s1 [label="SERVER_HELLO_DONE / Alert(FATAL,INTERNAL_ERROR)"];
	s10 -> s10 [label="CHANGE_CIPHER_SPEC / TIMEOUT"];
	s10 -> s1 [label="FINISHED / Alert(FATAL,HANDSHAKE_FAILURE)"];
	s10 -> s10 [label="APPLICATION / TIMEOUT"];
	s10 -> s10 [label="CERTIFICATE / TIMEOUT"];
	s10 -> s9 [label="EMPTY_CERTIFICATE / TIMEOUT"];
	s10 -> s1 [label="Alert(WARNING,CLOSE_NOTIFY) / Alert(WARNING,CLOSE_NOTIFY)"];
	s10 -> s1 [label="Alert(FATAL,UNEXPECTED_MESSAGE) / TIMEOUT"];
	s11 -> s11 [label="HELLO_VERIFY_REQUEST / CLIENT_HELLO"];
	s11 -> s11 [label="ECDH_SERVER_HELLO / TIMEOUT"];
	s11 -> s1 [label="ECDH_SERVER_KEY_EXCHANGE / Alert(FATAL,HANDSHAKE_FAILURE)"];
	s11 -> s11 [label="RSA_SIGN_CERTIFICATE_REQUEST / TIMEOUT"];
	s11 -> s11 [label="RSA_FIXED_ECDH_CERTIFICATE_REQUEST / TIMEOUT"];
	s11 -> s11 [label="RSA_FIXED_DH_CERTIFICATE_REQUEST / TIMEOUT"];
	s11 -> s11 [label="DSS_SIGN_CERTIFICATE_REQUEST / TIMEOUT"];
	s11 -> s11 [label="DSS_FIXED_DH_CERTIFICATE_REQUEST / TIMEOUT"];
	s11 -> s11 [label="ECDSA_SIGN_CERTIFICATE_REQUEST / TIMEOUT"];
	s11 -> s1 [label="SERVER_HELLO_DONE / Alert(FATAL,INTERNAL_ERROR)"];
	s11 -> s12 [label="CHANGE_CIPHER_SPEC / TIMEOUT"];
	s11 -> s1 [label="FINISHED / Alert(FATAL,HANDSHAKE_FAILURE)"];
	s11 -> s11 [label="APPLICATION / TIMEOUT"];
	s11 -> s22 [label="CERTIFICATE / TIMEOUT"];
	s11 -> s11 [label="EMPTY_CERTIFICATE / TIMEOUT"];
	s11 -> s1 [label="Alert(WARNING,CLOSE_NOTIFY) / Alert(WARNING,CLOSE_NOTIFY)"];
	s11 -> s1 [label="Alert(FATAL,UNEXPECTED_MESSAGE) / TIMEOUT"];
	s12 -> s12 [label="HELLO_VERIFY_REQUEST / TIMEOUT"];
	s12 -> s12 [label="ECDH_SERVER_HELLO / TIMEOUT"];
	s12 -> s12 [label="ECDH_SERVER_KEY_EXCHANGE / TIMEOUT"];
	s12 -> s12 [label="RSA_SIGN_CERTIFICATE_REQUEST / TIMEOUT"];
	s12 -> s12 [label="RSA_FIXED_ECDH_CERTIFICATE_REQUEST / TIMEOUT"];
	s12 -> s12 [label="RSA_FIXED_DH_CERTIFICATE_REQUEST / TIMEOUT"];
	s12 -> s12 [label="DSS_SIGN_CERTIFICATE_REQUEST / TIMEOUT"];
	s12 -> s12 [label="DSS_FIXED_DH_CERTIFICATE_REQUEST / TIMEOUT"];
	s12 -> s12 [label="ECDSA_SIGN_CERTIFICATE_REQUEST / TIMEOUT"];
	s12 -> s12 [label="SERVER_HELLO_DONE / TIMEOUT"];
	s12 -> s1 [label="CHANGE_CIPHER_SPEC / Alert(FATAL,INTERNAL_ERROR)"];
	s12 -> s12 [label="FINISHED / TIMEOUT"];
	s12 -> s12 [label="APPLICATION / TIMEOUT"];
	s12 -> s12 [label="CERTIFICATE / TIMEOUT"];
	s12 -> s12 [label="EMPTY_CERTIFICATE / TIMEOUT"];
	s12 -> s12 [label="Alert(WARNING,CLOSE_NOTIFY) / TIMEOUT"];
	s12 -> s12 [label="Alert(FATAL,UNEXPECTED_MESSAGE) / TIMEOUT"];
	s13 -> s13 [label="HELLO_VERIFY_REQUEST / CLIENT_HELLO"];
	s13 -> s13 [label="ECDH_SERVER_HELLO / TIMEOUT"];
	s13 -> s5 [label="ECDH_SERVER_KEY_EXCHANGE / TIMEOUT"];
	s13 -> s15 [label="RSA_SIGN_CERTIFICATE_REQUEST / TIMEOUT"];
	s13 -> s15 [label="RSA_FIXED_ECDH_CERTIFICATE_REQUEST / TIMEOUT"];
	s13 -> s15 [label="RSA_FIXED_DH_CERTIFICATE_REQUEST / TIMEOUT"];
	s13 -> s15 [label="DSS_SIGN_CERTIFICATE_REQUEST / TIMEOUT"];
	s13 -> s15 [label="DSS_FIXED_DH_CERTIFICATE_REQUEST / TIMEOUT"];
	s13 -> s16 [label="ECDSA_SIGN_CERTIFICATE_REQUEST / TIMEOUT"];
	s13 -> s17 [label="SERVER_HELLO_DONE / ECDH_CLIENT_KEY_EXCHANGE,CHANGE_CIPHER_SPEC,UNKNOWN_MESSAGE"];
	s13 -> s1 [label="CHANGE_CIPHER_SPEC / TIMEOUT"];
	s13 -> s1 [label="FINISHED / Alert(FATAL,INTERNAL_ERROR)"];
	s13 -> s13 [label="APPLICATION / TIMEOUT"];
	s13 -> s13 [label="CERTIFICATE / TIMEOUT"];
	s13 -> s14 [label="EMPTY_CERTIFICATE / TIMEOUT"];
	s13 -> s1 [label="Alert(WARNING,CLOSE_NOTIFY) / Alert(WARNING,CLOSE_NOTIFY)"];
	s13 -> s1 [label="Alert(FATAL,UNEXPECTED_MESSAGE) / TIMEOUT"];
	s14 -> s14 [label="HELLO_VERIFY_REQUEST / CLIENT_HELLO"];
	s14 -> s14 [label="ECDH_SERVER_HELLO / TIMEOUT"];
	s14 -> s1 [label="ECDH_SERVER_KEY_EXCHANGE / Alert(FATAL,HANDSHAKE_FAILURE)"];
	s14 -> s26 [label="RSA_SIGN_CERTIFICATE_REQUEST / TIMEOUT"];
	s14 -> s26 [label="RSA_FIXED_ECDH_CERTIFICATE_REQUEST / TIMEOUT"];
	s14 -> s26 [label="RSA_FIXED_DH_CERTIFICATE_REQUEST / TIMEOUT"];
	s14 -> s26 [label="DSS_SIGN_CERTIFICATE_REQUEST / TIMEOUT"];
	s14 -> s26 [label="DSS_FIXED_DH_CERTIFICATE_REQUEST / TIMEOUT"];
	s14 -> s25 [label="ECDSA_SIGN_CERTIFICATE_REQUEST / TIMEOUT"];
	s14 -> s21 [label="SERVER_HELLO_DONE / ECDH_CLIENT_KEY_EXCHANGE,CHANGE_CIPHER_SPEC,UNKNOWN_MESSAGE"];
	s14 -> s1 [label="CHANGE_CIPHER_SPEC / TIMEOUT"];
	s14 -> s1 [label="FINISHED / Alert(FATAL,INTERNAL_ERROR)"];
	s14 -> s14 [label="APPLICATION / TIMEOUT"];
	s14 -> s13 [label="CERTIFICATE / TIMEOUT"];
	s14 -> s14 [label="EMPTY_CERTIFICATE / TIMEOUT"];
	s14 -> s1 [label="Alert(WARNING,CLOSE_NOTIFY) / Alert(WARNING,CLOSE_NOTIFY)"];
	s14 -> s1 [label="Alert(FATAL,UNEXPECTED_MESSAGE) / TIMEOUT"];
	s15 -> s15 [label="HELLO_VERIFY_REQUEST / CLIENT_HELLO"];
	s15 -> s15 [label="ECDH_SERVER_HELLO / TIMEOUT"];
	s15 -> s1 [label="ECDH_SERVER_KEY_EXCHANGE / Alert(FATAL,HANDSHAKE_FAILURE)"];
	s15 -> s15 [label="RSA_SIGN_CERTIFICATE_REQUEST / TIMEOUT"];
	s15 -> s15 [label="RSA_FIXED_ECDH_CERTIFICATE_REQUEST / TIMEOUT"];
	s15 -> s15 [label="RSA_FIXED_DH_CERTIFICATE_REQUEST / TIMEOUT"];
	s15 -> s15 [label="DSS_SIGN_CERTIFICATE_REQUEST / TIMEOUT"];
	s15 -> s15 [label="DSS_FIXED_DH_CERTIFICATE_REQUEST / TIMEOUT"];
	s15 -> s16 [label="ECDSA_SIGN_CERTIFICATE_REQUEST / TIMEOUT"];
	s15 -> s21 [label="SERVER_HELLO_DONE / EMPTY_CERTIFICATE,ECDH_CLIENT_KEY_EXCHANGE,CHANGE_CIPHER_SPEC,UNKNOWN_MESSAGE"];
	s15 -> s1 [label="CHANGE_CIPHER_SPEC / TIMEOUT"];
	s15 -> s1 [label="FINISHED / Alert(FATAL,INTERNAL_ERROR)"];
	s15 -> s15 [label="APPLICATION / TIMEOUT"];
	s15 -> s20 [label="CERTIFICATE / TIMEOUT"];
	s15 -> s26 [label="EMPTY_CERTIFICATE / TIMEOUT"];
	s15 -> s1 [label="Alert(WARNING,CLOSE_NOTIFY) / Alert(WARNING,CLOSE_NOTIFY)"];
	s15 -> s1 [label="Alert(FATAL,UNEXPECTED_MESSAGE) / TIMEOUT"];
	s16 -> s16 [label="HELLO_VERIFY_REQUEST / CLIENT_HELLO"];
	s16 -> s16 [label="ECDH_SERVER_HELLO / TIMEOUT"];
	s16 -> s1 [label="ECDH_SERVER_KEY_EXCHANGE / Alert(FATAL,HANDSHAKE_FAILURE)"];
	s16 -> s15 [label="RSA_SIGN_CERTIFICATE_REQUEST / TIMEOUT"];
	s16 -> s15 [label="RSA_FIXED_ECDH_CERTIFICATE_REQUEST / TIMEOUT"];
	s16 -> s15 [label="RSA_FIXED_DH_CERTIFICATE_REQUEST / TIMEOUT"];
	s16 -> s15 [label="DSS_SIGN_CERTIFICATE_REQUEST / TIMEOUT"];
	s16 -> s15 [label="DSS_FIXED_DH_CERTIFICATE_REQUEST / TIMEOUT"];
	s16 -> s16 [label="ECDSA_SIGN_CERTIFICATE_REQUEST / TIMEOUT"];
	s16 -> s17 [label="SERVER_HELLO_DONE / ECDSA_CERTIFICATE,ECDH_CLIENT_KEY_EXCHANGE,CERTIFICATE_VERIFY,CHANGE_CIPHER_SPEC,UNKNOWN_MESSAGE"];
	s16 -> s1 [label="CHANGE_CIPHER_SPEC / TIMEOUT"];
	s16 -> s1 [label="FINISHED / Alert(FATAL,INTERNAL_ERROR)"];
	s16 -> s16 [label="APPLICATION / TIMEOUT"];
	s16 -> s19 [label="CERTIFICATE / TIMEOUT"];
	s16 -> s25 [label="EMPTY_CERTIFICATE / TIMEOUT"];
	s16 -> s1 [label="Alert(WARNING,CLOSE_NOTIFY) / Alert(WARNING,CLOSE_NOTIFY)"];
	s16 -> s1 [label="Alert(FATAL,UNEXPECTED_MESSAGE) / TIMEOUT"];
	s17 -> s17 [label="HELLO_VERIFY_REQUEST / UNKNOWN_MESSAGE"];
	s17 -> s17 [label="ECDH_SERVER_HELLO / TIMEOUT"];
	s17 -> s21 [label="ECDH_SERVER_KEY_EXCHANGE / TIMEOUT"];
	s17 -> s21 [label="RSA_SIGN_CERTIFICATE_REQUEST / TIMEOUT"];
	s17 -> s21 [label="RSA_FIXED_ECDH_CERTIFICATE_REQUEST / TIMEOUT"];
	s17 -> s21 [label="RSA_FIXED_DH_CERTIFICATE_REQUEST / TIMEOUT"];
	s17 -> s21 [label="DSS_SIGN_CERTIFICATE_REQUEST / TIMEOUT"];
	s17 -> s21 [label="DSS_FIXED_DH_CERTIFICATE_REQUEST / TIMEOUT"];
	s17 -> s21 [label="ECDSA_SIGN_CERTIFICATE_REQUEST / TIMEOUT"];
	s17 -> s1 [label="SERVER_HELLO_DONE / UNKNOWN_MESSAGE"];
	s17 -> s18 [label="CHANGE_CIPHER_SPEC / TIMEOUT"];
	s17 -> s1 [label="FINISHED / UNKNOWN_MESSAGE"];
	s17 -> s17 [label="APPLICATION / TIMEOUT"];
	s17 -> s17 [label="CERTIFICATE / TIMEOUT"];
	s17 -> s21 [label="EMPTY_CERTIFICATE / TIMEOUT"];
	s17 -> s1 [label="Alert(WARNING,CLOSE_NOTIFY) / UNKNOWN_MESSAGE"];
	s17 -> s1 [label="Alert(FATAL,UNEXPECTED_MESSAGE) / TIMEOUT"];
	s18 -> s18 [label="HELLO_VERIFY_REQUEST / TIMEOUT"];
	s18 -> s18 [label="ECDH_SERVER_HELLO / TIMEOUT"];
	s18 -> s18 [label="ECDH_SERVER_KEY_EXCHANGE / TIMEOUT"];
	s18 -> s18 [label="RSA_SIGN_CERTIFICATE_REQUEST / TIMEOUT"];
	s18 -> s18 [label="RSA_FIXED_ECDH_CERTIFICATE_REQUEST / TIMEOUT"];
	s18 -> s18 [label="RSA_FIXED_DH_CERTIFICATE_REQUEST / TIMEOUT"];
	s18 -> s18 [label="DSS_SIGN_CERTIFICATE_REQUEST / TIMEOUT"];
	s18 -> s18 [label="DSS_FIXED_DH_CERTIFICATE_REQUEST / TIMEOUT"];
	s18 -> s18 [label="ECDSA_SIGN_CERTIFICATE_REQUEST / TIMEOUT"];
	s18 -> s18 [label="SERVER_HELLO_DONE / TIMEOUT"];
	s18 -> s1 [label="CHANGE_CIPHER_SPEC / UNKNOWN_MESSAGE"];
	s18 -> s18 [label="FINISHED / TIMEOUT"];
	s18 -> s18 [label="APPLICATION / TIMEOUT"];
	s18 -> s18 [label="CERTIFICATE / TIMEOUT"];
	s18 -> s18 [label="EMPTY_CERTIFICATE / TIMEOUT"];
	s18 -> s18 [label="Alert(WARNING,CLOSE_NOTIFY) / TIMEOUT"];
	s18 -> s18 [label="Alert(FATAL,UNEXPECTED_MESSAGE) / TIMEOUT"];
	s19 -> s19 [label="HELLO_VERIFY_REQUEST / CLIENT_HELLO"];
	s19 -> s19 [label="ECDH_SERVER_HELLO / TIMEOUT"];
	s19 -> s7 [label="ECDH_SERVER_KEY_EXCHANGE / TIMEOUT"];
	s19 -> s15 [label="RSA_SIGN_CERTIFICATE_REQUEST / TIMEOUT"];
	s19 -> s15 [label="RSA_FIXED_ECDH_CERTIFICATE_REQUEST / TIMEOUT"];
	s19 -> s15 [label="RSA_FIXED_DH_CERTIFICATE_REQUEST / TIMEOUT"];
	s19 -> s15 [label="DSS_SIGN_CERTIFICATE_REQUEST / TIMEOUT"];
	s19 -> s15 [label="DSS_FIXED_DH_CERTIFICATE_REQUEST / TIMEOUT"];
	s19 -> s16 [label="ECDSA_SIGN_CERTIFICATE_REQUEST / TIMEOUT"];
	s19 -> s17 [label="SERVER_HELLO_DONE / ECDSA_CERTIFICATE,ECDH_CLIENT_KEY_EXCHANGE,CERTIFICATE_VERIFY,CHANGE_CIPHER_SPEC,UNKNOWN_MESSAGE"];
	s19 -> s1 [label="CHANGE_CIPHER_SPEC / TIMEOUT"];
	s19 -> s1 [label="FINISHED / Alert(FATAL,INTERNAL_ERROR)"];
	s19 -> s19 [label="APPLICATION / TIMEOUT"];
	s19 -> s19 [label="CERTIFICATE / TIMEOUT"];
	s19 -> s25 [label="EMPTY_CERTIFICATE / TIMEOUT"];
	s19 -> s1 [label="Alert(WARNING,CLOSE_NOTIFY) / Alert(WARNING,CLOSE_NOTIFY)"];
	s19 -> s1 [label="Alert(FATAL,UNEXPECTED_MESSAGE) / TIMEOUT"];
	s20 -> s20 [label="HELLO_VERIFY_REQUEST / CLIENT_HELLO"];
	s20 -> s20 [label="ECDH_SERVER_HELLO / TIMEOUT"];
	s20 -> s23 [label="ECDH_SERVER_KEY_EXCHANGE / TIMEOUT"];
	s20 -> s15 [label="RSA_SIGN_CERTIFICATE_REQUEST / TIMEOUT"];
	s20 -> s15 [label="RSA_FIXED_ECDH_CERTIFICATE_REQUEST / TIMEOUT"];
	s20 -> s15 [label="RSA_FIXED_DH_CERTIFICATE_REQUEST / TIMEOUT"];
	s20 -> s15 [label="DSS_SIGN_CERTIFICATE_REQUEST / TIMEOUT"];
	s20 -> s15 [label="DSS_FIXED_DH_CERTIFICATE_REQUEST / TIMEOUT"];
	s20 -> s16 [label="ECDSA_SIGN_CERTIFICATE_REQUEST / TIMEOUT"];
	s20 -> s17 [label="SERVER_HELLO_DONE / EMPTY_CERTIFICATE,ECDH_CLIENT_KEY_EXCHANGE,CHANGE_CIPHER_SPEC,UNKNOWN_MESSAGE"];
	s20 -> s1 [label="CHANGE_CIPHER_SPEC / TIMEOUT"];
	s20 -> s1 [label="FINISHED / Alert(FATAL,INTERNAL_ERROR)"];
	s20 -> s20 [label="APPLICATION / TIMEOUT"];
	s20 -> s20 [label="CERTIFICATE / TIMEOUT"];
	s20 -> s26 [label="EMPTY_CERTIFICATE / TIMEOUT"];
	s20 -> s1 [label="Alert(WARNING,CLOSE_NOTIFY) / Alert(WARNING,CLOSE_NOTIFY)"];
	s20 -> s1 [label="Alert(FATAL,UNEXPECTED_MESSAGE) / TIMEOUT"];
	s21 -> s21 [label="HELLO_VERIFY_REQUEST / UNKNOWN_MESSAGE"];
	s21 -> s21 [label="ECDH_SERVER_HELLO / TIMEOUT"];
	s21 -> s1 [label="ECDH_SERVER_KEY_EXCHANGE / UNKNOWN_MESSAGE"];
	s21 -> s21 [label="RSA_SIGN_CERTIFICATE_REQUEST / TIMEOUT"];
	s21 -> s21 [label="RSA_FIXED_ECDH_CERTIFICATE_REQUEST / TIMEOUT"];
	s21 -> s21 [label="RSA_FIXED_DH_CERTIFICATE_REQUEST / TIMEOUT"];
	s21 -> s21 [label="DSS_SIGN_CERTIFICATE_REQUEST / TIMEOUT"];
	s21 -> s21 [label="DSS_FIXED_DH_CERTIFICATE_REQUEST / TIMEOUT"];
	s21 -> s21 [label="ECDSA_SIGN_CERTIFICATE_REQUEST / TIMEOUT"];
	s21 -> s1 [label="SERVER_HELLO_DONE / UNKNOWN_MESSAGE"];
	s21 -> s18 [label="CHANGE_CIPHER_SPEC / TIMEOUT"];
	s21 -> s1 [label="FINISHED / UNKNOWN_MESSAGE"];
	s21 -> s21 [label="APPLICATION / TIMEOUT"];
	s21 -> s17 [label="CERTIFICATE / TIMEOUT"];
	s21 -> s21 [label="EMPTY_CERTIFICATE / TIMEOUT"];
	s21 -> s1 [label="Alert(WARNING,CLOSE_NOTIFY) / UNKNOWN_MESSAGE"];
	s21 -> s1 [label="Alert(FATAL,UNEXPECTED_MESSAGE) / TIMEOUT"];
	s22 -> s22 [label="HELLO_VERIFY_REQUEST / CLIENT_HELLO"];
	s22 -> s22 [label="ECDH_SERVER_HELLO / TIMEOUT"];
	s22 -> s11 [label="ECDH_SERVER_KEY_EXCHANGE / TIMEOUT"];
	s22 -> s11 [label="RSA_SIGN_CERTIFICATE_REQUEST / TIMEOUT"];
	s22 -> s11 [label="RSA_FIXED_ECDH_CERTIFICATE_REQUEST / TIMEOUT"];
	s22 -> s11 [label="RSA_FIXED_DH_CERTIFICATE_REQUEST / TIMEOUT"];
	s22 -> s11 [label="DSS_SIGN_CERTIFICATE_REQUEST / TIMEOUT"];
	s22 -> s11 [label="DSS_FIXED_DH_CERTIFICATE_REQUEST / TIMEOUT"];
	s22 -> s11 [label="ECDSA_SIGN_CERTIFICATE_REQUEST / TIMEOUT"];
	s22 -> s1 [label="SERVER_HELLO_DONE / Alert(FATAL,INTERNAL_ERROR)"];
	s22 -> s12 [label="CHANGE_CIPHER_SPEC / TIMEOUT"];
	s22 -> s1 [label="FINISHED / Alert(FATAL,HANDSHAKE_FAILURE)"];
	s22 -> s22 [label="APPLICATION / TIMEOUT"];
	s22 -> s22 [label="CERTIFICATE / TIMEOUT"];
	s22 -> s11 [label="EMPTY_CERTIFICATE / TIMEOUT"];
	s22 -> s1 [label="Alert(WARNING,CLOSE_NOTIFY) / Alert(WARNING,CLOSE_NOTIFY)"];
	s22 -> s1 [label="Alert(FATAL,UNEXPECTED_MESSAGE) / TIMEOUT"];
	s23 -> s23 [label="HELLO_VERIFY_REQUEST / CLIENT_HELLO"];
	s23 -> s23 [label="ECDH_SERVER_HELLO / TIMEOUT"];
	s23 -> s1 [label="ECDH_SERVER_KEY_EXCHANGE / Alert(FATAL,HANDSHAKE_FAILURE)"];
	s23 -> s23 [label="RSA_SIGN_CERTIFICATE_REQUEST / TIMEOUT"];
	s23 -> s23 [label="RSA_FIXED_ECDH_CERTIFICATE_REQUEST / TIMEOUT"];
	s23 -> s23 [label="RSA_FIXED_DH_CERTIFICATE_REQUEST / TIMEOUT"];
	s23 -> s23 [label="DSS_SIGN_CERTIFICATE_REQUEST / TIMEOUT"];
	s23 -> s23 [label="DSS_FIXED_DH_CERTIFICATE_REQUEST / TIMEOUT"];
	s23 -> s7 [label="ECDSA_SIGN_CERTIFICATE_REQUEST / TIMEOUT"];
	s23 -> s9 [label="SERVER_HELLO_DONE / EMPTY_CERTIFICATE,ECDH_CLIENT_KEY_EXCHANGE,CHANGE_CIPHER_SPEC,FINISHED"];
	s23 -> s1 [label="CHANGE_CIPHER_SPEC / TIMEOUT"];
	s23 -> s1 [label="FINISHED / Alert(FATAL,INTERNAL_ERROR)"];
	s23 -> s23 [label="APPLICATION / TIMEOUT"];
	s23 -> s20 [label="CERTIFICATE / TIMEOUT"];
	s23 -> s23 [label="EMPTY_CERTIFICATE / TIMEOUT"];
	s23 -> s1 [label="Alert(WARNING,CLOSE_NOTIFY) / Alert(WARNING,CLOSE_NOTIFY)"];
	s23 -> s1 [label="Alert(FATAL,UNEXPECTED_MESSAGE) / TIMEOUT"];
	s24 -> s24 [label="HELLO_VERIFY_REQUEST / TIMEOUT"];
	s24 -> s24 [label="ECDH_SERVER_HELLO / TIMEOUT"];
	s24 -> s24 [label="ECDH_SERVER_KEY_EXCHANGE / TIMEOUT"];
	s24 -> s24 [label="RSA_SIGN_CERTIFICATE_REQUEST / TIMEOUT"];
	s24 -> s24 [label="RSA_FIXED_ECDH_CERTIFICATE_REQUEST / TIMEOUT"];
	s24 -> s24 [label="RSA_FIXED_DH_CERTIFICATE_REQUEST / TIMEOUT"];
	s24 -> s24 [label="DSS_SIGN_CERTIFICATE_REQUEST / TIMEOUT"];
	s24 -> s24 [label="DSS_FIXED_DH_CERTIFICATE_REQUEST / TIMEOUT"];
	s24 -> s24 [label="ECDSA_SIGN_CERTIFICATE_REQUEST / TIMEOUT"];
	s24 -> s24 [label="SERVER_HELLO_DONE / TIMEOUT"];
	s24 -> s1 [label="CHANGE_CIPHER_SPEC / TIMEOUT"];
	s24 -> s24 [label="FINISHED / TIMEOUT"];
	s24 -> s24 [label="APPLICATION / APPLICATION"];
	s24 -> s24 [label="CERTIFICATE / TIMEOUT"];
	s24 -> s24 [label="EMPTY_CERTIFICATE / TIMEOUT"];
	s24 -> s1 [label="Alert(WARNING,CLOSE_NOTIFY) / Alert(WARNING,CLOSE_NOTIFY)"];
	s24 -> s1 [label="Alert(FATAL,UNEXPECTED_MESSAGE) / TIMEOUT"];
	s25 -> s25 [label="HELLO_VERIFY_REQUEST / CLIENT_HELLO"];
	s25 -> s25 [label="ECDH_SERVER_HELLO / TIMEOUT"];
	s25 -> s1 [label="ECDH_SERVER_KEY_EXCHANGE / Alert(FATAL,HANDSHAKE_FAILURE)"];
	s25 -> s26 [label="RSA_SIGN_CERTIFICATE_REQUEST / TIMEOUT"];
	s25 -> s26 [label="RSA_FIXED_ECDH_CERTIFICATE_REQUEST / TIMEOUT"];
	s25 -> s26 [label="RSA_FIXED_DH_CERTIFICATE_REQUEST / TIMEOUT"];
	s25 -> s26 [label="DSS_SIGN_CERTIFICATE_REQUEST / TIMEOUT"];
	s25 -> s26 [label="DSS_FIXED_DH_CERTIFICATE_REQUEST / TIMEOUT"];
	s25 -> s25 [label="ECDSA_SIGN_CERTIFICATE_REQUEST / TIMEOUT"];
	s25 -> s21 [label="SERVER_HELLO_DONE / ECDSA_CERTIFICATE,ECDH_CLIENT_KEY_EXCHANGE,CERTIFICATE_VERIFY,CHANGE_CIPHER_SPEC,UNKNOWN_MESSAGE"];
	s25 -> s1 [label="CHANGE_CIPHER_SPEC / TIMEOUT"];
	s25 -> s1 [label="FINISHED / Alert(FATAL,INTERNAL_ERROR)"];
	s25 -> s25 [label="APPLICATION / TIMEOUT"];
	s25 -> s19 [label="CERTIFICATE / TIMEOUT"];
	s25 -> s25 [label="EMPTY_CERTIFICATE / TIMEOUT"];
	s25 -> s1 [label="Alert(WARNING,CLOSE_NOTIFY) / Alert(WARNING,CLOSE_NOTIFY)"];
	s25 -> s1 [label="Alert(FATAL,UNEXPECTED_MESSAGE) / TIMEOUT"];
	s26 -> s26 [label="HELLO_VERIFY_REQUEST / CLIENT_HELLO"];
	s26 -> s26 [label="ECDH_SERVER_HELLO / TIMEOUT"];
	s26 -> s1 [label="ECDH_SERVER_KEY_EXCHANGE / Alert(FATAL,HANDSHAKE_FAILURE)"];
	s26 -> s26 [label="RSA_SIGN_CERTIFICATE_REQUEST / TIMEOUT"];
	s26 -> s26 [label="RSA_FIXED_ECDH_CERTIFICATE_REQUEST / TIMEOUT"];
	s26 -> s26 [label="RSA_FIXED_DH_CERTIFICATE_REQUEST / TIMEOUT"];
	s26 -> s26 [label="DSS_SIGN_CERTIFICATE_REQUEST / TIMEOUT"];
	s26 -> s26 [label="DSS_FIXED_DH_CERTIFICATE_REQUEST / TIMEOUT"];
	s26 -> s25 [label="ECDSA_SIGN_CERTIFICATE_REQUEST / TIMEOUT"];
	s26 -> s21 [label="SERVER_HELLO_DONE / EMPTY_CERTIFICATE,ECDH_CLIENT_KEY_EXCHANGE,CHANGE_CIPHER_SPEC,UNKNOWN_MESSAGE"];
	s26 -> s1 [label="CHANGE_CIPHER_SPEC / TIMEOUT"];
	s26 -> s1 [label="FINISHED / Alert(FATAL,INTERNAL_ERROR)"];
	s26 -> s26 [label="APPLICATION / TIMEOUT"];
	s26 -> s20 [label="CERTIFICATE / TIMEOUT"];
	s26 -> s26 [label="EMPTY_CERTIFICATE / TIMEOUT"];
	s26 -> s1 [label="Alert(WARNING,CLOSE_NOTIFY) / Alert(WARNING,CLOSE_NOTIFY)"];
	s26 -> s1 [label="Alert(FATAL,UNEXPECTED_MESSAGE) / TIMEOUT"];

__start0 [label="" shape="none" width="0" height="0"];
__start0 -> s0;

}
