digraph g {

	s0 [shape="circle" label="s0"];
	s1 [shape="circle" label="s1"];
	s2 [shape="circle" label="s2"];
	s3 [shape="circle" label="s3"];
	s4 [shape="circle" label="s4"];
	s5 [shape="circle" label="s5"];
	s6 [shape="circle" label="s6"];
	s7 [shape="circle" label="s7"];
	s8 [shape="circle" label="s8"];
	s9 [shape="circle" label="s9"];
	s10 [shape="circle" label="s10"];
	s11 [shape="circle" label="s11"];
	s12 [shape="circle" label="s12"];
	s13 [shape="circle" label="s13"];
	s14 [shape="circle" label="s14"];
	s15 [shape="circle" label="s15"];
	s16 [shape="circle" label="s16"];
	s17 [shape="circle" label="s17"];
	s18 [shape="circle" label="s18"];
	s19 [shape="circle" label="s19"];
	s20 [shape="circle" label="s20"];
	s21 [shape="circle" label="s21"];
	s22 [shape="circle" label="s22"];
	s23 [shape="circle" label="s23"];
	s24 [shape="circle" label="s24"];
	s25 [shape="circle" label="s25"];
	s26 [shape="circle" label="s26"];
	s27 [shape="circle" label="s27"];
	s28 [shape="circle" label="s28"];
	s29 [shape="circle" label="s29"];
	s30 [shape="circle" label="s30"];
	s31 [shape="circle" label="s31"];
	s32 [shape="circle" label="s32"];
	s33 [shape="circle" label="s33"];
	s34 [shape="circle" label="s34"];
	s35 [shape="circle" label="s35"];
	s36 [shape="circle" label="s36"];
	s37 [shape="circle" label="s37"];
	s38 [shape="circle" label="s38"];
	s39 [shape="circle" label="s39"];
	s40 [shape="circle" label="s40"];
	s41 [shape="circle" label="s41"];
	s42 [shape="circle" label="s42"];
	s43 [shape="circle" label="s43"];
	s44 [shape="circle" label="s44"];
	s45 [shape="circle" label="s45"];
	s46 [shape="circle" label="s46"];
	s47 [shape="circle" label="s47"];
	s48 [shape="circle" label="s48"];
	s49 [shape="circle" label="s49"];
	s0 -> s2 [label="HELLO_VERIFY_REQUEST / CLIENT_HELLO+"];
	s0 -> s3 [label="ECDH_SERVER_HELLO / CLIENT_HELLO"];
	s0 -> s1 [label="ECDH_SERVER_KEY_EXCHANGE / CLIENT_HELLO,Alert(FATAL,INTERNAL_ERROR)"];
	s0 -> s34 [label="RSA_SIGN_CERTIFICATE_REQUEST / CLIENT_HELLO"];
	s0 -> s34 [label="RSA_FIXED_ECDH_CERTIFICATE_REQUEST / CLIENT_HELLO"];
	s0 -> s34 [label="RSA_FIXED_DH_CERTIFICATE_REQUEST / CLIENT_HELLO"];
	s0 -> s34 [label="DSS_SIGN_CERTIFICATE_REQUEST / CLIENT_HELLO"];
	s0 -> s34 [label="DSS_FIXED_DH_CERTIFICATE_REQUEST / CLIENT_HELLO"];
	s0 -> s33 [label="ECDSA_SIGN_CERTIFICATE_REQUEST / CLIENT_HELLO"];
	s0 -> s1 [label="SERVER_HELLO_DONE / CLIENT_HELLO,Alert(FATAL,INTERNAL_ERROR)"];
	s0 -> s1 [label="CHANGE_CIPHER_SPEC / CLIENT_HELLO"];
	s0 -> s1 [label="FINISHED / CLIENT_HELLO,Alert(FATAL,INTERNAL_ERROR)"];
	s0 -> s2 [label="APPLICATION / CLIENT_HELLO"];
	s0 -> s1 [label="CERTIFICATE / CLIENT_HELLO,Alert(FATAL,INTERNAL_ERROR)"];
	s0 -> s1 [label="EMPTY_CERTIFICATE / CLIENT_HELLO,Alert(FATAL,INTERNAL_ERROR)"];
	s0 -> s1 [label="Alert(WARNING,CLOSE_NOTIFY) / CLIENT_HELLO,Alert(WARNING,CLOSE_NOTIFY)"];
	s0 -> s1 [label="Alert(FATAL,UNEXPECTED_MESSAGE) / CLIENT_HELLO"];
	s1 -> s1 [label="HELLO_VERIFY_REQUEST / TIMEOUT"];
	s1 -> s1 [label="ECDH_SERVER_HELLO / TIMEOUT"];
	s1 -> s1 [label="ECDH_SERVER_KEY_EXCHANGE / TIMEOUT"];
	s1 -> s1 [label="RSA_SIGN_CERTIFICATE_REQUEST / TIMEOUT"];
	s1 -> s1 [label="RSA_FIXED_ECDH_CERTIFICATE_REQUEST / TIMEOUT"];
	s1 -> s1 [label="RSA_FIXED_DH_CERTIFICATE_REQUEST / TIMEOUT"];
	s1 -> s1 [label="DSS_SIGN_CERTIFICATE_REQUEST / TIMEOUT"];
	s1 -> s1 [label="DSS_FIXED_DH_CERTIFICATE_REQUEST / TIMEOUT"];
	s1 -> s1 [label="ECDSA_SIGN_CERTIFICATE_REQUEST / TIMEOUT"];
	s1 -> s1 [label="SERVER_HELLO_DONE / TIMEOUT"];
	s1 -> s1 [label="CHANGE_CIPHER_SPEC / TIMEOUT"];
	s1 -> s1 [label="FINISHED / TIMEOUT"];
	s1 -> s1 [label="APPLICATION / TIMEOUT"];
	s1 -> s1 [label="CERTIFICATE / TIMEOUT"];
	s1 -> s1 [label="EMPTY_CERTIFICATE / TIMEOUT"];
	s1 -> s1 [label="Alert(WARNING,CLOSE_NOTIFY) / TIMEOUT"];
	s1 -> s1 [label="Alert(FATAL,UNEXPECTED_MESSAGE) / TIMEOUT"];
	s2 -> s2 [label="HELLO_VERIFY_REQUEST / CLIENT_HELLO"];
	s2 -> s3 [label="ECDH_SERVER_HELLO / TIMEOUT"];
	s2 -> s1 [label="ECDH_SERVER_KEY_EXCHANGE / Alert(FATAL,INTERNAL_ERROR)"];
	s2 -> s34 [label="RSA_SIGN_CERTIFICATE_REQUEST / TIMEOUT"];
	s2 -> s34 [label="RSA_FIXED_ECDH_CERTIFICATE_REQUEST / TIMEOUT"];
	s2 -> s34 [label="RSA_FIXED_DH_CERTIFICATE_REQUEST / TIMEOUT"];
	s2 -> s34 [label="DSS_SIGN_CERTIFICATE_REQUEST / TIMEOUT"];
	s2 -> s34 [label="DSS_FIXED_DH_CERTIFICATE_REQUEST / TIMEOUT"];
	s2 -> s33 [label="ECDSA_SIGN_CERTIFICATE_REQUEST / TIMEOUT"];
	s2 -> s1 [label="SERVER_HELLO_DONE / Alert(FATAL,INTERNAL_ERROR)"];
	s2 -> s1 [label="CHANGE_CIPHER_SPEC / TIMEOUT"];
	s2 -> s1 [label="FINISHED / Alert(FATAL,INTERNAL_ERROR)"];
	s2 -> s2 [label="APPLICATION / TIMEOUT"];
	s2 -> s1 [label="CERTIFICATE / Alert(FATAL,INTERNAL_ERROR)"];
	s2 -> s1 [label="EMPTY_CERTIFICATE / Alert(FATAL,INTERNAL_ERROR)"];
	s2 -> s1 [label="Alert(WARNING,CLOSE_NOTIFY) / Alert(WARNING,CLOSE_NOTIFY)"];
	s2 -> s1 [label="Alert(FATAL,UNEXPECTED_MESSAGE) / TIMEOUT"];
	s3 -> s47 [label="HELLO_VERIFY_REQUEST / CLIENT_HELLO"];
	s3 -> s3 [label="ECDH_SERVER_HELLO / TIMEOUT"];
	s3 -> s1 [label="ECDH_SERVER_KEY_EXCHANGE / Alert(FATAL,HANDSHAKE_FAILURE)"];
	s3 -> s28 [label="RSA_SIGN_CERTIFICATE_REQUEST / TIMEOUT"];
	s3 -> s28 [label="RSA_FIXED_ECDH_CERTIFICATE_REQUEST / TIMEOUT"];
	s3 -> s28 [label="RSA_FIXED_DH_CERTIFICATE_REQUEST / TIMEOUT"];
	s3 -> s28 [label="DSS_SIGN_CERTIFICATE_REQUEST / TIMEOUT"];
	s3 -> s28 [label="DSS_FIXED_DH_CERTIFICATE_REQUEST / TIMEOUT"];
	s3 -> s30 [label="ECDSA_SIGN_CERTIFICATE_REQUEST / TIMEOUT"];
	s3 -> s1 [label="SERVER_HELLO_DONE / Alert(FATAL,INTERNAL_ERROR)"];
	s3 -> s1 [label="CHANGE_CIPHER_SPEC / TIMEOUT"];
	s3 -> s1 [label="FINISHED / Alert(FATAL,INTERNAL_ERROR)"];
	s3 -> s3 [label="APPLICATION / TIMEOUT"];
	s3 -> s4 [label="CERTIFICATE / TIMEOUT"];
	s3 -> s47 [label="EMPTY_CERTIFICATE / TIMEOUT"];
	s3 -> s1 [label="Alert(WARNING,CLOSE_NOTIFY) / Alert(WARNING,CLOSE_NOTIFY)"];
	s3 -> s1 [label="Alert(FATAL,UNEXPECTED_MESSAGE) / TIMEOUT"];
	s4 -> s46 [label="HELLO_VERIFY_REQUEST / CLIENT_HELLO"];
	s4 -> s46 [label="ECDH_SERVER_HELLO / TIMEOUT"];
	s4 -> s5 [label="ECDH_SERVER_KEY_EXCHANGE / TIMEOUT"];
	s4 -> s28 [label="RSA_SIGN_CERTIFICATE_REQUEST / TIMEOUT"];
	s4 -> s28 [label="RSA_FIXED_ECDH_CERTIFICATE_REQUEST / TIMEOUT"];
	s4 -> s28 [label="RSA_FIXED_DH_CERTIFICATE_REQUEST / TIMEOUT"];
	s4 -> s28 [label="DSS_SIGN_CERTIFICATE_REQUEST / TIMEOUT"];
	s4 -> s28 [label="DSS_FIXED_DH_CERTIFICATE_REQUEST / TIMEOUT"];
	s4 -> s30 [label="ECDSA_SIGN_CERTIFICATE_REQUEST / TIMEOUT"];
	s4 -> s1 [label="SERVER_HELLO_DONE / Alert(FATAL,INTERNAL_ERROR)"];
	s4 -> s1 [label="CHANGE_CIPHER_SPEC / TIMEOUT"];
	s4 -> s1 [label="FINISHED / Alert(FATAL,INTERNAL_ERROR)"];
	s4 -> s4 [label="APPLICATION / TIMEOUT"];
	s4 -> s46 [label="CERTIFICATE / TIMEOUT"];
	s4 -> s47 [label="EMPTY_CERTIFICATE / TIMEOUT"];
	s4 -> s1 [label="Alert(WARNING,CLOSE_NOTIFY) / Alert(WARNING,CLOSE_NOTIFY)"];
	s4 -> s1 [label="Alert(FATAL,UNEXPECTED_MESSAGE) / TIMEOUT"];
	s5 -> s27 [label="HELLO_VERIFY_REQUEST / CLIENT_HELLO"];
	s5 -> s27 [label="ECDH_SERVER_HELLO / TIMEOUT"];
	s5 -> s1 [label="ECDH_SERVER_KEY_EXCHANGE / Alert(FATAL,HANDSHAKE_FAILURE)"];
	s5 -> s6 [label="RSA_SIGN_CERTIFICATE_REQUEST / TIMEOUT"];
	s5 -> s6 [label="RSA_FIXED_ECDH_CERTIFICATE_REQUEST / TIMEOUT"];
	s5 -> s6 [label="RSA_FIXED_DH_CERTIFICATE_REQUEST / TIMEOUT"];
	s5 -> s6 [label="DSS_SIGN_CERTIFICATE_REQUEST / TIMEOUT"];
	s5 -> s6 [label="DSS_FIXED_DH_CERTIFICATE_REQUEST / TIMEOUT"];
	s5 -> s7 [label="ECDSA_SIGN_CERTIFICATE_REQUEST / TIMEOUT"];
	s5 -> s8 [label="SERVER_HELLO_DONE / ECDH_CLIENT_KEY_EXCHANGE,CHANGE_CIPHER_SPEC,FINISHED"];
	s5 -> s1 [label="CHANGE_CIPHER_SPEC / TIMEOUT"];
	s5 -> s1 [label="FINISHED / Alert(FATAL,INTERNAL_ERROR)"];
	s5 -> s5 [label="APPLICATION / TIMEOUT"];
	s5 -> s13 [label="CERTIFICATE / TIMEOUT"];
	s5 -> s27 [label="EMPTY_CERTIFICATE / TIMEOUT"];
	s5 -> s1 [label="Alert(WARNING,CLOSE_NOTIFY) / Alert(WARNING,CLOSE_NOTIFY)"];
	s5 -> s1 [label="Alert(FATAL,UNEXPECTED_MESSAGE) / TIMEOUT"];
	s6 -> s23 [label="HELLO_VERIFY_REQUEST / CLIENT_HELLO"];
	s6 -> s41 [label="ECDH_SERVER_HELLO / TIMEOUT"];
	s6 -> s1 [label="ECDH_SERVER_KEY_EXCHANGE / Alert(FATAL,HANDSHAKE_FAILURE)"];
	s6 -> s23 [label="RSA_SIGN_CERTIFICATE_REQUEST / TIMEOUT"];
	s6 -> s23 [label="RSA_FIXED_ECDH_CERTIFICATE_REQUEST / TIMEOUT"];
	s6 -> s23 [label="RSA_FIXED_DH_CERTIFICATE_REQUEST / TIMEOUT"];
	s6 -> s23 [label="DSS_SIGN_CERTIFICATE_REQUEST / TIMEOUT"];
	s6 -> s23 [label="DSS_FIXED_DH_CERTIFICATE_REQUEST / TIMEOUT"];
	s6 -> s32 [label="ECDSA_SIGN_CERTIFICATE_REQUEST / TIMEOUT"];
	s6 -> s8 [label="SERVER_HELLO_DONE / EMPTY_CERTIFICATE,ECDH_CLIENT_KEY_EXCHANGE,CHANGE_CIPHER_SPEC,FINISHED"];
	s6 -> s1 [label="CHANGE_CIPHER_SPEC / TIMEOUT"];
	s6 -> s1 [label="FINISHED / Alert(FATAL,INTERNAL_ERROR)"];
	s6 -> s6 [label="APPLICATION / TIMEOUT"];
	s6 -> s20 [label="CERTIFICATE / TIMEOUT"];
	s6 -> s23 [label="EMPTY_CERTIFICATE / TIMEOUT"];
	s6 -> s1 [label="Alert(WARNING,CLOSE_NOTIFY) / Alert(WARNING,CLOSE_NOTIFY)"];
	s6 -> s1 [label="Alert(FATAL,UNEXPECTED_MESSAGE) / TIMEOUT"];
	s7 -> s32 [label="HELLO_VERIFY_REQUEST / CLIENT_HELLO"];
	s7 -> s48 [label="ECDH_SERVER_HELLO / TIMEOUT"];
	s7 -> s1 [label="ECDH_SERVER_KEY_EXCHANGE / Alert(FATAL,HANDSHAKE_FAILURE)"];
	s7 -> s23 [label="RSA_SIGN_CERTIFICATE_REQUEST / TIMEOUT"];
	s7 -> s23 [label="RSA_FIXED_ECDH_CERTIFICATE_REQUEST / TIMEOUT"];
	s7 -> s23 [label="RSA_FIXED_DH_CERTIFICATE_REQUEST / TIMEOUT"];
	s7 -> s23 [label="DSS_SIGN_CERTIFICATE_REQUEST / TIMEOUT"];
	s7 -> s23 [label="DSS_FIXED_DH_CERTIFICATE_REQUEST / TIMEOUT"];
	s7 -> s32 [label="ECDSA_SIGN_CERTIFICATE_REQUEST / TIMEOUT"];
	s7 -> s8 [label="SERVER_HELLO_DONE / ECDSA_CERTIFICATE,ECDH_CLIENT_KEY_EXCHANGE,CERTIFICATE_VERIFY,CHANGE_CIPHER_SPEC,FINISHED"];
	s7 -> s1 [label="CHANGE_CIPHER_SPEC / TIMEOUT"];
	s7 -> s1 [label="FINISHED / Alert(FATAL,INTERNAL_ERROR)"];
	s7 -> s7 [label="APPLICATION / TIMEOUT"];
	s7 -> s19 [label="CERTIFICATE / TIMEOUT"];
	s7 -> s32 [label="EMPTY_CERTIFICATE / TIMEOUT"];
	s7 -> s1 [label="Alert(WARNING,CLOSE_NOTIFY) / Alert(WARNING,CLOSE_NOTIFY)"];
	s7 -> s1 [label="Alert(FATAL,UNEXPECTED_MESSAGE) / TIMEOUT"];
	s8 -> s9 [label="HELLO_VERIFY_REQUEST / CLIENT_HELLO"];
	s8 -> s11 [label="ECDH_SERVER_HELLO / TIMEOUT"];
	s8 -> s1 [label="ECDH_SERVER_KEY_EXCHANGE / Alert(FATAL,HANDSHAKE_FAILURE)"];
	s8 -> s9 [label="RSA_SIGN_CERTIFICATE_REQUEST / TIMEOUT"];
	s8 -> s9 [label="RSA_FIXED_ECDH_CERTIFICATE_REQUEST / TIMEOUT"];
	s8 -> s9 [label="RSA_FIXED_DH_CERTIFICATE_REQUEST / TIMEOUT"];
	s8 -> s9 [label="DSS_SIGN_CERTIFICATE_REQUEST / TIMEOUT"];
	s8 -> s9 [label="DSS_FIXED_DH_CERTIFICATE_REQUEST / TIMEOUT"];
	s8 -> s9 [label="ECDSA_SIGN_CERTIFICATE_REQUEST / TIMEOUT"];
	s8 -> s1 [label="SERVER_HELLO_DONE / Alert(FATAL,INTERNAL_ERROR)"];
	s8 -> s8 [label="CHANGE_CIPHER_SPEC / TIMEOUT"];
	s8 -> s24 [label="FINISHED / APPLICATION"];
	s8 -> s8 [label="APPLICATION / TIMEOUT"];
	s8 -> s10 [label="CERTIFICATE / TIMEOUT"];
	s8 -> s9 [label="EMPTY_CERTIFICATE / TIMEOUT"];
	s8 -> s1 [label="Alert(WARNING,CLOSE_NOTIFY) / Alert(WARNING,CLOSE_NOTIFY)"];
	s8 -> s1 [label="Alert(FATAL,UNEXPECTED_MESSAGE) / TIMEOUT"];
	s9 -> s9 [label="HELLO_VERIFY_REQUEST / CLIENT_HELLO"];
	s9 -> s11 [label="ECDH_SERVER_HELLO / TIMEOUT"];
	s9 -> s1 [label="ECDH_SERVER_KEY_EXCHANGE / Alert(FATAL,HANDSHAKE_FAILURE)"];
	s9 -> s9 [label="RSA_SIGN_CERTIFICATE_REQUEST / TIMEOUT"];
	s9 -> s9 [label="RSA_FIXED_ECDH_CERTIFICATE_REQUEST / TIMEOUT"];
	s9 -> s9 [label="RSA_FIXED_DH_CERTIFICATE_REQUEST / TIMEOUT"];
	s9 -> s9 [label="DSS_SIGN_CERTIFICATE_REQUEST / TIMEOUT"];
	s9 -> s9 [label="DSS_FIXED_DH_CERTIFICATE_REQUEST / TIMEOUT"];
	s9 -> s9 [label="ECDSA_SIGN_CERTIFICATE_REQUEST / TIMEOUT"];
	s9 -> s1 [label="SERVER_HELLO_DONE / Alert(FATAL,INTERNAL_ERROR)"];
	s9 -> s9 [label="CHANGE_CIPHER_SPEC / TIMEOUT"];
	s9 -> s1 [label="FINISHED / Alert(FATAL,HANDSHAKE_FAILURE)"];
	s9 -> s9 [label="APPLICATION / TIMEOUT"];
	s9 -> s10 [label="CERTIFICATE / TIMEOUT"];
	s9 -> s9 [label="EMPTY_CERTIFICATE / TIMEOUT"];
	s9 -> s1 [label="Alert(WARNING,CLOSE_NOTIFY) / Alert(WARNING,CLOSE_NOTIFY)"];
	s9 -> s1 [label="Alert(FATAL,UNEXPECTED_MESSAGE) / TIMEOUT"];
	s10 -> s10 [label="HELLO_VERIFY_REQUEST / CLIENT_HELLO"];
	s10 -> s22 [label="ECDH_SERVER_HELLO / TIMEOUT"];
	s10 -> s9 [label="ECDH_SERVER_KEY_EXCHANGE / TIMEOUT"];
	s10 -> s9 [label="RSA_SIGN_CERTIFICATE_REQUEST / TIMEOUT"];
	s10 -> s9 [label="RSA_FIXED_ECDH_CERTIFICATE_REQUEST / TIMEOUT"];
	s10 -> s9 [label="RSA_FIXED_DH_CERTIFICATE_REQUEST / TIMEOUT"];
	s10 -> s9 [label="DSS_SIGN_CERTIFICATE_REQUEST / TIMEOUT"];
	s10 -> s9 [label="DSS_FIXED_DH_CERTIFICATE_REQUEST / TIMEOUT"];
	s10 -> s9 [label="ECDSA_SIGN_CERTIFICATE_REQUEST / TIMEOUT"];
	s10 -> s1 [label="SERVER_HELLO_DONE / Alert(FATAL,INTERNAL_ERROR)"];
	s10 -> s10 [label="CHANGE_CIPHER_SPEC / TIMEOUT"];
	s10 -> s1 [label="FINISHED / Alert(FATAL,HANDSHAKE_FAILURE)"];
	s10 -> s10 [label="APPLICATION / TIMEOUT"];
	s10 -> s10 [label="CERTIFICATE / TIMEOUT"];
	s10 -> s9 [label="EMPTY_CERTIFICATE / TIMEOUT"];
	s10 -> s1 [label="Alert(WARNING,CLOSE_NOTIFY) / Alert(WARNING,CLOSE_NOTIFY)"];
	s10 -> s1 [label="Alert(FATAL,UNEXPECTED_MESSAGE) / TIMEOUT"];
	s11 -> s11 [label="HELLO_VERIFY_REQUEST / CLIENT_HELLO"];
	s11 -> s11 [label="ECDH_SERVER_HELLO / TIMEOUT"];
	s11 -> s1 [label="ECDH_SERVER_KEY_EXCHANGE / Alert(FATAL,HANDSHAKE_FAILURE)"];
	s11 -> s11 [label="RSA_SIGN_CERTIFICATE_REQUEST / TIMEOUT"];
	s11 -> s11 [label="RSA_FIXED_ECDH_CERTIFICATE_REQUEST / TIMEOUT"];
	s11 -> s11 [label="RSA_FIXED_DH_CERTIFICATE_REQUEST / TIMEOUT"];
	s11 -> s11 [label="DSS_SIGN_CERTIFICATE_REQUEST / TIMEOUT"];
	s11 -> s11 [label="DSS_FIXED_DH_CERTIFICATE_REQUEST / TIMEOUT"];
	s11 -> s11 [label="ECDSA_SIGN_CERTIFICATE_REQUEST / TIMEOUT"];
	s11 -> s1 [label="SERVER_HELLO_DONE / Alert(FATAL,INTERNAL_ERROR)"];
	s11 -> s12 [label="CHANGE_CIPHER_SPEC / TIMEOUT"];
	s11 -> s1 [label="FINISHED / Alert(FATAL,HANDSHAKE_FAILURE)"];
	s11 -> s11 [label="APPLICATION / TIMEOUT"];
	s11 -> s22 [label="CERTIFICATE / TIMEOUT"];
	s11 -> s11 [label="EMPTY_CERTIFICATE / TIMEOUT"];
	s11 -> s1 [label="Alert(WARNING,CLOSE_NOTIFY) / Alert(WARNING,CLOSE_NOTIFY)"];
	s11 -> s1 [label="Alert(FATAL,UNEXPECTED_MESSAGE) / TIMEOUT"];
	s12 -> s12 [label="HELLO_VERIFY_REQUEST / TIMEOUT"];
	s12 -> s12 [label="ECDH_SERVER_HELLO / TIMEOUT"];
	s12 -> s12 [label="ECDH_SERVER_KEY_EXCHANGE / TIMEOUT"];
	s12 -> s12 [label="RSA_SIGN_CERTIFICATE_REQUEST / TIMEOUT"];
	s12 -> s12 [label="RSA_FIXED_ECDH_CERTIFICATE_REQUEST / TIMEOUT"];
	s12 -> s12 [label="RSA_FIXED_DH_CERTIFICATE_REQUEST / TIMEOUT"];
	s12 -> s12 [label="DSS_SIGN_CERTIFICATE_REQUEST / TIMEOUT"];
	s12 -> s12 [label="DSS_FIXED_DH_CERTIFICATE_REQUEST / TIMEOUT"];
	s12 -> s12 [label="ECDSA_SIGN_CERTIFICATE_REQUEST / TIMEOUT"];
	s12 -> s12 [label="SERVER_HELLO_DONE / TIMEOUT"];
	s12 -> s1 [label="CHANGE_CIPHER_SPEC / Alert(FATAL,INTERNAL_ERROR)"];
	s12 -> s12 [label="FINISHED / TIMEOUT"];
	s12 -> s12 [label="APPLICATION / TIMEOUT"];
	s12 -> s12 [label="CERTIFICATE / TIMEOUT"];
	s12 -> s12 [label="EMPTY_CERTIFICATE / TIMEOUT"];
	s12 -> s12 [label="Alert(WARNING,CLOSE_NOTIFY) / TIMEOUT"];
	s12 -> s12 [label="Alert(FATAL,UNEXPECTED_MESSAGE) / TIMEOUT"];
	s13 -> s13 [label="HELLO_VERIFY_REQUEST / CLIENT_HELLO"];
	s13 -> s13 [label="ECDH_SERVER_HELLO / TIMEOUT"];
	s13 -> s27 [label="ECDH_SERVER_KEY_EXCHANGE / TIMEOUT"];
	s13 -> s15 [label="RSA_SIGN_CERTIFICATE_REQUEST / TIMEOUT"];
	s13 -> s15 [label="RSA_FIXED_ECDH_CERTIFICATE_REQUEST / TIMEOUT"];
	s13 -> s15 [label="RSA_FIXED_DH_CERTIFICATE_REQUEST / TIMEOUT"];
	s13 -> s15 [label="DSS_SIGN_CERTIFICATE_REQUEST / TIMEOUT"];
	s13 -> s15 [label="DSS_FIXED_DH_CERTIFICATE_REQUEST / TIMEOUT"];
	s13 -> s16 [label="ECDSA_SIGN_CERTIFICATE_REQUEST / TIMEOUT"];
	s13 -> s17 [label="SERVER_HELLO_DONE / ECDH_CLIENT_KEY_EXCHANGE,CHANGE_CIPHER_SPEC,UNKNOWN_MESSAGE"];
	s13 -> s1 [label="CHANGE_CIPHER_SPEC / TIMEOUT"];
	s13 -> s1 [label="FINISHED / Alert(FATAL,INTERNAL_ERROR)"];
	s13 -> s13 [label="APPLICATION / TIMEOUT"];
	s13 -> s13 [label="CERTIFICATE / TIMEOUT"];
	s13 -> s14 [label="EMPTY_CERTIFICATE / TIMEOUT"];
	s13 -> s1 [label="Alert(WARNING,CLOSE_NOTIFY) / Alert(WARNING,CLOSE_NOTIFY)"];
	s13 -> s1 [label="Alert(FATAL,UNEXPECTED_MESSAGE) / TIMEOUT"];
	s14 -> s14 [label="HELLO_VERIFY_REQUEST / CLIENT_HELLO"];
	s14 -> s14 [label="ECDH_SERVER_HELLO / TIMEOUT"];
	s14 -> s1 [label="ECDH_SERVER_KEY_EXCHANGE / Alert(FATAL,HANDSHAKE_FAILURE)"];
	s14 -> s26 [label="RSA_SIGN_CERTIFICATE_REQUEST / TIMEOUT"];
	s14 -> s26 [label="RSA_FIXED_ECDH_CERTIFICATE_REQUEST / TIMEOUT"];
	s14 -> s26 [label="RSA_FIXED_DH_CERTIFICATE_REQUEST / TIMEOUT"];
	s14 -> s26 [label="DSS_SIGN_CERTIFICATE_REQUEST / TIMEOUT"];
	s14 -> s26 [label="DSS_FIXED_DH_CERTIFICATE_REQUEST / TIMEOUT"];
	s14 -> s25 [label="ECDSA_SIGN_CERTIFICATE_REQUEST / TIMEOUT"];
	s14 -> s21 [label="SERVER_HELLO_DONE / ECDH_CLIENT_KEY_EXCHANGE,CHANGE_CIPHER_SPEC,UNKNOWN_MESSAGE"];
	s14 -> s1 [label="CHANGE_CIPHER_SPEC / TIMEOUT"];
	s14 -> s1 [label="FINISHED / Alert(FATAL,INTERNAL_ERROR)"];
	s14 -> s14 [label="APPLICATION / TIMEOUT"];
	s14 -> s13 [label="CERTIFICATE / TIMEOUT"];
	s14 -> s14 [label="EMPTY_CERTIFICATE / TIMEOUT"];
	s14 -> s1 [label="Alert(WARNING,CLOSE_NOTIFY) / Alert(WARNING,CLOSE_NOTIFY)"];
	s14 -> s1 [label="Alert(FATAL,UNEXPECTED_MESSAGE) / TIMEOUT"];
	s15 -> s15 [label="HELLO_VERIFY_REQUEST / CLIENT_HELLO"];
	s15 -> s45 [label="ECDH_SERVER_HELLO / TIMEOUT"];
	s15 -> s1 [label="ECDH_SERVER_KEY_EXCHANGE / Alert(FATAL,HANDSHAKE_FAILURE)"];
	s15 -> s15 [label="RSA_SIGN_CERTIFICATE_REQUEST / TIMEOUT"];
	s15 -> s15 [label="RSA_FIXED_ECDH_CERTIFICATE_REQUEST / TIMEOUT"];
	s15 -> s15 [label="RSA_FIXED_DH_CERTIFICATE_REQUEST / TIMEOUT"];
	s15 -> s15 [label="DSS_SIGN_CERTIFICATE_REQUEST / TIMEOUT"];
	s15 -> s15 [label="DSS_FIXED_DH_CERTIFICATE_REQUEST / TIMEOUT"];
	s15 -> s16 [label="ECDSA_SIGN_CERTIFICATE_REQUEST / TIMEOUT"];
	s15 -> s21 [label="SERVER_HELLO_DONE / EMPTY_CERTIFICATE,ECDH_CLIENT_KEY_EXCHANGE,CHANGE_CIPHER_SPEC,UNKNOWN_MESSAGE"];
	s15 -> s1 [label="CHANGE_CIPHER_SPEC / TIMEOUT"];
	s15 -> s1 [label="FINISHED / Alert(FATAL,INTERNAL_ERROR)"];
	s15 -> s15 [label="APPLICATION / TIMEOUT"];
	s15 -> s20 [label="CERTIFICATE / TIMEOUT"];
	s15 -> s26 [label="EMPTY_CERTIFICATE / TIMEOUT"];
	s15 -> s1 [label="Alert(WARNING,CLOSE_NOTIFY) / Alert(WARNING,CLOSE_NOTIFY)"];
	s15 -> s1 [label="Alert(FATAL,UNEXPECTED_MESSAGE) / TIMEOUT"];
	s16 -> s16 [label="HELLO_VERIFY_REQUEST / CLIENT_HELLO"];
	s16 -> s16 [label="ECDH_SERVER_HELLO / TIMEOUT"];
	s16 -> s1 [label="ECDH_SERVER_KEY_EXCHANGE / Alert(FATAL,HANDSHAKE_FAILURE)"];
	s16 -> s15 [label="RSA_SIGN_CERTIFICATE_REQUEST / TIMEOUT"];
	s16 -> s15 [label="RSA_FIXED_ECDH_CERTIFICATE_REQUEST / TIMEOUT"];
	s16 -> s15 [label="RSA_FIXED_DH_CERTIFICATE_REQUEST / TIMEOUT"];
	s16 -> s15 [label="DSS_SIGN_CERTIFICATE_REQUEST / TIMEOUT"];
	s16 -> s15 [label="DSS_FIXED_DH_CERTIFICATE_REQUEST / TIMEOUT"];
	s16 -> s16 [label="ECDSA_SIGN_CERTIFICATE_REQUEST / TIMEOUT"];
	s16 -> s17 [label="SERVER_HELLO_DONE / ECDSA_CERTIFICATE,ECDH_CLIENT_KEY_EXCHANGE,CERTIFICATE_VERIFY,CHANGE_CIPHER_SPEC,UNKNOWN_MESSAGE"];
	s16 -> s1 [label="CHANGE_CIPHER_SPEC / TIMEOUT"];
	s16 -> s1 [label="FINISHED / Alert(FATAL,INTERNAL_ERROR)"];
	s16 -> s16 [label="APPLICATION / TIMEOUT"];
	s16 -> s19 [label="CERTIFICATE / TIMEOUT"];
	s16 -> s25 [label="EMPTY_CERTIFICATE / TIMEOUT"];
	s16 -> s1 [label="Alert(WARNING,CLOSE_NOTIFY) / Alert(WARNING,CLOSE_NOTIFY)"];
	s16 -> s1 [label="Alert(FATAL,UNEXPECTED_MESSAGE) / TIMEOUT"];
	s17 -> s17 [label="HELLO_VERIFY_REQUEST / UNKNOWN_MESSAGE"];
	s17 -> s17 [label="ECDH_SERVER_HELLO / TIMEOUT"];
	s17 -> s21 [label="ECDH_SERVER_KEY_EXCHANGE / TIMEOUT"];
	s17 -> s21 [label="RSA_SIGN_CERTIFICATE_REQUEST / TIMEOUT"];
	s17 -> s21 [label="RSA_FIXED_ECDH_CERTIFICATE_REQUEST / TIMEOUT"];
	s17 -> s21 [label="RSA_FIXED_DH_CERTIFICATE_REQUEST / TIMEOUT"];
	s17 -> s21 [label="DSS_SIGN_CERTIFICATE_REQUEST / TIMEOUT"];
	s17 -> s21 [label="DSS_FIXED_DH_CERTIFICATE_REQUEST / TIMEOUT"];
	s17 -> s21 [label="ECDSA_SIGN_CERTIFICATE_REQUEST / TIMEOUT"];
	s17 -> s1 [label="SERVER_HELLO_DONE / UNKNOWN_MESSAGE"];
	s17 -> s18 [label="CHANGE_CIPHER_SPEC / TIMEOUT"];
	s17 -> s1 [label="FINISHED / UNKNOWN_MESSAGE"];
	s17 -> s17 [label="APPLICATION / TIMEOUT"];
	s17 -> s17 [label="CERTIFICATE / TIMEOUT"];
	s17 -> s21 [label="EMPTY_CERTIFICATE / TIMEOUT"];
	s17 -> s1 [label="Alert(WARNING,CLOSE_NOTIFY) / UNKNOWN_MESSAGE"];
	s17 -> s1 [label="Alert(FATAL,UNEXPECTED_MESSAGE) / TIMEOUT"];
	s18 -> s18 [label="HELLO_VERIFY_REQUEST / TIMEOUT"];
	s18 -> s18 [label="ECDH_SERVER_HELLO / TIMEOUT"];
	s18 -> s18 [label="ECDH_SERVER_KEY_EXCHANGE / TIMEOUT"];
	s18 -> s18 [label="RSA_SIGN_CERTIFICATE_REQUEST / TIMEOUT"];
	s18 -> s18 [label="RSA_FIXED_ECDH_CERTIFICATE_REQUEST / TIMEOUT"];
	s18 -> s18 [label="RSA_FIXED_DH_CERTIFICATE_REQUEST / TIMEOUT"];
	s18 -> s18 [label="DSS_SIGN_CERTIFICATE_REQUEST / TIMEOUT"];
	s18 -> s18 [label="DSS_FIXED_DH_CERTIFICATE_REQUEST / TIMEOUT"];
	s18 -> s18 [label="ECDSA_SIGN_CERTIFICATE_REQUEST / TIMEOUT"];
	s18 -> s18 [label="SERVER_HELLO_DONE / TIMEOUT"];
	s18 -> s1 [label="CHANGE_CIPHER_SPEC / UNKNOWN_MESSAGE"];
	s18 -> s18 [label="FINISHED / TIMEOUT"];
	s18 -> s18 [label="APPLICATION / TIMEOUT"];
	s18 -> s18 [label="CERTIFICATE / TIMEOUT"];
	s18 -> s18 [label="EMPTY_CERTIFICATE / TIMEOUT"];
	s18 -> s18 [label="Alert(WARNING,CLOSE_NOTIFY) / TIMEOUT"];
	s18 -> s18 [label="Alert(FATAL,UNEXPECTED_MESSAGE) / TIMEOUT"];
	s19 -> s19 [label="HELLO_VERIFY_REQUEST / CLIENT_HELLO"];
	s19 -> s19 [label="ECDH_SERVER_HELLO / TIMEOUT"];
	s19 -> s32 [label="ECDH_SERVER_KEY_EXCHANGE / TIMEOUT"];
	s19 -> s15 [label="RSA_SIGN_CERTIFICATE_REQUEST / TIMEOUT"];
	s19 -> s15 [label="RSA_FIXED_ECDH_CERTIFICATE_REQUEST / TIMEOUT"];
	s19 -> s15 [label="RSA_FIXED_DH_CERTIFICATE_REQUEST / TIMEOUT"];
	s19 -> s15 [label="DSS_SIGN_CERTIFICATE_REQUEST / TIMEOUT"];
	s19 -> s15 [label="DSS_FIXED_DH_CERTIFICATE_REQUEST / TIMEOUT"];
	s19 -> s16 [label="ECDSA_SIGN_CERTIFICATE_REQUEST / TIMEOUT"];
	s19 -> s17 [label="SERVER_HELLO_DONE / ECDSA_CERTIFICATE,ECDH_CLIENT_KEY_EXCHANGE,CERTIFICATE_VERIFY,CHANGE_CIPHER_SPEC,UNKNOWN_MESSAGE"];
	s19 -> s1 [label="CHANGE_CIPHER_SPEC / TIMEOUT"];
	s19 -> s1 [label="FINISHED / Alert(FATAL,INTERNAL_ERROR)"];
	s19 -> s19 [label="APPLICATION / TIMEOUT"];
	s19 -> s19 [label="CERTIFICATE / TIMEOUT"];
	s19 -> s25 [label="EMPTY_CERTIFICATE / TIMEOUT"];
	s19 -> s1 [label="Alert(WARNING,CLOSE_NOTIFY) / Alert(WARNING,CLOSE_NOTIFY)"];
	s19 -> s1 [label="Alert(FATAL,UNEXPECTED_MESSAGE) / TIMEOUT"];
	s20 -> s20 [label="HELLO_VERIFY_REQUEST / CLIENT_HELLO"];
	s20 -> s44 [label="ECDH_SERVER_HELLO / TIMEOUT"];
	s20 -> s23 [label="ECDH_SERVER_KEY_EXCHANGE / TIMEOUT"];
	s20 -> s15 [label="RSA_SIGN_CERTIFICATE_REQUEST / TIMEOUT"];
	s20 -> s15 [label="RSA_FIXED_ECDH_CERTIFICATE_REQUEST / TIMEOUT"];
	s20 -> s15 [label="RSA_FIXED_DH_CERTIFICATE_REQUEST / TIMEOUT"];
	s20 -> s15 [label="DSS_SIGN_CERTIFICATE_REQUEST / TIMEOUT"];
	s20 -> s15 [label="DSS_FIXED_DH_CERTIFICATE_REQUEST / TIMEOUT"];
	s20 -> s16 [label="ECDSA_SIGN_CERTIFICATE_REQUEST / TIMEOUT"];
	s20 -> s17 [label="SERVER_HELLO_DONE / EMPTY_CERTIFICATE,ECDH_CLIENT_KEY_EXCHANGE,CHANGE_CIPHER_SPEC,UNKNOWN_MESSAGE"];
	s20 -> s1 [label="CHANGE_CIPHER_SPEC / TIMEOUT"];
	s20 -> s1 [label="FINISHED / Alert(FATAL,INTERNAL_ERROR)"];
	s20 -> s20 [label="APPLICATION / TIMEOUT"];
	s20 -> s20 [label="CERTIFICATE / TIMEOUT"];
	s20 -> s26 [label="EMPTY_CERTIFICATE / TIMEOUT"];
	s20 -> s1 [label="Alert(WARNING,CLOSE_NOTIFY) / Alert(WARNING,CLOSE_NOTIFY)"];
	s20 -> s1 [label="Alert(FATAL,UNEXPECTED_MESSAGE) / TIMEOUT"];
	s21 -> s21 [label="HELLO_VERIFY_REQUEST / UNKNOWN_MESSAGE"];
	s21 -> s21 [label="ECDH_SERVER_HELLO / TIMEOUT"];
	s21 -> s1 [label="ECDH_SERVER_KEY_EXCHANGE / UNKNOWN_MESSAGE"];
	s21 -> s21 [label="RSA_SIGN_CERTIFICATE_REQUEST / TIMEOUT"];
	s21 -> s21 [label="RSA_FIXED_ECDH_CERTIFICATE_REQUEST / TIMEOUT"];
	s21 -> s21 [label="RSA_FIXED_DH_CERTIFICATE_REQUEST / TIMEOUT"];
	s21 -> s21 [label="DSS_SIGN_CERTIFICATE_REQUEST / TIMEOUT"];
	s21 -> s21 [label="DSS_FIXED_DH_CERTIFICATE_REQUEST / TIMEOUT"];
	s21 -> s21 [label="ECDSA_SIGN_CERTIFICATE_REQUEST / TIMEOUT"];
	s21 -> s1 [label="SERVER_HELLO_DONE / UNKNOWN_MESSAGE"];
	s21 -> s18 [label="CHANGE_CIPHER_SPEC / TIMEOUT"];
	s21 -> s1 [label="FINISHED / UNKNOWN_MESSAGE"];
	s21 -> s21 [label="APPLICATION / TIMEOUT"];
	s21 -> s17 [label="CERTIFICATE / TIMEOUT"];
	s21 -> s21 [label="EMPTY_CERTIFICATE / TIMEOUT"];
	s21 -> s1 [label="Alert(WARNING,CLOSE_NOTIFY) / UNKNOWN_MESSAGE"];
	s21 -> s1 [label="Alert(FATAL,UNEXPECTED_MESSAGE) / TIMEOUT"];
	s22 -> s22 [label="HELLO_VERIFY_REQUEST / CLIENT_HELLO"];
	s22 -> s22 [label="ECDH_SERVER_HELLO / TIMEOUT"];
	s22 -> s11 [label="ECDH_SERVER_KEY_EXCHANGE / TIMEOUT"];
	s22 -> s11 [label="RSA_SIGN_CERTIFICATE_REQUEST / TIMEOUT"];
	s22 -> s11 [label="RSA_FIXED_ECDH_CERTIFICATE_REQUEST / TIMEOUT"];
	s22 -> s11 [label="RSA_FIXED_DH_CERTIFICATE_REQUEST / TIMEOUT"];
	s22 -> s11 [label="DSS_SIGN_CERTIFICATE_REQUEST / TIMEOUT"];
	s22 -> s11 [label="DSS_FIXED_DH_CERTIFICATE_REQUEST / TIMEOUT"];
	s22 -> s11 [label="ECDSA_SIGN_CERTIFICATE_REQUEST / TIMEOUT"];
	s22 -> s1 [label="SERVER_HELLO_DONE / Alert(FATAL,INTERNAL_ERROR)"];
	s22 -> s12 [label="CHANGE_CIPHER_SPEC / TIMEOUT"];
	s22 -> s1 [label="FINISHED / Alert(FATAL,HANDSHAKE_FAILURE)"];
	s22 -> s22 [label="APPLICATION / TIMEOUT"];
	s22 -> s22 [label="CERTIFICATE / TIMEOUT"];
	s22 -> s11 [label="EMPTY_CERTIFICATE / TIMEOUT"];
	s22 -> s1 [label="Alert(WARNING,CLOSE_NOTIFY) / Alert(WARNING,CLOSE_NOTIFY)"];
	s22 -> s1 [label="Alert(FATAL,UNEXPECTED_MESSAGE) / TIMEOUT"];
	s23 -> s23 [label="HELLO_VERIFY_REQUEST / CLIENT_HELLO"];
	s23 -> s41 [label="ECDH_SERVER_HELLO / TIMEOUT"];
	s23 -> s1 [label="ECDH_SERVER_KEY_EXCHANGE / Alert(FATAL,HANDSHAKE_FAILURE)"];
	s23 -> s23 [label="RSA_SIGN_CERTIFICATE_REQUEST / TIMEOUT"];
	s23 -> s23 [label="RSA_FIXED_ECDH_CERTIFICATE_REQUEST / TIMEOUT"];
	s23 -> s23 [label="RSA_FIXED_DH_CERTIFICATE_REQUEST / TIMEOUT"];
	s23 -> s23 [label="DSS_SIGN_CERTIFICATE_REQUEST / TIMEOUT"];
	s23 -> s23 [label="DSS_FIXED_DH_CERTIFICATE_REQUEST / TIMEOUT"];
	s23 -> s32 [label="ECDSA_SIGN_CERTIFICATE_REQUEST / TIMEOUT"];
	s23 -> s9 [label="SERVER_HELLO_DONE / EMPTY_CERTIFICATE,ECDH_CLIENT_KEY_EXCHANGE,CHANGE_CIPHER_SPEC,FINISHED"];
	s23 -> s1 [label="CHANGE_CIPHER_SPEC / TIMEOUT"];
	s23 -> s1 [label="FINISHED / Alert(FATAL,INTERNAL_ERROR)"];
	s23 -> s23 [label="APPLICATION / TIMEOUT"];
	s23 -> s20 [label="CERTIFICATE / TIMEOUT"];
	s23 -> s23 [label="EMPTY_CERTIFICATE / TIMEOUT"];
	s23 -> s1 [label="Alert(WARNING,CLOSE_NOTIFY) / Alert(WARNING,CLOSE_NOTIFY)"];
	s23 -> s1 [label="Alert(FATAL,UNEXPECTED_MESSAGE) / TIMEOUT"];
	s24 -> s24 [label="HELLO_VERIFY_REQUEST / TIMEOUT"];
	s24 -> s24 [label="ECDH_SERVER_HELLO / TIMEOUT"];
	s24 -> s24 [label="ECDH_SERVER_KEY_EXCHANGE / TIMEOUT"];
	s24 -> s24 [label="RSA_SIGN_CERTIFICATE_REQUEST / TIMEOUT"];
	s24 -> s24 [label="RSA_FIXED_ECDH_CERTIFICATE_REQUEST / TIMEOUT"];
	s24 -> s24 [label="RSA_FIXED_DH_CERTIFICATE_REQUEST / TIMEOUT"];
	s24 -> s24 [label="DSS_SIGN_CERTIFICATE_REQUEST / TIMEOUT"];
	s24 -> s24 [label="DSS_FIXED_DH_CERTIFICATE_REQUEST / TIMEOUT"];
	s24 -> s24 [label="ECDSA_SIGN_CERTIFICATE_REQUEST / TIMEOUT"];
	s24 -> s24 [label="SERVER_HELLO_DONE / TIMEOUT"];
	s24 -> s1 [label="CHANGE_CIPHER_SPEC / TIMEOUT"];
	s24 -> s24 [label="FINISHED / TIMEOUT"];
	s24 -> s24 [label="APPLICATION / APPLICATION"];
	s24 -> s24 [label="CERTIFICATE / TIMEOUT"];
	s24 -> s24 [label="EMPTY_CERTIFICATE / TIMEOUT"];
	s24 -> s1 [label="Alert(WARNING,CLOSE_NOTIFY) / Alert(WARNING,CLOSE_NOTIFY)"];
	s24 -> s1 [label="Alert(FATAL,UNEXPECTED_MESSAGE) / TIMEOUT"];
	s25 -> s25 [label="HELLO_VERIFY_REQUEST / CLIENT_HELLO"];
	s25 -> s25 [label="ECDH_SERVER_HELLO / TIMEOUT"];
	s25 -> s1 [label="ECDH_SERVER_KEY_EXCHANGE / Alert(FATAL,HANDSHAKE_FAILURE)"];
	s25 -> s26 [label="RSA_SIGN_CERTIFICATE_REQUEST / TIMEOUT"];
	s25 -> s26 [label="RSA_FIXED_ECDH_CERTIFICATE_REQUEST / TIMEOUT"];
	s25 -> s26 [label="RSA_FIXED_DH_CERTIFICATE_REQUEST / TIMEOUT"];
	s25 -> s26 [label="DSS_SIGN_CERTIFICATE_REQUEST / TIMEOUT"];
	s25 -> s26 [label="DSS_FIXED_DH_CERTIFICATE_REQUEST / TIMEOUT"];
	s25 -> s25 [label="ECDSA_SIGN_CERTIFICATE_REQUEST / TIMEOUT"];
	s25 -> s21 [label="SERVER_HELLO_DONE / ECDSA_CERTIFICATE,ECDH_CLIENT_KEY_EXCHANGE,CERTIFICATE_VERIFY,CHANGE_CIPHER_SPEC,UNKNOWN_MESSAGE"];
	s25 -> s1 [label="CHANGE_CIPHER_SPEC / TIMEOUT"];
	s25 -> s1 [label="FINISHED / Alert(FATAL,INTERNAL_ERROR)"];
	s25 -> s25 [label="APPLICATION / TIMEOUT"];
	s25 -> s19 [label="CERTIFICATE / TIMEOUT"];
	s25 -> s25 [label="EMPTY_CERTIFICATE / TIMEOUT"];
	s25 -> s1 [label="Alert(WARNING,CLOSE_NOTIFY) / Alert(WARNING,CLOSE_NOTIFY)"];
	s25 -> s1 [label="Alert(FATAL,UNEXPECTED_MESSAGE) / TIMEOUT"];
	s26 -> s26 [label="HELLO_VERIFY_REQUEST / CLIENT_HELLO"];
	s26 -> s43 [label="ECDH_SERVER_HELLO / TIMEOUT"];
	s26 -> s1 [label="ECDH_SERVER_KEY_EXCHANGE / Alert(FATAL,HANDSHAKE_FAILURE)"];
	s26 -> s26 [label="RSA_SIGN_CERTIFICATE_REQUEST / TIMEOUT"];
	s26 -> s26 [label="RSA_FIXED_ECDH_CERTIFICATE_REQUEST / TIMEOUT"];
	s26 -> s26 [label="RSA_FIXED_DH_CERTIFICATE_REQUEST / TIMEOUT"];
	s26 -> s26 [label="DSS_SIGN_CERTIFICATE_REQUEST / TIMEOUT"];
	s26 -> s26 [label="DSS_FIXED_DH_CERTIFICATE_REQUEST / TIMEOUT"];
	s26 -> s25 [label="ECDSA_SIGN_CERTIFICATE_REQUEST / TIMEOUT"];
	s26 -> s21 [label="SERVER_HELLO_DONE / EMPTY_CERTIFICATE,ECDH_CLIENT_KEY_EXCHANGE,CHANGE_CIPHER_SPEC,UNKNOWN_MESSAGE"];
	s26 -> s1 [label="CHANGE_CIPHER_SPEC / TIMEOUT"];
	s26 -> s1 [label="FINISHED / Alert(FATAL,INTERNAL_ERROR)"];
	s26 -> s26 [label="APPLICATION / TIMEOUT"];
	s26 -> s20 [label="CERTIFICATE / TIMEOUT"];
	s26 -> s26 [label="EMPTY_CERTIFICATE / TIMEOUT"];
	s26 -> s1 [label="Alert(WARNING,CLOSE_NOTIFY) / Alert(WARNING,CLOSE_NOTIFY)"];
	s26 -> s1 [label="Alert(FATAL,UNEXPECTED_MESSAGE) / TIMEOUT"];
	s27 -> s27 [label="HELLO_VERIFY_REQUEST / CLIENT_HELLO"];
	s27 -> s27 [label="ECDH_SERVER_HELLO / TIMEOUT"];
	s27 -> s1 [label="ECDH_SERVER_KEY_EXCHANGE / Alert(FATAL,HANDSHAKE_FAILURE)"];
	s27 -> s23 [label="RSA_SIGN_CERTIFICATE_REQUEST / TIMEOUT"];
	s27 -> s23 [label="RSA_FIXED_ECDH_CERTIFICATE_REQUEST / TIMEOUT"];
	s27 -> s23 [label="RSA_FIXED_DH_CERTIFICATE_REQUEST / TIMEOUT"];
	s27 -> s23 [label="DSS_SIGN_CERTIFICATE_REQUEST / TIMEOUT"];
	s27 -> s23 [label="DSS_FIXED_DH_CERTIFICATE_REQUEST / TIMEOUT"];
	s27 -> s32 [label="ECDSA_SIGN_CERTIFICATE_REQUEST / TIMEOUT"];
	s27 -> s9 [label="SERVER_HELLO_DONE / ECDH_CLIENT_KEY_EXCHANGE,CHANGE_CIPHER_SPEC,FINISHED"];
	s27 -> s1 [label="CHANGE_CIPHER_SPEC / TIMEOUT"];
	s27 -> s1 [label="FINISHED / Alert(FATAL,INTERNAL_ERROR)"];
	s27 -> s27 [label="APPLICATION / TIMEOUT"];
	s27 -> s13 [label="CERTIFICATE / TIMEOUT"];
	s27 -> s27 [label="EMPTY_CERTIFICATE / TIMEOUT"];
	s27 -> s1 [label="Alert(WARNING,CLOSE_NOTIFY) / Alert(WARNING,CLOSE_NOTIFY)"];
	s27 -> s1 [label="Alert(FATAL,UNEXPECTED_MESSAGE) / TIMEOUT"];
	s28 -> s28 [label="HELLO_VERIFY_REQUEST / CLIENT_HELLO"];
	s28 -> s38 [label="ECDH_SERVER_HELLO / TIMEOUT"];
	s28 -> s1 [label="ECDH_SERVER_KEY_EXCHANGE / Alert(FATAL,HANDSHAKE_FAILURE)"];
	s28 -> s28 [label="RSA_SIGN_CERTIFICATE_REQUEST / TIMEOUT"];
	s28 -> s28 [label="RSA_FIXED_ECDH_CERTIFICATE_REQUEST / TIMEOUT"];
	s28 -> s28 [label="RSA_FIXED_DH_CERTIFICATE_REQUEST / TIMEOUT"];
	s28 -> s28 [label="DSS_SIGN_CERTIFICATE_REQUEST / TIMEOUT"];
	s28 -> s28 [label="DSS_FIXED_DH_CERTIFICATE_REQUEST / TIMEOUT"];
	s28 -> s30 [label="ECDSA_SIGN_CERTIFICATE_REQUEST / TIMEOUT"];
	s28 -> s1 [label="SERVER_HELLO_DONE / Alert(FATAL,INTERNAL_ERROR)"];
	s28 -> s1 [label="CHANGE_CIPHER_SPEC / TIMEOUT"];
	s28 -> s1 [label="FINISHED / Alert(FATAL,INTERNAL_ERROR)"];
	s28 -> s28 [label="APPLICATION / TIMEOUT"];
	s28 -> s29 [label="CERTIFICATE / TIMEOUT"];
	s28 -> s28 [label="EMPTY_CERTIFICATE / TIMEOUT"];
	s28 -> s1 [label="Alert(WARNING,CLOSE_NOTIFY) / Alert(WARNING,CLOSE_NOTIFY)"];
	s28 -> s1 [label="Alert(FATAL,UNEXPECTED_MESSAGE) / TIMEOUT"];
	s29 -> s29 [label="HELLO_VERIFY_REQUEST / CLIENT_HELLO"];
	s29 -> s29 [label="ECDH_SERVER_HELLO / TIMEOUT"];
	s29 -> s23 [label="ECDH_SERVER_KEY_EXCHANGE / TIMEOUT"];
	s29 -> s28 [label="RSA_SIGN_CERTIFICATE_REQUEST / TIMEOUT"];
	s29 -> s28 [label="RSA_FIXED_ECDH_CERTIFICATE_REQUEST / TIMEOUT"];
	s29 -> s28 [label="RSA_FIXED_DH_CERTIFICATE_REQUEST / TIMEOUT"];
	s29 -> s28 [label="DSS_SIGN_CERTIFICATE_REQUEST / TIMEOUT"];
	s29 -> s28 [label="DSS_FIXED_DH_CERTIFICATE_REQUEST / TIMEOUT"];
	s29 -> s30 [label="ECDSA_SIGN_CERTIFICATE_REQUEST / TIMEOUT"];
	s29 -> s1 [label="SERVER_HELLO_DONE / Alert(FATAL,INTERNAL_ERROR)"];
	s29 -> s1 [label="CHANGE_CIPHER_SPEC / TIMEOUT"];
	s29 -> s1 [label="FINISHED / Alert(FATAL,INTERNAL_ERROR)"];
	s29 -> s29 [label="APPLICATION / TIMEOUT"];
	s29 -> s29 [label="CERTIFICATE / TIMEOUT"];
	s29 -> s28 [label="EMPTY_CERTIFICATE / TIMEOUT"];
	s29 -> s1 [label="Alert(WARNING,CLOSE_NOTIFY) / Alert(WARNING,CLOSE_NOTIFY)"];
	s29 -> s1 [label="Alert(FATAL,UNEXPECTED_MESSAGE) / TIMEOUT"];
	s30 -> s30 [label="HELLO_VERIFY_REQUEST / CLIENT_HELLO"];
	s30 -> s35 [label="ECDH_SERVER_HELLO / TIMEOUT"];
	s30 -> s1 [label="ECDH_SERVER_KEY_EXCHANGE / Alert(FATAL,HANDSHAKE_FAILURE)"];
	s30 -> s28 [label="RSA_SIGN_CERTIFICATE_REQUEST / TIMEOUT"];
	s30 -> s28 [label="RSA_FIXED_ECDH_CERTIFICATE_REQUEST / TIMEOUT"];
	s30 -> s28 [label="RSA_FIXED_DH_CERTIFICATE_REQUEST / TIMEOUT"];
	s30 -> s28 [label="DSS_SIGN_CERTIFICATE_REQUEST / TIMEOUT"];
	s30 -> s28 [label="DSS_FIXED_DH_CERTIFICATE_REQUEST / TIMEOUT"];
	s30 -> s30 [label="ECDSA_SIGN_CERTIFICATE_REQUEST / TIMEOUT"];
	s30 -> s1 [label="SERVER_HELLO_DONE / Alert(FATAL,INTERNAL_ERROR)"];
	s30 -> s1 [label="CHANGE_CIPHER_SPEC / TIMEOUT"];
	s30 -> s1 [label="FINISHED / Alert(FATAL,INTERNAL_ERROR)"];
	s30 -> s30 [label="APPLICATION / TIMEOUT"];
	s30 -> s31 [label="CERTIFICATE / TIMEOUT"];
	s30 -> s30 [label="EMPTY_CERTIFICATE / TIMEOUT"];
	s30 -> s1 [label="Alert(WARNING,CLOSE_NOTIFY) / Alert(WARNING,CLOSE_NOTIFY)"];
	s30 -> s1 [label="Alert(FATAL,UNEXPECTED_MESSAGE) / TIMEOUT"];
	s31 -> s31 [label="HELLO_VERIFY_REQUEST / CLIENT_HELLO"];
	s31 -> s31 [label="ECDH_SERVER_HELLO / TIMEOUT"];
	s31 -> s32 [label="ECDH_SERVER_KEY_EXCHANGE / TIMEOUT"];
	s31 -> s28 [label="RSA_SIGN_CERTIFICATE_REQUEST / TIMEOUT"];
	s31 -> s28 [label="RSA_FIXED_ECDH_CERTIFICATE_REQUEST / TIMEOUT"];
	s31 -> s28 [label="RSA_FIXED_DH_CERTIFICATE_REQUEST / TIMEOUT"];
	s31 -> s28 [label="DSS_SIGN_CERTIFICATE_REQUEST / TIMEOUT"];
	s31 -> s28 [label="DSS_FIXED_DH_CERTIFICATE_REQUEST / TIMEOUT"];
	s31 -> s30 [label="ECDSA_SIGN_CERTIFICATE_REQUEST / TIMEOUT"];
	s31 -> s1 [label="SERVER_HELLO_DONE / Alert(FATAL,INTERNAL_ERROR)"];
	s31 -> s1 [label="CHANGE_CIPHER_SPEC / TIMEOUT"];
	s31 -> s1 [label="FINISHED / Alert(FATAL,INTERNAL_ERROR)"];
	s31 -> s31 [label="APPLICATION / TIMEOUT"];
	s31 -> s31 [label="CERTIFICATE / TIMEOUT"];
	s31 -> s30 [label="EMPTY_CERTIFICATE / TIMEOUT"];
	s31 -> s1 [label="Alert(WARNING,CLOSE_NOTIFY) / Alert(WARNING,CLOSE_NOTIFY)"];
	s31 -> s1 [label="Alert(FATAL,UNEXPECTED_MESSAGE) / TIMEOUT"];
	s32 -> s32 [label="HELLO_VERIFY_REQUEST / CLIENT_HELLO"];
	s32 -> s48 [label="ECDH_SERVER_HELLO / TIMEOUT"];
	s32 -> s1 [label="ECDH_SERVER_KEY_EXCHANGE / Alert(FATAL,HANDSHAKE_FAILURE)"];
	s32 -> s23 [label="RSA_SIGN_CERTIFICATE_REQUEST / TIMEOUT"];
	s32 -> s23 [label="RSA_FIXED_ECDH_CERTIFICATE_REQUEST / TIMEOUT"];
	s32 -> s23 [label="RSA_FIXED_DH_CERTIFICATE_REQUEST / TIMEOUT"];
	s32 -> s23 [label="DSS_SIGN_CERTIFICATE_REQUEST / TIMEOUT"];
	s32 -> s23 [label="DSS_FIXED_DH_CERTIFICATE_REQUEST / TIMEOUT"];
	s32 -> s32 [label="ECDSA_SIGN_CERTIFICATE_REQUEST / TIMEOUT"];
	s32 -> s9 [label="SERVER_HELLO_DONE / ECDSA_CERTIFICATE,ECDH_CLIENT_KEY_EXCHANGE,CERTIFICATE_VERIFY,CHANGE_CIPHER_SPEC,FINISHED"];
	s32 -> s1 [label="CHANGE_CIPHER_SPEC / TIMEOUT"];
	s32 -> s1 [label="FINISHED / Alert(FATAL,INTERNAL_ERROR)"];
	s32 -> s32 [label="APPLICATION / TIMEOUT"];
	s32 -> s19 [label="CERTIFICATE / TIMEOUT"];
	s32 -> s32 [label="EMPTY_CERTIFICATE / TIMEOUT"];
	s32 -> s1 [label="Alert(WARNING,CLOSE_NOTIFY) / Alert(WARNING,CLOSE_NOTIFY)"];
	s32 -> s1 [label="Alert(FATAL,UNEXPECTED_MESSAGE) / TIMEOUT"];
	s33 -> s33 [label="HELLO_VERIFY_REQUEST / CLIENT_HELLO"];
	s33 -> s35 [label="ECDH_SERVER_HELLO / TIMEOUT"];
	s33 -> s1 [label="ECDH_SERVER_KEY_EXCHANGE / Alert(FATAL,INTERNAL_ERROR)"];
	s33 -> s34 [label="RSA_SIGN_CERTIFICATE_REQUEST / TIMEOUT"];
	s33 -> s34 [label="RSA_FIXED_ECDH_CERTIFICATE_REQUEST / TIMEOUT"];
	s33 -> s34 [label="RSA_FIXED_DH_CERTIFICATE_REQUEST / TIMEOUT"];
	s33 -> s34 [label="DSS_SIGN_CERTIFICATE_REQUEST / TIMEOUT"];
	s33 -> s34 [label="DSS_FIXED_DH_CERTIFICATE_REQUEST / TIMEOUT"];
	s33 -> s33 [label="ECDSA_SIGN_CERTIFICATE_REQUEST / TIMEOUT"];
	s33 -> s1 [label="SERVER_HELLO_DONE / Alert(FATAL,INTERNAL_ERROR)"];
	s33 -> s1 [label="CHANGE_CIPHER_SPEC / TIMEOUT"];
	s33 -> s1 [label="FINISHED / Alert(FATAL,INTERNAL_ERROR)"];
	s33 -> s33 [label="APPLICATION / TIMEOUT"];
	s33 -> s1 [label="CERTIFICATE / Alert(FATAL,INTERNAL_ERROR)"];
	s33 -> s1 [label="EMPTY_CERTIFICATE / Alert(FATAL,INTERNAL_ERROR)"];
	s33 -> s1 [label="Alert(WARNING,CLOSE_NOTIFY) / Alert(WARNING,CLOSE_NOTIFY)"];
	s33 -> s1 [label="Alert(FATAL,UNEXPECTED_MESSAGE) / TIMEOUT"];
	s34 -> s34 [label="HELLO_VERIFY_REQUEST / CLIENT_HELLO"];
	s34 -> s38 [label="ECDH_SERVER_HELLO / TIMEOUT"];
	s34 -> s1 [label="ECDH_SERVER_KEY_EXCHANGE / Alert(FATAL,INTERNAL_ERROR)"];
	s34 -> s34 [label="RSA_SIGN_CERTIFICATE_REQUEST / TIMEOUT"];
	s34 -> s34 [label="RSA_FIXED_ECDH_CERTIFICATE_REQUEST / TIMEOUT"];
	s34 -> s34 [label="RSA_FIXED_DH_CERTIFICATE_REQUEST / TIMEOUT"];
	s34 -> s34 [label="DSS_SIGN_CERTIFICATE_REQUEST / TIMEOUT"];
	s34 -> s34 [label="DSS_FIXED_DH_CERTIFICATE_REQUEST / TIMEOUT"];
	s34 -> s33 [label="ECDSA_SIGN_CERTIFICATE_REQUEST / TIMEOUT"];
	s34 -> s1 [label="SERVER_HELLO_DONE / Alert(FATAL,INTERNAL_ERROR)"];
	s34 -> s1 [label="CHANGE_CIPHER_SPEC / TIMEOUT"];
	s34 -> s1 [label="FINISHED / Alert(FATAL,INTERNAL_ERROR)"];
	s34 -> s34 [label="APPLICATION / TIMEOUT"];
	s34 -> s1 [label="CERTIFICATE / Alert(FATAL,INTERNAL_ERROR)"];
	s34 -> s1 [label="EMPTY_CERTIFICATE / Alert(FATAL,INTERNAL_ERROR)"];
	s34 -> s1 [label="Alert(WARNING,CLOSE_NOTIFY) / Alert(WARNING,CLOSE_NOTIFY)"];
	s34 -> s1 [label="Alert(FATAL,UNEXPECTED_MESSAGE) / TIMEOUT"];
	s35 -> s30 [label="HELLO_VERIFY_REQUEST / CLIENT_HELLO"];
	s35 -> s35 [label="ECDH_SERVER_HELLO / TIMEOUT"];
	s35 -> s1 [label="ECDH_SERVER_KEY_EXCHANGE / Alert(FATAL,HANDSHAKE_FAILURE)"];
	s35 -> s28 [label="RSA_SIGN_CERTIFICATE_REQUEST / TIMEOUT"];
	s35 -> s28 [label="RSA_FIXED_ECDH_CERTIFICATE_REQUEST / TIMEOUT"];
	s35 -> s28 [label="RSA_FIXED_DH_CERTIFICATE_REQUEST / TIMEOUT"];
	s35 -> s28 [label="DSS_SIGN_CERTIFICATE_REQUEST / TIMEOUT"];
	s35 -> s28 [label="DSS_FIXED_DH_CERTIFICATE_REQUEST / TIMEOUT"];
	s35 -> s30 [label="ECDSA_SIGN_CERTIFICATE_REQUEST / TIMEOUT"];
	s35 -> s1 [label="SERVER_HELLO_DONE / Alert(FATAL,INTERNAL_ERROR)"];
	s35 -> s1 [label="CHANGE_CIPHER_SPEC / TIMEOUT"];
	s35 -> s1 [label="FINISHED / Alert(FATAL,INTERNAL_ERROR)"];
	s35 -> s35 [label="APPLICATION / TIMEOUT"];
	s35 -> s36 [label="CERTIFICATE / TIMEOUT"];
	s35 -> s30 [label="EMPTY_CERTIFICATE / TIMEOUT"];
	s35 -> s1 [label="Alert(WARNING,CLOSE_NOTIFY) / Alert(WARNING,CLOSE_NOTIFY)"];
	s35 -> s1 [label="Alert(FATAL,UNEXPECTED_MESSAGE) / TIMEOUT"];
	s36 -> s31 [label="HELLO_VERIFY_REQUEST / CLIENT_HELLO"];
	s36 -> s31 [label="ECDH_SERVER_HELLO / TIMEOUT"];
	s36 -> s37 [label="ECDH_SERVER_KEY_EXCHANGE / TIMEOUT"];
	s36 -> s28 [label="RSA_SIGN_CERTIFICATE_REQUEST / TIMEOUT"];
	s36 -> s28 [label="RSA_FIXED_ECDH_CERTIFICATE_REQUEST / TIMEOUT"];
	s36 -> s28 [label="RSA_FIXED_DH_CERTIFICATE_REQUEST / TIMEOUT"];
	s36 -> s28 [label="DSS_SIGN_CERTIFICATE_REQUEST / TIMEOUT"];
	s36 -> s28 [label="DSS_FIXED_DH_CERTIFICATE_REQUEST / TIMEOUT"];
	s36 -> s30 [label="ECDSA_SIGN_CERTIFICATE_REQUEST / TIMEOUT"];
	s36 -> s1 [label="SERVER_HELLO_DONE / Alert(FATAL,INTERNAL_ERROR)"];
	s36 -> s1 [label="CHANGE_CIPHER_SPEC / TIMEOUT"];
	s36 -> s1 [label="FINISHED / Alert(FATAL,INTERNAL_ERROR)"];
	s36 -> s36 [label="APPLICATION / TIMEOUT"];
	s36 -> s31 [label="CERTIFICATE / TIMEOUT"];
	s36 -> s30 [label="EMPTY_CERTIFICATE / TIMEOUT"];
	s36 -> s1 [label="Alert(WARNING,CLOSE_NOTIFY) / Alert(WARNING,CLOSE_NOTIFY)"];
	s36 -> s1 [label="Alert(FATAL,UNEXPECTED_MESSAGE) / TIMEOUT"];
	s37 -> s32 [label="HELLO_VERIFY_REQUEST / CLIENT_HELLO"];
	s37 -> s48 [label="ECDH_SERVER_HELLO / TIMEOUT"];
	s37 -> s1 [label="ECDH_SERVER_KEY_EXCHANGE / Alert(FATAL,HANDSHAKE_FAILURE)"];
	s37 -> s6 [label="RSA_SIGN_CERTIFICATE_REQUEST / TIMEOUT"];
	s37 -> s6 [label="RSA_FIXED_ECDH_CERTIFICATE_REQUEST / TIMEOUT"];
	s37 -> s6 [label="RSA_FIXED_DH_CERTIFICATE_REQUEST / TIMEOUT"];
	s37 -> s6 [label="DSS_SIGN_CERTIFICATE_REQUEST / TIMEOUT"];
	s37 -> s6 [label="DSS_FIXED_DH_CERTIFICATE_REQUEST / TIMEOUT"];
	s37 -> s7 [label="ECDSA_SIGN_CERTIFICATE_REQUEST / TIMEOUT"];
	s37 -> s9 [label="SERVER_HELLO_DONE / ECDSA_CERTIFICATE,ECDH_CLIENT_KEY_EXCHANGE,CERTIFICATE_VERIFY,CHANGE_CIPHER_SPEC,FINISHED"];
	s37 -> s1 [label="CHANGE_CIPHER_SPEC / TIMEOUT"];
	s37 -> s1 [label="FINISHED / Alert(FATAL,INTERNAL_ERROR)"];
	s37 -> s37 [label="APPLICATION / TIMEOUT"];
	s37 -> s19 [label="CERTIFICATE / TIMEOUT"];
	s37 -> s32 [label="EMPTY_CERTIFICATE / TIMEOUT"];
	s37 -> s1 [label="Alert(WARNING,CLOSE_NOTIFY) / Alert(WARNING,CLOSE_NOTIFY)"];
	s37 -> s1 [label="Alert(FATAL,UNEXPECTED_MESSAGE) / TIMEOUT"];
	s38 -> s28 [label="HELLO_VERIFY_REQUEST / CLIENT_HELLO"];
	s38 -> s38 [label="ECDH_SERVER_HELLO / TIMEOUT"];
	s38 -> s1 [label="ECDH_SERVER_KEY_EXCHANGE / Alert(FATAL,HANDSHAKE_FAILURE)"];
	s38 -> s28 [label="RSA_SIGN_CERTIFICATE_REQUEST / TIMEOUT"];
	s38 -> s28 [label="RSA_FIXED_ECDH_CERTIFICATE_REQUEST / TIMEOUT"];
	s38 -> s28 [label="RSA_FIXED_DH_CERTIFICATE_REQUEST / TIMEOUT"];
	s38 -> s28 [label="DSS_SIGN_CERTIFICATE_REQUEST / TIMEOUT"];
	s38 -> s28 [label="DSS_FIXED_DH_CERTIFICATE_REQUEST / TIMEOUT"];
	s38 -> s30 [label="ECDSA_SIGN_CERTIFICATE_REQUEST / TIMEOUT"];
	s38 -> s1 [label="SERVER_HELLO_DONE / Alert(FATAL,INTERNAL_ERROR)"];
	s38 -> s1 [label="CHANGE_CIPHER_SPEC / TIMEOUT"];
	s38 -> s1 [label="FINISHED / Alert(FATAL,INTERNAL_ERROR)"];
	s38 -> s38 [label="APPLICATION / TIMEOUT"];
	s38 -> s39 [label="CERTIFICATE / TIMEOUT"];
	s38 -> s28 [label="EMPTY_CERTIFICATE / TIMEOUT"];
	s38 -> s1 [label="Alert(WARNING,CLOSE_NOTIFY) / Alert(WARNING,CLOSE_NOTIFY)"];
	s38 -> s1 [label="Alert(FATAL,UNEXPECTED_MESSAGE) / TIMEOUT"];
	s39 -> s29 [label="HELLO_VERIFY_REQUEST / CLIENT_HELLO"];
	s39 -> s29 [label="ECDH_SERVER_HELLO / TIMEOUT"];
	s39 -> s40 [label="ECDH_SERVER_KEY_EXCHANGE / TIMEOUT"];
	s39 -> s28 [label="RSA_SIGN_CERTIFICATE_REQUEST / TIMEOUT"];
	s39 -> s28 [label="RSA_FIXED_ECDH_CERTIFICATE_REQUEST / TIMEOUT"];
	s39 -> s28 [label="RSA_FIXED_DH_CERTIFICATE_REQUEST / TIMEOUT"];
	s39 -> s28 [label="DSS_SIGN_CERTIFICATE_REQUEST / TIMEOUT"];
	s39 -> s28 [label="DSS_FIXED_DH_CERTIFICATE_REQUEST / TIMEOUT"];
	s39 -> s30 [label="ECDSA_SIGN_CERTIFICATE_REQUEST / TIMEOUT"];
	s39 -> s1 [label="SERVER_HELLO_DONE / Alert(FATAL,INTERNAL_ERROR)"];
	s39 -> s1 [label="CHANGE_CIPHER_SPEC / TIMEOUT"];
	s39 -> s1 [label="FINISHED / Alert(FATAL,INTERNAL_ERROR)"];
	s39 -> s39 [label="APPLICATION / TIMEOUT"];
	s39 -> s29 [label="CERTIFICATE / TIMEOUT"];
	s39 -> s28 [label="EMPTY_CERTIFICATE / TIMEOUT"];
	s39 -> s1 [label="Alert(WARNING,CLOSE_NOTIFY) / Alert(WARNING,CLOSE_NOTIFY)"];
	s39 -> s1 [label="Alert(FATAL,UNEXPECTED_MESSAGE) / TIMEOUT"];
	s40 -> s23 [label="HELLO_VERIFY_REQUEST / CLIENT_HELLO"];
	s40 -> s41 [label="ECDH_SERVER_HELLO / TIMEOUT"];
	s40 -> s1 [label="ECDH_SERVER_KEY_EXCHANGE / Alert(FATAL,HANDSHAKE_FAILURE)"];
	s40 -> s6 [label="RSA_SIGN_CERTIFICATE_REQUEST / TIMEOUT"];
	s40 -> s6 [label="RSA_FIXED_ECDH_CERTIFICATE_REQUEST / TIMEOUT"];
	s40 -> s6 [label="RSA_FIXED_DH_CERTIFICATE_REQUEST / TIMEOUT"];
	s40 -> s6 [label="DSS_SIGN_CERTIFICATE_REQUEST / TIMEOUT"];
	s40 -> s6 [label="DSS_FIXED_DH_CERTIFICATE_REQUEST / TIMEOUT"];
	s40 -> s7 [label="ECDSA_SIGN_CERTIFICATE_REQUEST / TIMEOUT"];
	s40 -> s9 [label="SERVER_HELLO_DONE / EMPTY_CERTIFICATE,ECDH_CLIENT_KEY_EXCHANGE,CHANGE_CIPHER_SPEC,FINISHED"];
	s40 -> s1 [label="CHANGE_CIPHER_SPEC / TIMEOUT"];
	s40 -> s1 [label="FINISHED / Alert(FATAL,INTERNAL_ERROR)"];
	s40 -> s40 [label="APPLICATION / TIMEOUT"];
	s40 -> s20 [label="CERTIFICATE / TIMEOUT"];
	s40 -> s23 [label="EMPTY_CERTIFICATE / TIMEOUT"];
	s40 -> s1 [label="Alert(WARNING,CLOSE_NOTIFY) / Alert(WARNING,CLOSE_NOTIFY)"];
	s40 -> s1 [label="Alert(FATAL,UNEXPECTED_MESSAGE) / TIMEOUT"];
	s41 -> s23 [label="HELLO_VERIFY_REQUEST / CLIENT_HELLO"];
	s41 -> s41 [label="ECDH_SERVER_HELLO / TIMEOUT"];
	s41 -> s1 [label="ECDH_SERVER_KEY_EXCHANGE / Alert(FATAL,HANDSHAKE_FAILURE)"];
	s41 -> s23 [label="RSA_SIGN_CERTIFICATE_REQUEST / TIMEOUT"];
	s41 -> s23 [label="RSA_FIXED_ECDH_CERTIFICATE_REQUEST / TIMEOUT"];
	s41 -> s23 [label="RSA_FIXED_DH_CERTIFICATE_REQUEST / TIMEOUT"];
	s41 -> s23 [label="DSS_SIGN_CERTIFICATE_REQUEST / TIMEOUT"];
	s41 -> s23 [label="DSS_FIXED_DH_CERTIFICATE_REQUEST / TIMEOUT"];
	s41 -> s32 [label="ECDSA_SIGN_CERTIFICATE_REQUEST / TIMEOUT"];
	s41 -> s9 [label="SERVER_HELLO_DONE / EMPTY_CERTIFICATE,ECDH_CLIENT_KEY_EXCHANGE,CHANGE_CIPHER_SPEC,FINISHED"];
	s41 -> s1 [label="CHANGE_CIPHER_SPEC / TIMEOUT"];
	s41 -> s1 [label="FINISHED / Alert(FATAL,INTERNAL_ERROR)"];
	s41 -> s41 [label="APPLICATION / TIMEOUT"];
	s41 -> s42 [label="CERTIFICATE / TIMEOUT"];
	s41 -> s23 [label="EMPTY_CERTIFICATE / TIMEOUT"];
	s41 -> s1 [label="Alert(WARNING,CLOSE_NOTIFY) / Alert(WARNING,CLOSE_NOTIFY)"];
	s41 -> s1 [label="Alert(FATAL,UNEXPECTED_MESSAGE) / TIMEOUT"];
	s42 -> s20 [label="HELLO_VERIFY_REQUEST / CLIENT_HELLO"];
	s42 -> s44 [label="ECDH_SERVER_HELLO / TIMEOUT"];
	s42 -> s40 [label="ECDH_SERVER_KEY_EXCHANGE / TIMEOUT"];
	s42 -> s15 [label="RSA_SIGN_CERTIFICATE_REQUEST / TIMEOUT"];
	s42 -> s15 [label="RSA_FIXED_ECDH_CERTIFICATE_REQUEST / TIMEOUT"];
	s42 -> s15 [label="RSA_FIXED_DH_CERTIFICATE_REQUEST / TIMEOUT"];
	s42 -> s15 [label="DSS_SIGN_CERTIFICATE_REQUEST / TIMEOUT"];
	s42 -> s15 [label="DSS_FIXED_DH_CERTIFICATE_REQUEST / TIMEOUT"];
	s42 -> s16 [label="ECDSA_SIGN_CERTIFICATE_REQUEST / TIMEOUT"];
	s42 -> s17 [label="SERVER_HELLO_DONE / EMPTY_CERTIFICATE,ECDH_CLIENT_KEY_EXCHANGE,CHANGE_CIPHER_SPEC,UNKNOWN_MESSAGE"];
	s42 -> s1 [label="CHANGE_CIPHER_SPEC / TIMEOUT"];
	s42 -> s1 [label="FINISHED / Alert(FATAL,INTERNAL_ERROR)"];
	s42 -> s42 [label="APPLICATION / TIMEOUT"];
	s42 -> s20 [label="CERTIFICATE / TIMEOUT"];
	s42 -> s26 [label="EMPTY_CERTIFICATE / TIMEOUT"];
	s42 -> s1 [label="Alert(WARNING,CLOSE_NOTIFY) / Alert(WARNING,CLOSE_NOTIFY)"];
	s42 -> s1 [label="Alert(FATAL,UNEXPECTED_MESSAGE) / TIMEOUT"];
	s43 -> s26 [label="HELLO_VERIFY_REQUEST / CLIENT_HELLO"];
	s43 -> s43 [label="ECDH_SERVER_HELLO / TIMEOUT"];
	s43 -> s1 [label="ECDH_SERVER_KEY_EXCHANGE / Alert(FATAL,HANDSHAKE_FAILURE)"];
	s43 -> s26 [label="RSA_SIGN_CERTIFICATE_REQUEST / TIMEOUT"];
	s43 -> s26 [label="RSA_FIXED_ECDH_CERTIFICATE_REQUEST / TIMEOUT"];
	s43 -> s26 [label="RSA_FIXED_DH_CERTIFICATE_REQUEST / TIMEOUT"];
	s43 -> s26 [label="DSS_SIGN_CERTIFICATE_REQUEST / TIMEOUT"];
	s43 -> s26 [label="DSS_FIXED_DH_CERTIFICATE_REQUEST / TIMEOUT"];
	s43 -> s25 [label="ECDSA_SIGN_CERTIFICATE_REQUEST / TIMEOUT"];
	s43 -> s21 [label="SERVER_HELLO_DONE / EMPTY_CERTIFICATE,ECDH_CLIENT_KEY_EXCHANGE,CHANGE_CIPHER_SPEC,UNKNOWN_MESSAGE"];
	s43 -> s1 [label="CHANGE_CIPHER_SPEC / TIMEOUT"];
	s43 -> s1 [label="FINISHED / Alert(FATAL,INTERNAL_ERROR)"];
	s43 -> s43 [label="APPLICATION / TIMEOUT"];
	s43 -> s42 [label="CERTIFICATE / TIMEOUT"];
	s43 -> s26 [label="EMPTY_CERTIFICATE / TIMEOUT"];
	s43 -> s1 [label="Alert(WARNING,CLOSE_NOTIFY) / Alert(WARNING,CLOSE_NOTIFY)"];
	s43 -> s1 [label="Alert(FATAL,UNEXPECTED_MESSAGE) / TIMEOUT"];
	s44 -> s20 [label="HELLO_VERIFY_REQUEST / CLIENT_HELLO"];
	s44 -> s44 [label="ECDH_SERVER_HELLO / TIMEOUT"];
	s44 -> s23 [label="ECDH_SERVER_KEY_EXCHANGE / TIMEOUT"];
	s44 -> s15 [label="RSA_SIGN_CERTIFICATE_REQUEST / TIMEOUT"];
	s44 -> s15 [label="RSA_FIXED_ECDH_CERTIFICATE_REQUEST / TIMEOUT"];
	s44 -> s15 [label="RSA_FIXED_DH_CERTIFICATE_REQUEST / TIMEOUT"];
	s44 -> s15 [label="DSS_SIGN_CERTIFICATE_REQUEST / TIMEOUT"];
	s44 -> s15 [label="DSS_FIXED_DH_CERTIFICATE_REQUEST / TIMEOUT"];
	s44 -> s16 [label="ECDSA_SIGN_CERTIFICATE_REQUEST / TIMEOUT"];
	s44 -> s17 [label="SERVER_HELLO_DONE / EMPTY_CERTIFICATE,ECDH_CLIENT_KEY_EXCHANGE,CHANGE_CIPHER_SPEC,UNKNOWN_MESSAGE"];
	s44 -> s1 [label="CHANGE_CIPHER_SPEC / TIMEOUT"];
	s44 -> s1 [label="FINISHED / Alert(FATAL,INTERNAL_ERROR)"];
	s44 -> s44 [label="APPLICATION / TIMEOUT"];
	s44 -> s42 [label="CERTIFICATE / TIMEOUT"];
	s44 -> s26 [label="EMPTY_CERTIFICATE / TIMEOUT"];
	s44 -> s1 [label="Alert(WARNING,CLOSE_NOTIFY) / Alert(WARNING,CLOSE_NOTIFY)"];
	s44 -> s1 [label="Alert(FATAL,UNEXPECTED_MESSAGE) / TIMEOUT"];
	s45 -> s15 [label="HELLO_VERIFY_REQUEST / CLIENT_HELLO"];
	s45 -> s45 [label="ECDH_SERVER_HELLO / TIMEOUT"];
	s45 -> s1 [label="ECDH_SERVER_KEY_EXCHANGE / Alert(FATAL,HANDSHAKE_FAILURE)"];
	s45 -> s15 [label="RSA_SIGN_CERTIFICATE_REQUEST / TIMEOUT"];
	s45 -> s15 [label="RSA_FIXED_ECDH_CERTIFICATE_REQUEST / TIMEOUT"];
	s45 -> s15 [label="RSA_FIXED_DH_CERTIFICATE_REQUEST / TIMEOUT"];
	s45 -> s15 [label="DSS_SIGN_CERTIFICATE_REQUEST / TIMEOUT"];
	s45 -> s15 [label="DSS_FIXED_DH_CERTIFICATE_REQUEST / TIMEOUT"];
	s45 -> s16 [label="ECDSA_SIGN_CERTIFICATE_REQUEST / TIMEOUT"];
	s45 -> s21 [label="SERVER_HELLO_DONE / EMPTY_CERTIFICATE,ECDH_CLIENT_KEY_EXCHANGE,CHANGE_CIPHER_SPEC,UNKNOWN_MESSAGE"];
	s45 -> s1 [label="CHANGE_CIPHER_SPEC / TIMEOUT"];
	s45 -> s1 [label="FINISHED / Alert(FATAL,INTERNAL_ERROR)"];
	s45 -> s45 [label="APPLICATION / TIMEOUT"];
	s45 -> s42 [label="CERTIFICATE / TIMEOUT"];
	s45 -> s26 [label="EMPTY_CERTIFICATE / TIMEOUT"];
	s45 -> s1 [label="Alert(WARNING,CLOSE_NOTIFY) / Alert(WARNING,CLOSE_NOTIFY)"];
	s45 -> s1 [label="Alert(FATAL,UNEXPECTED_MESSAGE) / TIMEOUT"];
	s46 -> s46 [label="HELLO_VERIFY_REQUEST / CLIENT_HELLO"];
	s46 -> s46 [label="ECDH_SERVER_HELLO / TIMEOUT"];
	s46 -> s27 [label="ECDH_SERVER_KEY_EXCHANGE / TIMEOUT"];
	s46 -> s28 [label="RSA_SIGN_CERTIFICATE_REQUEST / TIMEOUT"];
	s46 -> s28 [label="RSA_FIXED_ECDH_CERTIFICATE_REQUEST / TIMEOUT"];
	s46 -> s28 [label="RSA_FIXED_DH_CERTIFICATE_REQUEST / TIMEOUT"];
	s46 -> s28 [label="DSS_SIGN_CERTIFICATE_REQUEST / TIMEOUT"];
	s46 -> s28 [label="DSS_FIXED_DH_CERTIFICATE_REQUEST / TIMEOUT"];
	s46 -> s30 [label="ECDSA_SIGN_CERTIFICATE_REQUEST / TIMEOUT"];
	s46 -> s1 [label="SERVER_HELLO_DONE / Alert(FATAL,INTERNAL_ERROR)"];
	s46 -> s1 [label="CHANGE_CIPHER_SPEC / TIMEOUT"];
	s46 -> s1 [label="FINISHED / Alert(FATAL,INTERNAL_ERROR)"];
	s46 -> s46 [label="APPLICATION / TIMEOUT"];
	s46 -> s46 [label="CERTIFICATE / TIMEOUT"];
	s46 -> s47 [label="EMPTY_CERTIFICATE / TIMEOUT"];
	s46 -> s1 [label="Alert(WARNING,CLOSE_NOTIFY) / Alert(WARNING,CLOSE_NOTIFY)"];
	s46 -> s1 [label="Alert(FATAL,UNEXPECTED_MESSAGE) / TIMEOUT"];
	s47 -> s47 [label="HELLO_VERIFY_REQUEST / CLIENT_HELLO"];
	s47 -> s3 [label="ECDH_SERVER_HELLO / TIMEOUT"];
	s47 -> s1 [label="ECDH_SERVER_KEY_EXCHANGE / Alert(FATAL,HANDSHAKE_FAILURE)"];
	s47 -> s28 [label="RSA_SIGN_CERTIFICATE_REQUEST / TIMEOUT"];
	s47 -> s28 [label="RSA_FIXED_ECDH_CERTIFICATE_REQUEST / TIMEOUT"];
	s47 -> s28 [label="RSA_FIXED_DH_CERTIFICATE_REQUEST / TIMEOUT"];
	s47 -> s28 [label="DSS_SIGN_CERTIFICATE_REQUEST / TIMEOUT"];
	s47 -> s28 [label="DSS_FIXED_DH_CERTIFICATE_REQUEST / TIMEOUT"];
	s47 -> s30 [label="ECDSA_SIGN_CERTIFICATE_REQUEST / TIMEOUT"];
	s47 -> s1 [label="SERVER_HELLO_DONE / Alert(FATAL,INTERNAL_ERROR)"];
	s47 -> s1 [label="CHANGE_CIPHER_SPEC / TIMEOUT"];
	s47 -> s1 [label="FINISHED / Alert(FATAL,INTERNAL_ERROR)"];
	s47 -> s47 [label="APPLICATION / TIMEOUT"];
	s47 -> s46 [label="CERTIFICATE / TIMEOUT"];
	s47 -> s47 [label="EMPTY_CERTIFICATE / TIMEOUT"];
	s47 -> s1 [label="Alert(WARNING,CLOSE_NOTIFY) / Alert(WARNING,CLOSE_NOTIFY)"];
	s47 -> s1 [label="Alert(FATAL,UNEXPECTED_MESSAGE) / TIMEOUT"];
	s48 -> s32 [label="HELLO_VERIFY_REQUEST / CLIENT_HELLO"];
	s48 -> s48 [label="ECDH_SERVER_HELLO / TIMEOUT"];
	s48 -> s1 [label="ECDH_SERVER_KEY_EXCHANGE / Alert(FATAL,HANDSHAKE_FAILURE)"];
	s48 -> s23 [label="RSA_SIGN_CERTIFICATE_REQUEST / TIMEOUT"];
	s48 -> s23 [label="RSA_FIXED_ECDH_CERTIFICATE_REQUEST / TIMEOUT"];
	s48 -> s23 [label="RSA_FIXED_DH_CERTIFICATE_REQUEST / TIMEOUT"];
	s48 -> s23 [label="DSS_SIGN_CERTIFICATE_REQUEST / TIMEOUT"];
	s48 -> s23 [label="DSS_FIXED_DH_CERTIFICATE_REQUEST / TIMEOUT"];
	s48 -> s32 [label="ECDSA_SIGN_CERTIFICATE_REQUEST / TIMEOUT"];
	s48 -> s9 [label="SERVER_HELLO_DONE / ECDSA_CERTIFICATE,ECDH_CLIENT_KEY_EXCHANGE,CERTIFICATE_VERIFY,CHANGE_CIPHER_SPEC,FINISHED"];
	s48 -> s1 [label="CHANGE_CIPHER_SPEC / TIMEOUT"];
	s48 -> s1 [label="FINISHED / Alert(FATAL,INTERNAL_ERROR)"];
	s48 -> s48 [label="APPLICATION / TIMEOUT"];
	s48 -> s49 [label="CERTIFICATE / TIMEOUT"];
	s48 -> s32 [label="EMPTY_CERTIFICATE / TIMEOUT"];
	s48 -> s1 [label="Alert(WARNING,CLOSE_NOTIFY) / Alert(WARNING,CLOSE_NOTIFY)"];
	s48 -> s1 [label="Alert(FATAL,UNEXPECTED_MESSAGE) / TIMEOUT"];
	s49 -> s19 [label="HELLO_VERIFY_REQUEST / CLIENT_HELLO"];
	s49 -> s19 [label="ECDH_SERVER_HELLO / TIMEOUT"];
	s49 -> s37 [label="ECDH_SERVER_KEY_EXCHANGE / TIMEOUT"];
	s49 -> s15 [label="RSA_SIGN_CERTIFICATE_REQUEST / TIMEOUT"];
	s49 -> s15 [label="RSA_FIXED_ECDH_CERTIFICATE_REQUEST / TIMEOUT"];
	s49 -> s15 [label="RSA_FIXED_DH_CERTIFICATE_REQUEST / TIMEOUT"];
	s49 -> s15 [label="DSS_SIGN_CERTIFICATE_REQUEST / TIMEOUT"];
	s49 -> s15 [label="DSS_FIXED_DH_CERTIFICATE_REQUEST / TIMEOUT"];
	s49 -> s16 [label="ECDSA_SIGN_CERTIFICATE_REQUEST / TIMEOUT"];
	s49 -> s17 [label="SERVER_HELLO_DONE / ECDSA_CERTIFICATE,ECDH_CLIENT_KEY_EXCHANGE,CERTIFICATE_VERIFY,CHANGE_CIPHER_SPEC,UNKNOWN_MESSAGE"];
	s49 -> s1 [label="CHANGE_CIPHER_SPEC / TIMEOUT"];
	s49 -> s1 [label="FINISHED / Alert(FATAL,INTERNAL_ERROR)"];
	s49 -> s49 [label="APPLICATION / TIMEOUT"];
	s49 -> s19 [label="CERTIFICATE / TIMEOUT"];
	s49 -> s25 [label="EMPTY_CERTIFICATE / TIMEOUT"];
	s49 -> s1 [label="Alert(WARNING,CLOSE_NOTIFY) / Alert(WARNING,CLOSE_NOTIFY)"];
	s49 -> s1 [label="Alert(FATAL,UNEXPECTED_MESSAGE) / TIMEOUT"];

__start0 [label="" shape="none" width="0" height="0"];
__start0 -> s0;

}
