digraph g {

	s0 [shape="circle" label="s0"];
	s1 [shape="circle" label="s1"];
	s2 [shape="circle" label="s2"];
	s3 [shape="circle" label="s3"];
	s4 [shape="circle" label="s4"];
	s5 [shape="circle" label="s5"];
	s6 [shape="circle" label="s6"];
	s7 [shape="circle" label="s7"];
	s8 [shape="circle" label="s8"];
	s9 [shape="circle" label="s9"];
	s10 [shape="circle" label="s10"];
	s11 [shape="circle" label="s11"];
	s12 [shape="circle" label="s12"];
	s13 [shape="circle" label="s13"];
	s0 -> s4 [label="HELLO_VERIFY_REQUEST / CLIENT_HELLO+"];
	s0 -> s1 [label="PSK_SERVER_HELLO / CLIENT_HELLO"];
	s0 -> s2 [label="SERVER_HELLO_DONE / CLIENT_HELLO,Alert(FATAL,UNEXPECTED_MESSAGE)"];
	s0 -> s3 [label="CHANGE_CIPHER_SPEC / CLIENT_HELLO"];
	s0 -> s2 [label="FINISHED / CLIENT_HELLO,Alert(FATAL,UNEXPECTED_MESSAGE)"];
	s0 -> s9 [label="HELLO_REQUEST / CLIENT_HELLO"];
	s0 -> s4 [label="APPLICATION / CLIENT_HELLO"];
	s0 -> s2 [label="Alert(WARNING,CLOSE_NOTIFY) / CLIENT_HELLO,Alert(FATAL,CLOSE_NOTIFY)"];
	s0 -> s2 [label="Alert(FATAL,UNEXPECTED_MESSAGE) / CLIENT_HELLO"];
	s1 -> s2 [label="HELLO_VERIFY_REQUEST / Alert(FATAL,UNEXPECTED_MESSAGE)"];
	s1 -> s2 [label="PSK_SERVER_HELLO / Alert(FATAL,UNEXPECTED_MESSAGE)"];
	s1 -> s6 [label="SERVER_HELLO_DONE / PSK_CLIENT_KEY_EXCHANGE,CHANGE_CIPHER_SPEC,FINISHED"];
	s1 -> s3 [label="CHANGE_CIPHER_SPEC / TIMEOUT"];
	s1 -> s2 [label="FINISHED / Alert(FATAL,UNEXPECTED_MESSAGE)"];
	s1 -> s5 [label="HELLO_REQUEST / TIMEOUT"];
	s1 -> s1 [label="APPLICATION / TIMEOUT"];
	s1 -> s2 [label="Alert(WARNING,CLOSE_NOTIFY) / Alert(FATAL,CLOSE_NOTIFY)"];
	s1 -> s2 [label="Alert(FATAL,UNEXPECTED_MESSAGE) / TIMEOUT"];
	s2 -> s2 [label="HELLO_VERIFY_REQUEST / TIMEOUT"];
	s2 -> s2 [label="PSK_SERVER_HELLO / TIMEOUT"];
	s2 -> s2 [label="SERVER_HELLO_DONE / TIMEOUT"];
	s2 -> s2 [label="CHANGE_CIPHER_SPEC / TIMEOUT"];
	s2 -> s2 [label="FINISHED / TIMEOUT"];
	s2 -> s5 [label="HELLO_REQUEST / TIMEOUT"];
	s2 -> s2 [label="APPLICATION / TIMEOUT"];
	s2 -> s2 [label="Alert(WARNING,CLOSE_NOTIFY) / TIMEOUT"];
	s2 -> s2 [label="Alert(FATAL,UNEXPECTED_MESSAGE) / TIMEOUT"];
	s3 -> s2 [label="HELLO_VERIFY_REQUEST / Alert(FATAL,DECRYPT_ERROR)"];
	s3 -> s2 [label="PSK_SERVER_HELLO / Alert(FATAL,DECRYPT_ERROR)"];
	s3 -> s2 [label="SERVER_HELLO_DONE / Alert(FATAL,DECRYPT_ERROR)"];
	s3 -> s2 [label="CHANGE_CIPHER_SPEC / Alert(FATAL,DECRYPT_ERROR)"];
	s3 -> s2 [label="FINISHED / Alert(FATAL,DECRYPT_ERROR)"];
	s3 -> s5 [label="HELLO_REQUEST / Alert(FATAL,DECRYPT_ERROR)"];
	s3 -> s2 [label="APPLICATION / Alert(FATAL,DECRYPT_ERROR)"];
	s3 -> s2 [label="Alert(WARNING,CLOSE_NOTIFY) / Alert(FATAL,DECRYPT_ERROR)"];
	s3 -> s2 [label="Alert(FATAL,UNEXPECTED_MESSAGE) / Alert(FATAL,DECRYPT_ERROR)"];
	s4 -> s4 [label="HELLO_VERIFY_REQUEST / CLIENT_HELLO"];
	s4 -> s1 [label="PSK_SERVER_HELLO / TIMEOUT"];
	s4 -> s2 [label="SERVER_HELLO_DONE / Alert(FATAL,UNEXPECTED_MESSAGE)"];
	s4 -> s3 [label="CHANGE_CIPHER_SPEC / TIMEOUT"];
	s4 -> s2 [label="FINISHED / Alert(FATAL,UNEXPECTED_MESSAGE)"];
	s4 -> s5 [label="HELLO_REQUEST / TIMEOUT"];
	s4 -> s4 [label="APPLICATION / TIMEOUT"];
	s4 -> s2 [label="Alert(WARNING,CLOSE_NOTIFY) / Alert(FATAL,CLOSE_NOTIFY)"];
	s4 -> s2 [label="Alert(FATAL,UNEXPECTED_MESSAGE) / TIMEOUT"];
	s5 -> s5 [label="HELLO_VERIFY_REQUEST / DISABLED"];
	s5 -> s5 [label="PSK_SERVER_HELLO / DISABLED"];
	s5 -> s5 [label="SERVER_HELLO_DONE / DISABLED"];
	s5 -> s5 [label="CHANGE_CIPHER_SPEC / DISABLED"];
	s5 -> s5 [label="FINISHED / DISABLED"];
	s5 -> s5 [label="HELLO_REQUEST / DISABLED"];
	s5 -> s5 [label="APPLICATION / DISABLED"];
	s5 -> s5 [label="Alert(WARNING,CLOSE_NOTIFY) / DISABLED"];
	s5 -> s5 [label="Alert(FATAL,UNEXPECTED_MESSAGE) / DISABLED"];
	s6 -> s10 [label="HELLO_VERIFY_REQUEST / TIMEOUT"];
	s6 -> s9 [label="PSK_SERVER_HELLO / TIMEOUT"];
	s6 -> s10 [label="SERVER_HELLO_DONE / TIMEOUT"];
	s6 -> s7 [label="CHANGE_CIPHER_SPEC / TIMEOUT"];
	s6 -> s10 [label="FINISHED / TIMEOUT"];
	s6 -> s5 [label="HELLO_REQUEST / TIMEOUT"];
	s6 -> s6 [label="APPLICATION / TIMEOUT"];
	s6 -> s2 [label="Alert(WARNING,CLOSE_NOTIFY) / Alert(FATAL,CLOSE_NOTIFY)"];
	s6 -> s2 [label="Alert(FATAL,UNEXPECTED_MESSAGE) / TIMEOUT"];
	s7 -> s2 [label="HELLO_VERIFY_REQUEST / Alert(FATAL,UNEXPECTED_MESSAGE)"];
	s7 -> s2 [label="PSK_SERVER_HELLO / Alert(FATAL,UNEXPECTED_MESSAGE)"];
	s7 -> s2 [label="SERVER_HELLO_DONE / Alert(FATAL,UNEXPECTED_MESSAGE)"];
	s7 -> s3 [label="CHANGE_CIPHER_SPEC / TIMEOUT"];
	s7 -> s8 [label="FINISHED / TIMEOUT"];
	s7 -> s5 [label="HELLO_REQUEST / TIMEOUT"];
	s7 -> s7 [label="APPLICATION / TIMEOUT"];
	s7 -> s2 [label="Alert(WARNING,CLOSE_NOTIFY) / Alert(FATAL,CLOSE_NOTIFY)"];
	s7 -> s2 [label="Alert(FATAL,UNEXPECTED_MESSAGE) / TIMEOUT"];
	s8 -> s8 [label="HELLO_VERIFY_REQUEST / TIMEOUT"];
	s8 -> s8 [label="PSK_SERVER_HELLO / TIMEOUT"];
	s8 -> s8 [label="SERVER_HELLO_DONE / TIMEOUT"];
	s8 -> s2 [label="CHANGE_CIPHER_SPEC / TIMEOUT"];
	s8 -> s8 [label="FINISHED / TIMEOUT"];
	s8 -> s11 [label="HELLO_REQUEST / CLIENT_HELLO"];
	s8 -> s8 [label="APPLICATION / APPLICATION"];
	s8 -> s2 [label="Alert(WARNING,CLOSE_NOTIFY) / Alert(FATAL,CLOSE_NOTIFY)"];
	s8 -> s2 [label="Alert(FATAL,UNEXPECTED_MESSAGE) / TIMEOUT"];
	s9 -> s9 [label="HELLO_VERIFY_REQUEST / TIMEOUT"];
	s9 -> s9 [label="PSK_SERVER_HELLO / TIMEOUT"];
	s9 -> s9 [label="SERVER_HELLO_DONE / TIMEOUT"];
	s9 -> s3 [label="CHANGE_CIPHER_SPEC / TIMEOUT"];
	s9 -> s9 [label="FINISHED / TIMEOUT"];
	s9 -> s5 [label="HELLO_REQUEST / TIMEOUT"];
	s9 -> s9 [label="APPLICATION / TIMEOUT"];
	s9 -> s2 [label="Alert(WARNING,CLOSE_NOTIFY) / Alert(FATAL,CLOSE_NOTIFY)"];
	s9 -> s2 [label="Alert(FATAL,UNEXPECTED_MESSAGE) / TIMEOUT"];
	s10 -> s10 [label="HELLO_VERIFY_REQUEST / TIMEOUT"];
	s10 -> s9 [label="PSK_SERVER_HELLO / TIMEOUT"];
	s10 -> s10 [label="SERVER_HELLO_DONE / TIMEOUT"];
	s10 -> s9 [label="CHANGE_CIPHER_SPEC / TIMEOUT"];
	s10 -> s10 [label="FINISHED / TIMEOUT"];
	s10 -> s5 [label="HELLO_REQUEST / TIMEOUT"];
	s10 -> s10 [label="APPLICATION / TIMEOUT"];
	s10 -> s2 [label="Alert(WARNING,CLOSE_NOTIFY) / Alert(FATAL,CLOSE_NOTIFY)"];
	s10 -> s2 [label="Alert(FATAL,UNEXPECTED_MESSAGE) / TIMEOUT"];
	s11 -> s11 [label="HELLO_VERIFY_REQUEST / CLIENT_HELLO"];
	s11 -> s12 [label="PSK_SERVER_HELLO / TIMEOUT"];
	s11 -> s2 [label="SERVER_HELLO_DONE / Alert(FATAL,UNEXPECTED_MESSAGE)"];
	s11 -> s3 [label="CHANGE_CIPHER_SPEC / TIMEOUT"];
	s11 -> s2 [label="FINISHED / Alert(FATAL,UNEXPECTED_MESSAGE)"];
	s11 -> s5 [label="HELLO_REQUEST / TIMEOUT"];
	s11 -> s11 [label="APPLICATION / TIMEOUT"];
	s11 -> s2 [label="Alert(WARNING,CLOSE_NOTIFY) / Alert(FATAL,CLOSE_NOTIFY)"];
	s11 -> s2 [label="Alert(FATAL,UNEXPECTED_MESSAGE) / TIMEOUT"];
	s12 -> s2 [label="HELLO_VERIFY_REQUEST / Alert(FATAL,UNEXPECTED_MESSAGE)"];
	s12 -> s2 [label="PSK_SERVER_HELLO / Alert(FATAL,UNEXPECTED_MESSAGE)"];
	s12 -> s13 [label="SERVER_HELLO_DONE / PSK_CLIENT_KEY_EXCHANGE,CHANGE_CIPHER_SPEC,FINISHED"];
	s12 -> s3 [label="CHANGE_CIPHER_SPEC / TIMEOUT"];
	s12 -> s2 [label="FINISHED / Alert(FATAL,UNEXPECTED_MESSAGE)"];
	s12 -> s5 [label="HELLO_REQUEST / TIMEOUT"];
	s12 -> s12 [label="APPLICATION / TIMEOUT"];
	s12 -> s2 [label="Alert(WARNING,CLOSE_NOTIFY) / Alert(FATAL,CLOSE_NOTIFY)"];
	s12 -> s2 [label="Alert(FATAL,UNEXPECTED_MESSAGE) / TIMEOUT"];
	s13 -> s3 [label="HELLO_VERIFY_REQUEST / TIMEOUT"];
	s13 -> s3 [label="PSK_SERVER_HELLO / TIMEOUT"];
	s13 -> s3 [label="SERVER_HELLO_DONE / TIMEOUT"];
	s13 -> s7 [label="CHANGE_CIPHER_SPEC / TIMEOUT"];
	s13 -> s3 [label="FINISHED / TIMEOUT"];
	s13 -> s5 [label="HELLO_REQUEST / TIMEOUT"];
	s13 -> s3 [label="APPLICATION / TIMEOUT"];
	s13 -> s2 [label="Alert(WARNING,CLOSE_NOTIFY) / Alert(FATAL,CLOSE_NOTIFY)"];
	s13 -> s2 [label="Alert(FATAL,UNEXPECTED_MESSAGE) / TIMEOUT"];

__start0 [label="" shape="none" width="0" height="0"];
__start0 -> s0;

}
