digraph g {

	s0 [shape="circle" label="s0"];
	s1 [shape="circle" label="s1"];
	s2 [shape="circle" label="s2"];
	s3 [shape="circle" label="s3"];
	s4 [shape="circle" label="s4"];
	s5 [shape="circle" label="s5"];
	s6 [shape="circle" label="s6"];
	s7 [shape="circle" label="s7"];
	s8 [shape="circle" label="s8"];
	s9 [shape="circle" label="s9"];
	s10 [shape="circle" label="s10"];
	s11 [shape="circle" label="s11"];
	s12 [shape="circle" label="s12"];
	s13 [shape="circle" label="s13"];
	s14 [shape="circle" label="s14"];
	s15 [shape="circle" label="s15"];
	s16 [shape="circle" label="s16"];
	s17 [shape="circle" label="s17"];
	s18 [shape="circle" label="s18"];
	s0 -> s16 [label="HELLO_VERIFY_REQUEST / CLIENT_HELLO+"];
	s0 -> s17 [label="ECDH_SERVER_HELLO / CLIENT_HELLO"];
	s0 -> s4 [label="ECDH_SERVER_KEY_EXCHANGE / CLIENT_HELLO|Alert(FATAL,UNEXPECTED_MESSAGE)"];
	s0 -> s7 [label="DH_SERVER_HELLO / CLIENT_HELLO"];
	s0 -> s4 [label="DH_SERVER_KEY_EXCHANGE / CLIENT_HELLO|Alert(FATAL,UNEXPECTED_MESSAGE)"];
	s0 -> s2 [label="RSA_SERVER_HELLO / CLIENT_HELLO"];
	s0 -> s4 [label="HELLO_REQUEST / CLIENT_HELLO|Alert(FATAL,UNEXPECTED_MESSAGE)"];
	s0 -> s4 [label="RSA_SIGN_CERTIFICATE_REQUEST / CLIENT_HELLO|Alert(FATAL,UNEXPECTED_MESSAGE)"];
	s0 -> s4 [label="RSA_FIXED_ECDH_CERTIFICATE_REQUEST / CLIENT_HELLO|Alert(FATAL,UNEXPECTED_MESSAGE)"];
	s0 -> s4 [label="RSA_FIXED_DH_CERTIFICATE_REQUEST / CLIENT_HELLO|Alert(FATAL,UNEXPECTED_MESSAGE)"];
	s0 -> s4 [label="DSS_SIGN_CERTIFICATE_REQUEST / CLIENT_HELLO|Alert(FATAL,UNEXPECTED_MESSAGE)"];
	s0 -> s4 [label="DSS_FIXED_DH_CERTIFICATE_REQUEST / CLIENT_HELLO|Alert(FATAL,UNEXPECTED_MESSAGE)"];
	s0 -> s4 [label="ECDSA_SIGN_CERTIFICATE_REQUEST / CLIENT_HELLO|Alert(FATAL,UNEXPECTED_MESSAGE)"];
	s0 -> s4 [label="SERVER_HELLO_DONE / CLIENT_HELLO|Alert(FATAL,UNEXPECTED_MESSAGE)"];
	s0 -> s3 [label="CHANGE_CIPHER_SPEC / CLIENT_HELLO"];
	s0 -> s4 [label="FINISHED / CLIENT_HELLO|Alert(FATAL,UNEXPECTED_MESSAGE)"];
	s0 -> s1 [label="APPLICATION / CLIENT_HELLO"];
	s0 -> s4 [label="CERTIFICATE / CLIENT_HELLO|Alert(FATAL,UNEXPECTED_MESSAGE)"];
	s0 -> s4 [label="EMPTY_CERTIFICATE / CLIENT_HELLO|Alert(FATAL,UNEXPECTED_MESSAGE)"];
	s0 -> s1 [label="Alert(WARNING,CLOSE_NOTIFY) / CLIENT_HELLO"];
	s0 -> s1 [label="Alert(FATAL,UNEXPECTED_MESSAGE) / CLIENT_HELLO"];
	s1 -> s16 [label="HELLO_VERIFY_REQUEST / CLIENT_HELLO"];
	s1 -> s17 [label="ECDH_SERVER_HELLO / TIMEOUT"];
	s1 -> s4 [label="ECDH_SERVER_KEY_EXCHANGE / Alert(FATAL,UNEXPECTED_MESSAGE)"];
	s1 -> s7 [label="DH_SERVER_HELLO / TIMEOUT"];
	s1 -> s4 [label="DH_SERVER_KEY_EXCHANGE / Alert(FATAL,UNEXPECTED_MESSAGE)"];
	s1 -> s2 [label="RSA_SERVER_HELLO / TIMEOUT"];
	s1 -> s4 [label="HELLO_REQUEST / Alert(FATAL,UNEXPECTED_MESSAGE)"];
	s1 -> s4 [label="RSA_SIGN_CERTIFICATE_REQUEST / Alert(FATAL,UNEXPECTED_MESSAGE)"];
	s1 -> s4 [label="RSA_FIXED_ECDH_CERTIFICATE_REQUEST / Alert(FATAL,UNEXPECTED_MESSAGE)"];
	s1 -> s4 [label="RSA_FIXED_DH_CERTIFICATE_REQUEST / Alert(FATAL,UNEXPECTED_MESSAGE)"];
	s1 -> s4 [label="DSS_SIGN_CERTIFICATE_REQUEST / Alert(FATAL,UNEXPECTED_MESSAGE)"];
	s1 -> s4 [label="DSS_FIXED_DH_CERTIFICATE_REQUEST / Alert(FATAL,UNEXPECTED_MESSAGE)"];
	s1 -> s4 [label="ECDSA_SIGN_CERTIFICATE_REQUEST / Alert(FATAL,UNEXPECTED_MESSAGE)"];
	s1 -> s4 [label="SERVER_HELLO_DONE / Alert(FATAL,UNEXPECTED_MESSAGE)"];
	s1 -> s3 [label="CHANGE_CIPHER_SPEC / TIMEOUT"];
	s1 -> s4 [label="FINISHED / Alert(FATAL,UNEXPECTED_MESSAGE)"];
	s1 -> s1 [label="APPLICATION / TIMEOUT"];
	s1 -> s4 [label="CERTIFICATE / Alert(FATAL,UNEXPECTED_MESSAGE)"];
	s1 -> s4 [label="EMPTY_CERTIFICATE / Alert(FATAL,UNEXPECTED_MESSAGE)"];
	s1 -> s4 [label="Alert(WARNING,CLOSE_NOTIFY) / Alert(FATAL,INTERNAL_ERROR)"];
	s1 -> s4 [label="Alert(FATAL,UNEXPECTED_MESSAGE) / TIMEOUT"];
	s2 -> s4 [label="HELLO_VERIFY_REQUEST / Alert(FATAL,UNEXPECTED_MESSAGE)"];
	s2 -> s4 [label="ECDH_SERVER_HELLO / Alert(FATAL,UNEXPECTED_MESSAGE)"];
	s2 -> s4 [label="ECDH_SERVER_KEY_EXCHANGE / Alert(FATAL,UNEXPECTED_MESSAGE)"];
	s2 -> s4 [label="DH_SERVER_HELLO / Alert(FATAL,UNEXPECTED_MESSAGE)"];
	s2 -> s4 [label="DH_SERVER_KEY_EXCHANGE / Alert(FATAL,UNEXPECTED_MESSAGE)"];
	s2 -> s4 [label="RSA_SERVER_HELLO / Alert(FATAL,UNEXPECTED_MESSAGE)"];
	s2 -> s5 [label="HELLO_REQUEST / TIMEOUT"];
	s2 -> s4 [label="RSA_SIGN_CERTIFICATE_REQUEST / Alert(FATAL,UNEXPECTED_MESSAGE)"];
	s2 -> s4 [label="RSA_FIXED_ECDH_CERTIFICATE_REQUEST / Alert(FATAL,UNEXPECTED_MESSAGE)"];
	s2 -> s4 [label="RSA_FIXED_DH_CERTIFICATE_REQUEST / Alert(FATAL,UNEXPECTED_MESSAGE)"];
	s2 -> s4 [label="DSS_SIGN_CERTIFICATE_REQUEST / Alert(FATAL,UNEXPECTED_MESSAGE)"];
	s2 -> s4 [label="DSS_FIXED_DH_CERTIFICATE_REQUEST / Alert(FATAL,UNEXPECTED_MESSAGE)"];
	s2 -> s4 [label="ECDSA_SIGN_CERTIFICATE_REQUEST / Alert(FATAL,UNEXPECTED_MESSAGE)"];
	s2 -> s4 [label="SERVER_HELLO_DONE / Alert(FATAL,UNEXPECTED_MESSAGE)"];
	s2 -> s3 [label="CHANGE_CIPHER_SPEC / TIMEOUT"];
	s2 -> s4 [label="FINISHED / Alert(FATAL,UNEXPECTED_MESSAGE)"];
	s2 -> s2 [label="APPLICATION / TIMEOUT"];
	s2 -> s6 [label="CERTIFICATE / TIMEOUT"];
	s2 -> s4 [label="EMPTY_CERTIFICATE / Alert(FATAL,DECODE_ERROR)"];
	s2 -> s4 [label="Alert(WARNING,CLOSE_NOTIFY) / Alert(FATAL,INTERNAL_ERROR)"];
	s2 -> s4 [label="Alert(FATAL,UNEXPECTED_MESSAGE) / TIMEOUT"];
	s3 -> s3 [label="HELLO_VERIFY_REQUEST / TIMEOUT"];
	s3 -> s3 [label="ECDH_SERVER_HELLO / TIMEOUT"];
	s3 -> s3 [label="ECDH_SERVER_KEY_EXCHANGE / TIMEOUT"];
	s3 -> s3 [label="DH_SERVER_HELLO / TIMEOUT"];
	s3 -> s3 [label="DH_SERVER_KEY_EXCHANGE / TIMEOUT"];
	s3 -> s3 [label="RSA_SERVER_HELLO / TIMEOUT"];
	s3 -> s5 [label="HELLO_REQUEST / TIMEOUT"];
	s3 -> s3 [label="RSA_SIGN_CERTIFICATE_REQUEST / TIMEOUT"];
	s3 -> s3 [label="RSA_FIXED_ECDH_CERTIFICATE_REQUEST / TIMEOUT"];
	s3 -> s3 [label="RSA_FIXED_DH_CERTIFICATE_REQUEST / TIMEOUT"];
	s3 -> s3 [label="DSS_SIGN_CERTIFICATE_REQUEST / TIMEOUT"];
	s3 -> s3 [label="DSS_FIXED_DH_CERTIFICATE_REQUEST / TIMEOUT"];
	s3 -> s3 [label="ECDSA_SIGN_CERTIFICATE_REQUEST / TIMEOUT"];
	s3 -> s3 [label="SERVER_HELLO_DONE / TIMEOUT"];
	s3 -> s3 [label="CHANGE_CIPHER_SPEC / TIMEOUT"];
	s3 -> s3 [label="FINISHED / TIMEOUT"];
	s3 -> s3 [label="APPLICATION / TIMEOUT"];
	s3 -> s3 [label="CERTIFICATE / TIMEOUT"];
	s3 -> s3 [label="EMPTY_CERTIFICATE / TIMEOUT"];
	s3 -> s3 [label="Alert(WARNING,CLOSE_NOTIFY) / TIMEOUT"];
	s3 -> s3 [label="Alert(FATAL,UNEXPECTED_MESSAGE) / TIMEOUT"];
	s4 -> s4 [label="HELLO_VERIFY_REQUEST / SOCKET_CLOSED"];
	s4 -> s4 [label="ECDH_SERVER_HELLO / SOCKET_CLOSED"];
	s4 -> s4 [label="ECDH_SERVER_KEY_EXCHANGE / SOCKET_CLOSED"];
	s4 -> s4 [label="DH_SERVER_HELLO / SOCKET_CLOSED"];
	s4 -> s4 [label="DH_SERVER_KEY_EXCHANGE / SOCKET_CLOSED"];
	s4 -> s4 [label="RSA_SERVER_HELLO / SOCKET_CLOSED"];
	s4 -> s4 [label="HELLO_REQUEST / SOCKET_CLOSED"];
	s4 -> s4 [label="RSA_SIGN_CERTIFICATE_REQUEST / SOCKET_CLOSED"];
	s4 -> s4 [label="RSA_FIXED_ECDH_CERTIFICATE_REQUEST / SOCKET_CLOSED"];
	s4 -> s4 [label="RSA_FIXED_DH_CERTIFICATE_REQUEST / SOCKET_CLOSED"];
	s4 -> s4 [label="DSS_SIGN_CERTIFICATE_REQUEST / SOCKET_CLOSED"];
	s4 -> s4 [label="DSS_FIXED_DH_CERTIFICATE_REQUEST / SOCKET_CLOSED"];
	s4 -> s4 [label="ECDSA_SIGN_CERTIFICATE_REQUEST / SOCKET_CLOSED"];
	s4 -> s4 [label="SERVER_HELLO_DONE / SOCKET_CLOSED"];
	s4 -> s4 [label="CHANGE_CIPHER_SPEC / SOCKET_CLOSED"];
	s4 -> s4 [label="FINISHED / SOCKET_CLOSED"];
	s4 -> s4 [label="APPLICATION / SOCKET_CLOSED"];
	s4 -> s4 [label="CERTIFICATE / SOCKET_CLOSED"];
	s4 -> s4 [label="EMPTY_CERTIFICATE / SOCKET_CLOSED"];
	s4 -> s4 [label="Alert(WARNING,CLOSE_NOTIFY) / SOCKET_CLOSED"];
	s4 -> s4 [label="Alert(FATAL,UNEXPECTED_MESSAGE) / SOCKET_CLOSED"];
	s5 -> s5 [label="HELLO_VERIFY_REQUEST / DISABLED"];
	s5 -> s5 [label="ECDH_SERVER_HELLO / DISABLED"];
	s5 -> s5 [label="ECDH_SERVER_KEY_EXCHANGE / DISABLED"];
	s5 -> s5 [label="DH_SERVER_HELLO / DISABLED"];
	s5 -> s5 [label="DH_SERVER_KEY_EXCHANGE / DISABLED"];
	s5 -> s5 [label="RSA_SERVER_HELLO / DISABLED"];
	s5 -> s5 [label="HELLO_REQUEST / DISABLED"];
	s5 -> s5 [label="RSA_SIGN_CERTIFICATE_REQUEST / DISABLED"];
	s5 -> s5 [label="RSA_FIXED_ECDH_CERTIFICATE_REQUEST / DISABLED"];
	s5 -> s5 [label="RSA_FIXED_DH_CERTIFICATE_REQUEST / DISABLED"];
	s5 -> s5 [label="DSS_SIGN_CERTIFICATE_REQUEST / DISABLED"];
	s5 -> s5 [label="DSS_FIXED_DH_CERTIFICATE_REQUEST / DISABLED"];
	s5 -> s5 [label="ECDSA_SIGN_CERTIFICATE_REQUEST / DISABLED"];
	s5 -> s5 [label="SERVER_HELLO_DONE / DISABLED"];
	s5 -> s5 [label="CHANGE_CIPHER_SPEC / DISABLED"];
	s5 -> s5 [label="FINISHED / DISABLED"];
	s5 -> s5 [label="APPLICATION / DISABLED"];
	s5 -> s5 [label="CERTIFICATE / DISABLED"];
	s5 -> s5 [label="EMPTY_CERTIFICATE / DISABLED"];
	s5 -> s5 [label="Alert(WARNING,CLOSE_NOTIFY) / DISABLED"];
	s5 -> s5 [label="Alert(FATAL,UNEXPECTED_MESSAGE) / DISABLED"];
	s6 -> s4 [label="HELLO_VERIFY_REQUEST / Alert(FATAL,UNEXPECTED_MESSAGE)"];
	s6 -> s4 [label="ECDH_SERVER_HELLO / Alert(FATAL,UNEXPECTED_MESSAGE)"];
	s6 -> s4 [label="ECDH_SERVER_KEY_EXCHANGE / Alert(FATAL,UNEXPECTED_MESSAGE)"];
	s6 -> s4 [label="DH_SERVER_HELLO / Alert(FATAL,UNEXPECTED_MESSAGE)"];
	s6 -> s4 [label="DH_SERVER_KEY_EXCHANGE / Alert(FATAL,UNEXPECTED_MESSAGE)"];
	s6 -> s4 [label="RSA_SERVER_HELLO / Alert(FATAL,UNEXPECTED_MESSAGE)"];
	s6 -> s5 [label="HELLO_REQUEST / TIMEOUT"];
	s6 -> s8 [label="RSA_SIGN_CERTIFICATE_REQUEST / TIMEOUT"];
	s6 -> s4 [label="RSA_FIXED_ECDH_CERTIFICATE_REQUEST / Alert(FATAL,HANDSHAKE_FAILURE)"];
	s6 -> s4 [label="RSA_FIXED_DH_CERTIFICATE_REQUEST / Alert(FATAL,HANDSHAKE_FAILURE)"];
	s6 -> s8 [label="DSS_SIGN_CERTIFICATE_REQUEST / TIMEOUT"];
	s6 -> s4 [label="DSS_FIXED_DH_CERTIFICATE_REQUEST / Alert(FATAL,HANDSHAKE_FAILURE)"];
	s6 -> s8 [label="ECDSA_SIGN_CERTIFICATE_REQUEST / TIMEOUT"];
	s6 -> s9 [label="SERVER_HELLO_DONE / RSA_CLIENT_KEY_EXCHANGE|CHANGE_CIPHER_SPEC|FINISHED"];
	s6 -> s3 [label="CHANGE_CIPHER_SPEC / TIMEOUT"];
	s6 -> s4 [label="FINISHED / Alert(FATAL,UNEXPECTED_MESSAGE)"];
	s6 -> s6 [label="APPLICATION / TIMEOUT"];
	s6 -> s4 [label="CERTIFICATE / Alert(FATAL,UNEXPECTED_MESSAGE)"];
	s6 -> s4 [label="EMPTY_CERTIFICATE / Alert(FATAL,UNEXPECTED_MESSAGE)"];
	s6 -> s4 [label="Alert(WARNING,CLOSE_NOTIFY) / Alert(FATAL,INTERNAL_ERROR)"];
	s6 -> s4 [label="Alert(FATAL,UNEXPECTED_MESSAGE) / TIMEOUT"];
	s7 -> s4 [label="HELLO_VERIFY_REQUEST / Alert(FATAL,UNEXPECTED_MESSAGE)"];
	s7 -> s4 [label="ECDH_SERVER_HELLO / Alert(FATAL,UNEXPECTED_MESSAGE)"];
	s7 -> s4 [label="ECDH_SERVER_KEY_EXCHANGE / Alert(FATAL,UNEXPECTED_MESSAGE)"];
	s7 -> s4 [label="DH_SERVER_HELLO / Alert(FATAL,UNEXPECTED_MESSAGE)"];
	s7 -> s4 [label="DH_SERVER_KEY_EXCHANGE / Alert(FATAL,UNEXPECTED_MESSAGE)"];
	s7 -> s4 [label="RSA_SERVER_HELLO / Alert(FATAL,UNEXPECTED_MESSAGE)"];
	s7 -> s5 [label="HELLO_REQUEST / TIMEOUT"];
	s7 -> s4 [label="RSA_SIGN_CERTIFICATE_REQUEST / Alert(FATAL,UNEXPECTED_MESSAGE)"];
	s7 -> s4 [label="RSA_FIXED_ECDH_CERTIFICATE_REQUEST / Alert(FATAL,UNEXPECTED_MESSAGE)"];
	s7 -> s4 [label="RSA_FIXED_DH_CERTIFICATE_REQUEST / Alert(FATAL,UNEXPECTED_MESSAGE)"];
	s7 -> s4 [label="DSS_SIGN_CERTIFICATE_REQUEST / Alert(FATAL,UNEXPECTED_MESSAGE)"];
	s7 -> s4 [label="DSS_FIXED_DH_CERTIFICATE_REQUEST / Alert(FATAL,UNEXPECTED_MESSAGE)"];
	s7 -> s4 [label="ECDSA_SIGN_CERTIFICATE_REQUEST / Alert(FATAL,UNEXPECTED_MESSAGE)"];
	s7 -> s4 [label="SERVER_HELLO_DONE / Alert(FATAL,UNEXPECTED_MESSAGE)"];
	s7 -> s3 [label="CHANGE_CIPHER_SPEC / TIMEOUT"];
	s7 -> s4 [label="FINISHED / Alert(FATAL,UNEXPECTED_MESSAGE)"];
	s7 -> s7 [label="APPLICATION / TIMEOUT"];
	s7 -> s11 [label="CERTIFICATE / TIMEOUT"];
	s7 -> s4 [label="EMPTY_CERTIFICATE / Alert(FATAL,DECODE_ERROR)"];
	s7 -> s4 [label="Alert(WARNING,CLOSE_NOTIFY) / Alert(FATAL,INTERNAL_ERROR)"];
	s7 -> s4 [label="Alert(FATAL,UNEXPECTED_MESSAGE) / TIMEOUT"];
	s8 -> s4 [label="HELLO_VERIFY_REQUEST / Alert(FATAL,UNEXPECTED_MESSAGE)"];
	s8 -> s4 [label="ECDH_SERVER_HELLO / Alert(FATAL,UNEXPECTED_MESSAGE)"];
	s8 -> s4 [label="ECDH_SERVER_KEY_EXCHANGE / Alert(FATAL,UNEXPECTED_MESSAGE)"];
	s8 -> s4 [label="DH_SERVER_HELLO / Alert(FATAL,UNEXPECTED_MESSAGE)"];
	s8 -> s4 [label="DH_SERVER_KEY_EXCHANGE / Alert(FATAL,UNEXPECTED_MESSAGE)"];
	s8 -> s4 [label="RSA_SERVER_HELLO / Alert(FATAL,UNEXPECTED_MESSAGE)"];
	s8 -> s5 [label="HELLO_REQUEST / TIMEOUT"];
	s8 -> s4 [label="RSA_SIGN_CERTIFICATE_REQUEST / Alert(FATAL,UNEXPECTED_MESSAGE)"];
	s8 -> s4 [label="RSA_FIXED_ECDH_CERTIFICATE_REQUEST / Alert(FATAL,UNEXPECTED_MESSAGE)"];
	s8 -> s4 [label="RSA_FIXED_DH_CERTIFICATE_REQUEST / Alert(FATAL,UNEXPECTED_MESSAGE)"];
	s8 -> s4 [label="DSS_SIGN_CERTIFICATE_REQUEST / Alert(FATAL,UNEXPECTED_MESSAGE)"];
	s8 -> s4 [label="DSS_FIXED_DH_CERTIFICATE_REQUEST / Alert(FATAL,UNEXPECTED_MESSAGE)"];
	s8 -> s4 [label="ECDSA_SIGN_CERTIFICATE_REQUEST / Alert(FATAL,UNEXPECTED_MESSAGE)"];
	s8 -> s9 [label="SERVER_HELLO_DONE / RSA_CERTIFICATE|RSA_CLIENT_KEY_EXCHANGE|CERTIFICATE_VERIFY|CHANGE_CIPHER_SPEC|FINISHED"];
	s8 -> s3 [label="CHANGE_CIPHER_SPEC / TIMEOUT"];
	s8 -> s4 [label="FINISHED / Alert(FATAL,UNEXPECTED_MESSAGE)"];
	s8 -> s8 [label="APPLICATION / TIMEOUT"];
	s8 -> s4 [label="CERTIFICATE / Alert(FATAL,UNEXPECTED_MESSAGE)"];
	s8 -> s4 [label="EMPTY_CERTIFICATE / Alert(FATAL,UNEXPECTED_MESSAGE)"];
	s8 -> s4 [label="Alert(WARNING,CLOSE_NOTIFY) / Alert(FATAL,INTERNAL_ERROR)"];
	s8 -> s4 [label="Alert(FATAL,UNEXPECTED_MESSAGE) / TIMEOUT"];
	s9 -> s13 [label="HELLO_VERIFY_REQUEST / TIMEOUT"];
	s9 -> s10 [label="ECDH_SERVER_HELLO / TIMEOUT"];
	s9 -> s13 [label="ECDH_SERVER_KEY_EXCHANGE / TIMEOUT"];
	s9 -> s13 [label="DH_SERVER_HELLO / TIMEOUT"];
	s9 -> s13 [label="DH_SERVER_KEY_EXCHANGE / TIMEOUT"];
	s9 -> s13 [label="RSA_SERVER_HELLO / TIMEOUT"];
	s9 -> s5 [label="HELLO_REQUEST / TIMEOUT"];
	s9 -> s13 [label="RSA_SIGN_CERTIFICATE_REQUEST / TIMEOUT"];
	s9 -> s13 [label="RSA_FIXED_ECDH_CERTIFICATE_REQUEST / TIMEOUT"];
	s9 -> s13 [label="RSA_FIXED_DH_CERTIFICATE_REQUEST / TIMEOUT"];
	s9 -> s13 [label="DSS_SIGN_CERTIFICATE_REQUEST / TIMEOUT"];
	s9 -> s13 [label="DSS_FIXED_DH_CERTIFICATE_REQUEST / TIMEOUT"];
	s9 -> s13 [label="ECDSA_SIGN_CERTIFICATE_REQUEST / TIMEOUT"];
	s9 -> s13 [label="SERVER_HELLO_DONE / TIMEOUT"];
	s9 -> s12 [label="CHANGE_CIPHER_SPEC / TIMEOUT"];
	s9 -> s13 [label="FINISHED / TIMEOUT"];
	s9 -> s9 [label="APPLICATION / TIMEOUT"];
	s9 -> s13 [label="CERTIFICATE / TIMEOUT"];
	s9 -> s13 [label="EMPTY_CERTIFICATE / TIMEOUT"];
	s9 -> s4 [label="Alert(WARNING,CLOSE_NOTIFY) / Alert(FATAL,UNEXPECTED_MESSAGE)"];
	s9 -> s4 [label="Alert(FATAL,UNEXPECTED_MESSAGE) / TIMEOUT"];
	s10 -> s10 [label="HELLO_VERIFY_REQUEST / TIMEOUT"];
	s10 -> s10 [label="ECDH_SERVER_HELLO / TIMEOUT"];
	s10 -> s10 [label="ECDH_SERVER_KEY_EXCHANGE / TIMEOUT"];
	s10 -> s13 [label="DH_SERVER_HELLO / TIMEOUT"];
	s10 -> s10 [label="DH_SERVER_KEY_EXCHANGE / TIMEOUT"];
	s10 -> s13 [label="RSA_SERVER_HELLO / TIMEOUT"];
	s10 -> s5 [label="HELLO_REQUEST / TIMEOUT"];
	s10 -> s10 [label="RSA_SIGN_CERTIFICATE_REQUEST / TIMEOUT"];
	s10 -> s10 [label="RSA_FIXED_ECDH_CERTIFICATE_REQUEST / TIMEOUT"];
	s10 -> s10 [label="RSA_FIXED_DH_CERTIFICATE_REQUEST / TIMEOUT"];
	s10 -> s10 [label="DSS_SIGN_CERTIFICATE_REQUEST / TIMEOUT"];
	s10 -> s10 [label="DSS_FIXED_DH_CERTIFICATE_REQUEST / TIMEOUT"];
	s10 -> s10 [label="ECDSA_SIGN_CERTIFICATE_REQUEST / TIMEOUT"];
	s10 -> s10 [label="SERVER_HELLO_DONE / TIMEOUT"];
	s10 -> s3 [label="CHANGE_CIPHER_SPEC / TIMEOUT"];
	s10 -> s10 [label="FINISHED / TIMEOUT"];
	s10 -> s10 [label="APPLICATION / TIMEOUT"];
	s10 -> s10 [label="CERTIFICATE / TIMEOUT"];
	s10 -> s10 [label="EMPTY_CERTIFICATE / TIMEOUT"];
	s10 -> s4 [label="Alert(WARNING,CLOSE_NOTIFY) / UNKNOWN_MESSAGE"];
	s10 -> s4 [label="Alert(FATAL,UNEXPECTED_MESSAGE) / TIMEOUT"];
	s11 -> s4 [label="HELLO_VERIFY_REQUEST / Alert(FATAL,UNEXPECTED_MESSAGE)"];
	s11 -> s4 [label="ECDH_SERVER_HELLO / Alert(FATAL,UNEXPECTED_MESSAGE)"];
	s11 -> s4 [label="ECDH_SERVER_KEY_EXCHANGE / Alert(FATAL,DECODE_ERROR)"];
	s11 -> s4 [label="DH_SERVER_HELLO / Alert(FATAL,UNEXPECTED_MESSAGE)"];
	s11 -> s6 [label="DH_SERVER_KEY_EXCHANGE / TIMEOUT"];
	s11 -> s4 [label="RSA_SERVER_HELLO / Alert(FATAL,UNEXPECTED_MESSAGE)"];
	s11 -> s5 [label="HELLO_REQUEST / TIMEOUT"];
	s11 -> s4 [label="RSA_SIGN_CERTIFICATE_REQUEST / Alert(FATAL,UNEXPECTED_MESSAGE)"];
	s11 -> s4 [label="RSA_FIXED_ECDH_CERTIFICATE_REQUEST / Alert(FATAL,UNEXPECTED_MESSAGE)"];
	s11 -> s4 [label="RSA_FIXED_DH_CERTIFICATE_REQUEST / Alert(FATAL,UNEXPECTED_MESSAGE)"];
	s11 -> s4 [label="DSS_SIGN_CERTIFICATE_REQUEST / Alert(FATAL,UNEXPECTED_MESSAGE)"];
	s11 -> s4 [label="DSS_FIXED_DH_CERTIFICATE_REQUEST / Alert(FATAL,UNEXPECTED_MESSAGE)"];
	s11 -> s4 [label="ECDSA_SIGN_CERTIFICATE_REQUEST / Alert(FATAL,UNEXPECTED_MESSAGE)"];
	s11 -> s4 [label="SERVER_HELLO_DONE / Alert(FATAL,UNEXPECTED_MESSAGE)"];
	s11 -> s3 [label="CHANGE_CIPHER_SPEC / TIMEOUT"];
	s11 -> s4 [label="FINISHED / Alert(FATAL,UNEXPECTED_MESSAGE)"];
	s11 -> s11 [label="APPLICATION / TIMEOUT"];
	s11 -> s4 [label="CERTIFICATE / Alert(FATAL,UNEXPECTED_MESSAGE)"];
	s11 -> s4 [label="EMPTY_CERTIFICATE / Alert(FATAL,UNEXPECTED_MESSAGE)"];
	s11 -> s4 [label="Alert(WARNING,CLOSE_NOTIFY) / Alert(FATAL,INTERNAL_ERROR)"];
	s11 -> s4 [label="Alert(FATAL,UNEXPECTED_MESSAGE) / TIMEOUT"];
	s12 -> s4 [label="HELLO_VERIFY_REQUEST / Alert(FATAL,UNEXPECTED_MESSAGE)"];
	s12 -> s3 [label="ECDH_SERVER_HELLO / TIMEOUT"];
	s12 -> s4 [label="ECDH_SERVER_KEY_EXCHANGE / Alert(FATAL,UNEXPECTED_MESSAGE)"];
	s12 -> s4 [label="DH_SERVER_HELLO / Alert(FATAL,UNEXPECTED_MESSAGE)"];
	s12 -> s4 [label="DH_SERVER_KEY_EXCHANGE / Alert(FATAL,UNEXPECTED_MESSAGE)"];
	s12 -> s4 [label="RSA_SERVER_HELLO / Alert(FATAL,UNEXPECTED_MESSAGE)"];
	s12 -> s5 [label="HELLO_REQUEST / TIMEOUT"];
	s12 -> s4 [label="RSA_SIGN_CERTIFICATE_REQUEST / Alert(FATAL,UNEXPECTED_MESSAGE)"];
	s12 -> s4 [label="RSA_FIXED_ECDH_CERTIFICATE_REQUEST / Alert(FATAL,UNEXPECTED_MESSAGE)"];
	s12 -> s4 [label="RSA_FIXED_DH_CERTIFICATE_REQUEST / Alert(FATAL,UNEXPECTED_MESSAGE)"];
	s12 -> s4 [label="DSS_SIGN_CERTIFICATE_REQUEST / Alert(FATAL,UNEXPECTED_MESSAGE)"];
	s12 -> s4 [label="DSS_FIXED_DH_CERTIFICATE_REQUEST / Alert(FATAL,UNEXPECTED_MESSAGE)"];
	s12 -> s4 [label="ECDSA_SIGN_CERTIFICATE_REQUEST / Alert(FATAL,UNEXPECTED_MESSAGE)"];
	s12 -> s4 [label="SERVER_HELLO_DONE / Alert(FATAL,UNEXPECTED_MESSAGE)"];
	s12 -> s3 [label="CHANGE_CIPHER_SPEC / TIMEOUT"];
	s12 -> s15 [label="FINISHED / TIMEOUT"];
	s12 -> s12 [label="APPLICATION / TIMEOUT"];
	s12 -> s4 [label="CERTIFICATE / Alert(FATAL,UNEXPECTED_MESSAGE)"];
	s12 -> s4 [label="EMPTY_CERTIFICATE / Alert(FATAL,UNEXPECTED_MESSAGE)"];
	s12 -> s4 [label="Alert(WARNING,CLOSE_NOTIFY) / Alert(FATAL,INTERNAL_ERROR)"];
	s12 -> s4 [label="Alert(FATAL,UNEXPECTED_MESSAGE) / TIMEOUT"];
	s13 -> s13 [label="HELLO_VERIFY_REQUEST / TIMEOUT"];
	s13 -> s10 [label="ECDH_SERVER_HELLO / TIMEOUT"];
	s13 -> s13 [label="ECDH_SERVER_KEY_EXCHANGE / TIMEOUT"];
	s13 -> s13 [label="DH_SERVER_HELLO / TIMEOUT"];
	s13 -> s13 [label="DH_SERVER_KEY_EXCHANGE / TIMEOUT"];
	s13 -> s13 [label="RSA_SERVER_HELLO / TIMEOUT"];
	s13 -> s5 [label="HELLO_REQUEST / TIMEOUT"];
	s13 -> s13 [label="RSA_SIGN_CERTIFICATE_REQUEST / TIMEOUT"];
	s13 -> s13 [label="RSA_FIXED_ECDH_CERTIFICATE_REQUEST / TIMEOUT"];
	s13 -> s13 [label="RSA_FIXED_DH_CERTIFICATE_REQUEST / TIMEOUT"];
	s13 -> s13 [label="DSS_SIGN_CERTIFICATE_REQUEST / TIMEOUT"];
	s13 -> s13 [label="DSS_FIXED_DH_CERTIFICATE_REQUEST / TIMEOUT"];
	s13 -> s13 [label="ECDSA_SIGN_CERTIFICATE_REQUEST / TIMEOUT"];
	s13 -> s13 [label="SERVER_HELLO_DONE / TIMEOUT"];
	s13 -> s14 [label="CHANGE_CIPHER_SPEC / TIMEOUT"];
	s13 -> s13 [label="FINISHED / TIMEOUT"];
	s13 -> s13 [label="APPLICATION / TIMEOUT"];
	s13 -> s13 [label="CERTIFICATE / TIMEOUT"];
	s13 -> s13 [label="EMPTY_CERTIFICATE / TIMEOUT"];
	s13 -> s4 [label="Alert(WARNING,CLOSE_NOTIFY) / Alert(FATAL,UNEXPECTED_MESSAGE)"];
	s13 -> s4 [label="Alert(FATAL,UNEXPECTED_MESSAGE) / TIMEOUT"];
	s14 -> s14 [label="HELLO_VERIFY_REQUEST / TIMEOUT"];
	s14 -> s3 [label="ECDH_SERVER_HELLO / TIMEOUT"];
	s14 -> s14 [label="ECDH_SERVER_KEY_EXCHANGE / TIMEOUT"];
	s14 -> s14 [label="DH_SERVER_HELLO / TIMEOUT"];
	s14 -> s14 [label="DH_SERVER_KEY_EXCHANGE / TIMEOUT"];
	s14 -> s14 [label="RSA_SERVER_HELLO / TIMEOUT"];
	s14 -> s5 [label="HELLO_REQUEST / TIMEOUT"];
	s14 -> s14 [label="RSA_SIGN_CERTIFICATE_REQUEST / TIMEOUT"];
	s14 -> s14 [label="RSA_FIXED_ECDH_CERTIFICATE_REQUEST / TIMEOUT"];
	s14 -> s14 [label="RSA_FIXED_DH_CERTIFICATE_REQUEST / TIMEOUT"];
	s14 -> s14 [label="DSS_SIGN_CERTIFICATE_REQUEST / TIMEOUT"];
	s14 -> s14 [label="DSS_FIXED_DH_CERTIFICATE_REQUEST / TIMEOUT"];
	s14 -> s14 [label="ECDSA_SIGN_CERTIFICATE_REQUEST / TIMEOUT"];
	s14 -> s14 [label="SERVER_HELLO_DONE / TIMEOUT"];
	s14 -> s3 [label="CHANGE_CIPHER_SPEC / TIMEOUT"];
	s14 -> s14 [label="FINISHED / TIMEOUT"];
	s14 -> s14 [label="APPLICATION / TIMEOUT"];
	s14 -> s14 [label="CERTIFICATE / TIMEOUT"];
	s14 -> s14 [label="EMPTY_CERTIFICATE / TIMEOUT"];
	s14 -> s4 [label="Alert(WARNING,CLOSE_NOTIFY) / Alert(FATAL,INTERNAL_ERROR)"];
	s14 -> s4 [label="Alert(FATAL,UNEXPECTED_MESSAGE) / TIMEOUT"];
	s15 -> s15 [label="HELLO_VERIFY_REQUEST / TIMEOUT"];
	s15 -> s3 [label="ECDH_SERVER_HELLO / TIMEOUT"];
	s15 -> s15 [label="ECDH_SERVER_KEY_EXCHANGE / TIMEOUT"];
	s15 -> s15 [label="DH_SERVER_HELLO / TIMEOUT"];
	s15 -> s15 [label="DH_SERVER_KEY_EXCHANGE / TIMEOUT"];
	s15 -> s15 [label="RSA_SERVER_HELLO / TIMEOUT"];
	s15 -> s16 [label="HELLO_REQUEST / CLIENT_HELLO"];
	s15 -> s15 [label="RSA_SIGN_CERTIFICATE_REQUEST / TIMEOUT"];
	s15 -> s15 [label="RSA_FIXED_ECDH_CERTIFICATE_REQUEST / TIMEOUT"];
	s15 -> s15 [label="RSA_FIXED_DH_CERTIFICATE_REQUEST / TIMEOUT"];
	s15 -> s15 [label="DSS_SIGN_CERTIFICATE_REQUEST / TIMEOUT"];
	s15 -> s15 [label="DSS_FIXED_DH_CERTIFICATE_REQUEST / TIMEOUT"];
	s15 -> s15 [label="ECDSA_SIGN_CERTIFICATE_REQUEST / TIMEOUT"];
	s15 -> s15 [label="SERVER_HELLO_DONE / TIMEOUT"];
	s15 -> s3 [label="CHANGE_CIPHER_SPEC / TIMEOUT"];
	s15 -> s15 [label="FINISHED / TIMEOUT"];
	s15 -> s15 [label="APPLICATION / APPLICATION"];
	s15 -> s15 [label="CERTIFICATE / TIMEOUT"];
	s15 -> s15 [label="EMPTY_CERTIFICATE / TIMEOUT"];
	s15 -> s4 [label="Alert(WARNING,CLOSE_NOTIFY) / TIMEOUT"];
	s15 -> s4 [label="Alert(FATAL,UNEXPECTED_MESSAGE) / TIMEOUT"];
	s16 -> s16 [label="HELLO_VERIFY_REQUEST / CLIENT_HELLO"];
	s16 -> s3 [label="ECDH_SERVER_HELLO / TIMEOUT"];
	s16 -> s4 [label="ECDH_SERVER_KEY_EXCHANGE / Alert(FATAL,UNEXPECTED_MESSAGE)"];
	s16 -> s7 [label="DH_SERVER_HELLO / TIMEOUT"];
	s16 -> s4 [label="DH_SERVER_KEY_EXCHANGE / Alert(FATAL,UNEXPECTED_MESSAGE)"];
	s16 -> s2 [label="RSA_SERVER_HELLO / TIMEOUT"];
	s16 -> s5 [label="HELLO_REQUEST / TIMEOUT"];
	s16 -> s4 [label="RSA_SIGN_CERTIFICATE_REQUEST / Alert(FATAL,UNEXPECTED_MESSAGE)"];
	s16 -> s4 [label="RSA_FIXED_ECDH_CERTIFICATE_REQUEST / Alert(FATAL,UNEXPECTED_MESSAGE)"];
	s16 -> s4 [label="RSA_FIXED_DH_CERTIFICATE_REQUEST / Alert(FATAL,UNEXPECTED_MESSAGE)"];
	s16 -> s4 [label="DSS_SIGN_CERTIFICATE_REQUEST / Alert(FATAL,UNEXPECTED_MESSAGE)"];
	s16 -> s4 [label="DSS_FIXED_DH_CERTIFICATE_REQUEST / Alert(FATAL,UNEXPECTED_MESSAGE)"];
	s16 -> s4 [label="ECDSA_SIGN_CERTIFICATE_REQUEST / Alert(FATAL,UNEXPECTED_MESSAGE)"];
	s16 -> s4 [label="SERVER_HELLO_DONE / Alert(FATAL,UNEXPECTED_MESSAGE)"];
	s16 -> s3 [label="CHANGE_CIPHER_SPEC / TIMEOUT"];
	s16 -> s4 [label="FINISHED / Alert(FATAL,UNEXPECTED_MESSAGE)"];
	s16 -> s16 [label="APPLICATION / TIMEOUT"];
	s16 -> s4 [label="CERTIFICATE / Alert(FATAL,UNEXPECTED_MESSAGE)"];
	s16 -> s4 [label="EMPTY_CERTIFICATE / Alert(FATAL,UNEXPECTED_MESSAGE)"];
	s16 -> s4 [label="Alert(WARNING,CLOSE_NOTIFY) / Alert(FATAL,INTERNAL_ERROR)"];
	s16 -> s4 [label="Alert(FATAL,UNEXPECTED_MESSAGE) / TIMEOUT"];
	s17 -> s4 [label="HELLO_VERIFY_REQUEST / Alert(FATAL,UNEXPECTED_MESSAGE)"];
	s17 -> s4 [label="ECDH_SERVER_HELLO / Alert(FATAL,UNEXPECTED_MESSAGE)"];
	s17 -> s4 [label="ECDH_SERVER_KEY_EXCHANGE / Alert(FATAL,UNEXPECTED_MESSAGE)"];
	s17 -> s4 [label="DH_SERVER_HELLO / Alert(FATAL,UNEXPECTED_MESSAGE)"];
	s17 -> s4 [label="DH_SERVER_KEY_EXCHANGE / Alert(FATAL,UNEXPECTED_MESSAGE)"];
	s17 -> s4 [label="RSA_SERVER_HELLO / Alert(FATAL,UNEXPECTED_MESSAGE)"];
	s17 -> s5 [label="HELLO_REQUEST / TIMEOUT"];
	s17 -> s4 [label="RSA_SIGN_CERTIFICATE_REQUEST / Alert(FATAL,UNEXPECTED_MESSAGE)"];
	s17 -> s4 [label="RSA_FIXED_ECDH_CERTIFICATE_REQUEST / Alert(FATAL,UNEXPECTED_MESSAGE)"];
	s17 -> s4 [label="RSA_FIXED_DH_CERTIFICATE_REQUEST / Alert(FATAL,UNEXPECTED_MESSAGE)"];
	s17 -> s4 [label="DSS_SIGN_CERTIFICATE_REQUEST / Alert(FATAL,UNEXPECTED_MESSAGE)"];
	s17 -> s4 [label="DSS_FIXED_DH_CERTIFICATE_REQUEST / Alert(FATAL,UNEXPECTED_MESSAGE)"];
	s17 -> s4 [label="ECDSA_SIGN_CERTIFICATE_REQUEST / Alert(FATAL,UNEXPECTED_MESSAGE)"];
	s17 -> s4 [label="SERVER_HELLO_DONE / Alert(FATAL,UNEXPECTED_MESSAGE)"];
	s17 -> s3 [label="CHANGE_CIPHER_SPEC / TIMEOUT"];
	s17 -> s4 [label="FINISHED / Alert(FATAL,UNEXPECTED_MESSAGE)"];
	s17 -> s17 [label="APPLICATION / TIMEOUT"];
	s17 -> s18 [label="CERTIFICATE / TIMEOUT"];
	s17 -> s4 [label="EMPTY_CERTIFICATE / Alert(FATAL,DECODE_ERROR)"];
	s17 -> s4 [label="Alert(WARNING,CLOSE_NOTIFY) / Alert(FATAL,INTERNAL_ERROR)"];
	s17 -> s4 [label="Alert(FATAL,UNEXPECTED_MESSAGE) / TIMEOUT"];
	s18 -> s4 [label="HELLO_VERIFY_REQUEST / Alert(FATAL,UNEXPECTED_MESSAGE)"];
	s18 -> s4 [label="ECDH_SERVER_HELLO / Alert(FATAL,UNEXPECTED_MESSAGE)"];
	s18 -> s6 [label="ECDH_SERVER_KEY_EXCHANGE / TIMEOUT"];
	s18 -> s4 [label="DH_SERVER_HELLO / Alert(FATAL,UNEXPECTED_MESSAGE)"];
	s18 -> s4 [label="DH_SERVER_KEY_EXCHANGE / Alert(FATAL,HANDSHAKE_FAILURE)"];
	s18 -> s4 [label="RSA_SERVER_HELLO / Alert(FATAL,UNEXPECTED_MESSAGE)"];
	s18 -> s5 [label="HELLO_REQUEST / TIMEOUT"];
	s18 -> s4 [label="RSA_SIGN_CERTIFICATE_REQUEST / Alert(FATAL,UNEXPECTED_MESSAGE)"];
	s18 -> s4 [label="RSA_FIXED_ECDH_CERTIFICATE_REQUEST / Alert(FATAL,UNEXPECTED_MESSAGE)"];
	s18 -> s4 [label="RSA_FIXED_DH_CERTIFICATE_REQUEST / Alert(FATAL,UNEXPECTED_MESSAGE)"];
	s18 -> s4 [label="DSS_SIGN_CERTIFICATE_REQUEST / Alert(FATAL,UNEXPECTED_MESSAGE)"];
	s18 -> s4 [label="DSS_FIXED_DH_CERTIFICATE_REQUEST / Alert(FATAL,UNEXPECTED_MESSAGE)"];
	s18 -> s4 [label="ECDSA_SIGN_CERTIFICATE_REQUEST / Alert(FATAL,UNEXPECTED_MESSAGE)"];
	s18 -> s4 [label="SERVER_HELLO_DONE / Alert(FATAL,UNEXPECTED_MESSAGE)"];
	s18 -> s3 [label="CHANGE_CIPHER_SPEC / TIMEOUT"];
	s18 -> s4 [label="FINISHED / Alert(FATAL,UNEXPECTED_MESSAGE)"];
	s18 -> s18 [label="APPLICATION / TIMEOUT"];
	s18 -> s4 [label="CERTIFICATE / Alert(FATAL,UNEXPECTED_MESSAGE)"];
	s18 -> s4 [label="EMPTY_CERTIFICATE / Alert(FATAL,UNEXPECTED_MESSAGE)"];
	s18 -> s4 [label="Alert(WARNING,CLOSE_NOTIFY) / Alert(FATAL,INTERNAL_ERROR)"];
	s18 -> s4 [label="Alert(FATAL,UNEXPECTED_MESSAGE) / TIMEOUT"];

__start0 [label="" shape="none" width="0" height="0"];
__start0 -> s0;

}
