digraph g {

	s0 [shape="circle" label="s0"];
	s1 [shape="circle" label="s1"];
	s2 [shape="circle" label="s2"];
	s3 [shape="circle" label="s3"];
	s4 [shape="circle" label="s4"];
	s5 [shape="circle" label="s5"];
	s6 [shape="circle" label="s6"];
	s7 [shape="circle" label="s7"];
	s8 [shape="circle" label="s8"];
	s9 [shape="circle" label="s9"];
	s10 [shape="circle" label="s10"];
	s11 [shape="circle" label="s11"];
	s12 [shape="circle" label="s12"];
	s13 [shape="circle" label="s13"];
	s14 [shape="circle" label="s14"];
	s15 [shape="circle" label="s15"];
	s16 [shape="circle" label="s16"];
	s17 [shape="circle" label="s17"];
	s18 [shape="circle" label="s18"];
	s19 [shape="circle" label="s19"];
	s20 [shape="circle" label="s20"];
	s21 [shape="circle" label="s21"];
	s22 [shape="circle" label="s22"];
	s23 [shape="circle" label="s23"];
	s24 [shape="circle" label="s24"];
	s25 [shape="circle" label="s25"];
	s26 [shape="circle" label="s26"];
	s27 [shape="circle" label="s27"];
	s28 [shape="circle" label="s28"];
	s29 [shape="circle" label="s29"];
	s30 [shape="circle" label="s30"];
	s31 [shape="circle" label="s31"];
	s32 [shape="circle" label="s32"];
	s33 [shape="circle" label="s33"];
	s34 [shape="circle" label="s34"];
	s35 [shape="circle" label="s35"];
	s36 [shape="circle" label="s36"];
	s37 [shape="circle" label="s37"];
	s38 [shape="circle" label="s38"];
	s39 [shape="circle" label="s39"];
	s40 [shape="circle" label="s40"];
	s41 [shape="circle" label="s41"];
	s42 [shape="circle" label="s42"];
	s43 [shape="circle" label="s43"];
	s44 [shape="circle" label="s44"];
	s45 [shape="circle" label="s45"];
	s46 [shape="circle" label="s46"];
	s47 [shape="circle" label="s47"];
	s48 [shape="circle" label="s48"];
	s49 [shape="circle" label="s49"];
	s50 [shape="circle" label="s50"];
	s51 [shape="circle" label="s51"];
	s52 [shape="circle" label="s52"];
	s53 [shape="circle" label="s53"];
	s54 [shape="circle" label="s54"];
	s55 [shape="circle" label="s55"];
	s56 [shape="circle" label="s56"];
	s0 -> s19 [label="HELLO_VERIFY_REQUEST / CLIENT_HELLO+"];
	s0 -> s17 [label="ECDH_SERVER_HELLO / CLIENT_HELLO"];
	s0 -> s4 [label="ECDH_SERVER_KEY_EXCHANGE / CLIENT_HELLO|Alert(FATAL,UNEXPECTED_MESSAGE)"];
	s0 -> s7 [label="DH_SERVER_HELLO / CLIENT_HELLO"];
	s0 -> s4 [label="DH_SERVER_KEY_EXCHANGE / CLIENT_HELLO|Alert(FATAL,UNEXPECTED_MESSAGE)"];
	s0 -> s2 [label="RSA_SERVER_HELLO / CLIENT_HELLO"];
	s0 -> s4 [label="HELLO_REQUEST / CLIENT_HELLO|Alert(FATAL,UNEXPECTED_MESSAGE)"];
	s0 -> s4 [label="RSA_SIGN_CERTIFICATE_REQUEST / CLIENT_HELLO|Alert(FATAL,UNEXPECTED_MESSAGE)"];
	s0 -> s4 [label="RSA_FIXED_ECDH_CERTIFICATE_REQUEST / CLIENT_HELLO|Alert(FATAL,UNEXPECTED_MESSAGE)"];
	s0 -> s4 [label="RSA_FIXED_DH_CERTIFICATE_REQUEST / CLIENT_HELLO|Alert(FATAL,UNEXPECTED_MESSAGE)"];
	s0 -> s4 [label="DSS_SIGN_CERTIFICATE_REQUEST / CLIENT_HELLO|Alert(FATAL,UNEXPECTED_MESSAGE)"];
	s0 -> s4 [label="DSS_FIXED_DH_CERTIFICATE_REQUEST / CLIENT_HELLO|Alert(FATAL,UNEXPECTED_MESSAGE)"];
	s0 -> s4 [label="ECDSA_SIGN_CERTIFICATE_REQUEST / CLIENT_HELLO|Alert(FATAL,UNEXPECTED_MESSAGE)"];
	s0 -> s4 [label="SERVER_HELLO_DONE / CLIENT_HELLO|Alert(FATAL,UNEXPECTED_MESSAGE)"];
	s0 -> s3 [label="CHANGE_CIPHER_SPEC / CLIENT_HELLO"];
	s0 -> s4 [label="FINISHED / CLIENT_HELLO|Alert(FATAL,UNEXPECTED_MESSAGE)"];
	s0 -> s1 [label="APPLICATION / CLIENT_HELLO"];
	s0 -> s4 [label="CERTIFICATE / CLIENT_HELLO|Alert(FATAL,UNEXPECTED_MESSAGE)"];
	s0 -> s4 [label="EMPTY_CERTIFICATE / CLIENT_HELLO|Alert(FATAL,UNEXPECTED_MESSAGE)"];
	s0 -> s1 [label="Alert(WARNING,CLOSE_NOTIFY) / CLIENT_HELLO"];
	s0 -> s1 [label="Alert(FATAL,UNEXPECTED_MESSAGE) / CLIENT_HELLO"];
	s1 -> s19 [label="HELLO_VERIFY_REQUEST / CLIENT_HELLO"];
	s1 -> s17 [label="ECDH_SERVER_HELLO / TIMEOUT"];
	s1 -> s4 [label="ECDH_SERVER_KEY_EXCHANGE / Alert(FATAL,UNEXPECTED_MESSAGE)"];
	s1 -> s7 [label="DH_SERVER_HELLO / TIMEOUT"];
	s1 -> s4 [label="DH_SERVER_KEY_EXCHANGE / Alert(FATAL,UNEXPECTED_MESSAGE)"];
	s1 -> s2 [label="RSA_SERVER_HELLO / TIMEOUT"];
	s1 -> s4 [label="HELLO_REQUEST / Alert(FATAL,UNEXPECTED_MESSAGE)"];
	s1 -> s4 [label="RSA_SIGN_CERTIFICATE_REQUEST / Alert(FATAL,UNEXPECTED_MESSAGE)"];
	s1 -> s4 [label="RSA_FIXED_ECDH_CERTIFICATE_REQUEST / Alert(FATAL,UNEXPECTED_MESSAGE)"];
	s1 -> s4 [label="RSA_FIXED_DH_CERTIFICATE_REQUEST / Alert(FATAL,UNEXPECTED_MESSAGE)"];
	s1 -> s4 [label="DSS_SIGN_CERTIFICATE_REQUEST / Alert(FATAL,UNEXPECTED_MESSAGE)"];
	s1 -> s4 [label="DSS_FIXED_DH_CERTIFICATE_REQUEST / Alert(FATAL,UNEXPECTED_MESSAGE)"];
	s1 -> s4 [label="ECDSA_SIGN_CERTIFICATE_REQUEST / Alert(FATAL,UNEXPECTED_MESSAGE)"];
	s1 -> s4 [label="SERVER_HELLO_DONE / Alert(FATAL,UNEXPECTED_MESSAGE)"];
	s1 -> s3 [label="CHANGE_CIPHER_SPEC / TIMEOUT"];
	s1 -> s4 [label="FINISHED / Alert(FATAL,UNEXPECTED_MESSAGE)"];
	s1 -> s1 [label="APPLICATION / TIMEOUT"];
	s1 -> s4 [label="CERTIFICATE / Alert(FATAL,UNEXPECTED_MESSAGE)"];
	s1 -> s4 [label="EMPTY_CERTIFICATE / Alert(FATAL,UNEXPECTED_MESSAGE)"];
	s1 -> s4 [label="Alert(WARNING,CLOSE_NOTIFY) / Alert(FATAL,INTERNAL_ERROR)"];
	s1 -> s4 [label="Alert(FATAL,UNEXPECTED_MESSAGE) / TIMEOUT"];
	s2 -> s4 [label="HELLO_VERIFY_REQUEST / Alert(FATAL,UNEXPECTED_MESSAGE)"];
	s2 -> s4 [label="ECDH_SERVER_HELLO / Alert(FATAL,UNEXPECTED_MESSAGE)"];
	s2 -> s4 [label="ECDH_SERVER_KEY_EXCHANGE / Alert(FATAL,UNEXPECTED_MESSAGE)"];
	s2 -> s4 [label="DH_SERVER_HELLO / Alert(FATAL,UNEXPECTED_MESSAGE)"];
	s2 -> s4 [label="DH_SERVER_KEY_EXCHANGE / Alert(FATAL,UNEXPECTED_MESSAGE)"];
	s2 -> s4 [label="RSA_SERVER_HELLO / Alert(FATAL,UNEXPECTED_MESSAGE)"];
	s2 -> s5 [label="HELLO_REQUEST / TIMEOUT"];
	s2 -> s4 [label="RSA_SIGN_CERTIFICATE_REQUEST / Alert(FATAL,UNEXPECTED_MESSAGE)"];
	s2 -> s4 [label="RSA_FIXED_ECDH_CERTIFICATE_REQUEST / Alert(FATAL,UNEXPECTED_MESSAGE)"];
	s2 -> s4 [label="RSA_FIXED_DH_CERTIFICATE_REQUEST / Alert(FATAL,UNEXPECTED_MESSAGE)"];
	s2 -> s4 [label="DSS_SIGN_CERTIFICATE_REQUEST / Alert(FATAL,UNEXPECTED_MESSAGE)"];
	s2 -> s4 [label="DSS_FIXED_DH_CERTIFICATE_REQUEST / Alert(FATAL,UNEXPECTED_MESSAGE)"];
	s2 -> s4 [label="ECDSA_SIGN_CERTIFICATE_REQUEST / Alert(FATAL,UNEXPECTED_MESSAGE)"];
	s2 -> s4 [label="SERVER_HELLO_DONE / Alert(FATAL,UNEXPECTED_MESSAGE)"];
	s2 -> s3 [label="CHANGE_CIPHER_SPEC / TIMEOUT"];
	s2 -> s4 [label="FINISHED / Alert(FATAL,UNEXPECTED_MESSAGE)"];
	s2 -> s2 [label="APPLICATION / TIMEOUT"];
	s2 -> s6 [label="CERTIFICATE / TIMEOUT"];
	s2 -> s4 [label="EMPTY_CERTIFICATE / Alert(FATAL,DECODE_ERROR)"];
	s2 -> s4 [label="Alert(WARNING,CLOSE_NOTIFY) / Alert(FATAL,INTERNAL_ERROR)"];
	s2 -> s4 [label="Alert(FATAL,UNEXPECTED_MESSAGE) / TIMEOUT"];
	s3 -> s3 [label="HELLO_VERIFY_REQUEST / TIMEOUT"];
	s3 -> s3 [label="ECDH_SERVER_HELLO / TIMEOUT"];
	s3 -> s3 [label="ECDH_SERVER_KEY_EXCHANGE / TIMEOUT"];
	s3 -> s3 [label="DH_SERVER_HELLO / TIMEOUT"];
	s3 -> s3 [label="DH_SERVER_KEY_EXCHANGE / TIMEOUT"];
	s3 -> s3 [label="RSA_SERVER_HELLO / TIMEOUT"];
	s3 -> s5 [label="HELLO_REQUEST / TIMEOUT"];
	s3 -> s3 [label="RSA_SIGN_CERTIFICATE_REQUEST / TIMEOUT"];
	s3 -> s3 [label="RSA_FIXED_ECDH_CERTIFICATE_REQUEST / TIMEOUT"];
	s3 -> s3 [label="RSA_FIXED_DH_CERTIFICATE_REQUEST / TIMEOUT"];
	s3 -> s3 [label="DSS_SIGN_CERTIFICATE_REQUEST / TIMEOUT"];
	s3 -> s3 [label="DSS_FIXED_DH_CERTIFICATE_REQUEST / TIMEOUT"];
	s3 -> s3 [label="ECDSA_SIGN_CERTIFICATE_REQUEST / TIMEOUT"];
	s3 -> s3 [label="SERVER_HELLO_DONE / TIMEOUT"];
	s3 -> s3 [label="CHANGE_CIPHER_SPEC / TIMEOUT"];
	s3 -> s3 [label="FINISHED / TIMEOUT"];
	s3 -> s3 [label="APPLICATION / TIMEOUT"];
	s3 -> s3 [label="CERTIFICATE / TIMEOUT"];
	s3 -> s3 [label="EMPTY_CERTIFICATE / TIMEOUT"];
	s3 -> s3 [label="Alert(WARNING,CLOSE_NOTIFY) / TIMEOUT"];
	s3 -> s3 [label="Alert(FATAL,UNEXPECTED_MESSAGE) / TIMEOUT"];
	s4 -> s4 [label="HELLO_VERIFY_REQUEST / SOCKET_CLOSED"];
	s4 -> s4 [label="ECDH_SERVER_HELLO / SOCKET_CLOSED"];
	s4 -> s4 [label="ECDH_SERVER_KEY_EXCHANGE / SOCKET_CLOSED"];
	s4 -> s4 [label="DH_SERVER_HELLO / SOCKET_CLOSED"];
	s4 -> s4 [label="DH_SERVER_KEY_EXCHANGE / SOCKET_CLOSED"];
	s4 -> s4 [label="RSA_SERVER_HELLO / SOCKET_CLOSED"];
	s4 -> s4 [label="HELLO_REQUEST / SOCKET_CLOSED"];
	s4 -> s4 [label="RSA_SIGN_CERTIFICATE_REQUEST / SOCKET_CLOSED"];
	s4 -> s4 [label="RSA_FIXED_ECDH_CERTIFICATE_REQUEST / SOCKET_CLOSED"];
	s4 -> s4 [label="RSA_FIXED_DH_CERTIFICATE_REQUEST / SOCKET_CLOSED"];
	s4 -> s4 [label="DSS_SIGN_CERTIFICATE_REQUEST / SOCKET_CLOSED"];
	s4 -> s4 [label="DSS_FIXED_DH_CERTIFICATE_REQUEST / SOCKET_CLOSED"];
	s4 -> s4 [label="ECDSA_SIGN_CERTIFICATE_REQUEST / SOCKET_CLOSED"];
	s4 -> s4 [label="SERVER_HELLO_DONE / SOCKET_CLOSED"];
	s4 -> s4 [label="CHANGE_CIPHER_SPEC / SOCKET_CLOSED"];
	s4 -> s4 [label="FINISHED / SOCKET_CLOSED"];
	s4 -> s4 [label="APPLICATION / SOCKET_CLOSED"];
	s4 -> s4 [label="CERTIFICATE / SOCKET_CLOSED"];
	s4 -> s4 [label="EMPTY_CERTIFICATE / SOCKET_CLOSED"];
	s4 -> s4 [label="Alert(WARNING,CLOSE_NOTIFY) / SOCKET_CLOSED"];
	s4 -> s4 [label="Alert(FATAL,UNEXPECTED_MESSAGE) / SOCKET_CLOSED"];
	s5 -> s5 [label="HELLO_VERIFY_REQUEST / DISABLED"];
	s5 -> s5 [label="ECDH_SERVER_HELLO / DISABLED"];
	s5 -> s5 [label="ECDH_SERVER_KEY_EXCHANGE / DISABLED"];
	s5 -> s5 [label="DH_SERVER_HELLO / DISABLED"];
	s5 -> s5 [label="DH_SERVER_KEY_EXCHANGE / DISABLED"];
	s5 -> s5 [label="RSA_SERVER_HELLO / DISABLED"];
	s5 -> s5 [label="HELLO_REQUEST / DISABLED"];
	s5 -> s5 [label="RSA_SIGN_CERTIFICATE_REQUEST / DISABLED"];
	s5 -> s5 [label="RSA_FIXED_ECDH_CERTIFICATE_REQUEST / DISABLED"];
	s5 -> s5 [label="RSA_FIXED_DH_CERTIFICATE_REQUEST / DISABLED"];
	s5 -> s5 [label="DSS_SIGN_CERTIFICATE_REQUEST / DISABLED"];
	s5 -> s5 [label="DSS_FIXED_DH_CERTIFICATE_REQUEST / DISABLED"];
	s5 -> s5 [label="ECDSA_SIGN_CERTIFICATE_REQUEST / DISABLED"];
	s5 -> s5 [label="SERVER_HELLO_DONE / DISABLED"];
	s5 -> s5 [label="CHANGE_CIPHER_SPEC / DISABLED"];
	s5 -> s5 [label="FINISHED / DISABLED"];
	s5 -> s5 [label="APPLICATION / DISABLED"];
	s5 -> s5 [label="CERTIFICATE / DISABLED"];
	s5 -> s5 [label="EMPTY_CERTIFICATE / DISABLED"];
	s5 -> s5 [label="Alert(WARNING,CLOSE_NOTIFY) / DISABLED"];
	s5 -> s5 [label="Alert(FATAL,UNEXPECTED_MESSAGE) / DISABLED"];
	s6 -> s4 [label="HELLO_VERIFY_REQUEST / Alert(FATAL,UNEXPECTED_MESSAGE)"];
	s6 -> s4 [label="ECDH_SERVER_HELLO / Alert(FATAL,UNEXPECTED_MESSAGE)"];
	s6 -> s4 [label="ECDH_SERVER_KEY_EXCHANGE / Alert(FATAL,UNEXPECTED_MESSAGE)"];
	s6 -> s4 [label="DH_SERVER_HELLO / Alert(FATAL,UNEXPECTED_MESSAGE)"];
	s6 -> s4 [label="DH_SERVER_KEY_EXCHANGE / Alert(FATAL,UNEXPECTED_MESSAGE)"];
	s6 -> s4 [label="RSA_SERVER_HELLO / Alert(FATAL,UNEXPECTED_MESSAGE)"];
	s6 -> s5 [label="HELLO_REQUEST / TIMEOUT"];
	s6 -> s8 [label="RSA_SIGN_CERTIFICATE_REQUEST / TIMEOUT"];
	s6 -> s4 [label="RSA_FIXED_ECDH_CERTIFICATE_REQUEST / Alert(FATAL,HANDSHAKE_FAILURE)"];
	s6 -> s4 [label="RSA_FIXED_DH_CERTIFICATE_REQUEST / Alert(FATAL,HANDSHAKE_FAILURE)"];
	s6 -> s8 [label="DSS_SIGN_CERTIFICATE_REQUEST / TIMEOUT"];
	s6 -> s4 [label="DSS_FIXED_DH_CERTIFICATE_REQUEST / Alert(FATAL,HANDSHAKE_FAILURE)"];
	s6 -> s8 [label="ECDSA_SIGN_CERTIFICATE_REQUEST / TIMEOUT"];
	s6 -> s9 [label="SERVER_HELLO_DONE / RSA_CLIENT_KEY_EXCHANGE|CHANGE_CIPHER_SPEC|FINISHED"];
	s6 -> s3 [label="CHANGE_CIPHER_SPEC / TIMEOUT"];
	s6 -> s4 [label="FINISHED / Alert(FATAL,UNEXPECTED_MESSAGE)"];
	s6 -> s6 [label="APPLICATION / TIMEOUT"];
	s6 -> s4 [label="CERTIFICATE / Alert(FATAL,UNEXPECTED_MESSAGE)"];
	s6 -> s4 [label="EMPTY_CERTIFICATE / Alert(FATAL,UNEXPECTED_MESSAGE)"];
	s6 -> s4 [label="Alert(WARNING,CLOSE_NOTIFY) / Alert(FATAL,INTERNAL_ERROR)"];
	s6 -> s4 [label="Alert(FATAL,UNEXPECTED_MESSAGE) / TIMEOUT"];
	s7 -> s4 [label="HELLO_VERIFY_REQUEST / Alert(FATAL,UNEXPECTED_MESSAGE)"];
	s7 -> s4 [label="ECDH_SERVER_HELLO / Alert(FATAL,UNEXPECTED_MESSAGE)"];
	s7 -> s4 [label="ECDH_SERVER_KEY_EXCHANGE / Alert(FATAL,UNEXPECTED_MESSAGE)"];
	s7 -> s4 [label="DH_SERVER_HELLO / Alert(FATAL,UNEXPECTED_MESSAGE)"];
	s7 -> s4 [label="DH_SERVER_KEY_EXCHANGE / Alert(FATAL,UNEXPECTED_MESSAGE)"];
	s7 -> s4 [label="RSA_SERVER_HELLO / Alert(FATAL,UNEXPECTED_MESSAGE)"];
	s7 -> s5 [label="HELLO_REQUEST / TIMEOUT"];
	s7 -> s4 [label="RSA_SIGN_CERTIFICATE_REQUEST / Alert(FATAL,UNEXPECTED_MESSAGE)"];
	s7 -> s4 [label="RSA_FIXED_ECDH_CERTIFICATE_REQUEST / Alert(FATAL,UNEXPECTED_MESSAGE)"];
	s7 -> s4 [label="RSA_FIXED_DH_CERTIFICATE_REQUEST / Alert(FATAL,UNEXPECTED_MESSAGE)"];
	s7 -> s4 [label="DSS_SIGN_CERTIFICATE_REQUEST / Alert(FATAL,UNEXPECTED_MESSAGE)"];
	s7 -> s4 [label="DSS_FIXED_DH_CERTIFICATE_REQUEST / Alert(FATAL,UNEXPECTED_MESSAGE)"];
	s7 -> s4 [label="ECDSA_SIGN_CERTIFICATE_REQUEST / Alert(FATAL,UNEXPECTED_MESSAGE)"];
	s7 -> s4 [label="SERVER_HELLO_DONE / Alert(FATAL,UNEXPECTED_MESSAGE)"];
	s7 -> s3 [label="CHANGE_CIPHER_SPEC / TIMEOUT"];
	s7 -> s4 [label="FINISHED / Alert(FATAL,UNEXPECTED_MESSAGE)"];
	s7 -> s7 [label="APPLICATION / TIMEOUT"];
	s7 -> s11 [label="CERTIFICATE / TIMEOUT"];
	s7 -> s4 [label="EMPTY_CERTIFICATE / Alert(FATAL,DECODE_ERROR)"];
	s7 -> s4 [label="Alert(WARNING,CLOSE_NOTIFY) / Alert(FATAL,INTERNAL_ERROR)"];
	s7 -> s4 [label="Alert(FATAL,UNEXPECTED_MESSAGE) / TIMEOUT"];
	s8 -> s4 [label="HELLO_VERIFY_REQUEST / Alert(FATAL,UNEXPECTED_MESSAGE)"];
	s8 -> s4 [label="ECDH_SERVER_HELLO / Alert(FATAL,UNEXPECTED_MESSAGE)"];
	s8 -> s4 [label="ECDH_SERVER_KEY_EXCHANGE / Alert(FATAL,UNEXPECTED_MESSAGE)"];
	s8 -> s4 [label="DH_SERVER_HELLO / Alert(FATAL,UNEXPECTED_MESSAGE)"];
	s8 -> s4 [label="DH_SERVER_KEY_EXCHANGE / Alert(FATAL,UNEXPECTED_MESSAGE)"];
	s8 -> s4 [label="RSA_SERVER_HELLO / Alert(FATAL,UNEXPECTED_MESSAGE)"];
	s8 -> s5 [label="HELLO_REQUEST / TIMEOUT"];
	s8 -> s4 [label="RSA_SIGN_CERTIFICATE_REQUEST / Alert(FATAL,UNEXPECTED_MESSAGE)"];
	s8 -> s4 [label="RSA_FIXED_ECDH_CERTIFICATE_REQUEST / Alert(FATAL,UNEXPECTED_MESSAGE)"];
	s8 -> s4 [label="RSA_FIXED_DH_CERTIFICATE_REQUEST / Alert(FATAL,UNEXPECTED_MESSAGE)"];
	s8 -> s4 [label="DSS_SIGN_CERTIFICATE_REQUEST / Alert(FATAL,UNEXPECTED_MESSAGE)"];
	s8 -> s4 [label="DSS_FIXED_DH_CERTIFICATE_REQUEST / Alert(FATAL,UNEXPECTED_MESSAGE)"];
	s8 -> s4 [label="ECDSA_SIGN_CERTIFICATE_REQUEST / Alert(FATAL,UNEXPECTED_MESSAGE)"];
	s8 -> s9 [label="SERVER_HELLO_DONE / RSA_CERTIFICATE|RSA_CLIENT_KEY_EXCHANGE|CERTIFICATE_VERIFY|CHANGE_CIPHER_SPEC|FINISHED"];
	s8 -> s3 [label="CHANGE_CIPHER_SPEC / TIMEOUT"];
	s8 -> s4 [label="FINISHED / Alert(FATAL,UNEXPECTED_MESSAGE)"];
	s8 -> s8 [label="APPLICATION / TIMEOUT"];
	s8 -> s4 [label="CERTIFICATE / Alert(FATAL,UNEXPECTED_MESSAGE)"];
	s8 -> s4 [label="EMPTY_CERTIFICATE / Alert(FATAL,UNEXPECTED_MESSAGE)"];
	s8 -> s4 [label="Alert(WARNING,CLOSE_NOTIFY) / Alert(FATAL,INTERNAL_ERROR)"];
	s8 -> s4 [label="Alert(FATAL,UNEXPECTED_MESSAGE) / TIMEOUT"];
	s9 -> s13 [label="HELLO_VERIFY_REQUEST / TIMEOUT"];
	s9 -> s10 [label="ECDH_SERVER_HELLO / TIMEOUT"];
	s9 -> s13 [label="ECDH_SERVER_KEY_EXCHANGE / TIMEOUT"];
	s9 -> s20 [label="DH_SERVER_HELLO / TIMEOUT"];
	s9 -> s13 [label="DH_SERVER_KEY_EXCHANGE / TIMEOUT"];
	s9 -> s20 [label="RSA_SERVER_HELLO / TIMEOUT"];
	s9 -> s5 [label="HELLO_REQUEST / TIMEOUT"];
	s9 -> s13 [label="RSA_SIGN_CERTIFICATE_REQUEST / TIMEOUT"];
	s9 -> s13 [label="RSA_FIXED_ECDH_CERTIFICATE_REQUEST / TIMEOUT"];
	s9 -> s13 [label="RSA_FIXED_DH_CERTIFICATE_REQUEST / TIMEOUT"];
	s9 -> s13 [label="DSS_SIGN_CERTIFICATE_REQUEST / TIMEOUT"];
	s9 -> s13 [label="DSS_FIXED_DH_CERTIFICATE_REQUEST / TIMEOUT"];
	s9 -> s13 [label="ECDSA_SIGN_CERTIFICATE_REQUEST / TIMEOUT"];
	s9 -> s13 [label="SERVER_HELLO_DONE / TIMEOUT"];
	s9 -> s12 [label="CHANGE_CIPHER_SPEC / TIMEOUT"];
	s9 -> s13 [label="FINISHED / TIMEOUT"];
	s9 -> s9 [label="APPLICATION / TIMEOUT"];
	s9 -> s13 [label="CERTIFICATE / TIMEOUT"];
	s9 -> s13 [label="EMPTY_CERTIFICATE / TIMEOUT"];
	s9 -> s4 [label="Alert(WARNING,CLOSE_NOTIFY) / Alert(FATAL,UNEXPECTED_MESSAGE)"];
	s9 -> s4 [label="Alert(FATAL,UNEXPECTED_MESSAGE) / TIMEOUT"];
	s10 -> s10 [label="HELLO_VERIFY_REQUEST / TIMEOUT"];
	s10 -> s10 [label="ECDH_SERVER_HELLO / TIMEOUT"];
	s10 -> s10 [label="ECDH_SERVER_KEY_EXCHANGE / TIMEOUT"];
	s10 -> s20 [label="DH_SERVER_HELLO / TIMEOUT"];
	s10 -> s10 [label="DH_SERVER_KEY_EXCHANGE / TIMEOUT"];
	s10 -> s20 [label="RSA_SERVER_HELLO / TIMEOUT"];
	s10 -> s5 [label="HELLO_REQUEST / TIMEOUT"];
	s10 -> s10 [label="RSA_SIGN_CERTIFICATE_REQUEST / TIMEOUT"];
	s10 -> s10 [label="RSA_FIXED_ECDH_CERTIFICATE_REQUEST / TIMEOUT"];
	s10 -> s10 [label="RSA_FIXED_DH_CERTIFICATE_REQUEST / TIMEOUT"];
	s10 -> s10 [label="DSS_SIGN_CERTIFICATE_REQUEST / TIMEOUT"];
	s10 -> s10 [label="DSS_FIXED_DH_CERTIFICATE_REQUEST / TIMEOUT"];
	s10 -> s10 [label="ECDSA_SIGN_CERTIFICATE_REQUEST / TIMEOUT"];
	s10 -> s10 [label="SERVER_HELLO_DONE / TIMEOUT"];
	s10 -> s3 [label="CHANGE_CIPHER_SPEC / TIMEOUT"];
	s10 -> s10 [label="FINISHED / TIMEOUT"];
	s10 -> s10 [label="APPLICATION / TIMEOUT"];
	s10 -> s10 [label="CERTIFICATE / TIMEOUT"];
	s10 -> s10 [label="EMPTY_CERTIFICATE / TIMEOUT"];
	s10 -> s4 [label="Alert(WARNING,CLOSE_NOTIFY) / UNKNOWN_MESSAGE"];
	s10 -> s4 [label="Alert(FATAL,UNEXPECTED_MESSAGE) / TIMEOUT"];
	s11 -> s4 [label="HELLO_VERIFY_REQUEST / Alert(FATAL,UNEXPECTED_MESSAGE)"];
	s11 -> s4 [label="ECDH_SERVER_HELLO / Alert(FATAL,UNEXPECTED_MESSAGE)"];
	s11 -> s4 [label="ECDH_SERVER_KEY_EXCHANGE / Alert(FATAL,DECODE_ERROR)"];
	s11 -> s4 [label="DH_SERVER_HELLO / Alert(FATAL,UNEXPECTED_MESSAGE)"];
	s11 -> s6 [label="DH_SERVER_KEY_EXCHANGE / TIMEOUT"];
	s11 -> s4 [label="RSA_SERVER_HELLO / Alert(FATAL,UNEXPECTED_MESSAGE)"];
	s11 -> s5 [label="HELLO_REQUEST / TIMEOUT"];
	s11 -> s4 [label="RSA_SIGN_CERTIFICATE_REQUEST / Alert(FATAL,UNEXPECTED_MESSAGE)"];
	s11 -> s4 [label="RSA_FIXED_ECDH_CERTIFICATE_REQUEST / Alert(FATAL,UNEXPECTED_MESSAGE)"];
	s11 -> s4 [label="RSA_FIXED_DH_CERTIFICATE_REQUEST / Alert(FATAL,UNEXPECTED_MESSAGE)"];
	s11 -> s4 [label="DSS_SIGN_CERTIFICATE_REQUEST / Alert(FATAL,UNEXPECTED_MESSAGE)"];
	s11 -> s4 [label="DSS_FIXED_DH_CERTIFICATE_REQUEST / Alert(FATAL,UNEXPECTED_MESSAGE)"];
	s11 -> s4 [label="ECDSA_SIGN_CERTIFICATE_REQUEST / Alert(FATAL,UNEXPECTED_MESSAGE)"];
	s11 -> s4 [label="SERVER_HELLO_DONE / Alert(FATAL,UNEXPECTED_MESSAGE)"];
	s11 -> s3 [label="CHANGE_CIPHER_SPEC / TIMEOUT"];
	s11 -> s4 [label="FINISHED / Alert(FATAL,UNEXPECTED_MESSAGE)"];
	s11 -> s11 [label="APPLICATION / TIMEOUT"];
	s11 -> s4 [label="CERTIFICATE / Alert(FATAL,UNEXPECTED_MESSAGE)"];
	s11 -> s4 [label="EMPTY_CERTIFICATE / Alert(FATAL,UNEXPECTED_MESSAGE)"];
	s11 -> s4 [label="Alert(WARNING,CLOSE_NOTIFY) / Alert(FATAL,INTERNAL_ERROR)"];
	s11 -> s4 [label="Alert(FATAL,UNEXPECTED_MESSAGE) / TIMEOUT"];
	s12 -> s4 [label="HELLO_VERIFY_REQUEST / Alert(FATAL,UNEXPECTED_MESSAGE)"];
	s12 -> s21 [label="ECDH_SERVER_HELLO / TIMEOUT"];
	s12 -> s4 [label="ECDH_SERVER_KEY_EXCHANGE / Alert(FATAL,UNEXPECTED_MESSAGE)"];
	s12 -> s4 [label="DH_SERVER_HELLO / Alert(FATAL,UNEXPECTED_MESSAGE)"];
	s12 -> s4 [label="DH_SERVER_KEY_EXCHANGE / Alert(FATAL,UNEXPECTED_MESSAGE)"];
	s12 -> s4 [label="RSA_SERVER_HELLO / Alert(FATAL,UNEXPECTED_MESSAGE)"];
	s12 -> s5 [label="HELLO_REQUEST / TIMEOUT"];
	s12 -> s4 [label="RSA_SIGN_CERTIFICATE_REQUEST / Alert(FATAL,UNEXPECTED_MESSAGE)"];
	s12 -> s4 [label="RSA_FIXED_ECDH_CERTIFICATE_REQUEST / Alert(FATAL,UNEXPECTED_MESSAGE)"];
	s12 -> s4 [label="RSA_FIXED_DH_CERTIFICATE_REQUEST / Alert(FATAL,UNEXPECTED_MESSAGE)"];
	s12 -> s4 [label="DSS_SIGN_CERTIFICATE_REQUEST / Alert(FATAL,UNEXPECTED_MESSAGE)"];
	s12 -> s4 [label="DSS_FIXED_DH_CERTIFICATE_REQUEST / Alert(FATAL,UNEXPECTED_MESSAGE)"];
	s12 -> s4 [label="ECDSA_SIGN_CERTIFICATE_REQUEST / Alert(FATAL,UNEXPECTED_MESSAGE)"];
	s12 -> s4 [label="SERVER_HELLO_DONE / Alert(FATAL,UNEXPECTED_MESSAGE)"];
	s12 -> s3 [label="CHANGE_CIPHER_SPEC / TIMEOUT"];
	s12 -> s15 [label="FINISHED / TIMEOUT"];
	s12 -> s12 [label="APPLICATION / TIMEOUT"];
	s12 -> s4 [label="CERTIFICATE / Alert(FATAL,UNEXPECTED_MESSAGE)"];
	s12 -> s4 [label="EMPTY_CERTIFICATE / Alert(FATAL,UNEXPECTED_MESSAGE)"];
	s12 -> s4 [label="Alert(WARNING,CLOSE_NOTIFY) / Alert(FATAL,INTERNAL_ERROR)"];
	s12 -> s4 [label="Alert(FATAL,UNEXPECTED_MESSAGE) / TIMEOUT"];
	s13 -> s13 [label="HELLO_VERIFY_REQUEST / TIMEOUT"];
	s13 -> s10 [label="ECDH_SERVER_HELLO / TIMEOUT"];
	s13 -> s13 [label="ECDH_SERVER_KEY_EXCHANGE / TIMEOUT"];
	s13 -> s20 [label="DH_SERVER_HELLO / TIMEOUT"];
	s13 -> s13 [label="DH_SERVER_KEY_EXCHANGE / TIMEOUT"];
	s13 -> s20 [label="RSA_SERVER_HELLO / TIMEOUT"];
	s13 -> s5 [label="HELLO_REQUEST / TIMEOUT"];
	s13 -> s13 [label="RSA_SIGN_CERTIFICATE_REQUEST / TIMEOUT"];
	s13 -> s13 [label="RSA_FIXED_ECDH_CERTIFICATE_REQUEST / TIMEOUT"];
	s13 -> s13 [label="RSA_FIXED_DH_CERTIFICATE_REQUEST / TIMEOUT"];
	s13 -> s13 [label="DSS_SIGN_CERTIFICATE_REQUEST / TIMEOUT"];
	s13 -> s13 [label="DSS_FIXED_DH_CERTIFICATE_REQUEST / TIMEOUT"];
	s13 -> s13 [label="ECDSA_SIGN_CERTIFICATE_REQUEST / TIMEOUT"];
	s13 -> s13 [label="SERVER_HELLO_DONE / TIMEOUT"];
	s13 -> s14 [label="CHANGE_CIPHER_SPEC / TIMEOUT"];
	s13 -> s13 [label="FINISHED / TIMEOUT"];
	s13 -> s13 [label="APPLICATION / TIMEOUT"];
	s13 -> s13 [label="CERTIFICATE / TIMEOUT"];
	s13 -> s13 [label="EMPTY_CERTIFICATE / TIMEOUT"];
	s13 -> s4 [label="Alert(WARNING,CLOSE_NOTIFY) / Alert(FATAL,UNEXPECTED_MESSAGE)"];
	s13 -> s4 [label="Alert(FATAL,UNEXPECTED_MESSAGE) / TIMEOUT"];
	s14 -> s14 [label="HELLO_VERIFY_REQUEST / TIMEOUT"];
	s14 -> s21 [label="ECDH_SERVER_HELLO / TIMEOUT"];
	s14 -> s14 [label="ECDH_SERVER_KEY_EXCHANGE / TIMEOUT"];
	s14 -> s14 [label="DH_SERVER_HELLO / TIMEOUT"];
	s14 -> s14 [label="DH_SERVER_KEY_EXCHANGE / TIMEOUT"];
	s14 -> s14 [label="RSA_SERVER_HELLO / TIMEOUT"];
	s14 -> s5 [label="HELLO_REQUEST / TIMEOUT"];
	s14 -> s23 [label="RSA_SIGN_CERTIFICATE_REQUEST / TIMEOUT"];
	s14 -> s23 [label="RSA_FIXED_ECDH_CERTIFICATE_REQUEST / TIMEOUT"];
	s14 -> s23 [label="RSA_FIXED_DH_CERTIFICATE_REQUEST / TIMEOUT"];
	s14 -> s23 [label="DSS_SIGN_CERTIFICATE_REQUEST / TIMEOUT"];
	s14 -> s23 [label="DSS_FIXED_DH_CERTIFICATE_REQUEST / TIMEOUT"];
	s14 -> s23 [label="ECDSA_SIGN_CERTIFICATE_REQUEST / TIMEOUT"];
	s14 -> s14 [label="SERVER_HELLO_DONE / TIMEOUT"];
	s14 -> s3 [label="CHANGE_CIPHER_SPEC / TIMEOUT"];
	s14 -> s14 [label="FINISHED / TIMEOUT"];
	s14 -> s14 [label="APPLICATION / TIMEOUT"];
	s14 -> s14 [label="CERTIFICATE / TIMEOUT"];
	s14 -> s14 [label="EMPTY_CERTIFICATE / TIMEOUT"];
	s14 -> s4 [label="Alert(WARNING,CLOSE_NOTIFY) / Alert(FATAL,INTERNAL_ERROR)"];
	s14 -> s4 [label="Alert(FATAL,UNEXPECTED_MESSAGE) / TIMEOUT"];
	s15 -> s15 [label="HELLO_VERIFY_REQUEST / TIMEOUT"];
	s15 -> s3 [label="ECDH_SERVER_HELLO / TIMEOUT"];
	s15 -> s15 [label="ECDH_SERVER_KEY_EXCHANGE / TIMEOUT"];
	s15 -> s15 [label="DH_SERVER_HELLO / TIMEOUT"];
	s15 -> s15 [label="DH_SERVER_KEY_EXCHANGE / TIMEOUT"];
	s15 -> s15 [label="RSA_SERVER_HELLO / TIMEOUT"];
	s15 -> s16 [label="HELLO_REQUEST / CLIENT_HELLO"];
	s15 -> s15 [label="RSA_SIGN_CERTIFICATE_REQUEST / TIMEOUT"];
	s15 -> s15 [label="RSA_FIXED_ECDH_CERTIFICATE_REQUEST / TIMEOUT"];
	s15 -> s15 [label="RSA_FIXED_DH_CERTIFICATE_REQUEST / TIMEOUT"];
	s15 -> s15 [label="DSS_SIGN_CERTIFICATE_REQUEST / TIMEOUT"];
	s15 -> s15 [label="DSS_FIXED_DH_CERTIFICATE_REQUEST / TIMEOUT"];
	s15 -> s15 [label="ECDSA_SIGN_CERTIFICATE_REQUEST / TIMEOUT"];
	s15 -> s15 [label="SERVER_HELLO_DONE / TIMEOUT"];
	s15 -> s3 [label="CHANGE_CIPHER_SPEC / TIMEOUT"];
	s15 -> s15 [label="FINISHED / TIMEOUT"];
	s15 -> s15 [label="APPLICATION / APPLICATION"];
	s15 -> s15 [label="CERTIFICATE / TIMEOUT"];
	s15 -> s15 [label="EMPTY_CERTIFICATE / TIMEOUT"];
	s15 -> s4 [label="Alert(WARNING,CLOSE_NOTIFY) / TIMEOUT"];
	s15 -> s4 [label="Alert(FATAL,UNEXPECTED_MESSAGE) / TIMEOUT"];
	s16 -> s16 [label="HELLO_VERIFY_REQUEST / CLIENT_HELLO"];
	s16 -> s21 [label="ECDH_SERVER_HELLO / TIMEOUT"];
	s16 -> s4 [label="ECDH_SERVER_KEY_EXCHANGE / Alert(FATAL,UNEXPECTED_MESSAGE)"];
	s16 -> s7 [label="DH_SERVER_HELLO / TIMEOUT"];
	s16 -> s4 [label="DH_SERVER_KEY_EXCHANGE / Alert(FATAL,UNEXPECTED_MESSAGE)"];
	s16 -> s2 [label="RSA_SERVER_HELLO / TIMEOUT"];
	s16 -> s5 [label="HELLO_REQUEST / TIMEOUT"];
	s16 -> s4 [label="RSA_SIGN_CERTIFICATE_REQUEST / Alert(FATAL,UNEXPECTED_MESSAGE)"];
	s16 -> s4 [label="RSA_FIXED_ECDH_CERTIFICATE_REQUEST / Alert(FATAL,UNEXPECTED_MESSAGE)"];
	s16 -> s4 [label="RSA_FIXED_DH_CERTIFICATE_REQUEST / Alert(FATAL,UNEXPECTED_MESSAGE)"];
	s16 -> s4 [label="DSS_SIGN_CERTIFICATE_REQUEST / Alert(FATAL,UNEXPECTED_MESSAGE)"];
	s16 -> s4 [label="DSS_FIXED_DH_CERTIFICATE_REQUEST / Alert(FATAL,UNEXPECTED_MESSAGE)"];
	s16 -> s4 [label="ECDSA_SIGN_CERTIFICATE_REQUEST / Alert(FATAL,UNEXPECTED_MESSAGE)"];
	s16 -> s4 [label="SERVER_HELLO_DONE / Alert(FATAL,UNEXPECTED_MESSAGE)"];
	s16 -> s3 [label="CHANGE_CIPHER_SPEC / TIMEOUT"];
	s16 -> s4 [label="FINISHED / Alert(FATAL,UNEXPECTED_MESSAGE)"];
	s16 -> s16 [label="APPLICATION / TIMEOUT"];
	s16 -> s4 [label="CERTIFICATE / Alert(FATAL,UNEXPECTED_MESSAGE)"];
	s16 -> s4 [label="EMPTY_CERTIFICATE / Alert(FATAL,UNEXPECTED_MESSAGE)"];
	s16 -> s4 [label="Alert(WARNING,CLOSE_NOTIFY) / Alert(FATAL,INTERNAL_ERROR)"];
	s16 -> s4 [label="Alert(FATAL,UNEXPECTED_MESSAGE) / TIMEOUT"];
	s17 -> s4 [label="HELLO_VERIFY_REQUEST / Alert(FATAL,UNEXPECTED_MESSAGE)"];
	s17 -> s4 [label="ECDH_SERVER_HELLO / Alert(FATAL,UNEXPECTED_MESSAGE)"];
	s17 -> s4 [label="ECDH_SERVER_KEY_EXCHANGE / Alert(FATAL,UNEXPECTED_MESSAGE)"];
	s17 -> s4 [label="DH_SERVER_HELLO / Alert(FATAL,UNEXPECTED_MESSAGE)"];
	s17 -> s4 [label="DH_SERVER_KEY_EXCHANGE / Alert(FATAL,UNEXPECTED_MESSAGE)"];
	s17 -> s4 [label="RSA_SERVER_HELLO / Alert(FATAL,UNEXPECTED_MESSAGE)"];
	s17 -> s5 [label="HELLO_REQUEST / TIMEOUT"];
	s17 -> s4 [label="RSA_SIGN_CERTIFICATE_REQUEST / Alert(FATAL,UNEXPECTED_MESSAGE)"];
	s17 -> s4 [label="RSA_FIXED_ECDH_CERTIFICATE_REQUEST / Alert(FATAL,UNEXPECTED_MESSAGE)"];
	s17 -> s4 [label="RSA_FIXED_DH_CERTIFICATE_REQUEST / Alert(FATAL,UNEXPECTED_MESSAGE)"];
	s17 -> s4 [label="DSS_SIGN_CERTIFICATE_REQUEST / Alert(FATAL,UNEXPECTED_MESSAGE)"];
	s17 -> s4 [label="DSS_FIXED_DH_CERTIFICATE_REQUEST / Alert(FATAL,UNEXPECTED_MESSAGE)"];
	s17 -> s4 [label="ECDSA_SIGN_CERTIFICATE_REQUEST / Alert(FATAL,UNEXPECTED_MESSAGE)"];
	s17 -> s4 [label="SERVER_HELLO_DONE / Alert(FATAL,UNEXPECTED_MESSAGE)"];
	s17 -> s3 [label="CHANGE_CIPHER_SPEC / TIMEOUT"];
	s17 -> s4 [label="FINISHED / Alert(FATAL,UNEXPECTED_MESSAGE)"];
	s17 -> s17 [label="APPLICATION / TIMEOUT"];
	s17 -> s18 [label="CERTIFICATE / TIMEOUT"];
	s17 -> s4 [label="EMPTY_CERTIFICATE / Alert(FATAL,DECODE_ERROR)"];
	s17 -> s4 [label="Alert(WARNING,CLOSE_NOTIFY) / Alert(FATAL,INTERNAL_ERROR)"];
	s17 -> s4 [label="Alert(FATAL,UNEXPECTED_MESSAGE) / TIMEOUT"];
	s18 -> s4 [label="HELLO_VERIFY_REQUEST / Alert(FATAL,UNEXPECTED_MESSAGE)"];
	s18 -> s4 [label="ECDH_SERVER_HELLO / Alert(FATAL,UNEXPECTED_MESSAGE)"];
	s18 -> s6 [label="ECDH_SERVER_KEY_EXCHANGE / TIMEOUT"];
	s18 -> s4 [label="DH_SERVER_HELLO / Alert(FATAL,UNEXPECTED_MESSAGE)"];
	s18 -> s4 [label="DH_SERVER_KEY_EXCHANGE / Alert(FATAL,HANDSHAKE_FAILURE)"];
	s18 -> s4 [label="RSA_SERVER_HELLO / Alert(FATAL,UNEXPECTED_MESSAGE)"];
	s18 -> s5 [label="HELLO_REQUEST / TIMEOUT"];
	s18 -> s4 [label="RSA_SIGN_CERTIFICATE_REQUEST / Alert(FATAL,UNEXPECTED_MESSAGE)"];
	s18 -> s4 [label="RSA_FIXED_ECDH_CERTIFICATE_REQUEST / Alert(FATAL,UNEXPECTED_MESSAGE)"];
	s18 -> s4 [label="RSA_FIXED_DH_CERTIFICATE_REQUEST / Alert(FATAL,UNEXPECTED_MESSAGE)"];
	s18 -> s4 [label="DSS_SIGN_CERTIFICATE_REQUEST / Alert(FATAL,UNEXPECTED_MESSAGE)"];
	s18 -> s4 [label="DSS_FIXED_DH_CERTIFICATE_REQUEST / Alert(FATAL,UNEXPECTED_MESSAGE)"];
	s18 -> s4 [label="ECDSA_SIGN_CERTIFICATE_REQUEST / Alert(FATAL,UNEXPECTED_MESSAGE)"];
	s18 -> s4 [label="SERVER_HELLO_DONE / Alert(FATAL,UNEXPECTED_MESSAGE)"];
	s18 -> s3 [label="CHANGE_CIPHER_SPEC / TIMEOUT"];
	s18 -> s4 [label="FINISHED / Alert(FATAL,UNEXPECTED_MESSAGE)"];
	s18 -> s18 [label="APPLICATION / TIMEOUT"];
	s18 -> s4 [label="CERTIFICATE / Alert(FATAL,UNEXPECTED_MESSAGE)"];
	s18 -> s4 [label="EMPTY_CERTIFICATE / Alert(FATAL,UNEXPECTED_MESSAGE)"];
	s18 -> s4 [label="Alert(WARNING,CLOSE_NOTIFY) / Alert(FATAL,INTERNAL_ERROR)"];
	s18 -> s4 [label="Alert(FATAL,UNEXPECTED_MESSAGE) / TIMEOUT"];
	s19 -> s19 [label="HELLO_VERIFY_REQUEST / CLIENT_HELLO"];
	s19 -> s17 [label="ECDH_SERVER_HELLO / TIMEOUT"];
	s19 -> s4 [label="ECDH_SERVER_KEY_EXCHANGE / Alert(FATAL,UNEXPECTED_MESSAGE)"];
	s19 -> s7 [label="DH_SERVER_HELLO / TIMEOUT"];
	s19 -> s4 [label="DH_SERVER_KEY_EXCHANGE / Alert(FATAL,UNEXPECTED_MESSAGE)"];
	s19 -> s2 [label="RSA_SERVER_HELLO / TIMEOUT"];
	s19 -> s5 [label="HELLO_REQUEST / TIMEOUT"];
	s19 -> s4 [label="RSA_SIGN_CERTIFICATE_REQUEST / Alert(FATAL,UNEXPECTED_MESSAGE)"];
	s19 -> s4 [label="RSA_FIXED_ECDH_CERTIFICATE_REQUEST / Alert(FATAL,UNEXPECTED_MESSAGE)"];
	s19 -> s4 [label="RSA_FIXED_DH_CERTIFICATE_REQUEST / Alert(FATAL,UNEXPECTED_MESSAGE)"];
	s19 -> s4 [label="DSS_SIGN_CERTIFICATE_REQUEST / Alert(FATAL,UNEXPECTED_MESSAGE)"];
	s19 -> s4 [label="DSS_FIXED_DH_CERTIFICATE_REQUEST / Alert(FATAL,UNEXPECTED_MESSAGE)"];
	s19 -> s4 [label="ECDSA_SIGN_CERTIFICATE_REQUEST / Alert(FATAL,UNEXPECTED_MESSAGE)"];
	s19 -> s4 [label="SERVER_HELLO_DONE / Alert(FATAL,UNEXPECTED_MESSAGE)"];
	s19 -> s3 [label="CHANGE_CIPHER_SPEC / TIMEOUT"];
	s19 -> s4 [label="FINISHED / Alert(FATAL,UNEXPECTED_MESSAGE)"];
	s19 -> s22 [label="APPLICATION / TIMEOUT"];
	s19 -> s4 [label="CERTIFICATE / Alert(FATAL,UNEXPECTED_MESSAGE)"];
	s19 -> s4 [label="EMPTY_CERTIFICATE / Alert(FATAL,UNEXPECTED_MESSAGE)"];
	s19 -> s22 [label="Alert(WARNING,CLOSE_NOTIFY) / TIMEOUT"];
	s19 -> s22 [label="Alert(FATAL,UNEXPECTED_MESSAGE) / TIMEOUT"];
	s20 -> s20 [label="HELLO_VERIFY_REQUEST / TIMEOUT"];
	s20 -> s10 [label="ECDH_SERVER_HELLO / TIMEOUT"];
	s20 -> s20 [label="ECDH_SERVER_KEY_EXCHANGE / TIMEOUT"];
	s20 -> s20 [label="DH_SERVER_HELLO / TIMEOUT"];
	s20 -> s20 [label="DH_SERVER_KEY_EXCHANGE / TIMEOUT"];
	s20 -> s20 [label="RSA_SERVER_HELLO / TIMEOUT"];
	s20 -> s5 [label="HELLO_REQUEST / TIMEOUT"];
	s20 -> s20 [label="RSA_SIGN_CERTIFICATE_REQUEST / TIMEOUT"];
	s20 -> s20 [label="RSA_FIXED_ECDH_CERTIFICATE_REQUEST / TIMEOUT"];
	s20 -> s20 [label="RSA_FIXED_DH_CERTIFICATE_REQUEST / TIMEOUT"];
	s20 -> s20 [label="DSS_SIGN_CERTIFICATE_REQUEST / TIMEOUT"];
	s20 -> s20 [label="DSS_FIXED_DH_CERTIFICATE_REQUEST / TIMEOUT"];
	s20 -> s20 [label="ECDSA_SIGN_CERTIFICATE_REQUEST / TIMEOUT"];
	s20 -> s20 [label="SERVER_HELLO_DONE / TIMEOUT"];
	s20 -> s3 [label="CHANGE_CIPHER_SPEC / TIMEOUT"];
	s20 -> s20 [label="FINISHED / TIMEOUT"];
	s20 -> s20 [label="APPLICATION / TIMEOUT"];
	s20 -> s20 [label="CERTIFICATE / TIMEOUT"];
	s20 -> s20 [label="EMPTY_CERTIFICATE / TIMEOUT"];
	s20 -> s4 [label="Alert(WARNING,CLOSE_NOTIFY) / Alert(FATAL,UNEXPECTED_MESSAGE)"];
	s20 -> s4 [label="Alert(FATAL,UNEXPECTED_MESSAGE) / TIMEOUT"];
	s21 -> s21 [label="HELLO_VERIFY_REQUEST / TIMEOUT"];
	s21 -> s21 [label="ECDH_SERVER_HELLO / TIMEOUT"];
	s21 -> s21 [label="ECDH_SERVER_KEY_EXCHANGE / TIMEOUT"];
	s21 -> s14 [label="DH_SERVER_HELLO / TIMEOUT"];
	s21 -> s21 [label="DH_SERVER_KEY_EXCHANGE / TIMEOUT"];
	s21 -> s14 [label="RSA_SERVER_HELLO / TIMEOUT"];
	s21 -> s5 [label="HELLO_REQUEST / TIMEOUT"];
	s21 -> s21 [label="RSA_SIGN_CERTIFICATE_REQUEST / TIMEOUT"];
	s21 -> s21 [label="RSA_FIXED_ECDH_CERTIFICATE_REQUEST / TIMEOUT"];
	s21 -> s21 [label="RSA_FIXED_DH_CERTIFICATE_REQUEST / TIMEOUT"];
	s21 -> s21 [label="DSS_SIGN_CERTIFICATE_REQUEST / TIMEOUT"];
	s21 -> s21 [label="DSS_FIXED_DH_CERTIFICATE_REQUEST / TIMEOUT"];
	s21 -> s21 [label="ECDSA_SIGN_CERTIFICATE_REQUEST / TIMEOUT"];
	s21 -> s21 [label="SERVER_HELLO_DONE / TIMEOUT"];
	s21 -> s3 [label="CHANGE_CIPHER_SPEC / TIMEOUT"];
	s21 -> s21 [label="FINISHED / TIMEOUT"];
	s21 -> s21 [label="APPLICATION / TIMEOUT"];
	s21 -> s21 [label="CERTIFICATE / TIMEOUT"];
	s21 -> s21 [label="EMPTY_CERTIFICATE / TIMEOUT"];
	s21 -> s21 [label="Alert(WARNING,CLOSE_NOTIFY) / TIMEOUT"];
	s21 -> s21 [label="Alert(FATAL,UNEXPECTED_MESSAGE) / TIMEOUT"];
	s22 -> s19 [label="HELLO_VERIFY_REQUEST / CLIENT_HELLO"];
	s22 -> s17 [label="ECDH_SERVER_HELLO / TIMEOUT"];
	s22 -> s4 [label="ECDH_SERVER_KEY_EXCHANGE / Alert(FATAL,UNEXPECTED_MESSAGE)"];
	s22 -> s7 [label="DH_SERVER_HELLO / TIMEOUT"];
	s22 -> s4 [label="DH_SERVER_KEY_EXCHANGE / Alert(FATAL,UNEXPECTED_MESSAGE)"];
	s22 -> s2 [label="RSA_SERVER_HELLO / TIMEOUT"];
	s22 -> s5 [label="HELLO_REQUEST / TIMEOUT"];
	s22 -> s4 [label="RSA_SIGN_CERTIFICATE_REQUEST / Alert(FATAL,UNEXPECTED_MESSAGE)"];
	s22 -> s4 [label="RSA_FIXED_ECDH_CERTIFICATE_REQUEST / Alert(FATAL,UNEXPECTED_MESSAGE)"];
	s22 -> s4 [label="RSA_FIXED_DH_CERTIFICATE_REQUEST / Alert(FATAL,UNEXPECTED_MESSAGE)"];
	s22 -> s4 [label="DSS_SIGN_CERTIFICATE_REQUEST / Alert(FATAL,UNEXPECTED_MESSAGE)"];
	s22 -> s4 [label="DSS_FIXED_DH_CERTIFICATE_REQUEST / Alert(FATAL,UNEXPECTED_MESSAGE)"];
	s22 -> s4 [label="ECDSA_SIGN_CERTIFICATE_REQUEST / Alert(FATAL,UNEXPECTED_MESSAGE)"];
	s22 -> s4 [label="SERVER_HELLO_DONE / Alert(FATAL,UNEXPECTED_MESSAGE)"];
	s22 -> s3 [label="CHANGE_CIPHER_SPEC / TIMEOUT"];
	s22 -> s4 [label="FINISHED / Alert(FATAL,UNEXPECTED_MESSAGE)"];
	s22 -> s22 [label="APPLICATION / TIMEOUT"];
	s22 -> s4 [label="CERTIFICATE / Alert(FATAL,UNEXPECTED_MESSAGE)"];
	s22 -> s4 [label="EMPTY_CERTIFICATE / Alert(FATAL,UNEXPECTED_MESSAGE)"];
	s22 -> s4 [label="Alert(WARNING,CLOSE_NOTIFY) / Alert(FATAL,INTERNAL_ERROR)"];
	s22 -> s4 [label="Alert(FATAL,UNEXPECTED_MESSAGE) / TIMEOUT"];
	s23 -> s23 [label="HELLO_VERIFY_REQUEST / TIMEOUT"];
	s23 -> s21 [label="ECDH_SERVER_HELLO / TIMEOUT"];
	s23 -> s39 [label="ECDH_SERVER_KEY_EXCHANGE / TIMEOUT"];
	s23 -> s24 [label="DH_SERVER_HELLO / TIMEOUT"];
	s23 -> s39 [label="DH_SERVER_KEY_EXCHANGE / TIMEOUT"];
	s23 -> s24 [label="RSA_SERVER_HELLO / TIMEOUT"];
	s23 -> s5 [label="HELLO_REQUEST / TIMEOUT"];
	s23 -> s23 [label="RSA_SIGN_CERTIFICATE_REQUEST / TIMEOUT"];
	s23 -> s23 [label="RSA_FIXED_ECDH_CERTIFICATE_REQUEST / TIMEOUT"];
	s23 -> s23 [label="RSA_FIXED_DH_CERTIFICATE_REQUEST / TIMEOUT"];
	s23 -> s23 [label="DSS_SIGN_CERTIFICATE_REQUEST / TIMEOUT"];
	s23 -> s23 [label="DSS_FIXED_DH_CERTIFICATE_REQUEST / TIMEOUT"];
	s23 -> s23 [label="ECDSA_SIGN_CERTIFICATE_REQUEST / TIMEOUT"];
	s23 -> s23 [label="SERVER_HELLO_DONE / TIMEOUT"];
	s23 -> s3 [label="CHANGE_CIPHER_SPEC / TIMEOUT"];
	s23 -> s23 [label="FINISHED / TIMEOUT"];
	s23 -> s23 [label="APPLICATION / TIMEOUT"];
	s23 -> s23 [label="CERTIFICATE / TIMEOUT"];
	s23 -> s23 [label="EMPTY_CERTIFICATE / TIMEOUT"];
	s23 -> s4 [label="Alert(WARNING,CLOSE_NOTIFY) / Alert(FATAL,INTERNAL_ERROR)"];
	s23 -> s4 [label="Alert(FATAL,UNEXPECTED_MESSAGE) / TIMEOUT"];
	s24 -> s24 [label="HELLO_VERIFY_REQUEST / TIMEOUT"];
	s24 -> s21 [label="ECDH_SERVER_HELLO / TIMEOUT"];
	s24 -> s35 [label="ECDH_SERVER_KEY_EXCHANGE / TIMEOUT"];
	s24 -> s24 [label="DH_SERVER_HELLO / TIMEOUT"];
	s24 -> s35 [label="DH_SERVER_KEY_EXCHANGE / TIMEOUT"];
	s24 -> s24 [label="RSA_SERVER_HELLO / TIMEOUT"];
	s24 -> s5 [label="HELLO_REQUEST / TIMEOUT"];
	s24 -> s24 [label="RSA_SIGN_CERTIFICATE_REQUEST / TIMEOUT"];
	s24 -> s24 [label="RSA_FIXED_ECDH_CERTIFICATE_REQUEST / TIMEOUT"];
	s24 -> s24 [label="RSA_FIXED_DH_CERTIFICATE_REQUEST / TIMEOUT"];
	s24 -> s24 [label="DSS_SIGN_CERTIFICATE_REQUEST / TIMEOUT"];
	s24 -> s24 [label="DSS_FIXED_DH_CERTIFICATE_REQUEST / TIMEOUT"];
	s24 -> s24 [label="ECDSA_SIGN_CERTIFICATE_REQUEST / TIMEOUT"];
	s24 -> s24 [label="SERVER_HELLO_DONE / TIMEOUT"];
	s24 -> s3 [label="CHANGE_CIPHER_SPEC / TIMEOUT"];
	s24 -> s25 [label="FINISHED / TIMEOUT"];
	s24 -> s24 [label="APPLICATION / TIMEOUT"];
	s24 -> s24 [label="CERTIFICATE / TIMEOUT"];
	s24 -> s24 [label="EMPTY_CERTIFICATE / TIMEOUT"];
	s24 -> s4 [label="Alert(WARNING,CLOSE_NOTIFY) / Alert(FATAL,INTERNAL_ERROR)"];
	s24 -> s4 [label="Alert(FATAL,UNEXPECTED_MESSAGE) / TIMEOUT"];
	s25 -> s26 [label="HELLO_VERIFY_REQUEST / TIMEOUT"];
	s25 -> s49 [label="ECDH_SERVER_HELLO / TIMEOUT"];
	s25 -> s32 [label="ECDH_SERVER_KEY_EXCHANGE / TIMEOUT"];
	s25 -> s25 [label="DH_SERVER_HELLO / TIMEOUT"];
	s25 -> s32 [label="DH_SERVER_KEY_EXCHANGE / TIMEOUT"];
	s25 -> s25 [label="RSA_SERVER_HELLO / TIMEOUT"];
	s25 -> s5 [label="HELLO_REQUEST / TIMEOUT"];
	s25 -> s25 [label="RSA_SIGN_CERTIFICATE_REQUEST / TIMEOUT"];
	s25 -> s25 [label="RSA_FIXED_ECDH_CERTIFICATE_REQUEST / TIMEOUT"];
	s25 -> s25 [label="RSA_FIXED_DH_CERTIFICATE_REQUEST / TIMEOUT"];
	s25 -> s25 [label="DSS_SIGN_CERTIFICATE_REQUEST / TIMEOUT"];
	s25 -> s25 [label="DSS_FIXED_DH_CERTIFICATE_REQUEST / TIMEOUT"];
	s25 -> s25 [label="ECDSA_SIGN_CERTIFICATE_REQUEST / TIMEOUT"];
	s25 -> s25 [label="SERVER_HELLO_DONE / TIMEOUT"];
	s25 -> s3 [label="CHANGE_CIPHER_SPEC / TIMEOUT"];
	s25 -> s25 [label="FINISHED / TIMEOUT"];
	s25 -> s25 [label="APPLICATION / TIMEOUT"];
	s25 -> s53 [label="CERTIFICATE / TIMEOUT"];
	s25 -> s53 [label="EMPTY_CERTIFICATE / TIMEOUT"];
	s25 -> s4 [label="Alert(WARNING,CLOSE_NOTIFY) / Alert(FATAL,INTERNAL_ERROR)"];
	s25 -> s4 [label="Alert(FATAL,UNEXPECTED_MESSAGE) / TIMEOUT"];
	s26 -> s26 [label="HELLO_VERIFY_REQUEST / TIMEOUT"];
	s26 -> s45 [label="ECDH_SERVER_HELLO / TIMEOUT"];
	s26 -> s30 [label="ECDH_SERVER_KEY_EXCHANGE / TIMEOUT"];
	s26 -> s26 [label="DH_SERVER_HELLO / TIMEOUT"];
	s26 -> s30 [label="DH_SERVER_KEY_EXCHANGE / TIMEOUT"];
	s26 -> s26 [label="RSA_SERVER_HELLO / TIMEOUT"];
	s26 -> s5 [label="HELLO_REQUEST / TIMEOUT"];
	s26 -> s26 [label="RSA_SIGN_CERTIFICATE_REQUEST / TIMEOUT"];
	s26 -> s26 [label="RSA_FIXED_ECDH_CERTIFICATE_REQUEST / TIMEOUT"];
	s26 -> s26 [label="RSA_FIXED_DH_CERTIFICATE_REQUEST / TIMEOUT"];
	s26 -> s26 [label="DSS_SIGN_CERTIFICATE_REQUEST / TIMEOUT"];
	s26 -> s26 [label="DSS_FIXED_DH_CERTIFICATE_REQUEST / TIMEOUT"];
	s26 -> s26 [label="ECDSA_SIGN_CERTIFICATE_REQUEST / TIMEOUT"];
	s26 -> s55 [label="SERVER_HELLO_DONE / TIMEOUT"];
	s26 -> s3 [label="CHANGE_CIPHER_SPEC / TIMEOUT"];
	s26 -> s26 [label="FINISHED / TIMEOUT"];
	s26 -> s26 [label="APPLICATION / TIMEOUT"];
	s26 -> s27 [label="CERTIFICATE / TIMEOUT"];
	s26 -> s27 [label="EMPTY_CERTIFICATE / TIMEOUT"];
	s26 -> s4 [label="Alert(WARNING,CLOSE_NOTIFY) / Alert(FATAL,INTERNAL_ERROR)"];
	s26 -> s4 [label="Alert(FATAL,UNEXPECTED_MESSAGE) / TIMEOUT"];
	s27 -> s27 [label="HELLO_VERIFY_REQUEST / TIMEOUT"];
	s27 -> s45 [label="ECDH_SERVER_HELLO / TIMEOUT"];
	s27 -> s29 [label="ECDH_SERVER_KEY_EXCHANGE / TIMEOUT"];
	s27 -> s27 [label="DH_SERVER_HELLO / TIMEOUT"];
	s27 -> s29 [label="DH_SERVER_KEY_EXCHANGE / TIMEOUT"];
	s27 -> s27 [label="RSA_SERVER_HELLO / TIMEOUT"];
	s27 -> s5 [label="HELLO_REQUEST / TIMEOUT"];
	s27 -> s27 [label="RSA_SIGN_CERTIFICATE_REQUEST / TIMEOUT"];
	s27 -> s27 [label="RSA_FIXED_ECDH_CERTIFICATE_REQUEST / TIMEOUT"];
	s27 -> s27 [label="RSA_FIXED_DH_CERTIFICATE_REQUEST / TIMEOUT"];
	s27 -> s27 [label="DSS_SIGN_CERTIFICATE_REQUEST / TIMEOUT"];
	s27 -> s27 [label="DSS_FIXED_DH_CERTIFICATE_REQUEST / TIMEOUT"];
	s27 -> s27 [label="ECDSA_SIGN_CERTIFICATE_REQUEST / TIMEOUT"];
	s27 -> s28 [label="SERVER_HELLO_DONE / TIMEOUT"];
	s27 -> s3 [label="CHANGE_CIPHER_SPEC / TIMEOUT"];
	s27 -> s27 [label="FINISHED / TIMEOUT"];
	s27 -> s27 [label="APPLICATION / TIMEOUT"];
	s27 -> s27 [label="CERTIFICATE / TIMEOUT"];
	s27 -> s27 [label="EMPTY_CERTIFICATE / TIMEOUT"];
	s27 -> s4 [label="Alert(WARNING,CLOSE_NOTIFY) / Alert(FATAL,INTERNAL_ERROR)"];
	s27 -> s4 [label="Alert(FATAL,UNEXPECTED_MESSAGE) / TIMEOUT"];
	s28 -> s28 [label="HELLO_VERIFY_REQUEST / TIMEOUT"];
	s28 -> s56 [label="ECDH_SERVER_HELLO / TIMEOUT"];
	s28 -> s4 [label="ECDH_SERVER_KEY_EXCHANGE / Alert(FATAL,INTERNAL_ERROR)"];
	s28 -> s28 [label="DH_SERVER_HELLO / TIMEOUT"];
	s28 -> s4 [label="DH_SERVER_KEY_EXCHANGE / Alert(FATAL,INTERNAL_ERROR)"];
	s28 -> s28 [label="RSA_SERVER_HELLO / TIMEOUT"];
	s28 -> s4 [label="HELLO_REQUEST / Alert(FATAL,INTERNAL_ERROR)"];
	s28 -> s28 [label="RSA_SIGN_CERTIFICATE_REQUEST / TIMEOUT"];
	s28 -> s28 [label="RSA_FIXED_ECDH_CERTIFICATE_REQUEST / TIMEOUT"];
	s28 -> s28 [label="RSA_FIXED_DH_CERTIFICATE_REQUEST / TIMEOUT"];
	s28 -> s28 [label="DSS_SIGN_CERTIFICATE_REQUEST / TIMEOUT"];
	s28 -> s28 [label="DSS_FIXED_DH_CERTIFICATE_REQUEST / TIMEOUT"];
	s28 -> s28 [label="ECDSA_SIGN_CERTIFICATE_REQUEST / TIMEOUT"];
	s28 -> s28 [label="SERVER_HELLO_DONE / TIMEOUT"];
	s28 -> s3 [label="CHANGE_CIPHER_SPEC / TIMEOUT"];
	s28 -> s28 [label="FINISHED / TIMEOUT"];
	s28 -> s28 [label="APPLICATION / TIMEOUT"];
	s28 -> s28 [label="CERTIFICATE / TIMEOUT"];
	s28 -> s28 [label="EMPTY_CERTIFICATE / TIMEOUT"];
	s28 -> s4 [label="Alert(WARNING,CLOSE_NOTIFY) / Alert(FATAL,INTERNAL_ERROR)"];
	s28 -> s4 [label="Alert(FATAL,UNEXPECTED_MESSAGE) / TIMEOUT"];
	s29 -> s29 [label="HELLO_VERIFY_REQUEST / TIMEOUT"];
	s29 -> s46 [label="ECDH_SERVER_HELLO / TIMEOUT"];
	s29 -> s29 [label="ECDH_SERVER_KEY_EXCHANGE / TIMEOUT"];
	s29 -> s29 [label="DH_SERVER_HELLO / TIMEOUT"];
	s29 -> s29 [label="DH_SERVER_KEY_EXCHANGE / TIMEOUT"];
	s29 -> s29 [label="RSA_SERVER_HELLO / TIMEOUT"];
	s29 -> s4 [label="HELLO_REQUEST / Alert(FATAL,INTERNAL_ERROR)"];
	s29 -> s29 [label="RSA_SIGN_CERTIFICATE_REQUEST / TIMEOUT"];
	s29 -> s29 [label="RSA_FIXED_ECDH_CERTIFICATE_REQUEST / TIMEOUT"];
	s29 -> s29 [label="RSA_FIXED_DH_CERTIFICATE_REQUEST / TIMEOUT"];
	s29 -> s29 [label="DSS_SIGN_CERTIFICATE_REQUEST / TIMEOUT"];
	s29 -> s29 [label="DSS_FIXED_DH_CERTIFICATE_REQUEST / TIMEOUT"];
	s29 -> s29 [label="ECDSA_SIGN_CERTIFICATE_REQUEST / TIMEOUT"];
	s29 -> s4 [label="SERVER_HELLO_DONE / Alert(FATAL,INTERNAL_ERROR)"];
	s29 -> s3 [label="CHANGE_CIPHER_SPEC / TIMEOUT"];
	s29 -> s29 [label="FINISHED / TIMEOUT"];
	s29 -> s29 [label="APPLICATION / TIMEOUT"];
	s29 -> s29 [label="CERTIFICATE / TIMEOUT"];
	s29 -> s29 [label="EMPTY_CERTIFICATE / TIMEOUT"];
	s29 -> s4 [label="Alert(WARNING,CLOSE_NOTIFY) / Alert(FATAL,INTERNAL_ERROR)"];
	s29 -> s4 [label="Alert(FATAL,UNEXPECTED_MESSAGE) / TIMEOUT"];
	s30 -> s30 [label="HELLO_VERIFY_REQUEST / TIMEOUT"];
	s30 -> s46 [label="ECDH_SERVER_HELLO / TIMEOUT"];
	s30 -> s30 [label="ECDH_SERVER_KEY_EXCHANGE / TIMEOUT"];
	s30 -> s30 [label="DH_SERVER_HELLO / TIMEOUT"];
	s30 -> s30 [label="DH_SERVER_KEY_EXCHANGE / TIMEOUT"];
	s30 -> s30 [label="RSA_SERVER_HELLO / TIMEOUT"];
	s30 -> s5 [label="HELLO_REQUEST / TIMEOUT"];
	s30 -> s30 [label="RSA_SIGN_CERTIFICATE_REQUEST / TIMEOUT"];
	s30 -> s30 [label="RSA_FIXED_ECDH_CERTIFICATE_REQUEST / TIMEOUT"];
	s30 -> s30 [label="RSA_FIXED_DH_CERTIFICATE_REQUEST / TIMEOUT"];
	s30 -> s30 [label="DSS_SIGN_CERTIFICATE_REQUEST / TIMEOUT"];
	s30 -> s30 [label="DSS_FIXED_DH_CERTIFICATE_REQUEST / TIMEOUT"];
	s30 -> s30 [label="ECDSA_SIGN_CERTIFICATE_REQUEST / TIMEOUT"];
	s30 -> s31 [label="SERVER_HELLO_DONE / TIMEOUT"];
	s30 -> s3 [label="CHANGE_CIPHER_SPEC / TIMEOUT"];
	s30 -> s30 [label="FINISHED / TIMEOUT"];
	s30 -> s30 [label="APPLICATION / TIMEOUT"];
	s30 -> s29 [label="CERTIFICATE / TIMEOUT"];
	s30 -> s29 [label="EMPTY_CERTIFICATE / TIMEOUT"];
	s30 -> s4 [label="Alert(WARNING,CLOSE_NOTIFY) / Alert(FATAL,INTERNAL_ERROR)"];
	s30 -> s4 [label="Alert(FATAL,UNEXPECTED_MESSAGE) / TIMEOUT"];
	s31 -> s31 [label="HELLO_VERIFY_REQUEST / TIMEOUT"];
	s31 -> s47 [label="ECDH_SERVER_HELLO / TIMEOUT"];
	s31 -> s31 [label="ECDH_SERVER_KEY_EXCHANGE / TIMEOUT"];
	s31 -> s31 [label="DH_SERVER_HELLO / TIMEOUT"];
	s31 -> s31 [label="DH_SERVER_KEY_EXCHANGE / TIMEOUT"];
	s31 -> s31 [label="RSA_SERVER_HELLO / TIMEOUT"];
	s31 -> s4 [label="HELLO_REQUEST / Alert(FATAL,INTERNAL_ERROR)"];
	s31 -> s31 [label="RSA_SIGN_CERTIFICATE_REQUEST / TIMEOUT"];
	s31 -> s31 [label="RSA_FIXED_ECDH_CERTIFICATE_REQUEST / TIMEOUT"];
	s31 -> s31 [label="RSA_FIXED_DH_CERTIFICATE_REQUEST / TIMEOUT"];
	s31 -> s31 [label="DSS_SIGN_CERTIFICATE_REQUEST / TIMEOUT"];
	s31 -> s31 [label="DSS_FIXED_DH_CERTIFICATE_REQUEST / TIMEOUT"];
	s31 -> s31 [label="ECDSA_SIGN_CERTIFICATE_REQUEST / TIMEOUT"];
	s31 -> s31 [label="SERVER_HELLO_DONE / TIMEOUT"];
	s31 -> s3 [label="CHANGE_CIPHER_SPEC / TIMEOUT"];
	s31 -> s31 [label="FINISHED / TIMEOUT"];
	s31 -> s31 [label="APPLICATION / TIMEOUT"];
	s31 -> s4 [label="CERTIFICATE / Alert(FATAL,INTERNAL_ERROR)"];
	s31 -> s4 [label="EMPTY_CERTIFICATE / Alert(FATAL,INTERNAL_ERROR)"];
	s31 -> s4 [label="Alert(WARNING,CLOSE_NOTIFY) / Alert(FATAL,INTERNAL_ERROR)"];
	s31 -> s4 [label="Alert(FATAL,UNEXPECTED_MESSAGE) / TIMEOUT"];
	s32 -> s30 [label="HELLO_VERIFY_REQUEST / TIMEOUT"];
	s32 -> s51 [label="ECDH_SERVER_HELLO / TIMEOUT"];
	s32 -> s32 [label="ECDH_SERVER_KEY_EXCHANGE / TIMEOUT"];
	s32 -> s32 [label="DH_SERVER_HELLO / TIMEOUT"];
	s32 -> s32 [label="DH_SERVER_KEY_EXCHANGE / TIMEOUT"];
	s32 -> s32 [label="RSA_SERVER_HELLO / TIMEOUT"];
	s32 -> s5 [label="HELLO_REQUEST / TIMEOUT"];
	s32 -> s32 [label="RSA_SIGN_CERTIFICATE_REQUEST / TIMEOUT"];
	s32 -> s32 [label="RSA_FIXED_ECDH_CERTIFICATE_REQUEST / TIMEOUT"];
	s32 -> s32 [label="RSA_FIXED_DH_CERTIFICATE_REQUEST / TIMEOUT"];
	s32 -> s32 [label="DSS_SIGN_CERTIFICATE_REQUEST / TIMEOUT"];
	s32 -> s32 [label="DSS_FIXED_DH_CERTIFICATE_REQUEST / TIMEOUT"];
	s32 -> s32 [label="ECDSA_SIGN_CERTIFICATE_REQUEST / TIMEOUT"];
	s32 -> s33 [label="SERVER_HELLO_DONE / TIMEOUT"];
	s32 -> s3 [label="CHANGE_CIPHER_SPEC / TIMEOUT"];
	s32 -> s32 [label="FINISHED / TIMEOUT"];
	s32 -> s32 [label="APPLICATION / TIMEOUT"];
	s32 -> s54 [label="CERTIFICATE / TIMEOUT"];
	s32 -> s54 [label="EMPTY_CERTIFICATE / TIMEOUT"];
	s32 -> s4 [label="Alert(WARNING,CLOSE_NOTIFY) / Alert(FATAL,INTERNAL_ERROR)"];
	s32 -> s4 [label="Alert(FATAL,UNEXPECTED_MESSAGE) / TIMEOUT"];
	s33 -> s31 [label="HELLO_VERIFY_REQUEST / TIMEOUT"];
	s33 -> s50 [label="ECDH_SERVER_HELLO / TIMEOUT"];
	s33 -> s33 [label="ECDH_SERVER_KEY_EXCHANGE / TIMEOUT"];
	s33 -> s33 [label="DH_SERVER_HELLO / TIMEOUT"];
	s33 -> s33 [label="DH_SERVER_KEY_EXCHANGE / TIMEOUT"];
	s33 -> s33 [label="RSA_SERVER_HELLO / TIMEOUT"];
	s33 -> s5 [label="HELLO_REQUEST / TIMEOUT"];
	s33 -> s33 [label="RSA_SIGN_CERTIFICATE_REQUEST / TIMEOUT"];
	s33 -> s33 [label="RSA_FIXED_ECDH_CERTIFICATE_REQUEST / TIMEOUT"];
	s33 -> s33 [label="RSA_FIXED_DH_CERTIFICATE_REQUEST / TIMEOUT"];
	s33 -> s33 [label="DSS_SIGN_CERTIFICATE_REQUEST / TIMEOUT"];
	s33 -> s33 [label="DSS_FIXED_DH_CERTIFICATE_REQUEST / TIMEOUT"];
	s33 -> s33 [label="ECDSA_SIGN_CERTIFICATE_REQUEST / TIMEOUT"];
	s33 -> s33 [label="SERVER_HELLO_DONE / TIMEOUT"];
	s33 -> s3 [label="CHANGE_CIPHER_SPEC / TIMEOUT"];
	s33 -> s33 [label="FINISHED / TIMEOUT"];
	s33 -> s33 [label="APPLICATION / TIMEOUT"];
	s33 -> s34 [label="CERTIFICATE / TIMEOUT"];
	s33 -> s34 [label="EMPTY_CERTIFICATE / TIMEOUT"];
	s33 -> s4 [label="Alert(WARNING,CLOSE_NOTIFY) / Alert(FATAL,INTERNAL_ERROR)"];
	s33 -> s4 [label="Alert(FATAL,UNEXPECTED_MESSAGE) / TIMEOUT"];
	s34 -> s4 [label="HELLO_VERIFY_REQUEST / Alert(FATAL,INTERNAL_ERROR)"];
	s34 -> s52 [label="ECDH_SERVER_HELLO / TIMEOUT"];
	s34 -> s34 [label="ECDH_SERVER_KEY_EXCHANGE / TIMEOUT"];
	s34 -> s34 [label="DH_SERVER_HELLO / TIMEOUT"];
	s34 -> s34 [label="DH_SERVER_KEY_EXCHANGE / TIMEOUT"];
	s34 -> s34 [label="RSA_SERVER_HELLO / TIMEOUT"];
	s34 -> s4 [label="HELLO_REQUEST / Alert(FATAL,INTERNAL_ERROR)"];
	s34 -> s34 [label="RSA_SIGN_CERTIFICATE_REQUEST / TIMEOUT"];
	s34 -> s34 [label="RSA_FIXED_ECDH_CERTIFICATE_REQUEST / TIMEOUT"];
	s34 -> s34 [label="RSA_FIXED_DH_CERTIFICATE_REQUEST / TIMEOUT"];
	s34 -> s34 [label="DSS_SIGN_CERTIFICATE_REQUEST / TIMEOUT"];
	s34 -> s34 [label="DSS_FIXED_DH_CERTIFICATE_REQUEST / TIMEOUT"];
	s34 -> s34 [label="ECDSA_SIGN_CERTIFICATE_REQUEST / TIMEOUT"];
	s34 -> s34 [label="SERVER_HELLO_DONE / TIMEOUT"];
	s34 -> s3 [label="CHANGE_CIPHER_SPEC / TIMEOUT"];
	s34 -> s34 [label="FINISHED / TIMEOUT"];
	s34 -> s34 [label="APPLICATION / TIMEOUT"];
	s34 -> s34 [label="CERTIFICATE / TIMEOUT"];
	s34 -> s34 [label="EMPTY_CERTIFICATE / TIMEOUT"];
	s34 -> s4 [label="Alert(WARNING,CLOSE_NOTIFY) / Alert(FATAL,INTERNAL_ERROR)"];
	s34 -> s4 [label="Alert(FATAL,UNEXPECTED_MESSAGE) / TIMEOUT"];
	s35 -> s35 [label="HELLO_VERIFY_REQUEST / TIMEOUT"];
	s35 -> s21 [label="ECDH_SERVER_HELLO / TIMEOUT"];
	s35 -> s35 [label="ECDH_SERVER_KEY_EXCHANGE / TIMEOUT"];
	s35 -> s35 [label="DH_SERVER_HELLO / TIMEOUT"];
	s35 -> s35 [label="DH_SERVER_KEY_EXCHANGE / TIMEOUT"];
	s35 -> s35 [label="RSA_SERVER_HELLO / TIMEOUT"];
	s35 -> s5 [label="HELLO_REQUEST / TIMEOUT"];
	s35 -> s35 [label="RSA_SIGN_CERTIFICATE_REQUEST / TIMEOUT"];
	s35 -> s35 [label="RSA_FIXED_ECDH_CERTIFICATE_REQUEST / TIMEOUT"];
	s35 -> s35 [label="RSA_FIXED_DH_CERTIFICATE_REQUEST / TIMEOUT"];
	s35 -> s35 [label="DSS_SIGN_CERTIFICATE_REQUEST / TIMEOUT"];
	s35 -> s35 [label="DSS_FIXED_DH_CERTIFICATE_REQUEST / TIMEOUT"];
	s35 -> s35 [label="ECDSA_SIGN_CERTIFICATE_REQUEST / TIMEOUT"];
	s35 -> s36 [label="SERVER_HELLO_DONE / TIMEOUT"];
	s35 -> s3 [label="CHANGE_CIPHER_SPEC / TIMEOUT"];
	s35 -> s32 [label="FINISHED / TIMEOUT"];
	s35 -> s35 [label="APPLICATION / TIMEOUT"];
	s35 -> s35 [label="CERTIFICATE / TIMEOUT"];
	s35 -> s35 [label="EMPTY_CERTIFICATE / TIMEOUT"];
	s35 -> s4 [label="Alert(WARNING,CLOSE_NOTIFY) / Alert(FATAL,INTERNAL_ERROR)"];
	s35 -> s4 [label="Alert(FATAL,UNEXPECTED_MESSAGE) / TIMEOUT"];
	s36 -> s36 [label="HELLO_VERIFY_REQUEST / TIMEOUT"];
	s36 -> s21 [label="ECDH_SERVER_HELLO / TIMEOUT"];
	s36 -> s36 [label="ECDH_SERVER_KEY_EXCHANGE / TIMEOUT"];
	s36 -> s36 [label="DH_SERVER_HELLO / TIMEOUT"];
	s36 -> s36 [label="DH_SERVER_KEY_EXCHANGE / TIMEOUT"];
	s36 -> s36 [label="RSA_SERVER_HELLO / TIMEOUT"];
	s36 -> s5 [label="HELLO_REQUEST / TIMEOUT"];
	s36 -> s36 [label="RSA_SIGN_CERTIFICATE_REQUEST / TIMEOUT"];
	s36 -> s36 [label="RSA_FIXED_ECDH_CERTIFICATE_REQUEST / TIMEOUT"];
	s36 -> s36 [label="RSA_FIXED_DH_CERTIFICATE_REQUEST / TIMEOUT"];
	s36 -> s36 [label="DSS_SIGN_CERTIFICATE_REQUEST / TIMEOUT"];
	s36 -> s36 [label="DSS_FIXED_DH_CERTIFICATE_REQUEST / TIMEOUT"];
	s36 -> s36 [label="ECDSA_SIGN_CERTIFICATE_REQUEST / TIMEOUT"];
	s36 -> s36 [label="SERVER_HELLO_DONE / TIMEOUT"];
	s36 -> s3 [label="CHANGE_CIPHER_SPEC / TIMEOUT"];
	s36 -> s33 [label="FINISHED / TIMEOUT"];
	s36 -> s36 [label="APPLICATION / TIMEOUT"];
	s36 -> s37 [label="CERTIFICATE / TIMEOUT"];
	s36 -> s37 [label="EMPTY_CERTIFICATE / TIMEOUT"];
	s36 -> s4 [label="Alert(WARNING,CLOSE_NOTIFY) / Alert(FATAL,INTERNAL_ERROR)"];
	s36 -> s4 [label="Alert(FATAL,UNEXPECTED_MESSAGE) / TIMEOUT"];
	s37 -> s38 [label="HELLO_VERIFY_REQUEST / TIMEOUT"];
	s37 -> s21 [label="ECDH_SERVER_HELLO / TIMEOUT"];
	s37 -> s37 [label="ECDH_SERVER_KEY_EXCHANGE / TIMEOUT"];
	s37 -> s37 [label="DH_SERVER_HELLO / TIMEOUT"];
	s37 -> s37 [label="DH_SERVER_KEY_EXCHANGE / TIMEOUT"];
	s37 -> s37 [label="RSA_SERVER_HELLO / TIMEOUT"];
	s37 -> s5 [label="HELLO_REQUEST / TIMEOUT"];
	s37 -> s37 [label="RSA_SIGN_CERTIFICATE_REQUEST / TIMEOUT"];
	s37 -> s37 [label="RSA_FIXED_ECDH_CERTIFICATE_REQUEST / TIMEOUT"];
	s37 -> s37 [label="RSA_FIXED_DH_CERTIFICATE_REQUEST / TIMEOUT"];
	s37 -> s37 [label="DSS_SIGN_CERTIFICATE_REQUEST / TIMEOUT"];
	s37 -> s37 [label="DSS_FIXED_DH_CERTIFICATE_REQUEST / TIMEOUT"];
	s37 -> s37 [label="ECDSA_SIGN_CERTIFICATE_REQUEST / TIMEOUT"];
	s37 -> s37 [label="SERVER_HELLO_DONE / TIMEOUT"];
	s37 -> s3 [label="CHANGE_CIPHER_SPEC / TIMEOUT"];
	s37 -> s34 [label="FINISHED / TIMEOUT"];
	s37 -> s37 [label="APPLICATION / TIMEOUT"];
	s37 -> s37 [label="CERTIFICATE / TIMEOUT"];
	s37 -> s37 [label="EMPTY_CERTIFICATE / TIMEOUT"];
	s37 -> s4 [label="Alert(WARNING,CLOSE_NOTIFY) / Alert(FATAL,INTERNAL_ERROR)"];
	s37 -> s4 [label="Alert(FATAL,UNEXPECTED_MESSAGE) / TIMEOUT"];
	s38 -> s38 [label="HELLO_VERIFY_REQUEST / TIMEOUT"];
	s38 -> s21 [label="ECDH_SERVER_HELLO / TIMEOUT"];
	s38 -> s38 [label="ECDH_SERVER_KEY_EXCHANGE / TIMEOUT"];
	s38 -> s38 [label="DH_SERVER_HELLO / TIMEOUT"];
	s38 -> s38 [label="DH_SERVER_KEY_EXCHANGE / TIMEOUT"];
	s38 -> s38 [label="RSA_SERVER_HELLO / TIMEOUT"];
	s38 -> s4 [label="HELLO_REQUEST / Alert(FATAL,INTERNAL_ERROR)"];
	s38 -> s38 [label="RSA_SIGN_CERTIFICATE_REQUEST / TIMEOUT"];
	s38 -> s38 [label="RSA_FIXED_ECDH_CERTIFICATE_REQUEST / TIMEOUT"];
	s38 -> s38 [label="RSA_FIXED_DH_CERTIFICATE_REQUEST / TIMEOUT"];
	s38 -> s38 [label="DSS_SIGN_CERTIFICATE_REQUEST / TIMEOUT"];
	s38 -> s38 [label="DSS_FIXED_DH_CERTIFICATE_REQUEST / TIMEOUT"];
	s38 -> s38 [label="ECDSA_SIGN_CERTIFICATE_REQUEST / TIMEOUT"];
	s38 -> s38 [label="SERVER_HELLO_DONE / TIMEOUT"];
	s38 -> s3 [label="CHANGE_CIPHER_SPEC / TIMEOUT"];
	s38 -> s4 [label="FINISHED / Alert(FATAL,INTERNAL_ERROR)"];
	s38 -> s38 [label="APPLICATION / TIMEOUT"];
	s38 -> s38 [label="CERTIFICATE / TIMEOUT"];
	s38 -> s38 [label="EMPTY_CERTIFICATE / TIMEOUT"];
	s38 -> s4 [label="Alert(WARNING,CLOSE_NOTIFY) / Alert(FATAL,INTERNAL_ERROR)"];
	s38 -> s4 [label="Alert(FATAL,UNEXPECTED_MESSAGE) / TIMEOUT"];
	s39 -> s39 [label="HELLO_VERIFY_REQUEST / TIMEOUT"];
	s39 -> s21 [label="ECDH_SERVER_HELLO / TIMEOUT"];
	s39 -> s39 [label="ECDH_SERVER_KEY_EXCHANGE / TIMEOUT"];
	s39 -> s35 [label="DH_SERVER_HELLO / TIMEOUT"];
	s39 -> s39 [label="DH_SERVER_KEY_EXCHANGE / TIMEOUT"];
	s39 -> s35 [label="RSA_SERVER_HELLO / TIMEOUT"];
	s39 -> s5 [label="HELLO_REQUEST / TIMEOUT"];
	s39 -> s39 [label="RSA_SIGN_CERTIFICATE_REQUEST / TIMEOUT"];
	s39 -> s39 [label="RSA_FIXED_ECDH_CERTIFICATE_REQUEST / TIMEOUT"];
	s39 -> s39 [label="RSA_FIXED_DH_CERTIFICATE_REQUEST / TIMEOUT"];
	s39 -> s39 [label="DSS_SIGN_CERTIFICATE_REQUEST / TIMEOUT"];
	s39 -> s39 [label="DSS_FIXED_DH_CERTIFICATE_REQUEST / TIMEOUT"];
	s39 -> s39 [label="ECDSA_SIGN_CERTIFICATE_REQUEST / TIMEOUT"];
	s39 -> s40 [label="SERVER_HELLO_DONE / TIMEOUT"];
	s39 -> s3 [label="CHANGE_CIPHER_SPEC / TIMEOUT"];
	s39 -> s39 [label="FINISHED / TIMEOUT"];
	s39 -> s39 [label="APPLICATION / TIMEOUT"];
	s39 -> s39 [label="CERTIFICATE / TIMEOUT"];
	s39 -> s39 [label="EMPTY_CERTIFICATE / TIMEOUT"];
	s39 -> s4 [label="Alert(WARNING,CLOSE_NOTIFY) / Alert(FATAL,INTERNAL_ERROR)"];
	s39 -> s4 [label="Alert(FATAL,UNEXPECTED_MESSAGE) / TIMEOUT"];
	s40 -> s40 [label="HELLO_VERIFY_REQUEST / TIMEOUT"];
	s40 -> s21 [label="ECDH_SERVER_HELLO / TIMEOUT"];
	s40 -> s40 [label="ECDH_SERVER_KEY_EXCHANGE / TIMEOUT"];
	s40 -> s36 [label="DH_SERVER_HELLO / TIMEOUT"];
	s40 -> s40 [label="DH_SERVER_KEY_EXCHANGE / TIMEOUT"];
	s40 -> s36 [label="RSA_SERVER_HELLO / TIMEOUT"];
	s40 -> s5 [label="HELLO_REQUEST / TIMEOUT"];
	s40 -> s40 [label="RSA_SIGN_CERTIFICATE_REQUEST / TIMEOUT"];
	s40 -> s40 [label="RSA_FIXED_ECDH_CERTIFICATE_REQUEST / TIMEOUT"];
	s40 -> s40 [label="RSA_FIXED_DH_CERTIFICATE_REQUEST / TIMEOUT"];
	s40 -> s40 [label="DSS_SIGN_CERTIFICATE_REQUEST / TIMEOUT"];
	s40 -> s40 [label="DSS_FIXED_DH_CERTIFICATE_REQUEST / TIMEOUT"];
	s40 -> s40 [label="ECDSA_SIGN_CERTIFICATE_REQUEST / TIMEOUT"];
	s40 -> s40 [label="SERVER_HELLO_DONE / TIMEOUT"];
	s40 -> s3 [label="CHANGE_CIPHER_SPEC / TIMEOUT"];
	s40 -> s40 [label="FINISHED / TIMEOUT"];
	s40 -> s40 [label="APPLICATION / TIMEOUT"];
	s40 -> s41 [label="CERTIFICATE / TIMEOUT"];
	s40 -> s41 [label="EMPTY_CERTIFICATE / TIMEOUT"];
	s40 -> s4 [label="Alert(WARNING,CLOSE_NOTIFY) / Alert(FATAL,INTERNAL_ERROR)"];
	s40 -> s4 [label="Alert(FATAL,UNEXPECTED_MESSAGE) / TIMEOUT"];
	s41 -> s42 [label="HELLO_VERIFY_REQUEST / TIMEOUT"];
	s41 -> s21 [label="ECDH_SERVER_HELLO / TIMEOUT"];
	s41 -> s41 [label="ECDH_SERVER_KEY_EXCHANGE / TIMEOUT"];
	s41 -> s37 [label="DH_SERVER_HELLO / TIMEOUT"];
	s41 -> s41 [label="DH_SERVER_KEY_EXCHANGE / TIMEOUT"];
	s41 -> s37 [label="RSA_SERVER_HELLO / TIMEOUT"];
	s41 -> s5 [label="HELLO_REQUEST / TIMEOUT"];
	s41 -> s41 [label="RSA_SIGN_CERTIFICATE_REQUEST / TIMEOUT"];
	s41 -> s41 [label="RSA_FIXED_ECDH_CERTIFICATE_REQUEST / TIMEOUT"];
	s41 -> s41 [label="RSA_FIXED_DH_CERTIFICATE_REQUEST / TIMEOUT"];
	s41 -> s41 [label="DSS_SIGN_CERTIFICATE_REQUEST / TIMEOUT"];
	s41 -> s41 [label="DSS_FIXED_DH_CERTIFICATE_REQUEST / TIMEOUT"];
	s41 -> s41 [label="ECDSA_SIGN_CERTIFICATE_REQUEST / TIMEOUT"];
	s41 -> s41 [label="SERVER_HELLO_DONE / TIMEOUT"];
	s41 -> s3 [label="CHANGE_CIPHER_SPEC / TIMEOUT"];
	s41 -> s48 [label="FINISHED / TIMEOUT"];
	s41 -> s41 [label="APPLICATION / TIMEOUT"];
	s41 -> s41 [label="CERTIFICATE / TIMEOUT"];
	s41 -> s41 [label="EMPTY_CERTIFICATE / TIMEOUT"];
	s41 -> s4 [label="Alert(WARNING,CLOSE_NOTIFY) / Alert(FATAL,INTERNAL_ERROR)"];
	s41 -> s4 [label="Alert(FATAL,UNEXPECTED_MESSAGE) / TIMEOUT"];
	s42 -> s42 [label="HELLO_VERIFY_REQUEST / TIMEOUT"];
	s42 -> s21 [label="ECDH_SERVER_HELLO / TIMEOUT"];
	s42 -> s42 [label="ECDH_SERVER_KEY_EXCHANGE / TIMEOUT"];
	s42 -> s38 [label="DH_SERVER_HELLO / TIMEOUT"];
	s42 -> s42 [label="DH_SERVER_KEY_EXCHANGE / TIMEOUT"];
	s42 -> s38 [label="RSA_SERVER_HELLO / TIMEOUT"];
	s42 -> s5 [label="HELLO_REQUEST / TIMEOUT"];
	s42 -> s42 [label="RSA_SIGN_CERTIFICATE_REQUEST / TIMEOUT"];
	s42 -> s42 [label="RSA_FIXED_ECDH_CERTIFICATE_REQUEST / TIMEOUT"];
	s42 -> s42 [label="RSA_FIXED_DH_CERTIFICATE_REQUEST / TIMEOUT"];
	s42 -> s42 [label="DSS_SIGN_CERTIFICATE_REQUEST / TIMEOUT"];
	s42 -> s42 [label="DSS_FIXED_DH_CERTIFICATE_REQUEST / TIMEOUT"];
	s42 -> s42 [label="ECDSA_SIGN_CERTIFICATE_REQUEST / TIMEOUT"];
	s42 -> s42 [label="SERVER_HELLO_DONE / TIMEOUT"];
	s42 -> s3 [label="CHANGE_CIPHER_SPEC / TIMEOUT"];
	s42 -> s43 [label="FINISHED / TIMEOUT"];
	s42 -> s42 [label="APPLICATION / TIMEOUT"];
	s42 -> s42 [label="CERTIFICATE / TIMEOUT"];
	s42 -> s42 [label="EMPTY_CERTIFICATE / TIMEOUT"];
	s42 -> s4 [label="Alert(WARNING,CLOSE_NOTIFY) / Alert(FATAL,INTERNAL_ERROR)"];
	s42 -> s4 [label="Alert(FATAL,UNEXPECTED_MESSAGE) / TIMEOUT"];
	s43 -> s43 [label="HELLO_VERIFY_REQUEST / TIMEOUT"];
	s43 -> s44 [label="ECDH_SERVER_HELLO / TIMEOUT"];
	s43 -> s43 [label="ECDH_SERVER_KEY_EXCHANGE / TIMEOUT"];
	s43 -> s4 [label="DH_SERVER_HELLO / Alert(FATAL,INTERNAL_ERROR)"];
	s43 -> s43 [label="DH_SERVER_KEY_EXCHANGE / TIMEOUT"];
	s43 -> s4 [label="RSA_SERVER_HELLO / Alert(FATAL,INTERNAL_ERROR)"];
	s43 -> s4 [label="HELLO_REQUEST / Alert(FATAL,INTERNAL_ERROR)"];
	s43 -> s43 [label="RSA_SIGN_CERTIFICATE_REQUEST / TIMEOUT"];
	s43 -> s43 [label="RSA_FIXED_ECDH_CERTIFICATE_REQUEST / TIMEOUT"];
	s43 -> s43 [label="RSA_FIXED_DH_CERTIFICATE_REQUEST / TIMEOUT"];
	s43 -> s43 [label="DSS_SIGN_CERTIFICATE_REQUEST / TIMEOUT"];
	s43 -> s43 [label="DSS_FIXED_DH_CERTIFICATE_REQUEST / TIMEOUT"];
	s43 -> s43 [label="ECDSA_SIGN_CERTIFICATE_REQUEST / TIMEOUT"];
	s43 -> s43 [label="SERVER_HELLO_DONE / TIMEOUT"];
	s43 -> s3 [label="CHANGE_CIPHER_SPEC / TIMEOUT"];
	s43 -> s43 [label="FINISHED / TIMEOUT"];
	s43 -> s43 [label="APPLICATION / TIMEOUT"];
	s43 -> s43 [label="CERTIFICATE / TIMEOUT"];
	s43 -> s43 [label="EMPTY_CERTIFICATE / TIMEOUT"];
	s43 -> s4 [label="Alert(WARNING,CLOSE_NOTIFY) / Alert(FATAL,INTERNAL_ERROR)"];
	s43 -> s4 [label="Alert(FATAL,UNEXPECTED_MESSAGE) / TIMEOUT"];
	s44 -> s44 [label="HELLO_VERIFY_REQUEST / TIMEOUT"];
	s44 -> s44 [label="ECDH_SERVER_HELLO / TIMEOUT"];
	s44 -> s44 [label="ECDH_SERVER_KEY_EXCHANGE / TIMEOUT"];
	s44 -> s4 [label="DH_SERVER_HELLO / Alert(FATAL,INTERNAL_ERROR)"];
	s44 -> s44 [label="DH_SERVER_KEY_EXCHANGE / TIMEOUT"];
	s44 -> s4 [label="RSA_SERVER_HELLO / Alert(FATAL,INTERNAL_ERROR)"];
	s44 -> s5 [label="HELLO_REQUEST / TIMEOUT"];
	s44 -> s44 [label="RSA_SIGN_CERTIFICATE_REQUEST / TIMEOUT"];
	s44 -> s44 [label="RSA_FIXED_ECDH_CERTIFICATE_REQUEST / TIMEOUT"];
	s44 -> s44 [label="RSA_FIXED_DH_CERTIFICATE_REQUEST / TIMEOUT"];
	s44 -> s44 [label="DSS_SIGN_CERTIFICATE_REQUEST / TIMEOUT"];
	s44 -> s44 [label="DSS_FIXED_DH_CERTIFICATE_REQUEST / TIMEOUT"];
	s44 -> s44 [label="ECDSA_SIGN_CERTIFICATE_REQUEST / TIMEOUT"];
	s44 -> s44 [label="SERVER_HELLO_DONE / TIMEOUT"];
	s44 -> s3 [label="CHANGE_CIPHER_SPEC / TIMEOUT"];
	s44 -> s44 [label="FINISHED / TIMEOUT"];
	s44 -> s44 [label="APPLICATION / TIMEOUT"];
	s44 -> s44 [label="CERTIFICATE / TIMEOUT"];
	s44 -> s44 [label="EMPTY_CERTIFICATE / TIMEOUT"];
	s44 -> s44 [label="Alert(WARNING,CLOSE_NOTIFY) / TIMEOUT"];
	s44 -> s44 [label="Alert(FATAL,UNEXPECTED_MESSAGE) / TIMEOUT"];
	s45 -> s45 [label="HELLO_VERIFY_REQUEST / TIMEOUT"];
	s45 -> s45 [label="ECDH_SERVER_HELLO / TIMEOUT"];
	s45 -> s45 [label="ECDH_SERVER_KEY_EXCHANGE / TIMEOUT"];
	s45 -> s26 [label="DH_SERVER_HELLO / TIMEOUT"];
	s45 -> s45 [label="DH_SERVER_KEY_EXCHANGE / TIMEOUT"];
	s45 -> s26 [label="RSA_SERVER_HELLO / TIMEOUT"];
	s45 -> s5 [label="HELLO_REQUEST / TIMEOUT"];
	s45 -> s45 [label="RSA_SIGN_CERTIFICATE_REQUEST / TIMEOUT"];
	s45 -> s45 [label="RSA_FIXED_ECDH_CERTIFICATE_REQUEST / TIMEOUT"];
	s45 -> s45 [label="RSA_FIXED_DH_CERTIFICATE_REQUEST / TIMEOUT"];
	s45 -> s45 [label="DSS_SIGN_CERTIFICATE_REQUEST / TIMEOUT"];
	s45 -> s45 [label="DSS_FIXED_DH_CERTIFICATE_REQUEST / TIMEOUT"];
	s45 -> s45 [label="ECDSA_SIGN_CERTIFICATE_REQUEST / TIMEOUT"];
	s45 -> s45 [label="SERVER_HELLO_DONE / TIMEOUT"];
	s45 -> s3 [label="CHANGE_CIPHER_SPEC / TIMEOUT"];
	s45 -> s45 [label="FINISHED / TIMEOUT"];
	s45 -> s45 [label="APPLICATION / TIMEOUT"];
	s45 -> s45 [label="CERTIFICATE / TIMEOUT"];
	s45 -> s45 [label="EMPTY_CERTIFICATE / TIMEOUT"];
	s45 -> s45 [label="Alert(WARNING,CLOSE_NOTIFY) / TIMEOUT"];
	s45 -> s45 [label="Alert(FATAL,UNEXPECTED_MESSAGE) / TIMEOUT"];
	s46 -> s46 [label="HELLO_VERIFY_REQUEST / TIMEOUT"];
	s46 -> s46 [label="ECDH_SERVER_HELLO / TIMEOUT"];
	s46 -> s46 [label="ECDH_SERVER_KEY_EXCHANGE / TIMEOUT"];
	s46 -> s29 [label="DH_SERVER_HELLO / TIMEOUT"];
	s46 -> s46 [label="DH_SERVER_KEY_EXCHANGE / TIMEOUT"];
	s46 -> s29 [label="RSA_SERVER_HELLO / TIMEOUT"];
	s46 -> s5 [label="HELLO_REQUEST / TIMEOUT"];
	s46 -> s46 [label="RSA_SIGN_CERTIFICATE_REQUEST / TIMEOUT"];
	s46 -> s46 [label="RSA_FIXED_ECDH_CERTIFICATE_REQUEST / TIMEOUT"];
	s46 -> s46 [label="RSA_FIXED_DH_CERTIFICATE_REQUEST / TIMEOUT"];
	s46 -> s46 [label="DSS_SIGN_CERTIFICATE_REQUEST / TIMEOUT"];
	s46 -> s46 [label="DSS_FIXED_DH_CERTIFICATE_REQUEST / TIMEOUT"];
	s46 -> s46 [label="ECDSA_SIGN_CERTIFICATE_REQUEST / TIMEOUT"];
	s46 -> s46 [label="SERVER_HELLO_DONE / TIMEOUT"];
	s46 -> s3 [label="CHANGE_CIPHER_SPEC / TIMEOUT"];
	s46 -> s46 [label="FINISHED / TIMEOUT"];
	s46 -> s46 [label="APPLICATION / TIMEOUT"];
	s46 -> s46 [label="CERTIFICATE / TIMEOUT"];
	s46 -> s46 [label="EMPTY_CERTIFICATE / TIMEOUT"];
	s46 -> s46 [label="Alert(WARNING,CLOSE_NOTIFY) / TIMEOUT"];
	s46 -> s46 [label="Alert(FATAL,UNEXPECTED_MESSAGE) / TIMEOUT"];
	s47 -> s47 [label="HELLO_VERIFY_REQUEST / TIMEOUT"];
	s47 -> s47 [label="ECDH_SERVER_HELLO / TIMEOUT"];
	s47 -> s47 [label="ECDH_SERVER_KEY_EXCHANGE / TIMEOUT"];
	s47 -> s31 [label="DH_SERVER_HELLO / TIMEOUT"];
	s47 -> s47 [label="DH_SERVER_KEY_EXCHANGE / TIMEOUT"];
	s47 -> s31 [label="RSA_SERVER_HELLO / TIMEOUT"];
	s47 -> s5 [label="HELLO_REQUEST / TIMEOUT"];
	s47 -> s47 [label="RSA_SIGN_CERTIFICATE_REQUEST / TIMEOUT"];
	s47 -> s47 [label="RSA_FIXED_ECDH_CERTIFICATE_REQUEST / TIMEOUT"];
	s47 -> s47 [label="RSA_FIXED_DH_CERTIFICATE_REQUEST / TIMEOUT"];
	s47 -> s47 [label="DSS_SIGN_CERTIFICATE_REQUEST / TIMEOUT"];
	s47 -> s47 [label="DSS_FIXED_DH_CERTIFICATE_REQUEST / TIMEOUT"];
	s47 -> s47 [label="ECDSA_SIGN_CERTIFICATE_REQUEST / TIMEOUT"];
	s47 -> s47 [label="SERVER_HELLO_DONE / TIMEOUT"];
	s47 -> s3 [label="CHANGE_CIPHER_SPEC / TIMEOUT"];
	s47 -> s47 [label="FINISHED / TIMEOUT"];
	s47 -> s47 [label="APPLICATION / TIMEOUT"];
	s47 -> s47 [label="CERTIFICATE / TIMEOUT"];
	s47 -> s47 [label="EMPTY_CERTIFICATE / TIMEOUT"];
	s47 -> s47 [label="Alert(WARNING,CLOSE_NOTIFY) / TIMEOUT"];
	s47 -> s47 [label="Alert(FATAL,UNEXPECTED_MESSAGE) / TIMEOUT"];
	s48 -> s43 [label="HELLO_VERIFY_REQUEST / TIMEOUT"];
	s48 -> s52 [label="ECDH_SERVER_HELLO / TIMEOUT"];
	s48 -> s48 [label="ECDH_SERVER_KEY_EXCHANGE / TIMEOUT"];
	s48 -> s34 [label="DH_SERVER_HELLO / TIMEOUT"];
	s48 -> s48 [label="DH_SERVER_KEY_EXCHANGE / TIMEOUT"];
	s48 -> s34 [label="RSA_SERVER_HELLO / TIMEOUT"];
	s48 -> s5 [label="HELLO_REQUEST / TIMEOUT"];
	s48 -> s48 [label="RSA_SIGN_CERTIFICATE_REQUEST / TIMEOUT"];
	s48 -> s48 [label="RSA_FIXED_ECDH_CERTIFICATE_REQUEST / TIMEOUT"];
	s48 -> s48 [label="RSA_FIXED_DH_CERTIFICATE_REQUEST / TIMEOUT"];
	s48 -> s48 [label="DSS_SIGN_CERTIFICATE_REQUEST / TIMEOUT"];
	s48 -> s48 [label="DSS_FIXED_DH_CERTIFICATE_REQUEST / TIMEOUT"];
	s48 -> s48 [label="ECDSA_SIGN_CERTIFICATE_REQUEST / TIMEOUT"];
	s48 -> s48 [label="SERVER_HELLO_DONE / TIMEOUT"];
	s48 -> s3 [label="CHANGE_CIPHER_SPEC / TIMEOUT"];
	s48 -> s48 [label="FINISHED / TIMEOUT"];
	s48 -> s48 [label="APPLICATION / TIMEOUT"];
	s48 -> s48 [label="CERTIFICATE / TIMEOUT"];
	s48 -> s48 [label="EMPTY_CERTIFICATE / TIMEOUT"];
	s48 -> s4 [label="Alert(WARNING,CLOSE_NOTIFY) / Alert(FATAL,INTERNAL_ERROR)"];
	s48 -> s4 [label="Alert(FATAL,UNEXPECTED_MESSAGE) / TIMEOUT"];
	s49 -> s49 [label="HELLO_VERIFY_REQUEST / TIMEOUT"];
	s49 -> s49 [label="ECDH_SERVER_HELLO / TIMEOUT"];
	s49 -> s49 [label="ECDH_SERVER_KEY_EXCHANGE / TIMEOUT"];
	s49 -> s25 [label="DH_SERVER_HELLO / TIMEOUT"];
	s49 -> s49 [label="DH_SERVER_KEY_EXCHANGE / TIMEOUT"];
	s49 -> s25 [label="RSA_SERVER_HELLO / TIMEOUT"];
	s49 -> s5 [label="HELLO_REQUEST / TIMEOUT"];
	s49 -> s49 [label="RSA_SIGN_CERTIFICATE_REQUEST / TIMEOUT"];
	s49 -> s49 [label="RSA_FIXED_ECDH_CERTIFICATE_REQUEST / TIMEOUT"];
	s49 -> s49 [label="RSA_FIXED_DH_CERTIFICATE_REQUEST / TIMEOUT"];
	s49 -> s49 [label="DSS_SIGN_CERTIFICATE_REQUEST / TIMEOUT"];
	s49 -> s49 [label="DSS_FIXED_DH_CERTIFICATE_REQUEST / TIMEOUT"];
	s49 -> s49 [label="ECDSA_SIGN_CERTIFICATE_REQUEST / TIMEOUT"];
	s49 -> s49 [label="SERVER_HELLO_DONE / TIMEOUT"];
	s49 -> s3 [label="CHANGE_CIPHER_SPEC / TIMEOUT"];
	s49 -> s49 [label="FINISHED / TIMEOUT"];
	s49 -> s49 [label="APPLICATION / TIMEOUT"];
	s49 -> s49 [label="CERTIFICATE / TIMEOUT"];
	s49 -> s49 [label="EMPTY_CERTIFICATE / TIMEOUT"];
	s49 -> s49 [label="Alert(WARNING,CLOSE_NOTIFY) / TIMEOUT"];
	s49 -> s49 [label="Alert(FATAL,UNEXPECTED_MESSAGE) / TIMEOUT"];
	s50 -> s50 [label="HELLO_VERIFY_REQUEST / TIMEOUT"];
	s50 -> s50 [label="ECDH_SERVER_HELLO / TIMEOUT"];
	s50 -> s50 [label="ECDH_SERVER_KEY_EXCHANGE / TIMEOUT"];
	s50 -> s33 [label="DH_SERVER_HELLO / TIMEOUT"];
	s50 -> s50 [label="DH_SERVER_KEY_EXCHANGE / TIMEOUT"];
	s50 -> s33 [label="RSA_SERVER_HELLO / TIMEOUT"];
	s50 -> s5 [label="HELLO_REQUEST / TIMEOUT"];
	s50 -> s50 [label="RSA_SIGN_CERTIFICATE_REQUEST / TIMEOUT"];
	s50 -> s50 [label="RSA_FIXED_ECDH_CERTIFICATE_REQUEST / TIMEOUT"];
	s50 -> s50 [label="RSA_FIXED_DH_CERTIFICATE_REQUEST / TIMEOUT"];
	s50 -> s50 [label="DSS_SIGN_CERTIFICATE_REQUEST / TIMEOUT"];
	s50 -> s50 [label="DSS_FIXED_DH_CERTIFICATE_REQUEST / TIMEOUT"];
	s50 -> s50 [label="ECDSA_SIGN_CERTIFICATE_REQUEST / TIMEOUT"];
	s50 -> s50 [label="SERVER_HELLO_DONE / TIMEOUT"];
	s50 -> s3 [label="CHANGE_CIPHER_SPEC / TIMEOUT"];
	s50 -> s50 [label="FINISHED / TIMEOUT"];
	s50 -> s50 [label="APPLICATION / TIMEOUT"];
	s50 -> s50 [label="CERTIFICATE / TIMEOUT"];
	s50 -> s50 [label="EMPTY_CERTIFICATE / TIMEOUT"];
	s50 -> s50 [label="Alert(WARNING,CLOSE_NOTIFY) / TIMEOUT"];
	s50 -> s50 [label="Alert(FATAL,UNEXPECTED_MESSAGE) / TIMEOUT"];
	s51 -> s51 [label="HELLO_VERIFY_REQUEST / TIMEOUT"];
	s51 -> s51 [label="ECDH_SERVER_HELLO / TIMEOUT"];
	s51 -> s51 [label="ECDH_SERVER_KEY_EXCHANGE / TIMEOUT"];
	s51 -> s32 [label="DH_SERVER_HELLO / TIMEOUT"];
	s51 -> s51 [label="DH_SERVER_KEY_EXCHANGE / TIMEOUT"];
	s51 -> s32 [label="RSA_SERVER_HELLO / TIMEOUT"];
	s51 -> s5 [label="HELLO_REQUEST / TIMEOUT"];
	s51 -> s51 [label="RSA_SIGN_CERTIFICATE_REQUEST / TIMEOUT"];
	s51 -> s51 [label="RSA_FIXED_ECDH_CERTIFICATE_REQUEST / TIMEOUT"];
	s51 -> s51 [label="RSA_FIXED_DH_CERTIFICATE_REQUEST / TIMEOUT"];
	s51 -> s51 [label="DSS_SIGN_CERTIFICATE_REQUEST / TIMEOUT"];
	s51 -> s51 [label="DSS_FIXED_DH_CERTIFICATE_REQUEST / TIMEOUT"];
	s51 -> s51 [label="ECDSA_SIGN_CERTIFICATE_REQUEST / TIMEOUT"];
	s51 -> s51 [label="SERVER_HELLO_DONE / TIMEOUT"];
	s51 -> s3 [label="CHANGE_CIPHER_SPEC / TIMEOUT"];
	s51 -> s51 [label="FINISHED / TIMEOUT"];
	s51 -> s51 [label="APPLICATION / TIMEOUT"];
	s51 -> s51 [label="CERTIFICATE / TIMEOUT"];
	s51 -> s51 [label="EMPTY_CERTIFICATE / TIMEOUT"];
	s51 -> s51 [label="Alert(WARNING,CLOSE_NOTIFY) / TIMEOUT"];
	s51 -> s51 [label="Alert(FATAL,UNEXPECTED_MESSAGE) / TIMEOUT"];
	s52 -> s52 [label="HELLO_VERIFY_REQUEST / TIMEOUT"];
	s52 -> s52 [label="ECDH_SERVER_HELLO / TIMEOUT"];
	s52 -> s52 [label="ECDH_SERVER_KEY_EXCHANGE / TIMEOUT"];
	s52 -> s34 [label="DH_SERVER_HELLO / TIMEOUT"];
	s52 -> s52 [label="DH_SERVER_KEY_EXCHANGE / TIMEOUT"];
	s52 -> s34 [label="RSA_SERVER_HELLO / TIMEOUT"];
	s52 -> s5 [label="HELLO_REQUEST / TIMEOUT"];
	s52 -> s52 [label="RSA_SIGN_CERTIFICATE_REQUEST / TIMEOUT"];
	s52 -> s52 [label="RSA_FIXED_ECDH_CERTIFICATE_REQUEST / TIMEOUT"];
	s52 -> s52 [label="RSA_FIXED_DH_CERTIFICATE_REQUEST / TIMEOUT"];
	s52 -> s52 [label="DSS_SIGN_CERTIFICATE_REQUEST / TIMEOUT"];
	s52 -> s52 [label="DSS_FIXED_DH_CERTIFICATE_REQUEST / TIMEOUT"];
	s52 -> s52 [label="ECDSA_SIGN_CERTIFICATE_REQUEST / TIMEOUT"];
	s52 -> s52 [label="SERVER_HELLO_DONE / TIMEOUT"];
	s52 -> s3 [label="CHANGE_CIPHER_SPEC / TIMEOUT"];
	s52 -> s52 [label="FINISHED / TIMEOUT"];
	s52 -> s52 [label="APPLICATION / TIMEOUT"];
	s52 -> s52 [label="CERTIFICATE / TIMEOUT"];
	s52 -> s52 [label="EMPTY_CERTIFICATE / TIMEOUT"];
	s52 -> s52 [label="Alert(WARNING,CLOSE_NOTIFY) / TIMEOUT"];
	s52 -> s52 [label="Alert(FATAL,UNEXPECTED_MESSAGE) / TIMEOUT"];
	s53 -> s27 [label="HELLO_VERIFY_REQUEST / TIMEOUT"];
	s53 -> s49 [label="ECDH_SERVER_HELLO / TIMEOUT"];
	s53 -> s54 [label="ECDH_SERVER_KEY_EXCHANGE / TIMEOUT"];
	s53 -> s53 [label="DH_SERVER_HELLO / TIMEOUT"];
	s53 -> s54 [label="DH_SERVER_KEY_EXCHANGE / TIMEOUT"];
	s53 -> s53 [label="RSA_SERVER_HELLO / TIMEOUT"];
	s53 -> s5 [label="HELLO_REQUEST / TIMEOUT"];
	s53 -> s53 [label="RSA_SIGN_CERTIFICATE_REQUEST / TIMEOUT"];
	s53 -> s53 [label="RSA_FIXED_ECDH_CERTIFICATE_REQUEST / TIMEOUT"];
	s53 -> s53 [label="RSA_FIXED_DH_CERTIFICATE_REQUEST / TIMEOUT"];
	s53 -> s53 [label="DSS_SIGN_CERTIFICATE_REQUEST / TIMEOUT"];
	s53 -> s53 [label="DSS_FIXED_DH_CERTIFICATE_REQUEST / TIMEOUT"];
	s53 -> s53 [label="ECDSA_SIGN_CERTIFICATE_REQUEST / TIMEOUT"];
	s53 -> s53 [label="SERVER_HELLO_DONE / TIMEOUT"];
	s53 -> s3 [label="CHANGE_CIPHER_SPEC / TIMEOUT"];
	s53 -> s53 [label="FINISHED / TIMEOUT"];
	s53 -> s53 [label="APPLICATION / TIMEOUT"];
	s53 -> s53 [label="CERTIFICATE / TIMEOUT"];
	s53 -> s53 [label="EMPTY_CERTIFICATE / TIMEOUT"];
	s53 -> s4 [label="Alert(WARNING,CLOSE_NOTIFY) / Alert(FATAL,INTERNAL_ERROR)"];
	s53 -> s4 [label="Alert(FATAL,UNEXPECTED_MESSAGE) / TIMEOUT"];
	s54 -> s29 [label="HELLO_VERIFY_REQUEST / TIMEOUT"];
	s54 -> s51 [label="ECDH_SERVER_HELLO / TIMEOUT"];
	s54 -> s54 [label="ECDH_SERVER_KEY_EXCHANGE / TIMEOUT"];
	s54 -> s54 [label="DH_SERVER_HELLO / TIMEOUT"];
	s54 -> s54 [label="DH_SERVER_KEY_EXCHANGE / TIMEOUT"];
	s54 -> s54 [label="RSA_SERVER_HELLO / TIMEOUT"];
	s54 -> s5 [label="HELLO_REQUEST / TIMEOUT"];
	s54 -> s54 [label="RSA_SIGN_CERTIFICATE_REQUEST / TIMEOUT"];
	s54 -> s54 [label="RSA_FIXED_ECDH_CERTIFICATE_REQUEST / TIMEOUT"];
	s54 -> s54 [label="RSA_FIXED_DH_CERTIFICATE_REQUEST / TIMEOUT"];
	s54 -> s54 [label="DSS_SIGN_CERTIFICATE_REQUEST / TIMEOUT"];
	s54 -> s54 [label="DSS_FIXED_DH_CERTIFICATE_REQUEST / TIMEOUT"];
	s54 -> s54 [label="ECDSA_SIGN_CERTIFICATE_REQUEST / TIMEOUT"];
	s54 -> s34 [label="SERVER_HELLO_DONE / TIMEOUT"];
	s54 -> s3 [label="CHANGE_CIPHER_SPEC / TIMEOUT"];
	s54 -> s54 [label="FINISHED / TIMEOUT"];
	s54 -> s54 [label="APPLICATION / TIMEOUT"];
	s54 -> s54 [label="CERTIFICATE / TIMEOUT"];
	s54 -> s54 [label="EMPTY_CERTIFICATE / TIMEOUT"];
	s54 -> s4 [label="Alert(WARNING,CLOSE_NOTIFY) / Alert(FATAL,INTERNAL_ERROR)"];
	s54 -> s4 [label="Alert(FATAL,UNEXPECTED_MESSAGE) / TIMEOUT"];
	s55 -> s55 [label="HELLO_VERIFY_REQUEST / TIMEOUT"];
	s55 -> s45 [label="ECDH_SERVER_HELLO / TIMEOUT"];
	s55 -> s31 [label="ECDH_SERVER_KEY_EXCHANGE / TIMEOUT"];
	s55 -> s55 [label="DH_SERVER_HELLO / TIMEOUT"];
	s55 -> s31 [label="DH_SERVER_KEY_EXCHANGE / TIMEOUT"];
	s55 -> s55 [label="RSA_SERVER_HELLO / TIMEOUT"];
	s55 -> s5 [label="HELLO_REQUEST / TIMEOUT"];
	s55 -> s55 [label="RSA_SIGN_CERTIFICATE_REQUEST / TIMEOUT"];
	s55 -> s55 [label="RSA_FIXED_ECDH_CERTIFICATE_REQUEST / TIMEOUT"];
	s55 -> s55 [label="RSA_FIXED_DH_CERTIFICATE_REQUEST / TIMEOUT"];
	s55 -> s55 [label="DSS_SIGN_CERTIFICATE_REQUEST / TIMEOUT"];
	s55 -> s55 [label="DSS_FIXED_DH_CERTIFICATE_REQUEST / TIMEOUT"];
	s55 -> s55 [label="ECDSA_SIGN_CERTIFICATE_REQUEST / TIMEOUT"];
	s55 -> s55 [label="SERVER_HELLO_DONE / TIMEOUT"];
	s55 -> s3 [label="CHANGE_CIPHER_SPEC / TIMEOUT"];
	s55 -> s55 [label="FINISHED / TIMEOUT"];
	s55 -> s55 [label="APPLICATION / TIMEOUT"];
	s55 -> s28 [label="CERTIFICATE / TIMEOUT"];
	s55 -> s28 [label="EMPTY_CERTIFICATE / TIMEOUT"];
	s55 -> s4 [label="Alert(WARNING,CLOSE_NOTIFY) / Alert(FATAL,INTERNAL_ERROR)"];
	s55 -> s4 [label="Alert(FATAL,UNEXPECTED_MESSAGE) / TIMEOUT"];
	s56 -> s56 [label="HELLO_VERIFY_REQUEST / TIMEOUT"];
	s56 -> s56 [label="ECDH_SERVER_HELLO / TIMEOUT"];
	s56 -> s56 [label="ECDH_SERVER_KEY_EXCHANGE / TIMEOUT"];
	s56 -> s28 [label="DH_SERVER_HELLO / TIMEOUT"];
	s56 -> s56 [label="DH_SERVER_KEY_EXCHANGE / TIMEOUT"];
	s56 -> s28 [label="RSA_SERVER_HELLO / TIMEOUT"];
	s56 -> s5 [label="HELLO_REQUEST / TIMEOUT"];
	s56 -> s56 [label="RSA_SIGN_CERTIFICATE_REQUEST / TIMEOUT"];
	s56 -> s56 [label="RSA_FIXED_ECDH_CERTIFICATE_REQUEST / TIMEOUT"];
	s56 -> s56 [label="RSA_FIXED_DH_CERTIFICATE_REQUEST / TIMEOUT"];
	s56 -> s56 [label="DSS_SIGN_CERTIFICATE_REQUEST / TIMEOUT"];
	s56 -> s56 [label="DSS_FIXED_DH_CERTIFICATE_REQUEST / TIMEOUT"];
	s56 -> s56 [label="ECDSA_SIGN_CERTIFICATE_REQUEST / TIMEOUT"];
	s56 -> s56 [label="SERVER_HELLO_DONE / TIMEOUT"];
	s56 -> s3 [label="CHANGE_CIPHER_SPEC / TIMEOUT"];
	s56 -> s56 [label="FINISHED / TIMEOUT"];
	s56 -> s56 [label="APPLICATION / TIMEOUT"];
	s56 -> s56 [label="CERTIFICATE / TIMEOUT"];
	s56 -> s56 [label="EMPTY_CERTIFICATE / TIMEOUT"];
	s56 -> s56 [label="Alert(WARNING,CLOSE_NOTIFY) / TIMEOUT"];
	s56 -> s56 [label="Alert(FATAL,UNEXPECTED_MESSAGE) / TIMEOUT"];

__start0 [label="" shape="none" width="0" height="0"];
__start0 -> s0;

}
