digraph g {

	s0 [shape="doublecircle" label="s0"];
	s1 [shape="doublecircle" label="s1"];
	s2 [shape="circle" label="s2"];
	s3 [shape="doublecircle" label="s3"];
	s4 [shape="doublecircle" label="s4"];
	s5 [shape="doublecircle" label="s5"];
	s6 [shape="doublecircle" label="s6"];
	s7 [shape="doublecircle" label="s7"];
	s8 [shape="doublecircle" label="s8"];
	s9 [shape="doublecircle" label="s9"];
	s10 [shape="doublecircle" label="s10"];
	s11 [shape="doublecircle" label="s11"];
	s12 [shape="doublecircle" label="s12"];
	s13 [shape="doublecircle" label="s13"];
	s14 [shape="doublecircle" label="s14"];
	s15 [shape="doublecircle" label="s15"];
	s16 [shape="doublecircle" label="s16"];
	s17 [shape="doublecircle" label="s17"];
	s18 [shape="doublecircle" label="s18"];
	s19 [shape="doublecircle" label="s19"];
	s20 [shape="doublecircle" label="s20"];
	s21 [shape="doublecircle" label="s21"];
	s22 [shape="doublecircle" label="s22"];
	s23 [shape="doublecircle" label="s23"];
	s24 [shape="doublecircle" label="s24"];
	s25 [shape="doublecircle" label="s25"];
	s26 [shape="doublecircle" label="s26"];
	s27 [shape="doublecircle" label="s27"];
	s28 [shape="doublecircle" label="s28"];
	s29 [shape="doublecircle" label="s29"];
	s30 [shape="doublecircle" label="s30"];
	s31 [shape="doublecircle" label="s31"];
	s32 [shape="doublecircle" label="s32"];
	s33 [shape="doublecircle" label="s33"];
	s34 [shape="doublecircle" label="s34"];
	s35 [shape="doublecircle" label="s35"];
	s36 [shape="doublecircle" label="s36"];
	s37 [shape="doublecircle" label="s37"];
	s38 [shape="doublecircle" label="s38"];
	s39 [shape="doublecircle" label="s39"];
	s40 [shape="doublecircle" label="s40"];
	s41 [shape="doublecircle" label="s41"];
	s42 [shape="doublecircle" label="s42"];
	s43 [shape="doublecircle" label="s43"];
	s44 [shape="doublecircle" label="s44"];
	s45 [shape="doublecircle" label="s45"];
	s46 [shape="doublecircle" label="s46"];
	s47 [shape="doublecircle" label="s47"];
	s48 [shape="doublecircle" label="s48"];
	s49 [shape="doublecircle" label="s49"];
	s50 [shape="doublecircle" label="s50"];
	s51 [shape="doublecircle" label="s51"];
	s52 [shape="doublecircle" label="s52"];
	s53 [shape="doublecircle" label="s53"];
	s54 [shape="doublecircle" label="s54"];
	s55 [shape="doublecircle" label="s55"];
	s56 [shape="doublecircle" label="s56"];
	s57 [shape="doublecircle" label="s57"];
	s58 [shape="doublecircle" label="s58"];
	s59 [shape="doublecircle" label="s59"];
	s60 [shape="doublecircle" label="s60"];
	s61 [shape="doublecircle" label="s61"];
	s62 [shape="doublecircle" label="s62"];
	s63 [shape="doublecircle" label="s63"];
	s64 [shape="doublecircle" label="s64"];
	s65 [shape="doublecircle" label="s65"];
	s66 [shape="doublecircle" label="s66"];
	s67 [shape="doublecircle" label="s67"];
	s68 [shape="doublecircle" label="s68"];
	s69 [shape="doublecircle" label="s69"];
	s70 [shape="doublecircle" label="s70"];
	s71 [shape="doublecircle" label="s71"];
	s72 [shape="doublecircle" label="s72"];
	s73 [shape="doublecircle" label="s73"];
	s74 [shape="doublecircle" label="s74"];
	s75 [shape="doublecircle" label="s75"];
	s76 [shape="doublecircle" label="s76"];
	s77 [shape="doublecircle" label="s77"];
	s78 [shape="doublecircle" label="s78"];
	s79 [shape="doublecircle" label="s79"];
	s80 [shape="doublecircle" label="s80"];
	s81 [shape="doublecircle" label="s81"];
	s82 [shape="doublecircle" label="s82"];
	s83 [shape="doublecircle" label="s83"];
	s84 [shape="doublecircle" label="s84"];
	s85 [shape="doublecircle" label="s85"];
	s0 -> s1 [label="I_ECDH_CLIENT_HELLO"];
	s0 -> s1 [label="I_ECDH_CLIENT_KEY_EXCHANGE"];
	s0 -> s1 [label="I_DH_CLIENT_HELLO"];
	s0 -> s1 [label="I_DH_CLIENT_KEY_EXCHANGE"];
	s0 -> s1 [label="I_PSK_CLIENT_HELLO"];
	s0 -> s1 [label="I_PSK_CLIENT_KEY_EXCHANGE"];
	s0 -> s1 [label="I_RSA_CLIENT_HELLO"];
	s0 -> s1 [label="I_RSA_CLIENT_KEY_EXCHANGE"];
	s0 -> s84 [label="I_CHANGE_CIPHER_SPEC"];
	s0 -> s1 [label="I_FINISHED"];
	s0 -> s1 [label="I_APPLICATION"];
	s0 -> s1 [label="I_CERTIFICATE"];
	s0 -> s1 [label="I_EMPTY_CERTIFICATE"];
	s0 -> s1 [label="I_CERTIFICATE_VERIFY"];
	s0 -> s1 [label="I_Alert(WARNING,CLOSE_NOTIFY)"];
	s0 -> s1 [label="I_Alert(FATAL,UNEXPECTED_MESSAGE)"];
	s0 -> s2 [label="O_HELLO_VERIFY_REQUEST"];
	s0 -> s2 [label="O_SERVER_HELLO"];
	s0 -> s2 [label="O_RSA_CERTIFICATE"];
	s0 -> s2 [label="O_CERTIFICATE_REQUEST"];
	s0 -> s2 [label="O_SERVER_HELLO_DONE"];
	s0 -> s2 [label="O_DHE_SERVER_KEY_EXCHANGE"];
	s0 -> s2 [label="O_ECDHE_SERVER_KEY_EXCHANGE"];
	s0 -> s2 [label="O_CHANGE_CIPHER_SPEC"];
	s0 -> s2 [label="O_FINISHED"];
	s0 -> s2 [label="O_APPLICATION"];
	s1 -> s2 [label="I_ECDH_CLIENT_HELLO"];
	s1 -> s2 [label="I_ECDH_CLIENT_KEY_EXCHANGE"];
	s1 -> s2 [label="I_DH_CLIENT_HELLO"];
	s1 -> s2 [label="I_DH_CLIENT_KEY_EXCHANGE"];
	s1 -> s2 [label="I_PSK_CLIENT_HELLO"];
	s1 -> s2 [label="I_PSK_CLIENT_KEY_EXCHANGE"];
	s1 -> s2 [label="I_RSA_CLIENT_HELLO"];
	s1 -> s2 [label="I_RSA_CLIENT_KEY_EXCHANGE"];
	s1 -> s2 [label="I_CHANGE_CIPHER_SPEC"];
	s1 -> s2 [label="I_FINISHED"];
	s1 -> s2 [label="I_APPLICATION"];
	s1 -> s2 [label="I_CERTIFICATE"];
	s1 -> s2 [label="I_EMPTY_CERTIFICATE"];
	s1 -> s2 [label="I_CERTIFICATE_VERIFY"];
	s1 -> s2 [label="I_Alert(WARNING,CLOSE_NOTIFY)"];
	s1 -> s2 [label="I_Alert(FATAL,UNEXPECTED_MESSAGE)"];
	s1 -> s3 [label="O_HELLO_VERIFY_REQUEST"];
	s1 -> s2 [label="O_SERVER_HELLO"];
	s1 -> s2 [label="O_RSA_CERTIFICATE"];
	s1 -> s2 [label="O_CERTIFICATE_REQUEST"];
	s1 -> s2 [label="O_SERVER_HELLO_DONE"];
	s1 -> s2 [label="O_DHE_SERVER_KEY_EXCHANGE"];
	s1 -> s2 [label="O_ECDHE_SERVER_KEY_EXCHANGE"];
	s1 -> s2 [label="O_CHANGE_CIPHER_SPEC"];
	s1 -> s2 [label="O_FINISHED"];
	s1 -> s2 [label="O_APPLICATION"];
	s2 -> s2 [label="I_ECDH_CLIENT_HELLO"];
	s2 -> s2 [label="I_ECDH_CLIENT_KEY_EXCHANGE"];
	s2 -> s2 [label="I_DH_CLIENT_HELLO"];
	s2 -> s2 [label="I_DH_CLIENT_KEY_EXCHANGE"];
	s2 -> s2 [label="I_PSK_CLIENT_HELLO"];
	s2 -> s2 [label="I_PSK_CLIENT_KEY_EXCHANGE"];
	s2 -> s2 [label="I_RSA_CLIENT_HELLO"];
	s2 -> s2 [label="I_RSA_CLIENT_KEY_EXCHANGE"];
	s2 -> s2 [label="I_CHANGE_CIPHER_SPEC"];
	s2 -> s2 [label="I_FINISHED"];
	s2 -> s2 [label="I_APPLICATION"];
	s2 -> s2 [label="I_CERTIFICATE"];
	s2 -> s2 [label="I_EMPTY_CERTIFICATE"];
	s2 -> s2 [label="I_CERTIFICATE_VERIFY"];
	s2 -> s2 [label="I_Alert(WARNING,CLOSE_NOTIFY)"];
	s2 -> s2 [label="I_Alert(FATAL,UNEXPECTED_MESSAGE)"];
	s2 -> s2 [label="O_HELLO_VERIFY_REQUEST"];
	s2 -> s2 [label="O_SERVER_HELLO"];
	s2 -> s2 [label="O_RSA_CERTIFICATE"];
	s2 -> s2 [label="O_CERTIFICATE_REQUEST"];
	s2 -> s2 [label="O_SERVER_HELLO_DONE"];
	s2 -> s2 [label="O_DHE_SERVER_KEY_EXCHANGE"];
	s2 -> s2 [label="O_ECDHE_SERVER_KEY_EXCHANGE"];
	s2 -> s2 [label="O_CHANGE_CIPHER_SPEC"];
	s2 -> s2 [label="O_FINISHED"];
	s2 -> s2 [label="O_APPLICATION"];
	s3 -> s4 [label="I_ECDH_CLIENT_HELLO"];
	s3 -> s1 [label="I_ECDH_CLIENT_KEY_EXCHANGE"];
	s3 -> s62 [label="I_DH_CLIENT_HELLO"];
	s3 -> s1 [label="I_DH_CLIENT_KEY_EXCHANGE"];
	s3 -> s69 [label="I_PSK_CLIENT_HELLO"];
	s3 -> s1 [label="I_PSK_CLIENT_KEY_EXCHANGE"];
	s3 -> s72 [label="I_RSA_CLIENT_HELLO"];
	s3 -> s1 [label="I_RSA_CLIENT_KEY_EXCHANGE"];
	s3 -> s84 [label="I_CHANGE_CIPHER_SPEC"];
	s3 -> s1 [label="I_FINISHED"];
	s3 -> s1 [label="I_APPLICATION"];
	s3 -> s1 [label="I_CERTIFICATE"];
	s3 -> s1 [label="I_EMPTY_CERTIFICATE"];
	s3 -> s1 [label="I_CERTIFICATE_VERIFY"];
	s3 -> s1 [label="I_Alert(WARNING,CLOSE_NOTIFY)"];
	s3 -> s1 [label="I_Alert(FATAL,UNEXPECTED_MESSAGE)"];
	s3 -> s2 [label="O_HELLO_VERIFY_REQUEST"];
	s3 -> s2 [label="O_SERVER_HELLO"];
	s3 -> s2 [label="O_RSA_CERTIFICATE"];
	s3 -> s2 [label="O_CERTIFICATE_REQUEST"];
	s3 -> s2 [label="O_SERVER_HELLO_DONE"];
	s3 -> s2 [label="O_DHE_SERVER_KEY_EXCHANGE"];
	s3 -> s2 [label="O_ECDHE_SERVER_KEY_EXCHANGE"];
	s3 -> s2 [label="O_CHANGE_CIPHER_SPEC"];
	s3 -> s2 [label="O_FINISHED"];
	s3 -> s2 [label="O_APPLICATION"];
	s4 -> s2 [label="I_ECDH_CLIENT_HELLO"];
	s4 -> s2 [label="I_ECDH_CLIENT_KEY_EXCHANGE"];
	s4 -> s2 [label="I_DH_CLIENT_HELLO"];
	s4 -> s2 [label="I_DH_CLIENT_KEY_EXCHANGE"];
	s4 -> s2 [label="I_PSK_CLIENT_HELLO"];
	s4 -> s2 [label="I_PSK_CLIENT_KEY_EXCHANGE"];
	s4 -> s2 [label="I_RSA_CLIENT_HELLO"];
	s4 -> s2 [label="I_RSA_CLIENT_KEY_EXCHANGE"];
	s4 -> s2 [label="I_CHANGE_CIPHER_SPEC"];
	s4 -> s2 [label="I_FINISHED"];
	s4 -> s2 [label="I_APPLICATION"];
	s4 -> s2 [label="I_CERTIFICATE"];
	s4 -> s2 [label="I_EMPTY_CERTIFICATE"];
	s4 -> s2 [label="I_CERTIFICATE_VERIFY"];
	s4 -> s2 [label="I_Alert(WARNING,CLOSE_NOTIFY)"];
	s4 -> s2 [label="I_Alert(FATAL,UNEXPECTED_MESSAGE)"];
	s4 -> s2 [label="O_HELLO_VERIFY_REQUEST"];
	s4 -> s5 [label="O_SERVER_HELLO"];
	s4 -> s2 [label="O_RSA_CERTIFICATE"];
	s4 -> s2 [label="O_CERTIFICATE_REQUEST"];
	s4 -> s2 [label="O_SERVER_HELLO_DONE"];
	s4 -> s2 [label="O_DHE_SERVER_KEY_EXCHANGE"];
	s4 -> s2 [label="O_ECDHE_SERVER_KEY_EXCHANGE"];
	s4 -> s2 [label="O_CHANGE_CIPHER_SPEC"];
	s4 -> s2 [label="O_FINISHED"];
	s4 -> s2 [label="O_APPLICATION"];
	s5 -> s2 [label="I_ECDH_CLIENT_HELLO"];
	s5 -> s2 [label="I_ECDH_CLIENT_KEY_EXCHANGE"];
	s5 -> s2 [label="I_DH_CLIENT_HELLO"];
	s5 -> s2 [label="I_DH_CLIENT_KEY_EXCHANGE"];
	s5 -> s2 [label="I_PSK_CLIENT_HELLO"];
	s5 -> s2 [label="I_PSK_CLIENT_KEY_EXCHANGE"];
	s5 -> s2 [label="I_RSA_CLIENT_HELLO"];
	s5 -> s2 [label="I_RSA_CLIENT_KEY_EXCHANGE"];
	s5 -> s2 [label="I_CHANGE_CIPHER_SPEC"];
	s5 -> s2 [label="I_FINISHED"];
	s5 -> s2 [label="I_APPLICATION"];
	s5 -> s2 [label="I_CERTIFICATE"];
	s5 -> s2 [label="I_EMPTY_CERTIFICATE"];
	s5 -> s2 [label="I_CERTIFICATE_VERIFY"];
	s5 -> s2 [label="I_Alert(WARNING,CLOSE_NOTIFY)"];
	s5 -> s2 [label="I_Alert(FATAL,UNEXPECTED_MESSAGE)"];
	s5 -> s2 [label="O_HELLO_VERIFY_REQUEST"];
	s5 -> s2 [label="O_SERVER_HELLO"];
	s5 -> s6 [label="O_RSA_CERTIFICATE"];
	s5 -> s2 [label="O_CERTIFICATE_REQUEST"];
	s5 -> s2 [label="O_SERVER_HELLO_DONE"];
	s5 -> s2 [label="O_DHE_SERVER_KEY_EXCHANGE"];
	s5 -> s2 [label="O_ECDHE_SERVER_KEY_EXCHANGE"];
	s5 -> s2 [label="O_CHANGE_CIPHER_SPEC"];
	s5 -> s2 [label="O_FINISHED"];
	s5 -> s2 [label="O_APPLICATION"];
	s6 -> s2 [label="I_ECDH_CLIENT_HELLO"];
	s6 -> s2 [label="I_ECDH_CLIENT_KEY_EXCHANGE"];
	s6 -> s2 [label="I_DH_CLIENT_HELLO"];
	s6 -> s2 [label="I_DH_CLIENT_KEY_EXCHANGE"];
	s6 -> s2 [label="I_PSK_CLIENT_HELLO"];
	s6 -> s2 [label="I_PSK_CLIENT_KEY_EXCHANGE"];
	s6 -> s2 [label="I_RSA_CLIENT_HELLO"];
	s6 -> s2 [label="I_RSA_CLIENT_KEY_EXCHANGE"];
	s6 -> s2 [label="I_CHANGE_CIPHER_SPEC"];
	s6 -> s2 [label="I_FINISHED"];
	s6 -> s2 [label="I_APPLICATION"];
	s6 -> s2 [label="I_CERTIFICATE"];
	s6 -> s2 [label="I_EMPTY_CERTIFICATE"];
	s6 -> s2 [label="I_CERTIFICATE_VERIFY"];
	s6 -> s2 [label="I_Alert(WARNING,CLOSE_NOTIFY)"];
	s6 -> s2 [label="I_Alert(FATAL,UNEXPECTED_MESSAGE)"];
	s6 -> s2 [label="O_HELLO_VERIFY_REQUEST"];
	s6 -> s2 [label="O_SERVER_HELLO"];
	s6 -> s2 [label="O_RSA_CERTIFICATE"];
	s6 -> s2 [label="O_CERTIFICATE_REQUEST"];
	s6 -> s2 [label="O_SERVER_HELLO_DONE"];
	s6 -> s2 [label="O_DHE_SERVER_KEY_EXCHANGE"];
	s6 -> s7 [label="O_ECDHE_SERVER_KEY_EXCHANGE"];
	s6 -> s2 [label="O_CHANGE_CIPHER_SPEC"];
	s6 -> s2 [label="O_FINISHED"];
	s6 -> s2 [label="O_APPLICATION"];
	s7 -> s2 [label="I_ECDH_CLIENT_HELLO"];
	s7 -> s2 [label="I_ECDH_CLIENT_KEY_EXCHANGE"];
	s7 -> s2 [label="I_DH_CLIENT_HELLO"];
	s7 -> s2 [label="I_DH_CLIENT_KEY_EXCHANGE"];
	s7 -> s2 [label="I_PSK_CLIENT_HELLO"];
	s7 -> s2 [label="I_PSK_CLIENT_KEY_EXCHANGE"];
	s7 -> s2 [label="I_RSA_CLIENT_HELLO"];
	s7 -> s2 [label="I_RSA_CLIENT_KEY_EXCHANGE"];
	s7 -> s2 [label="I_CHANGE_CIPHER_SPEC"];
	s7 -> s2 [label="I_FINISHED"];
	s7 -> s2 [label="I_APPLICATION"];
	s7 -> s2 [label="I_CERTIFICATE"];
	s7 -> s2 [label="I_EMPTY_CERTIFICATE"];
	s7 -> s2 [label="I_CERTIFICATE_VERIFY"];
	s7 -> s2 [label="I_Alert(WARNING,CLOSE_NOTIFY)"];
	s7 -> s2 [label="I_Alert(FATAL,UNEXPECTED_MESSAGE)"];
	s7 -> s2 [label="O_HELLO_VERIFY_REQUEST"];
	s7 -> s2 [label="O_SERVER_HELLO"];
	s7 -> s2 [label="O_RSA_CERTIFICATE"];
	s7 -> s8 [label="O_CERTIFICATE_REQUEST"];
	s7 -> s2 [label="O_SERVER_HELLO_DONE"];
	s7 -> s2 [label="O_DHE_SERVER_KEY_EXCHANGE"];
	s7 -> s2 [label="O_ECDHE_SERVER_KEY_EXCHANGE"];
	s7 -> s2 [label="O_CHANGE_CIPHER_SPEC"];
	s7 -> s2 [label="O_FINISHED"];
	s7 -> s2 [label="O_APPLICATION"];
	s8 -> s2 [label="I_ECDH_CLIENT_HELLO"];
	s8 -> s2 [label="I_ECDH_CLIENT_KEY_EXCHANGE"];
	s8 -> s2 [label="I_DH_CLIENT_HELLO"];
	s8 -> s2 [label="I_DH_CLIENT_KEY_EXCHANGE"];
	s8 -> s2 [label="I_PSK_CLIENT_HELLO"];
	s8 -> s2 [label="I_PSK_CLIENT_KEY_EXCHANGE"];
	s8 -> s2 [label="I_RSA_CLIENT_HELLO"];
	s8 -> s2 [label="I_RSA_CLIENT_KEY_EXCHANGE"];
	s8 -> s2 [label="I_CHANGE_CIPHER_SPEC"];
	s8 -> s2 [label="I_FINISHED"];
	s8 -> s2 [label="I_APPLICATION"];
	s8 -> s2 [label="I_CERTIFICATE"];
	s8 -> s2 [label="I_EMPTY_CERTIFICATE"];
	s8 -> s2 [label="I_CERTIFICATE_VERIFY"];
	s8 -> s2 [label="I_Alert(WARNING,CLOSE_NOTIFY)"];
	s8 -> s2 [label="I_Alert(FATAL,UNEXPECTED_MESSAGE)"];
	s8 -> s2 [label="O_HELLO_VERIFY_REQUEST"];
	s8 -> s2 [label="O_SERVER_HELLO"];
	s8 -> s2 [label="O_RSA_CERTIFICATE"];
	s8 -> s2 [label="O_CERTIFICATE_REQUEST"];
	s8 -> s9 [label="O_SERVER_HELLO_DONE"];
	s8 -> s2 [label="O_DHE_SERVER_KEY_EXCHANGE"];
	s8 -> s2 [label="O_ECDHE_SERVER_KEY_EXCHANGE"];
	s8 -> s2 [label="O_CHANGE_CIPHER_SPEC"];
	s8 -> s2 [label="O_FINISHED"];
	s8 -> s2 [label="O_APPLICATION"];
	s9 -> s10 [label="I_ECDH_CLIENT_HELLO"];
	s9 -> s12 [label="I_ECDH_CLIENT_KEY_EXCHANGE"];
	s9 -> s10 [label="I_DH_CLIENT_HELLO"];
	s9 -> s12 [label="I_DH_CLIENT_KEY_EXCHANGE"];
	s9 -> s10 [label="I_PSK_CLIENT_HELLO"];
	s9 -> s12 [label="I_PSK_CLIENT_KEY_EXCHANGE"];
	s9 -> s10 [label="I_RSA_CLIENT_HELLO"];
	s9 -> s12 [label="I_RSA_CLIENT_KEY_EXCHANGE"];
	s9 -> s19 [label="I_CHANGE_CIPHER_SPEC"];
	s9 -> s10 [label="I_FINISHED"];
	s9 -> s9 [label="I_APPLICATION"];
	s9 -> s83 [label="I_CERTIFICATE"];
	s9 -> s10 [label="I_EMPTY_CERTIFICATE"];
	s9 -> s10 [label="I_CERTIFICATE_VERIFY"];
	s9 -> s10 [label="I_Alert(WARNING,CLOSE_NOTIFY)"];
	s9 -> s10 [label="I_Alert(FATAL,UNEXPECTED_MESSAGE)"];
	s9 -> s2 [label="O_HELLO_VERIFY_REQUEST"];
	s9 -> s2 [label="O_SERVER_HELLO"];
	s9 -> s2 [label="O_RSA_CERTIFICATE"];
	s9 -> s2 [label="O_CERTIFICATE_REQUEST"];
	s9 -> s2 [label="O_SERVER_HELLO_DONE"];
	s9 -> s2 [label="O_DHE_SERVER_KEY_EXCHANGE"];
	s9 -> s2 [label="O_ECDHE_SERVER_KEY_EXCHANGE"];
	s9 -> s2 [label="O_CHANGE_CIPHER_SPEC"];
	s9 -> s2 [label="O_FINISHED"];
	s9 -> s2 [label="O_APPLICATION"];
	s10 -> s4 [label="I_ECDH_CLIENT_HELLO"];
	s10 -> s11 [label="I_ECDH_CLIENT_KEY_EXCHANGE"];
	s10 -> s62 [label="I_DH_CLIENT_HELLO"];
	s10 -> s11 [label="I_DH_CLIENT_KEY_EXCHANGE"];
	s10 -> s69 [label="I_PSK_CLIENT_HELLO"];
	s10 -> s11 [label="I_PSK_CLIENT_KEY_EXCHANGE"];
	s10 -> s72 [label="I_RSA_CLIENT_HELLO"];
	s10 -> s11 [label="I_RSA_CLIENT_KEY_EXCHANGE"];
	s10 -> s78 [label="I_CHANGE_CIPHER_SPEC"];
	s10 -> s82 [label="I_FINISHED"];
	s10 -> s82 [label="I_APPLICATION"];
	s10 -> s82 [label="I_CERTIFICATE"];
	s10 -> s82 [label="I_EMPTY_CERTIFICATE"];
	s10 -> s82 [label="I_CERTIFICATE_VERIFY"];
	s10 -> s82 [label="I_Alert(WARNING,CLOSE_NOTIFY)"];
	s10 -> s82 [label="I_Alert(FATAL,UNEXPECTED_MESSAGE)"];
	s10 -> s2 [label="O_HELLO_VERIFY_REQUEST"];
	s10 -> s2 [label="O_SERVER_HELLO"];
	s10 -> s2 [label="O_RSA_CERTIFICATE"];
	s10 -> s2 [label="O_CERTIFICATE_REQUEST"];
	s10 -> s2 [label="O_SERVER_HELLO_DONE"];
	s10 -> s2 [label="O_DHE_SERVER_KEY_EXCHANGE"];
	s10 -> s2 [label="O_ECDHE_SERVER_KEY_EXCHANGE"];
	s10 -> s2 [label="O_CHANGE_CIPHER_SPEC"];
	s10 -> s2 [label="O_FINISHED"];
	s10 -> s2 [label="O_APPLICATION"];
	s11 -> s2 [label="I_ECDH_CLIENT_HELLO"];
	s11 -> s2 [label="I_ECDH_CLIENT_KEY_EXCHANGE"];
	s11 -> s2 [label="I_DH_CLIENT_HELLO"];
	s11 -> s2 [label="I_DH_CLIENT_KEY_EXCHANGE"];
	s11 -> s2 [label="I_PSK_CLIENT_HELLO"];
	s11 -> s2 [label="I_PSK_CLIENT_KEY_EXCHANGE"];
	s11 -> s2 [label="I_RSA_CLIENT_HELLO"];
	s11 -> s2 [label="I_RSA_CLIENT_KEY_EXCHANGE"];
	s11 -> s2 [label="I_CHANGE_CIPHER_SPEC"];
	s11 -> s2 [label="I_FINISHED"];
	s11 -> s2 [label="I_APPLICATION"];
	s11 -> s2 [label="I_CERTIFICATE"];
	s11 -> s2 [label="I_EMPTY_CERTIFICATE"];
	s11 -> s2 [label="I_CERTIFICATE_VERIFY"];
	s11 -> s2 [label="I_Alert(WARNING,CLOSE_NOTIFY)"];
	s11 -> s2 [label="I_Alert(FATAL,UNEXPECTED_MESSAGE)"];
	s11 -> s12 [label="O_HELLO_VERIFY_REQUEST"];
	s11 -> s2 [label="O_SERVER_HELLO"];
	s11 -> s2 [label="O_RSA_CERTIFICATE"];
	s11 -> s2 [label="O_CERTIFICATE_REQUEST"];
	s11 -> s2 [label="O_SERVER_HELLO_DONE"];
	s11 -> s2 [label="O_DHE_SERVER_KEY_EXCHANGE"];
	s11 -> s2 [label="O_ECDHE_SERVER_KEY_EXCHANGE"];
	s11 -> s2 [label="O_CHANGE_CIPHER_SPEC"];
	s11 -> s2 [label="O_FINISHED"];
	s11 -> s2 [label="O_APPLICATION"];
	s12 -> s13 [label="I_ECDH_CLIENT_HELLO"];
	s12 -> s11 [label="I_ECDH_CLIENT_KEY_EXCHANGE"];
	s12 -> s34 [label="I_DH_CLIENT_HELLO"];
	s12 -> s11 [label="I_DH_CLIENT_KEY_EXCHANGE"];
	s12 -> s47 [label="I_PSK_CLIENT_HELLO"];
	s12 -> s11 [label="I_PSK_CLIENT_KEY_EXCHANGE"];
	s12 -> s53 [label="I_RSA_CLIENT_HELLO"];
	s12 -> s11 [label="I_RSA_CLIENT_KEY_EXCHANGE"];
	s12 -> s27 [label="I_CHANGE_CIPHER_SPEC"];
	s12 -> s11 [label="I_FINISHED"];
	s12 -> s11 [label="I_APPLICATION"];
	s12 -> s11 [label="I_CERTIFICATE"];
	s12 -> s11 [label="I_EMPTY_CERTIFICATE"];
	s12 -> s11 [label="I_CERTIFICATE_VERIFY"];
	s12 -> s11 [label="I_Alert(WARNING,CLOSE_NOTIFY)"];
	s12 -> s11 [label="I_Alert(FATAL,UNEXPECTED_MESSAGE)"];
	s12 -> s2 [label="O_HELLO_VERIFY_REQUEST"];
	s12 -> s2 [label="O_SERVER_HELLO"];
	s12 -> s2 [label="O_RSA_CERTIFICATE"];
	s12 -> s2 [label="O_CERTIFICATE_REQUEST"];
	s12 -> s2 [label="O_SERVER_HELLO_DONE"];
	s12 -> s2 [label="O_DHE_SERVER_KEY_EXCHANGE"];
	s12 -> s2 [label="O_ECDHE_SERVER_KEY_EXCHANGE"];
	s12 -> s2 [label="O_CHANGE_CIPHER_SPEC"];
	s12 -> s2 [label="O_FINISHED"];
	s12 -> s2 [label="O_APPLICATION"];
	s13 -> s2 [label="I_ECDH_CLIENT_HELLO"];
	s13 -> s2 [label="I_ECDH_CLIENT_KEY_EXCHANGE"];
	s13 -> s2 [label="I_DH_CLIENT_HELLO"];
	s13 -> s2 [label="I_DH_CLIENT_KEY_EXCHANGE"];
	s13 -> s2 [label="I_PSK_CLIENT_HELLO"];
	s13 -> s2 [label="I_PSK_CLIENT_KEY_EXCHANGE"];
	s13 -> s2 [label="I_RSA_CLIENT_HELLO"];
	s13 -> s2 [label="I_RSA_CLIENT_KEY_EXCHANGE"];
	s13 -> s2 [label="I_CHANGE_CIPHER_SPEC"];
	s13 -> s2 [label="I_FINISHED"];
	s13 -> s2 [label="I_APPLICATION"];
	s13 -> s2 [label="I_CERTIFICATE"];
	s13 -> s2 [label="I_EMPTY_CERTIFICATE"];
	s13 -> s2 [label="I_CERTIFICATE_VERIFY"];
	s13 -> s2 [label="I_Alert(WARNING,CLOSE_NOTIFY)"];
	s13 -> s2 [label="I_Alert(FATAL,UNEXPECTED_MESSAGE)"];
	s13 -> s2 [label="O_HELLO_VERIFY_REQUEST"];
	s13 -> s14 [label="O_SERVER_HELLO"];
	s13 -> s2 [label="O_RSA_CERTIFICATE"];
	s13 -> s2 [label="O_CERTIFICATE_REQUEST"];
	s13 -> s2 [label="O_SERVER_HELLO_DONE"];
	s13 -> s2 [label="O_DHE_SERVER_KEY_EXCHANGE"];
	s13 -> s2 [label="O_ECDHE_SERVER_KEY_EXCHANGE"];
	s13 -> s2 [label="O_CHANGE_CIPHER_SPEC"];
	s13 -> s2 [label="O_FINISHED"];
	s13 -> s2 [label="O_APPLICATION"];
	s14 -> s2 [label="I_ECDH_CLIENT_HELLO"];
	s14 -> s2 [label="I_ECDH_CLIENT_KEY_EXCHANGE"];
	s14 -> s2 [label="I_DH_CLIENT_HELLO"];
	s14 -> s2 [label="I_DH_CLIENT_KEY_EXCHANGE"];
	s14 -> s2 [label="I_PSK_CLIENT_HELLO"];
	s14 -> s2 [label="I_PSK_CLIENT_KEY_EXCHANGE"];
	s14 -> s2 [label="I_RSA_CLIENT_HELLO"];
	s14 -> s2 [label="I_RSA_CLIENT_KEY_EXCHANGE"];
	s14 -> s2 [label="I_CHANGE_CIPHER_SPEC"];
	s14 -> s2 [label="I_FINISHED"];
	s14 -> s2 [label="I_APPLICATION"];
	s14 -> s2 [label="I_CERTIFICATE"];
	s14 -> s2 [label="I_EMPTY_CERTIFICATE"];
	s14 -> s2 [label="I_CERTIFICATE_VERIFY"];
	s14 -> s2 [label="I_Alert(WARNING,CLOSE_NOTIFY)"];
	s14 -> s2 [label="I_Alert(FATAL,UNEXPECTED_MESSAGE)"];
	s14 -> s2 [label="O_HELLO_VERIFY_REQUEST"];
	s14 -> s2 [label="O_SERVER_HELLO"];
	s14 -> s15 [label="O_RSA_CERTIFICATE"];
	s14 -> s2 [label="O_CERTIFICATE_REQUEST"];
	s14 -> s2 [label="O_SERVER_HELLO_DONE"];
	s14 -> s2 [label="O_DHE_SERVER_KEY_EXCHANGE"];
	s14 -> s2 [label="O_ECDHE_SERVER_KEY_EXCHANGE"];
	s14 -> s2 [label="O_CHANGE_CIPHER_SPEC"];
	s14 -> s2 [label="O_FINISHED"];
	s14 -> s2 [label="O_APPLICATION"];
	s15 -> s2 [label="I_ECDH_CLIENT_HELLO"];
	s15 -> s2 [label="I_ECDH_CLIENT_KEY_EXCHANGE"];
	s15 -> s2 [label="I_DH_CLIENT_HELLO"];
	s15 -> s2 [label="I_DH_CLIENT_KEY_EXCHANGE"];
	s15 -> s2 [label="I_PSK_CLIENT_HELLO"];
	s15 -> s2 [label="I_PSK_CLIENT_KEY_EXCHANGE"];
	s15 -> s2 [label="I_RSA_CLIENT_HELLO"];
	s15 -> s2 [label="I_RSA_CLIENT_KEY_EXCHANGE"];
	s15 -> s2 [label="I_CHANGE_CIPHER_SPEC"];
	s15 -> s2 [label="I_FINISHED"];
	s15 -> s2 [label="I_APPLICATION"];
	s15 -> s2 [label="I_CERTIFICATE"];
	s15 -> s2 [label="I_EMPTY_CERTIFICATE"];
	s15 -> s2 [label="I_CERTIFICATE_VERIFY"];
	s15 -> s2 [label="I_Alert(WARNING,CLOSE_NOTIFY)"];
	s15 -> s2 [label="I_Alert(FATAL,UNEXPECTED_MESSAGE)"];
	s15 -> s2 [label="O_HELLO_VERIFY_REQUEST"];
	s15 -> s2 [label="O_SERVER_HELLO"];
	s15 -> s2 [label="O_RSA_CERTIFICATE"];
	s15 -> s2 [label="O_CERTIFICATE_REQUEST"];
	s15 -> s2 [label="O_SERVER_HELLO_DONE"];
	s15 -> s2 [label="O_DHE_SERVER_KEY_EXCHANGE"];
	s15 -> s16 [label="O_ECDHE_SERVER_KEY_EXCHANGE"];
	s15 -> s2 [label="O_CHANGE_CIPHER_SPEC"];
	s15 -> s2 [label="O_FINISHED"];
	s15 -> s2 [label="O_APPLICATION"];
	s16 -> s2 [label="I_ECDH_CLIENT_HELLO"];
	s16 -> s2 [label="I_ECDH_CLIENT_KEY_EXCHANGE"];
	s16 -> s2 [label="I_DH_CLIENT_HELLO"];
	s16 -> s2 [label="I_DH_CLIENT_KEY_EXCHANGE"];
	s16 -> s2 [label="I_PSK_CLIENT_HELLO"];
	s16 -> s2 [label="I_PSK_CLIENT_KEY_EXCHANGE"];
	s16 -> s2 [label="I_RSA_CLIENT_HELLO"];
	s16 -> s2 [label="I_RSA_CLIENT_KEY_EXCHANGE"];
	s16 -> s2 [label="I_CHANGE_CIPHER_SPEC"];
	s16 -> s2 [label="I_FINISHED"];
	s16 -> s2 [label="I_APPLICATION"];
	s16 -> s2 [label="I_CERTIFICATE"];
	s16 -> s2 [label="I_EMPTY_CERTIFICATE"];
	s16 -> s2 [label="I_CERTIFICATE_VERIFY"];
	s16 -> s2 [label="I_Alert(WARNING,CLOSE_NOTIFY)"];
	s16 -> s2 [label="I_Alert(FATAL,UNEXPECTED_MESSAGE)"];
	s16 -> s2 [label="O_HELLO_VERIFY_REQUEST"];
	s16 -> s2 [label="O_SERVER_HELLO"];
	s16 -> s2 [label="O_RSA_CERTIFICATE"];
	s16 -> s17 [label="O_CERTIFICATE_REQUEST"];
	s16 -> s2 [label="O_SERVER_HELLO_DONE"];
	s16 -> s2 [label="O_DHE_SERVER_KEY_EXCHANGE"];
	s16 -> s2 [label="O_ECDHE_SERVER_KEY_EXCHANGE"];
	s16 -> s2 [label="O_CHANGE_CIPHER_SPEC"];
	s16 -> s2 [label="O_FINISHED"];
	s16 -> s2 [label="O_APPLICATION"];
	s17 -> s2 [label="I_ECDH_CLIENT_HELLO"];
	s17 -> s2 [label="I_ECDH_CLIENT_KEY_EXCHANGE"];
	s17 -> s2 [label="I_DH_CLIENT_HELLO"];
	s17 -> s2 [label="I_DH_CLIENT_KEY_EXCHANGE"];
	s17 -> s2 [label="I_PSK_CLIENT_HELLO"];
	s17 -> s2 [label="I_PSK_CLIENT_KEY_EXCHANGE"];
	s17 -> s2 [label="I_RSA_CLIENT_HELLO"];
	s17 -> s2 [label="I_RSA_CLIENT_KEY_EXCHANGE"];
	s17 -> s2 [label="I_CHANGE_CIPHER_SPEC"];
	s17 -> s2 [label="I_FINISHED"];
	s17 -> s2 [label="I_APPLICATION"];
	s17 -> s2 [label="I_CERTIFICATE"];
	s17 -> s2 [label="I_EMPTY_CERTIFICATE"];
	s17 -> s2 [label="I_CERTIFICATE_VERIFY"];
	s17 -> s2 [label="I_Alert(WARNING,CLOSE_NOTIFY)"];
	s17 -> s2 [label="I_Alert(FATAL,UNEXPECTED_MESSAGE)"];
	s17 -> s2 [label="O_HELLO_VERIFY_REQUEST"];
	s17 -> s2 [label="O_SERVER_HELLO"];
	s17 -> s2 [label="O_RSA_CERTIFICATE"];
	s17 -> s2 [label="O_CERTIFICATE_REQUEST"];
	s17 -> s18 [label="O_SERVER_HELLO_DONE"];
	s17 -> s2 [label="O_DHE_SERVER_KEY_EXCHANGE"];
	s17 -> s2 [label="O_ECDHE_SERVER_KEY_EXCHANGE"];
	s17 -> s2 [label="O_CHANGE_CIPHER_SPEC"];
	s17 -> s2 [label="O_FINISHED"];
	s17 -> s2 [label="O_APPLICATION"];
	s18 -> s12 [label="I_ECDH_CLIENT_HELLO"];
	s18 -> s12 [label="I_ECDH_CLIENT_KEY_EXCHANGE"];
	s18 -> s12 [label="I_DH_CLIENT_HELLO"];
	s18 -> s12 [label="I_DH_CLIENT_KEY_EXCHANGE"];
	s18 -> s12 [label="I_PSK_CLIENT_HELLO"];
	s18 -> s12 [label="I_PSK_CLIENT_KEY_EXCHANGE"];
	s18 -> s12 [label="I_RSA_CLIENT_HELLO"];
	s18 -> s12 [label="I_RSA_CLIENT_KEY_EXCHANGE"];
	s18 -> s19 [label="I_CHANGE_CIPHER_SPEC"];
	s18 -> s12 [label="I_FINISHED"];
	s18 -> s18 [label="I_APPLICATION"];
	s18 -> s20 [label="I_CERTIFICATE"];
	s18 -> s12 [label="I_EMPTY_CERTIFICATE"];
	s18 -> s12 [label="I_CERTIFICATE_VERIFY"];
	s18 -> s12 [label="I_Alert(WARNING,CLOSE_NOTIFY)"];
	s18 -> s12 [label="I_Alert(FATAL,UNEXPECTED_MESSAGE)"];
	s18 -> s2 [label="O_HELLO_VERIFY_REQUEST"];
	s18 -> s2 [label="O_SERVER_HELLO"];
	s18 -> s2 [label="O_RSA_CERTIFICATE"];
	s18 -> s2 [label="O_CERTIFICATE_REQUEST"];
	s18 -> s2 [label="O_SERVER_HELLO_DONE"];
	s18 -> s2 [label="O_DHE_SERVER_KEY_EXCHANGE"];
	s18 -> s2 [label="O_ECDHE_SERVER_KEY_EXCHANGE"];
	s18 -> s2 [label="O_CHANGE_CIPHER_SPEC"];
	s18 -> s2 [label="O_FINISHED"];
	s18 -> s2 [label="O_APPLICATION"];
	s19 -> s19 [label="I_ECDH_CLIENT_HELLO"];
	s19 -> s19 [label="I_ECDH_CLIENT_KEY_EXCHANGE"];
	s19 -> s19 [label="I_DH_CLIENT_HELLO"];
	s19 -> s19 [label="I_DH_CLIENT_KEY_EXCHANGE"];
	s19 -> s19 [label="I_PSK_CLIENT_HELLO"];
	s19 -> s19 [label="I_PSK_CLIENT_KEY_EXCHANGE"];
	s19 -> s19 [label="I_RSA_CLIENT_HELLO"];
	s19 -> s19 [label="I_RSA_CLIENT_KEY_EXCHANGE"];
	s19 -> s19 [label="I_CHANGE_CIPHER_SPEC"];
	s19 -> s19 [label="I_FINISHED"];
	s19 -> s19 [label="I_APPLICATION"];
	s19 -> s19 [label="I_CERTIFICATE"];
	s19 -> s19 [label="I_EMPTY_CERTIFICATE"];
	s19 -> s19 [label="I_CERTIFICATE_VERIFY"];
	s19 -> s19 [label="I_Alert(WARNING,CLOSE_NOTIFY)"];
	s19 -> s19 [label="I_Alert(FATAL,UNEXPECTED_MESSAGE)"];
	s19 -> s2 [label="O_HELLO_VERIFY_REQUEST"];
	s19 -> s2 [label="O_SERVER_HELLO"];
	s19 -> s2 [label="O_RSA_CERTIFICATE"];
	s19 -> s2 [label="O_CERTIFICATE_REQUEST"];
	s19 -> s2 [label="O_SERVER_HELLO_DONE"];
	s19 -> s2 [label="O_DHE_SERVER_KEY_EXCHANGE"];
	s19 -> s2 [label="O_ECDHE_SERVER_KEY_EXCHANGE"];
	s19 -> s2 [label="O_CHANGE_CIPHER_SPEC"];
	s19 -> s2 [label="O_FINISHED"];
	s19 -> s2 [label="O_APPLICATION"];
	s20 -> s12 [label="I_ECDH_CLIENT_HELLO"];
	s20 -> s21 [label="I_ECDH_CLIENT_KEY_EXCHANGE"];
	s20 -> s12 [label="I_DH_CLIENT_HELLO"];
	s20 -> s12 [label="I_DH_CLIENT_KEY_EXCHANGE"];
	s20 -> s12 [label="I_PSK_CLIENT_HELLO"];
	s20 -> s12 [label="I_PSK_CLIENT_KEY_EXCHANGE"];
	s20 -> s12 [label="I_RSA_CLIENT_HELLO"];
	s20 -> s12 [label="I_RSA_CLIENT_KEY_EXCHANGE"];
	s20 -> s19 [label="I_CHANGE_CIPHER_SPEC"];
	s20 -> s12 [label="I_FINISHED"];
	s20 -> s20 [label="I_APPLICATION"];
	s20 -> s12 [label="I_CERTIFICATE"];
	s20 -> s12 [label="I_EMPTY_CERTIFICATE"];
	s20 -> s12 [label="I_CERTIFICATE_VERIFY"];
	s20 -> s12 [label="I_Alert(WARNING,CLOSE_NOTIFY)"];
	s20 -> s12 [label="I_Alert(FATAL,UNEXPECTED_MESSAGE)"];
	s20 -> s2 [label="O_HELLO_VERIFY_REQUEST"];
	s20 -> s2 [label="O_SERVER_HELLO"];
	s20 -> s2 [label="O_RSA_CERTIFICATE"];
	s20 -> s2 [label="O_CERTIFICATE_REQUEST"];
	s20 -> s2 [label="O_SERVER_HELLO_DONE"];
	s20 -> s2 [label="O_DHE_SERVER_KEY_EXCHANGE"];
	s20 -> s2 [label="O_ECDHE_SERVER_KEY_EXCHANGE"];
	s20 -> s2 [label="O_CHANGE_CIPHER_SPEC"];
	s20 -> s2 [label="O_FINISHED"];
	s20 -> s2 [label="O_APPLICATION"];
	s21 -> s12 [label="I_ECDH_CLIENT_HELLO"];
	s21 -> s12 [label="I_ECDH_CLIENT_KEY_EXCHANGE"];
	s21 -> s12 [label="I_DH_CLIENT_HELLO"];
	s21 -> s12 [label="I_DH_CLIENT_KEY_EXCHANGE"];
	s21 -> s12 [label="I_PSK_CLIENT_HELLO"];
	s21 -> s12 [label="I_PSK_CLIENT_KEY_EXCHANGE"];
	s21 -> s12 [label="I_RSA_CLIENT_HELLO"];
	s21 -> s12 [label="I_RSA_CLIENT_KEY_EXCHANGE"];
	s21 -> s19 [label="I_CHANGE_CIPHER_SPEC"];
	s21 -> s12 [label="I_FINISHED"];
	s21 -> s21 [label="I_APPLICATION"];
	s21 -> s12 [label="I_CERTIFICATE"];
	s21 -> s12 [label="I_EMPTY_CERTIFICATE"];
	s21 -> s22 [label="I_CERTIFICATE_VERIFY"];
	s21 -> s12 [label="I_Alert(WARNING,CLOSE_NOTIFY)"];
	s21 -> s12 [label="I_Alert(FATAL,UNEXPECTED_MESSAGE)"];
	s21 -> s2 [label="O_HELLO_VERIFY_REQUEST"];
	s21 -> s2 [label="O_SERVER_HELLO"];
	s21 -> s2 [label="O_RSA_CERTIFICATE"];
	s21 -> s2 [label="O_CERTIFICATE_REQUEST"];
	s21 -> s2 [label="O_SERVER_HELLO_DONE"];
	s21 -> s2 [label="O_DHE_SERVER_KEY_EXCHANGE"];
	s21 -> s2 [label="O_ECDHE_SERVER_KEY_EXCHANGE"];
	s21 -> s2 [label="O_CHANGE_CIPHER_SPEC"];
	s21 -> s2 [label="O_FINISHED"];
	s21 -> s2 [label="O_APPLICATION"];
	s22 -> s23 [label="I_ECDH_CLIENT_HELLO"];
	s22 -> s23 [label="I_ECDH_CLIENT_KEY_EXCHANGE"];
	s22 -> s23 [label="I_DH_CLIENT_HELLO"];
	s22 -> s24 [label="I_DH_CLIENT_KEY_EXCHANGE"];
	s22 -> s23 [label="I_PSK_CLIENT_HELLO"];
	s22 -> s24 [label="I_PSK_CLIENT_KEY_EXCHANGE"];
	s22 -> s23 [label="I_RSA_CLIENT_HELLO"];
	s22 -> s24 [label="I_RSA_CLIENT_KEY_EXCHANGE"];
	s22 -> s28 [label="I_CHANGE_CIPHER_SPEC"];
	s22 -> s23 [label="I_FINISHED"];
	s22 -> s22 [label="I_APPLICATION"];
	s22 -> s23 [label="I_CERTIFICATE"];
	s22 -> s23 [label="I_EMPTY_CERTIFICATE"];
	s22 -> s23 [label="I_CERTIFICATE_VERIFY"];
	s22 -> s12 [label="I_Alert(WARNING,CLOSE_NOTIFY)"];
	s22 -> s12 [label="I_Alert(FATAL,UNEXPECTED_MESSAGE)"];
	s22 -> s2 [label="O_HELLO_VERIFY_REQUEST"];
	s22 -> s2 [label="O_SERVER_HELLO"];
	s22 -> s2 [label="O_RSA_CERTIFICATE"];
	s22 -> s2 [label="O_CERTIFICATE_REQUEST"];
	s22 -> s2 [label="O_SERVER_HELLO_DONE"];
	s22 -> s2 [label="O_DHE_SERVER_KEY_EXCHANGE"];
	s22 -> s2 [label="O_ECDHE_SERVER_KEY_EXCHANGE"];
	s22 -> s2 [label="O_CHANGE_CIPHER_SPEC"];
	s22 -> s2 [label="O_FINISHED"];
	s22 -> s2 [label="O_APPLICATION"];
	s23 -> s23 [label="I_ECDH_CLIENT_HELLO"];
	s23 -> s23 [label="I_ECDH_CLIENT_KEY_EXCHANGE"];
	s23 -> s23 [label="I_DH_CLIENT_HELLO"];
	s23 -> s24 [label="I_DH_CLIENT_KEY_EXCHANGE"];
	s23 -> s23 [label="I_PSK_CLIENT_HELLO"];
	s23 -> s24 [label="I_PSK_CLIENT_KEY_EXCHANGE"];
	s23 -> s23 [label="I_RSA_CLIENT_HELLO"];
	s23 -> s24 [label="I_RSA_CLIENT_KEY_EXCHANGE"];
	s23 -> s25 [label="I_CHANGE_CIPHER_SPEC"];
	s23 -> s23 [label="I_FINISHED"];
	s23 -> s23 [label="I_APPLICATION"];
	s23 -> s23 [label="I_CERTIFICATE"];
	s23 -> s23 [label="I_EMPTY_CERTIFICATE"];
	s23 -> s23 [label="I_CERTIFICATE_VERIFY"];
	s23 -> s12 [label="I_Alert(WARNING,CLOSE_NOTIFY)"];
	s23 -> s12 [label="I_Alert(FATAL,UNEXPECTED_MESSAGE)"];
	s23 -> s2 [label="O_HELLO_VERIFY_REQUEST"];
	s23 -> s2 [label="O_SERVER_HELLO"];
	s23 -> s2 [label="O_RSA_CERTIFICATE"];
	s23 -> s2 [label="O_CERTIFICATE_REQUEST"];
	s23 -> s2 [label="O_SERVER_HELLO_DONE"];
	s23 -> s2 [label="O_DHE_SERVER_KEY_EXCHANGE"];
	s23 -> s2 [label="O_ECDHE_SERVER_KEY_EXCHANGE"];
	s23 -> s2 [label="O_CHANGE_CIPHER_SPEC"];
	s23 -> s2 [label="O_FINISHED"];
	s23 -> s2 [label="O_APPLICATION"];
	s24 -> s24 [label="I_ECDH_CLIENT_HELLO"];
	s24 -> s23 [label="I_ECDH_CLIENT_KEY_EXCHANGE"];
	s24 -> s24 [label="I_DH_CLIENT_HELLO"];
	s24 -> s24 [label="I_DH_CLIENT_KEY_EXCHANGE"];
	s24 -> s24 [label="I_PSK_CLIENT_HELLO"];
	s24 -> s24 [label="I_PSK_CLIENT_KEY_EXCHANGE"];
	s24 -> s24 [label="I_RSA_CLIENT_HELLO"];
	s24 -> s24 [label="I_RSA_CLIENT_KEY_EXCHANGE"];
	s24 -> s19 [label="I_CHANGE_CIPHER_SPEC"];
	s24 -> s24 [label="I_FINISHED"];
	s24 -> s24 [label="I_APPLICATION"];
	s24 -> s24 [label="I_CERTIFICATE"];
	s24 -> s24 [label="I_EMPTY_CERTIFICATE"];
	s24 -> s24 [label="I_CERTIFICATE_VERIFY"];
	s24 -> s12 [label="I_Alert(WARNING,CLOSE_NOTIFY)"];
	s24 -> s12 [label="I_Alert(FATAL,UNEXPECTED_MESSAGE)"];
	s24 -> s2 [label="O_HELLO_VERIFY_REQUEST"];
	s24 -> s2 [label="O_SERVER_HELLO"];
	s24 -> s2 [label="O_RSA_CERTIFICATE"];
	s24 -> s2 [label="O_CERTIFICATE_REQUEST"];
	s24 -> s2 [label="O_SERVER_HELLO_DONE"];
	s24 -> s2 [label="O_DHE_SERVER_KEY_EXCHANGE"];
	s24 -> s2 [label="O_ECDHE_SERVER_KEY_EXCHANGE"];
	s24 -> s2 [label="O_CHANGE_CIPHER_SPEC"];
	s24 -> s2 [label="O_FINISHED"];
	s24 -> s2 [label="O_APPLICATION"];
	s25 -> s25 [label="I_ECDH_CLIENT_HELLO"];
	s25 -> s25 [label="I_ECDH_CLIENT_KEY_EXCHANGE"];
	s25 -> s25 [label="I_DH_CLIENT_HELLO"];
	s25 -> s25 [label="I_DH_CLIENT_KEY_EXCHANGE"];
	s25 -> s25 [label="I_PSK_CLIENT_HELLO"];
	s25 -> s25 [label="I_PSK_CLIENT_KEY_EXCHANGE"];
	s25 -> s25 [label="I_RSA_CLIENT_HELLO"];
	s25 -> s25 [label="I_RSA_CLIENT_KEY_EXCHANGE"];
	s25 -> s19 [label="I_CHANGE_CIPHER_SPEC"];
	s25 -> s25 [label="I_FINISHED"];
	s25 -> s25 [label="I_APPLICATION"];
	s25 -> s25 [label="I_CERTIFICATE"];
	s25 -> s25 [label="I_EMPTY_CERTIFICATE"];
	s25 -> s25 [label="I_CERTIFICATE_VERIFY"];
	s25 -> s26 [label="I_Alert(WARNING,CLOSE_NOTIFY)"];
	s25 -> s26 [label="I_Alert(FATAL,UNEXPECTED_MESSAGE)"];
	s25 -> s2 [label="O_HELLO_VERIFY_REQUEST"];
	s25 -> s2 [label="O_SERVER_HELLO"];
	s25 -> s2 [label="O_RSA_CERTIFICATE"];
	s25 -> s2 [label="O_CERTIFICATE_REQUEST"];
	s25 -> s2 [label="O_SERVER_HELLO_DONE"];
	s25 -> s2 [label="O_DHE_SERVER_KEY_EXCHANGE"];
	s25 -> s2 [label="O_ECDHE_SERVER_KEY_EXCHANGE"];
	s25 -> s2 [label="O_CHANGE_CIPHER_SPEC"];
	s25 -> s2 [label="O_FINISHED"];
	s25 -> s2 [label="O_APPLICATION"];
	s26 -> s27 [label="I_ECDH_CLIENT_HELLO"];
	s26 -> s27 [label="I_ECDH_CLIENT_KEY_EXCHANGE"];
	s26 -> s27 [label="I_DH_CLIENT_HELLO"];
	s26 -> s27 [label="I_DH_CLIENT_KEY_EXCHANGE"];
	s26 -> s27 [label="I_PSK_CLIENT_HELLO"];
	s26 -> s27 [label="I_PSK_CLIENT_KEY_EXCHANGE"];
	s26 -> s27 [label="I_RSA_CLIENT_HELLO"];
	s26 -> s27 [label="I_RSA_CLIENT_KEY_EXCHANGE"];
	s26 -> s27 [label="I_CHANGE_CIPHER_SPEC"];
	s26 -> s27 [label="I_FINISHED"];
	s26 -> s27 [label="I_APPLICATION"];
	s26 -> s27 [label="I_CERTIFICATE"];
	s26 -> s27 [label="I_EMPTY_CERTIFICATE"];
	s26 -> s27 [label="I_CERTIFICATE_VERIFY"];
	s26 -> s27 [label="I_Alert(WARNING,CLOSE_NOTIFY)"];
	s26 -> s27 [label="I_Alert(FATAL,UNEXPECTED_MESSAGE)"];
	s26 -> s2 [label="O_HELLO_VERIFY_REQUEST"];
	s26 -> s2 [label="O_SERVER_HELLO"];
	s26 -> s2 [label="O_RSA_CERTIFICATE"];
	s26 -> s2 [label="O_CERTIFICATE_REQUEST"];
	s26 -> s2 [label="O_SERVER_HELLO_DONE"];
	s26 -> s2 [label="O_DHE_SERVER_KEY_EXCHANGE"];
	s26 -> s2 [label="O_ECDHE_SERVER_KEY_EXCHANGE"];
	s26 -> s2 [label="O_CHANGE_CIPHER_SPEC"];
	s26 -> s2 [label="O_FINISHED"];
	s26 -> s2 [label="O_APPLICATION"];
	s27 -> s2 [label="I_ECDH_CLIENT_HELLO"];
	s27 -> s2 [label="I_ECDH_CLIENT_KEY_EXCHANGE"];
	s27 -> s2 [label="I_DH_CLIENT_HELLO"];
	s27 -> s2 [label="I_DH_CLIENT_KEY_EXCHANGE"];
	s27 -> s2 [label="I_PSK_CLIENT_HELLO"];
	s27 -> s2 [label="I_PSK_CLIENT_KEY_EXCHANGE"];
	s27 -> s2 [label="I_RSA_CLIENT_HELLO"];
	s27 -> s2 [label="I_RSA_CLIENT_KEY_EXCHANGE"];
	s27 -> s2 [label="I_CHANGE_CIPHER_SPEC"];
	s27 -> s2 [label="I_FINISHED"];
	s27 -> s2 [label="I_APPLICATION"];
	s27 -> s2 [label="I_CERTIFICATE"];
	s27 -> s2 [label="I_EMPTY_CERTIFICATE"];
	s27 -> s2 [label="I_CERTIFICATE_VERIFY"];
	s27 -> s2 [label="I_Alert(WARNING,CLOSE_NOTIFY)"];
	s27 -> s2 [label="I_Alert(FATAL,UNEXPECTED_MESSAGE)"];
	s27 -> s26 [label="O_HELLO_VERIFY_REQUEST"];
	s27 -> s2 [label="O_SERVER_HELLO"];
	s27 -> s2 [label="O_RSA_CERTIFICATE"];
	s27 -> s2 [label="O_CERTIFICATE_REQUEST"];
	s27 -> s2 [label="O_SERVER_HELLO_DONE"];
	s27 -> s2 [label="O_DHE_SERVER_KEY_EXCHANGE"];
	s27 -> s2 [label="O_ECDHE_SERVER_KEY_EXCHANGE"];
	s27 -> s2 [label="O_CHANGE_CIPHER_SPEC"];
	s27 -> s2 [label="O_FINISHED"];
	s27 -> s2 [label="O_APPLICATION"];
	s28 -> s26 [label="I_ECDH_CLIENT_HELLO"];
	s28 -> s26 [label="I_ECDH_CLIENT_KEY_EXCHANGE"];
	s28 -> s26 [label="I_DH_CLIENT_HELLO"];
	s28 -> s26 [label="I_DH_CLIENT_KEY_EXCHANGE"];
	s28 -> s26 [label="I_PSK_CLIENT_HELLO"];
	s28 -> s26 [label="I_PSK_CLIENT_KEY_EXCHANGE"];
	s28 -> s26 [label="I_RSA_CLIENT_HELLO"];
	s28 -> s26 [label="I_RSA_CLIENT_KEY_EXCHANGE"];
	s28 -> s19 [label="I_CHANGE_CIPHER_SPEC"];
	s28 -> s29 [label="I_FINISHED"];
	s28 -> s28 [label="I_APPLICATION"];
	s28 -> s26 [label="I_CERTIFICATE"];
	s28 -> s26 [label="I_EMPTY_CERTIFICATE"];
	s28 -> s26 [label="I_CERTIFICATE_VERIFY"];
	s28 -> s26 [label="I_Alert(WARNING,CLOSE_NOTIFY)"];
	s28 -> s26 [label="I_Alert(FATAL,UNEXPECTED_MESSAGE)"];
	s28 -> s2 [label="O_HELLO_VERIFY_REQUEST"];
	s28 -> s2 [label="O_SERVER_HELLO"];
	s28 -> s2 [label="O_RSA_CERTIFICATE"];
	s28 -> s2 [label="O_CERTIFICATE_REQUEST"];
	s28 -> s2 [label="O_SERVER_HELLO_DONE"];
	s28 -> s2 [label="O_DHE_SERVER_KEY_EXCHANGE"];
	s28 -> s2 [label="O_ECDHE_SERVER_KEY_EXCHANGE"];
	s28 -> s2 [label="O_CHANGE_CIPHER_SPEC"];
	s28 -> s2 [label="O_FINISHED"];
	s28 -> s2 [label="O_APPLICATION"];
	s29 -> s2 [label="I_ECDH_CLIENT_HELLO"];
	s29 -> s2 [label="I_ECDH_CLIENT_KEY_EXCHANGE"];
	s29 -> s2 [label="I_DH_CLIENT_HELLO"];
	s29 -> s2 [label="I_DH_CLIENT_KEY_EXCHANGE"];
	s29 -> s2 [label="I_PSK_CLIENT_HELLO"];
	s29 -> s2 [label="I_PSK_CLIENT_KEY_EXCHANGE"];
	s29 -> s2 [label="I_RSA_CLIENT_HELLO"];
	s29 -> s2 [label="I_RSA_CLIENT_KEY_EXCHANGE"];
	s29 -> s2 [label="I_CHANGE_CIPHER_SPEC"];
	s29 -> s2 [label="I_FINISHED"];
	s29 -> s2 [label="I_APPLICATION"];
	s29 -> s2 [label="I_CERTIFICATE"];
	s29 -> s2 [label="I_EMPTY_CERTIFICATE"];
	s29 -> s2 [label="I_CERTIFICATE_VERIFY"];
	s29 -> s2 [label="I_Alert(WARNING,CLOSE_NOTIFY)"];
	s29 -> s2 [label="I_Alert(FATAL,UNEXPECTED_MESSAGE)"];
	s29 -> s2 [label="O_HELLO_VERIFY_REQUEST"];
	s29 -> s2 [label="O_SERVER_HELLO"];
	s29 -> s2 [label="O_RSA_CERTIFICATE"];
	s29 -> s2 [label="O_CERTIFICATE_REQUEST"];
	s29 -> s2 [label="O_SERVER_HELLO_DONE"];
	s29 -> s2 [label="O_DHE_SERVER_KEY_EXCHANGE"];
	s29 -> s2 [label="O_ECDHE_SERVER_KEY_EXCHANGE"];
	s29 -> s30 [label="O_CHANGE_CIPHER_SPEC"];
	s29 -> s2 [label="O_FINISHED"];
	s29 -> s2 [label="O_APPLICATION"];
	s30 -> s2 [label="I_ECDH_CLIENT_HELLO"];
	s30 -> s2 [label="I_ECDH_CLIENT_KEY_EXCHANGE"];
	s30 -> s2 [label="I_DH_CLIENT_HELLO"];
	s30 -> s2 [label="I_DH_CLIENT_KEY_EXCHANGE"];
	s30 -> s2 [label="I_PSK_CLIENT_HELLO"];
	s30 -> s2 [label="I_PSK_CLIENT_KEY_EXCHANGE"];
	s30 -> s2 [label="I_RSA_CLIENT_HELLO"];
	s30 -> s2 [label="I_RSA_CLIENT_KEY_EXCHANGE"];
	s30 -> s2 [label="I_CHANGE_CIPHER_SPEC"];
	s30 -> s2 [label="I_FINISHED"];
	s30 -> s2 [label="I_APPLICATION"];
	s30 -> s2 [label="I_CERTIFICATE"];
	s30 -> s2 [label="I_EMPTY_CERTIFICATE"];
	s30 -> s2 [label="I_CERTIFICATE_VERIFY"];
	s30 -> s2 [label="I_Alert(WARNING,CLOSE_NOTIFY)"];
	s30 -> s2 [label="I_Alert(FATAL,UNEXPECTED_MESSAGE)"];
	s30 -> s2 [label="O_HELLO_VERIFY_REQUEST"];
	s30 -> s2 [label="O_SERVER_HELLO"];
	s30 -> s2 [label="O_RSA_CERTIFICATE"];
	s30 -> s2 [label="O_CERTIFICATE_REQUEST"];
	s30 -> s2 [label="O_SERVER_HELLO_DONE"];
	s30 -> s2 [label="O_DHE_SERVER_KEY_EXCHANGE"];
	s30 -> s2 [label="O_ECDHE_SERVER_KEY_EXCHANGE"];
	s30 -> s2 [label="O_CHANGE_CIPHER_SPEC"];
	s30 -> s31 [label="O_FINISHED"];
	s30 -> s2 [label="O_APPLICATION"];
	s31 -> s32 [label="I_ECDH_CLIENT_HELLO"];
	s31 -> s31 [label="I_ECDH_CLIENT_KEY_EXCHANGE"];
	s31 -> s32 [label="I_DH_CLIENT_HELLO"];
	s31 -> s31 [label="I_DH_CLIENT_KEY_EXCHANGE"];
	s31 -> s32 [label="I_PSK_CLIENT_HELLO"];
	s31 -> s31 [label="I_PSK_CLIENT_KEY_EXCHANGE"];
	s31 -> s32 [label="I_RSA_CLIENT_HELLO"];
	s31 -> s31 [label="I_RSA_CLIENT_KEY_EXCHANGE"];
	s31 -> s19 [label="I_CHANGE_CIPHER_SPEC"];
	s31 -> s31 [label="I_FINISHED"];
	s31 -> s33 [label="I_APPLICATION"];
	s31 -> s31 [label="I_CERTIFICATE"];
	s31 -> s31 [label="I_EMPTY_CERTIFICATE"];
	s31 -> s31 [label="I_CERTIFICATE_VERIFY"];
	s31 -> s26 [label="I_Alert(WARNING,CLOSE_NOTIFY)"];
	s31 -> s26 [label="I_Alert(FATAL,UNEXPECTED_MESSAGE)"];
	s31 -> s2 [label="O_HELLO_VERIFY_REQUEST"];
	s31 -> s2 [label="O_SERVER_HELLO"];
	s31 -> s2 [label="O_RSA_CERTIFICATE"];
	s31 -> s2 [label="O_CERTIFICATE_REQUEST"];
	s31 -> s2 [label="O_SERVER_HELLO_DONE"];
	s31 -> s2 [label="O_DHE_SERVER_KEY_EXCHANGE"];
	s31 -> s2 [label="O_ECDHE_SERVER_KEY_EXCHANGE"];
	s31 -> s2 [label="O_CHANGE_CIPHER_SPEC"];
	s31 -> s2 [label="O_FINISHED"];
	s31 -> s2 [label="O_APPLICATION"];
	s32 -> s32 [label="I_ECDH_CLIENT_HELLO"];
	s32 -> s32 [label="I_ECDH_CLIENT_KEY_EXCHANGE"];
	s32 -> s32 [label="I_DH_CLIENT_HELLO"];
	s32 -> s32 [label="I_DH_CLIENT_KEY_EXCHANGE"];
	s32 -> s32 [label="I_PSK_CLIENT_HELLO"];
	s32 -> s32 [label="I_PSK_CLIENT_KEY_EXCHANGE"];
	s32 -> s32 [label="I_RSA_CLIENT_HELLO"];
	s32 -> s32 [label="I_RSA_CLIENT_KEY_EXCHANGE"];
	s32 -> s19 [label="I_CHANGE_CIPHER_SPEC"];
	s32 -> s32 [label="I_FINISHED"];
	s32 -> s26 [label="I_APPLICATION"];
	s32 -> s32 [label="I_CERTIFICATE"];
	s32 -> s32 [label="I_EMPTY_CERTIFICATE"];
	s32 -> s32 [label="I_CERTIFICATE_VERIFY"];
	s32 -> s26 [label="I_Alert(WARNING,CLOSE_NOTIFY)"];
	s32 -> s26 [label="I_Alert(FATAL,UNEXPECTED_MESSAGE)"];
	s32 -> s2 [label="O_HELLO_VERIFY_REQUEST"];
	s32 -> s2 [label="O_SERVER_HELLO"];
	s32 -> s2 [label="O_RSA_CERTIFICATE"];
	s32 -> s2 [label="O_CERTIFICATE_REQUEST"];
	s32 -> s2 [label="O_SERVER_HELLO_DONE"];
	s32 -> s2 [label="O_DHE_SERVER_KEY_EXCHANGE"];
	s32 -> s2 [label="O_ECDHE_SERVER_KEY_EXCHANGE"];
	s32 -> s2 [label="O_CHANGE_CIPHER_SPEC"];
	s32 -> s2 [label="O_FINISHED"];
	s32 -> s2 [label="O_APPLICATION"];
	s33 -> s2 [label="I_ECDH_CLIENT_HELLO"];
	s33 -> s2 [label="I_ECDH_CLIENT_KEY_EXCHANGE"];
	s33 -> s2 [label="I_DH_CLIENT_HELLO"];
	s33 -> s2 [label="I_DH_CLIENT_KEY_EXCHANGE"];
	s33 -> s2 [label="I_PSK_CLIENT_HELLO"];
	s33 -> s2 [label="I_PSK_CLIENT_KEY_EXCHANGE"];
	s33 -> s2 [label="I_RSA_CLIENT_HELLO"];
	s33 -> s2 [label="I_RSA_CLIENT_KEY_EXCHANGE"];
	s33 -> s2 [label="I_CHANGE_CIPHER_SPEC"];
	s33 -> s2 [label="I_FINISHED"];
	s33 -> s2 [label="I_APPLICATION"];
	s33 -> s2 [label="I_CERTIFICATE"];
	s33 -> s2 [label="I_EMPTY_CERTIFICATE"];
	s33 -> s2 [label="I_CERTIFICATE_VERIFY"];
	s33 -> s2 [label="I_Alert(WARNING,CLOSE_NOTIFY)"];
	s33 -> s2 [label="I_Alert(FATAL,UNEXPECTED_MESSAGE)"];
	s33 -> s2 [label="O_HELLO_VERIFY_REQUEST"];
	s33 -> s2 [label="O_SERVER_HELLO"];
	s33 -> s2 [label="O_RSA_CERTIFICATE"];
	s33 -> s2 [label="O_CERTIFICATE_REQUEST"];
	s33 -> s2 [label="O_SERVER_HELLO_DONE"];
	s33 -> s2 [label="O_DHE_SERVER_KEY_EXCHANGE"];
	s33 -> s2 [label="O_ECDHE_SERVER_KEY_EXCHANGE"];
	s33 -> s2 [label="O_CHANGE_CIPHER_SPEC"];
	s33 -> s2 [label="O_FINISHED"];
	s33 -> s31 [label="O_APPLICATION"];
	s34 -> s2 [label="I_ECDH_CLIENT_HELLO"];
	s34 -> s2 [label="I_ECDH_CLIENT_KEY_EXCHANGE"];
	s34 -> s2 [label="I_DH_CLIENT_HELLO"];
	s34 -> s2 [label="I_DH_CLIENT_KEY_EXCHANGE"];
	s34 -> s2 [label="I_PSK_CLIENT_HELLO"];
	s34 -> s2 [label="I_PSK_CLIENT_KEY_EXCHANGE"];
	s34 -> s2 [label="I_RSA_CLIENT_HELLO"];
	s34 -> s2 [label="I_RSA_CLIENT_KEY_EXCHANGE"];
	s34 -> s2 [label="I_CHANGE_CIPHER_SPEC"];
	s34 -> s2 [label="I_FINISHED"];
	s34 -> s2 [label="I_APPLICATION"];
	s34 -> s2 [label="I_CERTIFICATE"];
	s34 -> s2 [label="I_EMPTY_CERTIFICATE"];
	s34 -> s2 [label="I_CERTIFICATE_VERIFY"];
	s34 -> s2 [label="I_Alert(WARNING,CLOSE_NOTIFY)"];
	s34 -> s2 [label="I_Alert(FATAL,UNEXPECTED_MESSAGE)"];
	s34 -> s2 [label="O_HELLO_VERIFY_REQUEST"];
	s34 -> s35 [label="O_SERVER_HELLO"];
	s34 -> s2 [label="O_RSA_CERTIFICATE"];
	s34 -> s2 [label="O_CERTIFICATE_REQUEST"];
	s34 -> s2 [label="O_SERVER_HELLO_DONE"];
	s34 -> s2 [label="O_DHE_SERVER_KEY_EXCHANGE"];
	s34 -> s2 [label="O_ECDHE_SERVER_KEY_EXCHANGE"];
	s34 -> s2 [label="O_CHANGE_CIPHER_SPEC"];
	s34 -> s2 [label="O_FINISHED"];
	s34 -> s2 [label="O_APPLICATION"];
	s35 -> s2 [label="I_ECDH_CLIENT_HELLO"];
	s35 -> s2 [label="I_ECDH_CLIENT_KEY_EXCHANGE"];
	s35 -> s2 [label="I_DH_CLIENT_HELLO"];
	s35 -> s2 [label="I_DH_CLIENT_KEY_EXCHANGE"];
	s35 -> s2 [label="I_PSK_CLIENT_HELLO"];
	s35 -> s2 [label="I_PSK_CLIENT_KEY_EXCHANGE"];
	s35 -> s2 [label="I_RSA_CLIENT_HELLO"];
	s35 -> s2 [label="I_RSA_CLIENT_KEY_EXCHANGE"];
	s35 -> s2 [label="I_CHANGE_CIPHER_SPEC"];
	s35 -> s2 [label="I_FINISHED"];
	s35 -> s2 [label="I_APPLICATION"];
	s35 -> s2 [label="I_CERTIFICATE"];
	s35 -> s2 [label="I_EMPTY_CERTIFICATE"];
	s35 -> s2 [label="I_CERTIFICATE_VERIFY"];
	s35 -> s2 [label="I_Alert(WARNING,CLOSE_NOTIFY)"];
	s35 -> s2 [label="I_Alert(FATAL,UNEXPECTED_MESSAGE)"];
	s35 -> s2 [label="O_HELLO_VERIFY_REQUEST"];
	s35 -> s2 [label="O_SERVER_HELLO"];
	s35 -> s36 [label="O_RSA_CERTIFICATE"];
	s35 -> s2 [label="O_CERTIFICATE_REQUEST"];
	s35 -> s2 [label="O_SERVER_HELLO_DONE"];
	s35 -> s2 [label="O_DHE_SERVER_KEY_EXCHANGE"];
	s35 -> s2 [label="O_ECDHE_SERVER_KEY_EXCHANGE"];
	s35 -> s2 [label="O_CHANGE_CIPHER_SPEC"];
	s35 -> s2 [label="O_FINISHED"];
	s35 -> s2 [label="O_APPLICATION"];
	s36 -> s2 [label="I_ECDH_CLIENT_HELLO"];
	s36 -> s2 [label="I_ECDH_CLIENT_KEY_EXCHANGE"];
	s36 -> s2 [label="I_DH_CLIENT_HELLO"];
	s36 -> s2 [label="I_DH_CLIENT_KEY_EXCHANGE"];
	s36 -> s2 [label="I_PSK_CLIENT_HELLO"];
	s36 -> s2 [label="I_PSK_CLIENT_KEY_EXCHANGE"];
	s36 -> s2 [label="I_RSA_CLIENT_HELLO"];
	s36 -> s2 [label="I_RSA_CLIENT_KEY_EXCHANGE"];
	s36 -> s2 [label="I_CHANGE_CIPHER_SPEC"];
	s36 -> s2 [label="I_FINISHED"];
	s36 -> s2 [label="I_APPLICATION"];
	s36 -> s2 [label="I_CERTIFICATE"];
	s36 -> s2 [label="I_EMPTY_CERTIFICATE"];
	s36 -> s2 [label="I_CERTIFICATE_VERIFY"];
	s36 -> s2 [label="I_Alert(WARNING,CLOSE_NOTIFY)"];
	s36 -> s2 [label="I_Alert(FATAL,UNEXPECTED_MESSAGE)"];
	s36 -> s2 [label="O_HELLO_VERIFY_REQUEST"];
	s36 -> s2 [label="O_SERVER_HELLO"];
	s36 -> s2 [label="O_RSA_CERTIFICATE"];
	s36 -> s2 [label="O_CERTIFICATE_REQUEST"];
	s36 -> s2 [label="O_SERVER_HELLO_DONE"];
	s36 -> s37 [label="O_DHE_SERVER_KEY_EXCHANGE"];
	s36 -> s2 [label="O_ECDHE_SERVER_KEY_EXCHANGE"];
	s36 -> s2 [label="O_CHANGE_CIPHER_SPEC"];
	s36 -> s2 [label="O_FINISHED"];
	s36 -> s2 [label="O_APPLICATION"];
	s37 -> s2 [label="I_ECDH_CLIENT_HELLO"];
	s37 -> s2 [label="I_ECDH_CLIENT_KEY_EXCHANGE"];
	s37 -> s2 [label="I_DH_CLIENT_HELLO"];
	s37 -> s2 [label="I_DH_CLIENT_KEY_EXCHANGE"];
	s37 -> s2 [label="I_PSK_CLIENT_HELLO"];
	s37 -> s2 [label="I_PSK_CLIENT_KEY_EXCHANGE"];
	s37 -> s2 [label="I_RSA_CLIENT_HELLO"];
	s37 -> s2 [label="I_RSA_CLIENT_KEY_EXCHANGE"];
	s37 -> s2 [label="I_CHANGE_CIPHER_SPEC"];
	s37 -> s2 [label="I_FINISHED"];
	s37 -> s2 [label="I_APPLICATION"];
	s37 -> s2 [label="I_CERTIFICATE"];
	s37 -> s2 [label="I_EMPTY_CERTIFICATE"];
	s37 -> s2 [label="I_CERTIFICATE_VERIFY"];
	s37 -> s2 [label="I_Alert(WARNING,CLOSE_NOTIFY)"];
	s37 -> s2 [label="I_Alert(FATAL,UNEXPECTED_MESSAGE)"];
	s37 -> s2 [label="O_HELLO_VERIFY_REQUEST"];
	s37 -> s2 [label="O_SERVER_HELLO"];
	s37 -> s2 [label="O_RSA_CERTIFICATE"];
	s37 -> s38 [label="O_CERTIFICATE_REQUEST"];
	s37 -> s2 [label="O_SERVER_HELLO_DONE"];
	s37 -> s2 [label="O_DHE_SERVER_KEY_EXCHANGE"];
	s37 -> s2 [label="O_ECDHE_SERVER_KEY_EXCHANGE"];
	s37 -> s2 [label="O_CHANGE_CIPHER_SPEC"];
	s37 -> s2 [label="O_FINISHED"];
	s37 -> s2 [label="O_APPLICATION"];
	s38 -> s2 [label="I_ECDH_CLIENT_HELLO"];
	s38 -> s2 [label="I_ECDH_CLIENT_KEY_EXCHANGE"];
	s38 -> s2 [label="I_DH_CLIENT_HELLO"];
	s38 -> s2 [label="I_DH_CLIENT_KEY_EXCHANGE"];
	s38 -> s2 [label="I_PSK_CLIENT_HELLO"];
	s38 -> s2 [label="I_PSK_CLIENT_KEY_EXCHANGE"];
	s38 -> s2 [label="I_RSA_CLIENT_HELLO"];
	s38 -> s2 [label="I_RSA_CLIENT_KEY_EXCHANGE"];
	s38 -> s2 [label="I_CHANGE_CIPHER_SPEC"];
	s38 -> s2 [label="I_FINISHED"];
	s38 -> s2 [label="I_APPLICATION"];
	s38 -> s2 [label="I_CERTIFICATE"];
	s38 -> s2 [label="I_EMPTY_CERTIFICATE"];
	s38 -> s2 [label="I_CERTIFICATE_VERIFY"];
	s38 -> s2 [label="I_Alert(WARNING,CLOSE_NOTIFY)"];
	s38 -> s2 [label="I_Alert(FATAL,UNEXPECTED_MESSAGE)"];
	s38 -> s2 [label="O_HELLO_VERIFY_REQUEST"];
	s38 -> s2 [label="O_SERVER_HELLO"];
	s38 -> s2 [label="O_RSA_CERTIFICATE"];
	s38 -> s2 [label="O_CERTIFICATE_REQUEST"];
	s38 -> s39 [label="O_SERVER_HELLO_DONE"];
	s38 -> s2 [label="O_DHE_SERVER_KEY_EXCHANGE"];
	s38 -> s2 [label="O_ECDHE_SERVER_KEY_EXCHANGE"];
	s38 -> s2 [label="O_CHANGE_CIPHER_SPEC"];
	s38 -> s2 [label="O_FINISHED"];
	s38 -> s2 [label="O_APPLICATION"];
	s39 -> s12 [label="I_ECDH_CLIENT_HELLO"];
	s39 -> s12 [label="I_ECDH_CLIENT_KEY_EXCHANGE"];
	s39 -> s12 [label="I_DH_CLIENT_HELLO"];
	s39 -> s12 [label="I_DH_CLIENT_KEY_EXCHANGE"];
	s39 -> s12 [label="I_PSK_CLIENT_HELLO"];
	s39 -> s12 [label="I_PSK_CLIENT_KEY_EXCHANGE"];
	s39 -> s12 [label="I_RSA_CLIENT_HELLO"];
	s39 -> s12 [label="I_RSA_CLIENT_KEY_EXCHANGE"];
	s39 -> s19 [label="I_CHANGE_CIPHER_SPEC"];
	s39 -> s12 [label="I_FINISHED"];
	s39 -> s39 [label="I_APPLICATION"];
	s39 -> s40 [label="I_CERTIFICATE"];
	s39 -> s12 [label="I_EMPTY_CERTIFICATE"];
	s39 -> s12 [label="I_CERTIFICATE_VERIFY"];
	s39 -> s12 [label="I_Alert(WARNING,CLOSE_NOTIFY)"];
	s39 -> s12 [label="I_Alert(FATAL,UNEXPECTED_MESSAGE)"];
	s39 -> s2 [label="O_HELLO_VERIFY_REQUEST"];
	s39 -> s2 [label="O_SERVER_HELLO"];
	s39 -> s2 [label="O_RSA_CERTIFICATE"];
	s39 -> s2 [label="O_CERTIFICATE_REQUEST"];
	s39 -> s2 [label="O_SERVER_HELLO_DONE"];
	s39 -> s2 [label="O_DHE_SERVER_KEY_EXCHANGE"];
	s39 -> s2 [label="O_ECDHE_SERVER_KEY_EXCHANGE"];
	s39 -> s2 [label="O_CHANGE_CIPHER_SPEC"];
	s39 -> s2 [label="O_FINISHED"];
	s39 -> s2 [label="O_APPLICATION"];
	s40 -> s12 [label="I_ECDH_CLIENT_HELLO"];
	s40 -> s12 [label="I_ECDH_CLIENT_KEY_EXCHANGE"];
	s40 -> s12 [label="I_DH_CLIENT_HELLO"];
	s40 -> s41 [label="I_DH_CLIENT_KEY_EXCHANGE"];
	s40 -> s12 [label="I_PSK_CLIENT_HELLO"];
	s40 -> s45 [label="I_PSK_CLIENT_KEY_EXCHANGE"];
	s40 -> s12 [label="I_RSA_CLIENT_HELLO"];
	s40 -> s45 [label="I_RSA_CLIENT_KEY_EXCHANGE"];
	s40 -> s19 [label="I_CHANGE_CIPHER_SPEC"];
	s40 -> s12 [label="I_FINISHED"];
	s40 -> s40 [label="I_APPLICATION"];
	s40 -> s12 [label="I_CERTIFICATE"];
	s40 -> s12 [label="I_EMPTY_CERTIFICATE"];
	s40 -> s12 [label="I_CERTIFICATE_VERIFY"];
	s40 -> s12 [label="I_Alert(WARNING,CLOSE_NOTIFY)"];
	s40 -> s12 [label="I_Alert(FATAL,UNEXPECTED_MESSAGE)"];
	s40 -> s2 [label="O_HELLO_VERIFY_REQUEST"];
	s40 -> s2 [label="O_SERVER_HELLO"];
	s40 -> s2 [label="O_RSA_CERTIFICATE"];
	s40 -> s2 [label="O_CERTIFICATE_REQUEST"];
	s40 -> s2 [label="O_SERVER_HELLO_DONE"];
	s40 -> s2 [label="O_DHE_SERVER_KEY_EXCHANGE"];
	s40 -> s2 [label="O_ECDHE_SERVER_KEY_EXCHANGE"];
	s40 -> s2 [label="O_CHANGE_CIPHER_SPEC"];
	s40 -> s2 [label="O_FINISHED"];
	s40 -> s2 [label="O_APPLICATION"];
	s41 -> s12 [label="I_ECDH_CLIENT_HELLO"];
	s41 -> s12 [label="I_ECDH_CLIENT_KEY_EXCHANGE"];
	s41 -> s12 [label="I_DH_CLIENT_HELLO"];
	s41 -> s12 [label="I_DH_CLIENT_KEY_EXCHANGE"];
	s41 -> s12 [label="I_PSK_CLIENT_HELLO"];
	s41 -> s12 [label="I_PSK_CLIENT_KEY_EXCHANGE"];
	s41 -> s12 [label="I_RSA_CLIENT_HELLO"];
	s41 -> s12 [label="I_RSA_CLIENT_KEY_EXCHANGE"];
	s41 -> s19 [label="I_CHANGE_CIPHER_SPEC"];
	s41 -> s12 [label="I_FINISHED"];
	s41 -> s41 [label="I_APPLICATION"];
	s41 -> s12 [label="I_CERTIFICATE"];
	s41 -> s12 [label="I_EMPTY_CERTIFICATE"];
	s41 -> s42 [label="I_CERTIFICATE_VERIFY"];
	s41 -> s12 [label="I_Alert(WARNING,CLOSE_NOTIFY)"];
	s41 -> s12 [label="I_Alert(FATAL,UNEXPECTED_MESSAGE)"];
	s41 -> s2 [label="O_HELLO_VERIFY_REQUEST"];
	s41 -> s2 [label="O_SERVER_HELLO"];
	s41 -> s2 [label="O_RSA_CERTIFICATE"];
	s41 -> s2 [label="O_CERTIFICATE_REQUEST"];
	s41 -> s2 [label="O_SERVER_HELLO_DONE"];
	s41 -> s2 [label="O_DHE_SERVER_KEY_EXCHANGE"];
	s41 -> s2 [label="O_ECDHE_SERVER_KEY_EXCHANGE"];
	s41 -> s2 [label="O_CHANGE_CIPHER_SPEC"];
	s41 -> s2 [label="O_FINISHED"];
	s41 -> s2 [label="O_APPLICATION"];
	s42 -> s43 [label="I_ECDH_CLIENT_HELLO"];
	s42 -> s44 [label="I_ECDH_CLIENT_KEY_EXCHANGE"];
	s42 -> s43 [label="I_DH_CLIENT_HELLO"];
	s42 -> s43 [label="I_DH_CLIENT_KEY_EXCHANGE"];
	s42 -> s43 [label="I_PSK_CLIENT_HELLO"];
	s42 -> s44 [label="I_PSK_CLIENT_KEY_EXCHANGE"];
	s42 -> s43 [label="I_RSA_CLIENT_HELLO"];
	s42 -> s44 [label="I_RSA_CLIENT_KEY_EXCHANGE"];
	s42 -> s28 [label="I_CHANGE_CIPHER_SPEC"];
	s42 -> s43 [label="I_FINISHED"];
	s42 -> s42 [label="I_APPLICATION"];
	s42 -> s43 [label="I_CERTIFICATE"];
	s42 -> s43 [label="I_EMPTY_CERTIFICATE"];
	s42 -> s43 [label="I_CERTIFICATE_VERIFY"];
	s42 -> s12 [label="I_Alert(WARNING,CLOSE_NOTIFY)"];
	s42 -> s12 [label="I_Alert(FATAL,UNEXPECTED_MESSAGE)"];
	s42 -> s2 [label="O_HELLO_VERIFY_REQUEST"];
	s42 -> s2 [label="O_SERVER_HELLO"];
	s42 -> s2 [label="O_RSA_CERTIFICATE"];
	s42 -> s2 [label="O_CERTIFICATE_REQUEST"];
	s42 -> s2 [label="O_SERVER_HELLO_DONE"];
	s42 -> s2 [label="O_DHE_SERVER_KEY_EXCHANGE"];
	s42 -> s2 [label="O_ECDHE_SERVER_KEY_EXCHANGE"];
	s42 -> s2 [label="O_CHANGE_CIPHER_SPEC"];
	s42 -> s2 [label="O_FINISHED"];
	s42 -> s2 [label="O_APPLICATION"];
	s43 -> s43 [label="I_ECDH_CLIENT_HELLO"];
	s43 -> s44 [label="I_ECDH_CLIENT_KEY_EXCHANGE"];
	s43 -> s43 [label="I_DH_CLIENT_HELLO"];
	s43 -> s43 [label="I_DH_CLIENT_KEY_EXCHANGE"];
	s43 -> s43 [label="I_PSK_CLIENT_HELLO"];
	s43 -> s44 [label="I_PSK_CLIENT_KEY_EXCHANGE"];
	s43 -> s43 [label="I_RSA_CLIENT_HELLO"];
	s43 -> s44 [label="I_RSA_CLIENT_KEY_EXCHANGE"];
	s43 -> s25 [label="I_CHANGE_CIPHER_SPEC"];
	s43 -> s43 [label="I_FINISHED"];
	s43 -> s43 [label="I_APPLICATION"];
	s43 -> s43 [label="I_CERTIFICATE"];
	s43 -> s43 [label="I_EMPTY_CERTIFICATE"];
	s43 -> s43 [label="I_CERTIFICATE_VERIFY"];
	s43 -> s12 [label="I_Alert(WARNING,CLOSE_NOTIFY)"];
	s43 -> s12 [label="I_Alert(FATAL,UNEXPECTED_MESSAGE)"];
	s43 -> s2 [label="O_HELLO_VERIFY_REQUEST"];
	s43 -> s2 [label="O_SERVER_HELLO"];
	s43 -> s2 [label="O_RSA_CERTIFICATE"];
	s43 -> s2 [label="O_CERTIFICATE_REQUEST"];
	s43 -> s2 [label="O_SERVER_HELLO_DONE"];
	s43 -> s2 [label="O_DHE_SERVER_KEY_EXCHANGE"];
	s43 -> s2 [label="O_ECDHE_SERVER_KEY_EXCHANGE"];
	s43 -> s2 [label="O_CHANGE_CIPHER_SPEC"];
	s43 -> s2 [label="O_FINISHED"];
	s43 -> s2 [label="O_APPLICATION"];
	s44 -> s44 [label="I_ECDH_CLIENT_HELLO"];
	s44 -> s44 [label="I_ECDH_CLIENT_KEY_EXCHANGE"];
	s44 -> s44 [label="I_DH_CLIENT_HELLO"];
	s44 -> s43 [label="I_DH_CLIENT_KEY_EXCHANGE"];
	s44 -> s44 [label="I_PSK_CLIENT_HELLO"];
	s44 -> s44 [label="I_PSK_CLIENT_KEY_EXCHANGE"];
	s44 -> s44 [label="I_RSA_CLIENT_HELLO"];
	s44 -> s44 [label="I_RSA_CLIENT_KEY_EXCHANGE"];
	s44 -> s19 [label="I_CHANGE_CIPHER_SPEC"];
	s44 -> s44 [label="I_FINISHED"];
	s44 -> s44 [label="I_APPLICATION"];
	s44 -> s44 [label="I_CERTIFICATE"];
	s44 -> s44 [label="I_EMPTY_CERTIFICATE"];
	s44 -> s44 [label="I_CERTIFICATE_VERIFY"];
	s44 -> s12 [label="I_Alert(WARNING,CLOSE_NOTIFY)"];
	s44 -> s12 [label="I_Alert(FATAL,UNEXPECTED_MESSAGE)"];
	s44 -> s2 [label="O_HELLO_VERIFY_REQUEST"];
	s44 -> s2 [label="O_SERVER_HELLO"];
	s44 -> s2 [label="O_RSA_CERTIFICATE"];
	s44 -> s2 [label="O_CERTIFICATE_REQUEST"];
	s44 -> s2 [label="O_SERVER_HELLO_DONE"];
	s44 -> s2 [label="O_DHE_SERVER_KEY_EXCHANGE"];
	s44 -> s2 [label="O_ECDHE_SERVER_KEY_EXCHANGE"];
	s44 -> s2 [label="O_CHANGE_CIPHER_SPEC"];
	s44 -> s2 [label="O_FINISHED"];
	s44 -> s2 [label="O_APPLICATION"];
	s45 -> s12 [label="I_ECDH_CLIENT_HELLO"];
	s45 -> s12 [label="I_ECDH_CLIENT_KEY_EXCHANGE"];
	s45 -> s12 [label="I_DH_CLIENT_HELLO"];
	s45 -> s12 [label="I_DH_CLIENT_KEY_EXCHANGE"];
	s45 -> s12 [label="I_PSK_CLIENT_HELLO"];
	s45 -> s12 [label="I_PSK_CLIENT_KEY_EXCHANGE"];
	s45 -> s12 [label="I_RSA_CLIENT_HELLO"];
	s45 -> s12 [label="I_RSA_CLIENT_KEY_EXCHANGE"];
	s45 -> s19 [label="I_CHANGE_CIPHER_SPEC"];
	s45 -> s12 [label="I_FINISHED"];
	s45 -> s45 [label="I_APPLICATION"];
	s45 -> s12 [label="I_CERTIFICATE"];
	s45 -> s12 [label="I_EMPTY_CERTIFICATE"];
	s45 -> s46 [label="I_CERTIFICATE_VERIFY"];
	s45 -> s12 [label="I_Alert(WARNING,CLOSE_NOTIFY)"];
	s45 -> s12 [label="I_Alert(FATAL,UNEXPECTED_MESSAGE)"];
	s45 -> s2 [label="O_HELLO_VERIFY_REQUEST"];
	s45 -> s2 [label="O_SERVER_HELLO"];
	s45 -> s2 [label="O_RSA_CERTIFICATE"];
	s45 -> s2 [label="O_CERTIFICATE_REQUEST"];
	s45 -> s2 [label="O_SERVER_HELLO_DONE"];
	s45 -> s2 [label="O_DHE_SERVER_KEY_EXCHANGE"];
	s45 -> s2 [label="O_ECDHE_SERVER_KEY_EXCHANGE"];
	s45 -> s2 [label="O_CHANGE_CIPHER_SPEC"];
	s45 -> s2 [label="O_FINISHED"];
	s45 -> s2 [label="O_APPLICATION"];
	s46 -> s46 [label="I_ECDH_CLIENT_HELLO"];
	s46 -> s46 [label="I_ECDH_CLIENT_KEY_EXCHANGE"];
	s46 -> s46 [label="I_DH_CLIENT_HELLO"];
	s46 -> s46 [label="I_DH_CLIENT_KEY_EXCHANGE"];
	s46 -> s46 [label="I_PSK_CLIENT_HELLO"];
	s46 -> s46 [label="I_PSK_CLIENT_KEY_EXCHANGE"];
	s46 -> s46 [label="I_RSA_CLIENT_HELLO"];
	s46 -> s46 [label="I_RSA_CLIENT_KEY_EXCHANGE"];
	s46 -> s19 [label="I_CHANGE_CIPHER_SPEC"];
	s46 -> s46 [label="I_FINISHED"];
	s46 -> s46 [label="I_APPLICATION"];
	s46 -> s46 [label="I_CERTIFICATE"];
	s46 -> s46 [label="I_EMPTY_CERTIFICATE"];
	s46 -> s46 [label="I_CERTIFICATE_VERIFY"];
	s46 -> s12 [label="I_Alert(WARNING,CLOSE_NOTIFY)"];
	s46 -> s12 [label="I_Alert(FATAL,UNEXPECTED_MESSAGE)"];
	s46 -> s2 [label="O_HELLO_VERIFY_REQUEST"];
	s46 -> s2 [label="O_SERVER_HELLO"];
	s46 -> s2 [label="O_RSA_CERTIFICATE"];
	s46 -> s2 [label="O_CERTIFICATE_REQUEST"];
	s46 -> s2 [label="O_SERVER_HELLO_DONE"];
	s46 -> s2 [label="O_DHE_SERVER_KEY_EXCHANGE"];
	s46 -> s2 [label="O_ECDHE_SERVER_KEY_EXCHANGE"];
	s46 -> s2 [label="O_CHANGE_CIPHER_SPEC"];
	s46 -> s2 [label="O_FINISHED"];
	s46 -> s2 [label="O_APPLICATION"];
	s47 -> s2 [label="I_ECDH_CLIENT_HELLO"];
	s47 -> s2 [label="I_ECDH_CLIENT_KEY_EXCHANGE"];
	s47 -> s2 [label="I_DH_CLIENT_HELLO"];
	s47 -> s2 [label="I_DH_CLIENT_KEY_EXCHANGE"];
	s47 -> s2 [label="I_PSK_CLIENT_HELLO"];
	s47 -> s2 [label="I_PSK_CLIENT_KEY_EXCHANGE"];
	s47 -> s2 [label="I_RSA_CLIENT_HELLO"];
	s47 -> s2 [label="I_RSA_CLIENT_KEY_EXCHANGE"];
	s47 -> s2 [label="I_CHANGE_CIPHER_SPEC"];
	s47 -> s2 [label="I_FINISHED"];
	s47 -> s2 [label="I_APPLICATION"];
	s47 -> s2 [label="I_CERTIFICATE"];
	s47 -> s2 [label="I_EMPTY_CERTIFICATE"];
	s47 -> s2 [label="I_CERTIFICATE_VERIFY"];
	s47 -> s2 [label="I_Alert(WARNING,CLOSE_NOTIFY)"];
	s47 -> s2 [label="I_Alert(FATAL,UNEXPECTED_MESSAGE)"];
	s47 -> s2 [label="O_HELLO_VERIFY_REQUEST"];
	s47 -> s48 [label="O_SERVER_HELLO"];
	s47 -> s2 [label="O_RSA_CERTIFICATE"];
	s47 -> s2 [label="O_CERTIFICATE_REQUEST"];
	s47 -> s2 [label="O_SERVER_HELLO_DONE"];
	s47 -> s2 [label="O_DHE_SERVER_KEY_EXCHANGE"];
	s47 -> s2 [label="O_ECDHE_SERVER_KEY_EXCHANGE"];
	s47 -> s2 [label="O_CHANGE_CIPHER_SPEC"];
	s47 -> s2 [label="O_FINISHED"];
	s47 -> s2 [label="O_APPLICATION"];
	s48 -> s2 [label="I_ECDH_CLIENT_HELLO"];
	s48 -> s2 [label="I_ECDH_CLIENT_KEY_EXCHANGE"];
	s48 -> s2 [label="I_DH_CLIENT_HELLO"];
	s48 -> s2 [label="I_DH_CLIENT_KEY_EXCHANGE"];
	s48 -> s2 [label="I_PSK_CLIENT_HELLO"];
	s48 -> s2 [label="I_PSK_CLIENT_KEY_EXCHANGE"];
	s48 -> s2 [label="I_RSA_CLIENT_HELLO"];
	s48 -> s2 [label="I_RSA_CLIENT_KEY_EXCHANGE"];
	s48 -> s2 [label="I_CHANGE_CIPHER_SPEC"];
	s48 -> s2 [label="I_FINISHED"];
	s48 -> s2 [label="I_APPLICATION"];
	s48 -> s2 [label="I_CERTIFICATE"];
	s48 -> s2 [label="I_EMPTY_CERTIFICATE"];
	s48 -> s2 [label="I_CERTIFICATE_VERIFY"];
	s48 -> s2 [label="I_Alert(WARNING,CLOSE_NOTIFY)"];
	s48 -> s2 [label="I_Alert(FATAL,UNEXPECTED_MESSAGE)"];
	s48 -> s2 [label="O_HELLO_VERIFY_REQUEST"];
	s48 -> s2 [label="O_SERVER_HELLO"];
	s48 -> s2 [label="O_RSA_CERTIFICATE"];
	s48 -> s2 [label="O_CERTIFICATE_REQUEST"];
	s48 -> s49 [label="O_SERVER_HELLO_DONE"];
	s48 -> s2 [label="O_DHE_SERVER_KEY_EXCHANGE"];
	s48 -> s2 [label="O_ECDHE_SERVER_KEY_EXCHANGE"];
	s48 -> s2 [label="O_CHANGE_CIPHER_SPEC"];
	s48 -> s2 [label="O_FINISHED"];
	s48 -> s2 [label="O_APPLICATION"];
	s49 -> s12 [label="I_ECDH_CLIENT_HELLO"];
	s49 -> s12 [label="I_ECDH_CLIENT_KEY_EXCHANGE"];
	s49 -> s12 [label="I_DH_CLIENT_HELLO"];
	s49 -> s12 [label="I_DH_CLIENT_KEY_EXCHANGE"];
	s49 -> s12 [label="I_PSK_CLIENT_HELLO"];
	s49 -> s50 [label="I_PSK_CLIENT_KEY_EXCHANGE"];
	s49 -> s12 [label="I_RSA_CLIENT_HELLO"];
	s49 -> s12 [label="I_RSA_CLIENT_KEY_EXCHANGE"];
	s49 -> s19 [label="I_CHANGE_CIPHER_SPEC"];
	s49 -> s12 [label="I_FINISHED"];
	s49 -> s49 [label="I_APPLICATION"];
	s49 -> s12 [label="I_CERTIFICATE"];
	s49 -> s12 [label="I_EMPTY_CERTIFICATE"];
	s49 -> s12 [label="I_CERTIFICATE_VERIFY"];
	s49 -> s12 [label="I_Alert(WARNING,CLOSE_NOTIFY)"];
	s49 -> s12 [label="I_Alert(FATAL,UNEXPECTED_MESSAGE)"];
	s49 -> s2 [label="O_HELLO_VERIFY_REQUEST"];
	s49 -> s2 [label="O_SERVER_HELLO"];
	s49 -> s2 [label="O_RSA_CERTIFICATE"];
	s49 -> s2 [label="O_CERTIFICATE_REQUEST"];
	s49 -> s2 [label="O_SERVER_HELLO_DONE"];
	s49 -> s2 [label="O_DHE_SERVER_KEY_EXCHANGE"];
	s49 -> s2 [label="O_ECDHE_SERVER_KEY_EXCHANGE"];
	s49 -> s2 [label="O_CHANGE_CIPHER_SPEC"];
	s49 -> s2 [label="O_FINISHED"];
	s49 -> s2 [label="O_APPLICATION"];
	s50 -> s51 [label="I_ECDH_CLIENT_HELLO"];
	s50 -> s52 [label="I_ECDH_CLIENT_KEY_EXCHANGE"];
	s50 -> s51 [label="I_DH_CLIENT_HELLO"];
	s50 -> s52 [label="I_DH_CLIENT_KEY_EXCHANGE"];
	s50 -> s51 [label="I_PSK_CLIENT_HELLO"];
	s50 -> s51 [label="I_PSK_CLIENT_KEY_EXCHANGE"];
	s50 -> s51 [label="I_RSA_CLIENT_HELLO"];
	s50 -> s52 [label="I_RSA_CLIENT_KEY_EXCHANGE"];
	s50 -> s28 [label="I_CHANGE_CIPHER_SPEC"];
	s50 -> s51 [label="I_FINISHED"];
	s50 -> s50 [label="I_APPLICATION"];
	s50 -> s51 [label="I_CERTIFICATE"];
	s50 -> s51 [label="I_EMPTY_CERTIFICATE"];
	s50 -> s51 [label="I_CERTIFICATE_VERIFY"];
	s50 -> s12 [label="I_Alert(WARNING,CLOSE_NOTIFY)"];
	s50 -> s12 [label="I_Alert(FATAL,UNEXPECTED_MESSAGE)"];
	s50 -> s2 [label="O_HELLO_VERIFY_REQUEST"];
	s50 -> s2 [label="O_SERVER_HELLO"];
	s50 -> s2 [label="O_RSA_CERTIFICATE"];
	s50 -> s2 [label="O_CERTIFICATE_REQUEST"];
	s50 -> s2 [label="O_SERVER_HELLO_DONE"];
	s50 -> s2 [label="O_DHE_SERVER_KEY_EXCHANGE"];
	s50 -> s2 [label="O_ECDHE_SERVER_KEY_EXCHANGE"];
	s50 -> s2 [label="O_CHANGE_CIPHER_SPEC"];
	s50 -> s2 [label="O_FINISHED"];
	s50 -> s2 [label="O_APPLICATION"];
	s51 -> s51 [label="I_ECDH_CLIENT_HELLO"];
	s51 -> s52 [label="I_ECDH_CLIENT_KEY_EXCHANGE"];
	s51 -> s51 [label="I_DH_CLIENT_HELLO"];
	s51 -> s52 [label="I_DH_CLIENT_KEY_EXCHANGE"];
	s51 -> s51 [label="I_PSK_CLIENT_HELLO"];
	s51 -> s51 [label="I_PSK_CLIENT_KEY_EXCHANGE"];
	s51 -> s51 [label="I_RSA_CLIENT_HELLO"];
	s51 -> s52 [label="I_RSA_CLIENT_KEY_EXCHANGE"];
	s51 -> s25 [label="I_CHANGE_CIPHER_SPEC"];
	s51 -> s51 [label="I_FINISHED"];
	s51 -> s51 [label="I_APPLICATION"];
	s51 -> s51 [label="I_CERTIFICATE"];
	s51 -> s51 [label="I_EMPTY_CERTIFICATE"];
	s51 -> s51 [label="I_CERTIFICATE_VERIFY"];
	s51 -> s12 [label="I_Alert(WARNING,CLOSE_NOTIFY)"];
	s51 -> s12 [label="I_Alert(FATAL,UNEXPECTED_MESSAGE)"];
	s51 -> s2 [label="O_HELLO_VERIFY_REQUEST"];
	s51 -> s2 [label="O_SERVER_HELLO"];
	s51 -> s2 [label="O_RSA_CERTIFICATE"];
	s51 -> s2 [label="O_CERTIFICATE_REQUEST"];
	s51 -> s2 [label="O_SERVER_HELLO_DONE"];
	s51 -> s2 [label="O_DHE_SERVER_KEY_EXCHANGE"];
	s51 -> s2 [label="O_ECDHE_SERVER_KEY_EXCHANGE"];
	s51 -> s2 [label="O_CHANGE_CIPHER_SPEC"];
	s51 -> s2 [label="O_FINISHED"];
	s51 -> s2 [label="O_APPLICATION"];
	s52 -> s52 [label="I_ECDH_CLIENT_HELLO"];
	s52 -> s52 [label="I_ECDH_CLIENT_KEY_EXCHANGE"];
	s52 -> s52 [label="I_DH_CLIENT_HELLO"];
	s52 -> s52 [label="I_DH_CLIENT_KEY_EXCHANGE"];
	s52 -> s52 [label="I_PSK_CLIENT_HELLO"];
	s52 -> s51 [label="I_PSK_CLIENT_KEY_EXCHANGE"];
	s52 -> s52 [label="I_RSA_CLIENT_HELLO"];
	s52 -> s52 [label="I_RSA_CLIENT_KEY_EXCHANGE"];
	s52 -> s19 [label="I_CHANGE_CIPHER_SPEC"];
	s52 -> s52 [label="I_FINISHED"];
	s52 -> s52 [label="I_APPLICATION"];
	s52 -> s52 [label="I_CERTIFICATE"];
	s52 -> s52 [label="I_EMPTY_CERTIFICATE"];
	s52 -> s52 [label="I_CERTIFICATE_VERIFY"];
	s52 -> s12 [label="I_Alert(WARNING,CLOSE_NOTIFY)"];
	s52 -> s12 [label="I_Alert(FATAL,UNEXPECTED_MESSAGE)"];
	s52 -> s2 [label="O_HELLO_VERIFY_REQUEST"];
	s52 -> s2 [label="O_SERVER_HELLO"];
	s52 -> s2 [label="O_RSA_CERTIFICATE"];
	s52 -> s2 [label="O_CERTIFICATE_REQUEST"];
	s52 -> s2 [label="O_SERVER_HELLO_DONE"];
	s52 -> s2 [label="O_DHE_SERVER_KEY_EXCHANGE"];
	s52 -> s2 [label="O_ECDHE_SERVER_KEY_EXCHANGE"];
	s52 -> s2 [label="O_CHANGE_CIPHER_SPEC"];
	s52 -> s2 [label="O_FINISHED"];
	s52 -> s2 [label="O_APPLICATION"];
	s53 -> s2 [label="I_ECDH_CLIENT_HELLO"];
	s53 -> s2 [label="I_ECDH_CLIENT_KEY_EXCHANGE"];
	s53 -> s2 [label="I_DH_CLIENT_HELLO"];
	s53 -> s2 [label="I_DH_CLIENT_KEY_EXCHANGE"];
	s53 -> s2 [label="I_PSK_CLIENT_HELLO"];
	s53 -> s2 [label="I_PSK_CLIENT_KEY_EXCHANGE"];
	s53 -> s2 [label="I_RSA_CLIENT_HELLO"];
	s53 -> s2 [label="I_RSA_CLIENT_KEY_EXCHANGE"];
	s53 -> s2 [label="I_CHANGE_CIPHER_SPEC"];
	s53 -> s2 [label="I_FINISHED"];
	s53 -> s2 [label="I_APPLICATION"];
	s53 -> s2 [label="I_CERTIFICATE"];
	s53 -> s2 [label="I_EMPTY_CERTIFICATE"];
	s53 -> s2 [label="I_CERTIFICATE_VERIFY"];
	s53 -> s2 [label="I_Alert(WARNING,CLOSE_NOTIFY)"];
	s53 -> s2 [label="I_Alert(FATAL,UNEXPECTED_MESSAGE)"];
	s53 -> s2 [label="O_HELLO_VERIFY_REQUEST"];
	s53 -> s54 [label="O_SERVER_HELLO"];
	s53 -> s2 [label="O_RSA_CERTIFICATE"];
	s53 -> s2 [label="O_CERTIFICATE_REQUEST"];
	s53 -> s2 [label="O_SERVER_HELLO_DONE"];
	s53 -> s2 [label="O_DHE_SERVER_KEY_EXCHANGE"];
	s53 -> s2 [label="O_ECDHE_SERVER_KEY_EXCHANGE"];
	s53 -> s2 [label="O_CHANGE_CIPHER_SPEC"];
	s53 -> s2 [label="O_FINISHED"];
	s53 -> s2 [label="O_APPLICATION"];
	s54 -> s2 [label="I_ECDH_CLIENT_HELLO"];
	s54 -> s2 [label="I_ECDH_CLIENT_KEY_EXCHANGE"];
	s54 -> s2 [label="I_DH_CLIENT_HELLO"];
	s54 -> s2 [label="I_DH_CLIENT_KEY_EXCHANGE"];
	s54 -> s2 [label="I_PSK_CLIENT_HELLO"];
	s54 -> s2 [label="I_PSK_CLIENT_KEY_EXCHANGE"];
	s54 -> s2 [label="I_RSA_CLIENT_HELLO"];
	s54 -> s2 [label="I_RSA_CLIENT_KEY_EXCHANGE"];
	s54 -> s2 [label="I_CHANGE_CIPHER_SPEC"];
	s54 -> s2 [label="I_FINISHED"];
	s54 -> s2 [label="I_APPLICATION"];
	s54 -> s2 [label="I_CERTIFICATE"];
	s54 -> s2 [label="I_EMPTY_CERTIFICATE"];
	s54 -> s2 [label="I_CERTIFICATE_VERIFY"];
	s54 -> s2 [label="I_Alert(WARNING,CLOSE_NOTIFY)"];
	s54 -> s2 [label="I_Alert(FATAL,UNEXPECTED_MESSAGE)"];
	s54 -> s2 [label="O_HELLO_VERIFY_REQUEST"];
	s54 -> s2 [label="O_SERVER_HELLO"];
	s54 -> s55 [label="O_RSA_CERTIFICATE"];
	s54 -> s2 [label="O_CERTIFICATE_REQUEST"];
	s54 -> s2 [label="O_SERVER_HELLO_DONE"];
	s54 -> s2 [label="O_DHE_SERVER_KEY_EXCHANGE"];
	s54 -> s2 [label="O_ECDHE_SERVER_KEY_EXCHANGE"];
	s54 -> s2 [label="O_CHANGE_CIPHER_SPEC"];
	s54 -> s2 [label="O_FINISHED"];
	s54 -> s2 [label="O_APPLICATION"];
	s55 -> s2 [label="I_ECDH_CLIENT_HELLO"];
	s55 -> s2 [label="I_ECDH_CLIENT_KEY_EXCHANGE"];
	s55 -> s2 [label="I_DH_CLIENT_HELLO"];
	s55 -> s2 [label="I_DH_CLIENT_KEY_EXCHANGE"];
	s55 -> s2 [label="I_PSK_CLIENT_HELLO"];
	s55 -> s2 [label="I_PSK_CLIENT_KEY_EXCHANGE"];
	s55 -> s2 [label="I_RSA_CLIENT_HELLO"];
	s55 -> s2 [label="I_RSA_CLIENT_KEY_EXCHANGE"];
	s55 -> s2 [label="I_CHANGE_CIPHER_SPEC"];
	s55 -> s2 [label="I_FINISHED"];
	s55 -> s2 [label="I_APPLICATION"];
	s55 -> s2 [label="I_CERTIFICATE"];
	s55 -> s2 [label="I_EMPTY_CERTIFICATE"];
	s55 -> s2 [label="I_CERTIFICATE_VERIFY"];
	s55 -> s2 [label="I_Alert(WARNING,CLOSE_NOTIFY)"];
	s55 -> s2 [label="I_Alert(FATAL,UNEXPECTED_MESSAGE)"];
	s55 -> s2 [label="O_HELLO_VERIFY_REQUEST"];
	s55 -> s2 [label="O_SERVER_HELLO"];
	s55 -> s2 [label="O_RSA_CERTIFICATE"];
	s55 -> s56 [label="O_CERTIFICATE_REQUEST"];
	s55 -> s2 [label="O_SERVER_HELLO_DONE"];
	s55 -> s2 [label="O_DHE_SERVER_KEY_EXCHANGE"];
	s55 -> s2 [label="O_ECDHE_SERVER_KEY_EXCHANGE"];
	s55 -> s2 [label="O_CHANGE_CIPHER_SPEC"];
	s55 -> s2 [label="O_FINISHED"];
	s55 -> s2 [label="O_APPLICATION"];
	s56 -> s2 [label="I_ECDH_CLIENT_HELLO"];
	s56 -> s2 [label="I_ECDH_CLIENT_KEY_EXCHANGE"];
	s56 -> s2 [label="I_DH_CLIENT_HELLO"];
	s56 -> s2 [label="I_DH_CLIENT_KEY_EXCHANGE"];
	s56 -> s2 [label="I_PSK_CLIENT_HELLO"];
	s56 -> s2 [label="I_PSK_CLIENT_KEY_EXCHANGE"];
	s56 -> s2 [label="I_RSA_CLIENT_HELLO"];
	s56 -> s2 [label="I_RSA_CLIENT_KEY_EXCHANGE"];
	s56 -> s2 [label="I_CHANGE_CIPHER_SPEC"];
	s56 -> s2 [label="I_FINISHED"];
	s56 -> s2 [label="I_APPLICATION"];
	s56 -> s2 [label="I_CERTIFICATE"];
	s56 -> s2 [label="I_EMPTY_CERTIFICATE"];
	s56 -> s2 [label="I_CERTIFICATE_VERIFY"];
	s56 -> s2 [label="I_Alert(WARNING,CLOSE_NOTIFY)"];
	s56 -> s2 [label="I_Alert(FATAL,UNEXPECTED_MESSAGE)"];
	s56 -> s2 [label="O_HELLO_VERIFY_REQUEST"];
	s56 -> s2 [label="O_SERVER_HELLO"];
	s56 -> s2 [label="O_RSA_CERTIFICATE"];
	s56 -> s2 [label="O_CERTIFICATE_REQUEST"];
	s56 -> s57 [label="O_SERVER_HELLO_DONE"];
	s56 -> s2 [label="O_DHE_SERVER_KEY_EXCHANGE"];
	s56 -> s2 [label="O_ECDHE_SERVER_KEY_EXCHANGE"];
	s56 -> s2 [label="O_CHANGE_CIPHER_SPEC"];
	s56 -> s2 [label="O_FINISHED"];
	s56 -> s2 [label="O_APPLICATION"];
	s57 -> s12 [label="I_ECDH_CLIENT_HELLO"];
	s57 -> s12 [label="I_ECDH_CLIENT_KEY_EXCHANGE"];
	s57 -> s12 [label="I_DH_CLIENT_HELLO"];
	s57 -> s12 [label="I_DH_CLIENT_KEY_EXCHANGE"];
	s57 -> s12 [label="I_PSK_CLIENT_HELLO"];
	s57 -> s12 [label="I_PSK_CLIENT_KEY_EXCHANGE"];
	s57 -> s12 [label="I_RSA_CLIENT_HELLO"];
	s57 -> s12 [label="I_RSA_CLIENT_KEY_EXCHANGE"];
	s57 -> s19 [label="I_CHANGE_CIPHER_SPEC"];
	s57 -> s12 [label="I_FINISHED"];
	s57 -> s57 [label="I_APPLICATION"];
	s57 -> s58 [label="I_CERTIFICATE"];
	s57 -> s12 [label="I_EMPTY_CERTIFICATE"];
	s57 -> s12 [label="I_CERTIFICATE_VERIFY"];
	s57 -> s12 [label="I_Alert(WARNING,CLOSE_NOTIFY)"];
	s57 -> s12 [label="I_Alert(FATAL,UNEXPECTED_MESSAGE)"];
	s57 -> s2 [label="O_HELLO_VERIFY_REQUEST"];
	s57 -> s2 [label="O_SERVER_HELLO"];
	s57 -> s2 [label="O_RSA_CERTIFICATE"];
	s57 -> s2 [label="O_CERTIFICATE_REQUEST"];
	s57 -> s2 [label="O_SERVER_HELLO_DONE"];
	s57 -> s2 [label="O_DHE_SERVER_KEY_EXCHANGE"];
	s57 -> s2 [label="O_ECDHE_SERVER_KEY_EXCHANGE"];
	s57 -> s2 [label="O_CHANGE_CIPHER_SPEC"];
	s57 -> s2 [label="O_FINISHED"];
	s57 -> s2 [label="O_APPLICATION"];
	s58 -> s12 [label="I_ECDH_CLIENT_HELLO"];
	s58 -> s12 [label="I_ECDH_CLIENT_KEY_EXCHANGE"];
	s58 -> s12 [label="I_DH_CLIENT_HELLO"];
	s58 -> s45 [label="I_DH_CLIENT_KEY_EXCHANGE"];
	s58 -> s12 [label="I_PSK_CLIENT_HELLO"];
	s58 -> s45 [label="I_PSK_CLIENT_KEY_EXCHANGE"];
	s58 -> s12 [label="I_RSA_CLIENT_HELLO"];
	s58 -> s59 [label="I_RSA_CLIENT_KEY_EXCHANGE"];
	s58 -> s19 [label="I_CHANGE_CIPHER_SPEC"];
	s58 -> s12 [label="I_FINISHED"];
	s58 -> s58 [label="I_APPLICATION"];
	s58 -> s12 [label="I_CERTIFICATE"];
	s58 -> s12 [label="I_EMPTY_CERTIFICATE"];
	s58 -> s12 [label="I_CERTIFICATE_VERIFY"];
	s58 -> s12 [label="I_Alert(WARNING,CLOSE_NOTIFY)"];
	s58 -> s12 [label="I_Alert(FATAL,UNEXPECTED_MESSAGE)"];
	s58 -> s2 [label="O_HELLO_VERIFY_REQUEST"];
	s58 -> s2 [label="O_SERVER_HELLO"];
	s58 -> s2 [label="O_RSA_CERTIFICATE"];
	s58 -> s2 [label="O_CERTIFICATE_REQUEST"];
	s58 -> s2 [label="O_SERVER_HELLO_DONE"];
	s58 -> s2 [label="O_DHE_SERVER_KEY_EXCHANGE"];
	s58 -> s2 [label="O_ECDHE_SERVER_KEY_EXCHANGE"];
	s58 -> s2 [label="O_CHANGE_CIPHER_SPEC"];
	s58 -> s2 [label="O_FINISHED"];
	s58 -> s2 [label="O_APPLICATION"];
	s59 -> s12 [label="I_ECDH_CLIENT_HELLO"];
	s59 -> s12 [label="I_ECDH_CLIENT_KEY_EXCHANGE"];
	s59 -> s12 [label="I_DH_CLIENT_HELLO"];
	s59 -> s12 [label="I_DH_CLIENT_KEY_EXCHANGE"];
	s59 -> s12 [label="I_PSK_CLIENT_HELLO"];
	s59 -> s12 [label="I_PSK_CLIENT_KEY_EXCHANGE"];
	s59 -> s12 [label="I_RSA_CLIENT_HELLO"];
	s59 -> s12 [label="I_RSA_CLIENT_KEY_EXCHANGE"];
	s59 -> s19 [label="I_CHANGE_CIPHER_SPEC"];
	s59 -> s12 [label="I_FINISHED"];
	s59 -> s59 [label="I_APPLICATION"];
	s59 -> s12 [label="I_CERTIFICATE"];
	s59 -> s12 [label="I_EMPTY_CERTIFICATE"];
	s59 -> s60 [label="I_CERTIFICATE_VERIFY"];
	s59 -> s12 [label="I_Alert(WARNING,CLOSE_NOTIFY)"];
	s59 -> s12 [label="I_Alert(FATAL,UNEXPECTED_MESSAGE)"];
	s59 -> s2 [label="O_HELLO_VERIFY_REQUEST"];
	s59 -> s2 [label="O_SERVER_HELLO"];
	s59 -> s2 [label="O_RSA_CERTIFICATE"];
	s59 -> s2 [label="O_CERTIFICATE_REQUEST"];
	s59 -> s2 [label="O_SERVER_HELLO_DONE"];
	s59 -> s2 [label="O_DHE_SERVER_KEY_EXCHANGE"];
	s59 -> s2 [label="O_ECDHE_SERVER_KEY_EXCHANGE"];
	s59 -> s2 [label="O_CHANGE_CIPHER_SPEC"];
	s59 -> s2 [label="O_FINISHED"];
	s59 -> s2 [label="O_APPLICATION"];
	s60 -> s61 [label="I_ECDH_CLIENT_HELLO"];
	s60 -> s46 [label="I_ECDH_CLIENT_KEY_EXCHANGE"];
	s60 -> s61 [label="I_DH_CLIENT_HELLO"];
	s60 -> s46 [label="I_DH_CLIENT_KEY_EXCHANGE"];
	s60 -> s61 [label="I_PSK_CLIENT_HELLO"];
	s60 -> s46 [label="I_PSK_CLIENT_KEY_EXCHANGE"];
	s60 -> s61 [label="I_RSA_CLIENT_HELLO"];
	s60 -> s46 [label="I_RSA_CLIENT_KEY_EXCHANGE"];
	s60 -> s28 [label="I_CHANGE_CIPHER_SPEC"];
	s60 -> s61 [label="I_FINISHED"];
	s60 -> s60 [label="I_APPLICATION"];
	s60 -> s61 [label="I_CERTIFICATE"];
	s60 -> s61 [label="I_EMPTY_CERTIFICATE"];
	s60 -> s61 [label="I_CERTIFICATE_VERIFY"];
	s60 -> s12 [label="I_Alert(WARNING,CLOSE_NOTIFY)"];
	s60 -> s12 [label="I_Alert(FATAL,UNEXPECTED_MESSAGE)"];
	s60 -> s2 [label="O_HELLO_VERIFY_REQUEST"];
	s60 -> s2 [label="O_SERVER_HELLO"];
	s60 -> s2 [label="O_RSA_CERTIFICATE"];
	s60 -> s2 [label="O_CERTIFICATE_REQUEST"];
	s60 -> s2 [label="O_SERVER_HELLO_DONE"];
	s60 -> s2 [label="O_DHE_SERVER_KEY_EXCHANGE"];
	s60 -> s2 [label="O_ECDHE_SERVER_KEY_EXCHANGE"];
	s60 -> s2 [label="O_CHANGE_CIPHER_SPEC"];
	s60 -> s2 [label="O_FINISHED"];
	s60 -> s2 [label="O_APPLICATION"];
	s61 -> s61 [label="I_ECDH_CLIENT_HELLO"];
	s61 -> s46 [label="I_ECDH_CLIENT_KEY_EXCHANGE"];
	s61 -> s61 [label="I_DH_CLIENT_HELLO"];
	s61 -> s46 [label="I_DH_CLIENT_KEY_EXCHANGE"];
	s61 -> s61 [label="I_PSK_CLIENT_HELLO"];
	s61 -> s46 [label="I_PSK_CLIENT_KEY_EXCHANGE"];
	s61 -> s61 [label="I_RSA_CLIENT_HELLO"];
	s61 -> s46 [label="I_RSA_CLIENT_KEY_EXCHANGE"];
	s61 -> s25 [label="I_CHANGE_CIPHER_SPEC"];
	s61 -> s61 [label="I_FINISHED"];
	s61 -> s61 [label="I_APPLICATION"];
	s61 -> s61 [label="I_CERTIFICATE"];
	s61 -> s61 [label="I_EMPTY_CERTIFICATE"];
	s61 -> s61 [label="I_CERTIFICATE_VERIFY"];
	s61 -> s12 [label="I_Alert(WARNING,CLOSE_NOTIFY)"];
	s61 -> s12 [label="I_Alert(FATAL,UNEXPECTED_MESSAGE)"];
	s61 -> s2 [label="O_HELLO_VERIFY_REQUEST"];
	s61 -> s2 [label="O_SERVER_HELLO"];
	s61 -> s2 [label="O_RSA_CERTIFICATE"];
	s61 -> s2 [label="O_CERTIFICATE_REQUEST"];
	s61 -> s2 [label="O_SERVER_HELLO_DONE"];
	s61 -> s2 [label="O_DHE_SERVER_KEY_EXCHANGE"];
	s61 -> s2 [label="O_ECDHE_SERVER_KEY_EXCHANGE"];
	s61 -> s2 [label="O_CHANGE_CIPHER_SPEC"];
	s61 -> s2 [label="O_FINISHED"];
	s61 -> s2 [label="O_APPLICATION"];
	s62 -> s2 [label="I_ECDH_CLIENT_HELLO"];
	s62 -> s2 [label="I_ECDH_CLIENT_KEY_EXCHANGE"];
	s62 -> s2 [label="I_DH_CLIENT_HELLO"];
	s62 -> s2 [label="I_DH_CLIENT_KEY_EXCHANGE"];
	s62 -> s2 [label="I_PSK_CLIENT_HELLO"];
	s62 -> s2 [label="I_PSK_CLIENT_KEY_EXCHANGE"];
	s62 -> s2 [label="I_RSA_CLIENT_HELLO"];
	s62 -> s2 [label="I_RSA_CLIENT_KEY_EXCHANGE"];
	s62 -> s2 [label="I_CHANGE_CIPHER_SPEC"];
	s62 -> s2 [label="I_FINISHED"];
	s62 -> s2 [label="I_APPLICATION"];
	s62 -> s2 [label="I_CERTIFICATE"];
	s62 -> s2 [label="I_EMPTY_CERTIFICATE"];
	s62 -> s2 [label="I_CERTIFICATE_VERIFY"];
	s62 -> s2 [label="I_Alert(WARNING,CLOSE_NOTIFY)"];
	s62 -> s2 [label="I_Alert(FATAL,UNEXPECTED_MESSAGE)"];
	s62 -> s2 [label="O_HELLO_VERIFY_REQUEST"];
	s62 -> s63 [label="O_SERVER_HELLO"];
	s62 -> s2 [label="O_RSA_CERTIFICATE"];
	s62 -> s2 [label="O_CERTIFICATE_REQUEST"];
	s62 -> s2 [label="O_SERVER_HELLO_DONE"];
	s62 -> s2 [label="O_DHE_SERVER_KEY_EXCHANGE"];
	s62 -> s2 [label="O_ECDHE_SERVER_KEY_EXCHANGE"];
	s62 -> s2 [label="O_CHANGE_CIPHER_SPEC"];
	s62 -> s2 [label="O_FINISHED"];
	s62 -> s2 [label="O_APPLICATION"];
	s63 -> s2 [label="I_ECDH_CLIENT_HELLO"];
	s63 -> s2 [label="I_ECDH_CLIENT_KEY_EXCHANGE"];
	s63 -> s2 [label="I_DH_CLIENT_HELLO"];
	s63 -> s2 [label="I_DH_CLIENT_KEY_EXCHANGE"];
	s63 -> s2 [label="I_PSK_CLIENT_HELLO"];
	s63 -> s2 [label="I_PSK_CLIENT_KEY_EXCHANGE"];
	s63 -> s2 [label="I_RSA_CLIENT_HELLO"];
	s63 -> s2 [label="I_RSA_CLIENT_KEY_EXCHANGE"];
	s63 -> s2 [label="I_CHANGE_CIPHER_SPEC"];
	s63 -> s2 [label="I_FINISHED"];
	s63 -> s2 [label="I_APPLICATION"];
	s63 -> s2 [label="I_CERTIFICATE"];
	s63 -> s2 [label="I_EMPTY_CERTIFICATE"];
	s63 -> s2 [label="I_CERTIFICATE_VERIFY"];
	s63 -> s2 [label="I_Alert(WARNING,CLOSE_NOTIFY)"];
	s63 -> s2 [label="I_Alert(FATAL,UNEXPECTED_MESSAGE)"];
	s63 -> s2 [label="O_HELLO_VERIFY_REQUEST"];
	s63 -> s2 [label="O_SERVER_HELLO"];
	s63 -> s64 [label="O_RSA_CERTIFICATE"];
	s63 -> s2 [label="O_CERTIFICATE_REQUEST"];
	s63 -> s2 [label="O_SERVER_HELLO_DONE"];
	s63 -> s2 [label="O_DHE_SERVER_KEY_EXCHANGE"];
	s63 -> s2 [label="O_ECDHE_SERVER_KEY_EXCHANGE"];
	s63 -> s2 [label="O_CHANGE_CIPHER_SPEC"];
	s63 -> s2 [label="O_FINISHED"];
	s63 -> s2 [label="O_APPLICATION"];
	s64 -> s2 [label="I_ECDH_CLIENT_HELLO"];
	s64 -> s2 [label="I_ECDH_CLIENT_KEY_EXCHANGE"];
	s64 -> s2 [label="I_DH_CLIENT_HELLO"];
	s64 -> s2 [label="I_DH_CLIENT_KEY_EXCHANGE"];
	s64 -> s2 [label="I_PSK_CLIENT_HELLO"];
	s64 -> s2 [label="I_PSK_CLIENT_KEY_EXCHANGE"];
	s64 -> s2 [label="I_RSA_CLIENT_HELLO"];
	s64 -> s2 [label="I_RSA_CLIENT_KEY_EXCHANGE"];
	s64 -> s2 [label="I_CHANGE_CIPHER_SPEC"];
	s64 -> s2 [label="I_FINISHED"];
	s64 -> s2 [label="I_APPLICATION"];
	s64 -> s2 [label="I_CERTIFICATE"];
	s64 -> s2 [label="I_EMPTY_CERTIFICATE"];
	s64 -> s2 [label="I_CERTIFICATE_VERIFY"];
	s64 -> s2 [label="I_Alert(WARNING,CLOSE_NOTIFY)"];
	s64 -> s2 [label="I_Alert(FATAL,UNEXPECTED_MESSAGE)"];
	s64 -> s2 [label="O_HELLO_VERIFY_REQUEST"];
	s64 -> s2 [label="O_SERVER_HELLO"];
	s64 -> s2 [label="O_RSA_CERTIFICATE"];
	s64 -> s2 [label="O_CERTIFICATE_REQUEST"];
	s64 -> s2 [label="O_SERVER_HELLO_DONE"];
	s64 -> s65 [label="O_DHE_SERVER_KEY_EXCHANGE"];
	s64 -> s2 [label="O_ECDHE_SERVER_KEY_EXCHANGE"];
	s64 -> s2 [label="O_CHANGE_CIPHER_SPEC"];
	s64 -> s2 [label="O_FINISHED"];
	s64 -> s2 [label="O_APPLICATION"];
	s65 -> s2 [label="I_ECDH_CLIENT_HELLO"];
	s65 -> s2 [label="I_ECDH_CLIENT_KEY_EXCHANGE"];
	s65 -> s2 [label="I_DH_CLIENT_HELLO"];
	s65 -> s2 [label="I_DH_CLIENT_KEY_EXCHANGE"];
	s65 -> s2 [label="I_PSK_CLIENT_HELLO"];
	s65 -> s2 [label="I_PSK_CLIENT_KEY_EXCHANGE"];
	s65 -> s2 [label="I_RSA_CLIENT_HELLO"];
	s65 -> s2 [label="I_RSA_CLIENT_KEY_EXCHANGE"];
	s65 -> s2 [label="I_CHANGE_CIPHER_SPEC"];
	s65 -> s2 [label="I_FINISHED"];
	s65 -> s2 [label="I_APPLICATION"];
	s65 -> s2 [label="I_CERTIFICATE"];
	s65 -> s2 [label="I_EMPTY_CERTIFICATE"];
	s65 -> s2 [label="I_CERTIFICATE_VERIFY"];
	s65 -> s2 [label="I_Alert(WARNING,CLOSE_NOTIFY)"];
	s65 -> s2 [label="I_Alert(FATAL,UNEXPECTED_MESSAGE)"];
	s65 -> s2 [label="O_HELLO_VERIFY_REQUEST"];
	s65 -> s2 [label="O_SERVER_HELLO"];
	s65 -> s2 [label="O_RSA_CERTIFICATE"];
	s65 -> s66 [label="O_CERTIFICATE_REQUEST"];
	s65 -> s2 [label="O_SERVER_HELLO_DONE"];
	s65 -> s2 [label="O_DHE_SERVER_KEY_EXCHANGE"];
	s65 -> s2 [label="O_ECDHE_SERVER_KEY_EXCHANGE"];
	s65 -> s2 [label="O_CHANGE_CIPHER_SPEC"];
	s65 -> s2 [label="O_FINISHED"];
	s65 -> s2 [label="O_APPLICATION"];
	s66 -> s2 [label="I_ECDH_CLIENT_HELLO"];
	s66 -> s2 [label="I_ECDH_CLIENT_KEY_EXCHANGE"];
	s66 -> s2 [label="I_DH_CLIENT_HELLO"];
	s66 -> s2 [label="I_DH_CLIENT_KEY_EXCHANGE"];
	s66 -> s2 [label="I_PSK_CLIENT_HELLO"];
	s66 -> s2 [label="I_PSK_CLIENT_KEY_EXCHANGE"];
	s66 -> s2 [label="I_RSA_CLIENT_HELLO"];
	s66 -> s2 [label="I_RSA_CLIENT_KEY_EXCHANGE"];
	s66 -> s2 [label="I_CHANGE_CIPHER_SPEC"];
	s66 -> s2 [label="I_FINISHED"];
	s66 -> s2 [label="I_APPLICATION"];
	s66 -> s2 [label="I_CERTIFICATE"];
	s66 -> s2 [label="I_EMPTY_CERTIFICATE"];
	s66 -> s2 [label="I_CERTIFICATE_VERIFY"];
	s66 -> s2 [label="I_Alert(WARNING,CLOSE_NOTIFY)"];
	s66 -> s2 [label="I_Alert(FATAL,UNEXPECTED_MESSAGE)"];
	s66 -> s2 [label="O_HELLO_VERIFY_REQUEST"];
	s66 -> s2 [label="O_SERVER_HELLO"];
	s66 -> s2 [label="O_RSA_CERTIFICATE"];
	s66 -> s2 [label="O_CERTIFICATE_REQUEST"];
	s66 -> s67 [label="O_SERVER_HELLO_DONE"];
	s66 -> s2 [label="O_DHE_SERVER_KEY_EXCHANGE"];
	s66 -> s2 [label="O_ECDHE_SERVER_KEY_EXCHANGE"];
	s66 -> s2 [label="O_CHANGE_CIPHER_SPEC"];
	s66 -> s2 [label="O_FINISHED"];
	s66 -> s2 [label="O_APPLICATION"];
	s67 -> s10 [label="I_ECDH_CLIENT_HELLO"];
	s67 -> s12 [label="I_ECDH_CLIENT_KEY_EXCHANGE"];
	s67 -> s10 [label="I_DH_CLIENT_HELLO"];
	s67 -> s12 [label="I_DH_CLIENT_KEY_EXCHANGE"];
	s67 -> s10 [label="I_PSK_CLIENT_HELLO"];
	s67 -> s12 [label="I_PSK_CLIENT_KEY_EXCHANGE"];
	s67 -> s10 [label="I_RSA_CLIENT_HELLO"];
	s67 -> s12 [label="I_RSA_CLIENT_KEY_EXCHANGE"];
	s67 -> s19 [label="I_CHANGE_CIPHER_SPEC"];
	s67 -> s10 [label="I_FINISHED"];
	s67 -> s67 [label="I_APPLICATION"];
	s67 -> s68 [label="I_CERTIFICATE"];
	s67 -> s10 [label="I_EMPTY_CERTIFICATE"];
	s67 -> s10 [label="I_CERTIFICATE_VERIFY"];
	s67 -> s10 [label="I_Alert(WARNING,CLOSE_NOTIFY)"];
	s67 -> s10 [label="I_Alert(FATAL,UNEXPECTED_MESSAGE)"];
	s67 -> s2 [label="O_HELLO_VERIFY_REQUEST"];
	s67 -> s2 [label="O_SERVER_HELLO"];
	s67 -> s2 [label="O_RSA_CERTIFICATE"];
	s67 -> s2 [label="O_CERTIFICATE_REQUEST"];
	s67 -> s2 [label="O_SERVER_HELLO_DONE"];
	s67 -> s2 [label="O_DHE_SERVER_KEY_EXCHANGE"];
	s67 -> s2 [label="O_ECDHE_SERVER_KEY_EXCHANGE"];
	s67 -> s2 [label="O_CHANGE_CIPHER_SPEC"];
	s67 -> s2 [label="O_FINISHED"];
	s67 -> s2 [label="O_APPLICATION"];
	s68 -> s10 [label="I_ECDH_CLIENT_HELLO"];
	s68 -> s12 [label="I_ECDH_CLIENT_KEY_EXCHANGE"];
	s68 -> s10 [label="I_DH_CLIENT_HELLO"];
	s68 -> s41 [label="I_DH_CLIENT_KEY_EXCHANGE"];
	s68 -> s10 [label="I_PSK_CLIENT_HELLO"];
	s68 -> s45 [label="I_PSK_CLIENT_KEY_EXCHANGE"];
	s68 -> s10 [label="I_RSA_CLIENT_HELLO"];
	s68 -> s45 [label="I_RSA_CLIENT_KEY_EXCHANGE"];
	s68 -> s19 [label="I_CHANGE_CIPHER_SPEC"];
	s68 -> s10 [label="I_FINISHED"];
	s68 -> s68 [label="I_APPLICATION"];
	s68 -> s10 [label="I_CERTIFICATE"];
	s68 -> s10 [label="I_EMPTY_CERTIFICATE"];
	s68 -> s10 [label="I_CERTIFICATE_VERIFY"];
	s68 -> s10 [label="I_Alert(WARNING,CLOSE_NOTIFY)"];
	s68 -> s10 [label="I_Alert(FATAL,UNEXPECTED_MESSAGE)"];
	s68 -> s2 [label="O_HELLO_VERIFY_REQUEST"];
	s68 -> s2 [label="O_SERVER_HELLO"];
	s68 -> s2 [label="O_RSA_CERTIFICATE"];
	s68 -> s2 [label="O_CERTIFICATE_REQUEST"];
	s68 -> s2 [label="O_SERVER_HELLO_DONE"];
	s68 -> s2 [label="O_DHE_SERVER_KEY_EXCHANGE"];
	s68 -> s2 [label="O_ECDHE_SERVER_KEY_EXCHANGE"];
	s68 -> s2 [label="O_CHANGE_CIPHER_SPEC"];
	s68 -> s2 [label="O_FINISHED"];
	s68 -> s2 [label="O_APPLICATION"];
	s69 -> s2 [label="I_ECDH_CLIENT_HELLO"];
	s69 -> s2 [label="I_ECDH_CLIENT_KEY_EXCHANGE"];
	s69 -> s2 [label="I_DH_CLIENT_HELLO"];
	s69 -> s2 [label="I_DH_CLIENT_KEY_EXCHANGE"];
	s69 -> s2 [label="I_PSK_CLIENT_HELLO"];
	s69 -> s2 [label="I_PSK_CLIENT_KEY_EXCHANGE"];
	s69 -> s2 [label="I_RSA_CLIENT_HELLO"];
	s69 -> s2 [label="I_RSA_CLIENT_KEY_EXCHANGE"];
	s69 -> s2 [label="I_CHANGE_CIPHER_SPEC"];
	s69 -> s2 [label="I_FINISHED"];
	s69 -> s2 [label="I_APPLICATION"];
	s69 -> s2 [label="I_CERTIFICATE"];
	s69 -> s2 [label="I_EMPTY_CERTIFICATE"];
	s69 -> s2 [label="I_CERTIFICATE_VERIFY"];
	s69 -> s2 [label="I_Alert(WARNING,CLOSE_NOTIFY)"];
	s69 -> s2 [label="I_Alert(FATAL,UNEXPECTED_MESSAGE)"];
	s69 -> s2 [label="O_HELLO_VERIFY_REQUEST"];
	s69 -> s70 [label="O_SERVER_HELLO"];
	s69 -> s2 [label="O_RSA_CERTIFICATE"];
	s69 -> s2 [label="O_CERTIFICATE_REQUEST"];
	s69 -> s2 [label="O_SERVER_HELLO_DONE"];
	s69 -> s2 [label="O_DHE_SERVER_KEY_EXCHANGE"];
	s69 -> s2 [label="O_ECDHE_SERVER_KEY_EXCHANGE"];
	s69 -> s2 [label="O_CHANGE_CIPHER_SPEC"];
	s69 -> s2 [label="O_FINISHED"];
	s69 -> s2 [label="O_APPLICATION"];
	s70 -> s2 [label="I_ECDH_CLIENT_HELLO"];
	s70 -> s2 [label="I_ECDH_CLIENT_KEY_EXCHANGE"];
	s70 -> s2 [label="I_DH_CLIENT_HELLO"];
	s70 -> s2 [label="I_DH_CLIENT_KEY_EXCHANGE"];
	s70 -> s2 [label="I_PSK_CLIENT_HELLO"];
	s70 -> s2 [label="I_PSK_CLIENT_KEY_EXCHANGE"];
	s70 -> s2 [label="I_RSA_CLIENT_HELLO"];
	s70 -> s2 [label="I_RSA_CLIENT_KEY_EXCHANGE"];
	s70 -> s2 [label="I_CHANGE_CIPHER_SPEC"];
	s70 -> s2 [label="I_FINISHED"];
	s70 -> s2 [label="I_APPLICATION"];
	s70 -> s2 [label="I_CERTIFICATE"];
	s70 -> s2 [label="I_EMPTY_CERTIFICATE"];
	s70 -> s2 [label="I_CERTIFICATE_VERIFY"];
	s70 -> s2 [label="I_Alert(WARNING,CLOSE_NOTIFY)"];
	s70 -> s2 [label="I_Alert(FATAL,UNEXPECTED_MESSAGE)"];
	s70 -> s2 [label="O_HELLO_VERIFY_REQUEST"];
	s70 -> s2 [label="O_SERVER_HELLO"];
	s70 -> s2 [label="O_RSA_CERTIFICATE"];
	s70 -> s2 [label="O_CERTIFICATE_REQUEST"];
	s70 -> s71 [label="O_SERVER_HELLO_DONE"];
	s70 -> s2 [label="O_DHE_SERVER_KEY_EXCHANGE"];
	s70 -> s2 [label="O_ECDHE_SERVER_KEY_EXCHANGE"];
	s70 -> s2 [label="O_CHANGE_CIPHER_SPEC"];
	s70 -> s2 [label="O_FINISHED"];
	s70 -> s2 [label="O_APPLICATION"];
	s71 -> s10 [label="I_ECDH_CLIENT_HELLO"];
	s71 -> s12 [label="I_ECDH_CLIENT_KEY_EXCHANGE"];
	s71 -> s10 [label="I_DH_CLIENT_HELLO"];
	s71 -> s12 [label="I_DH_CLIENT_KEY_EXCHANGE"];
	s71 -> s10 [label="I_PSK_CLIENT_HELLO"];
	s71 -> s50 [label="I_PSK_CLIENT_KEY_EXCHANGE"];
	s71 -> s10 [label="I_RSA_CLIENT_HELLO"];
	s71 -> s12 [label="I_RSA_CLIENT_KEY_EXCHANGE"];
	s71 -> s19 [label="I_CHANGE_CIPHER_SPEC"];
	s71 -> s10 [label="I_FINISHED"];
	s71 -> s71 [label="I_APPLICATION"];
	s71 -> s10 [label="I_CERTIFICATE"];
	s71 -> s10 [label="I_EMPTY_CERTIFICATE"];
	s71 -> s10 [label="I_CERTIFICATE_VERIFY"];
	s71 -> s10 [label="I_Alert(WARNING,CLOSE_NOTIFY)"];
	s71 -> s10 [label="I_Alert(FATAL,UNEXPECTED_MESSAGE)"];
	s71 -> s2 [label="O_HELLO_VERIFY_REQUEST"];
	s71 -> s2 [label="O_SERVER_HELLO"];
	s71 -> s2 [label="O_RSA_CERTIFICATE"];
	s71 -> s2 [label="O_CERTIFICATE_REQUEST"];
	s71 -> s2 [label="O_SERVER_HELLO_DONE"];
	s71 -> s2 [label="O_DHE_SERVER_KEY_EXCHANGE"];
	s71 -> s2 [label="O_ECDHE_SERVER_KEY_EXCHANGE"];
	s71 -> s2 [label="O_CHANGE_CIPHER_SPEC"];
	s71 -> s2 [label="O_FINISHED"];
	s71 -> s2 [label="O_APPLICATION"];
	s72 -> s2 [label="I_ECDH_CLIENT_HELLO"];
	s72 -> s2 [label="I_ECDH_CLIENT_KEY_EXCHANGE"];
	s72 -> s2 [label="I_DH_CLIENT_HELLO"];
	s72 -> s2 [label="I_DH_CLIENT_KEY_EXCHANGE"];
	s72 -> s2 [label="I_PSK_CLIENT_HELLO"];
	s72 -> s2 [label="I_PSK_CLIENT_KEY_EXCHANGE"];
	s72 -> s2 [label="I_RSA_CLIENT_HELLO"];
	s72 -> s2 [label="I_RSA_CLIENT_KEY_EXCHANGE"];
	s72 -> s2 [label="I_CHANGE_CIPHER_SPEC"];
	s72 -> s2 [label="I_FINISHED"];
	s72 -> s2 [label="I_APPLICATION"];
	s72 -> s2 [label="I_CERTIFICATE"];
	s72 -> s2 [label="I_EMPTY_CERTIFICATE"];
	s72 -> s2 [label="I_CERTIFICATE_VERIFY"];
	s72 -> s2 [label="I_Alert(WARNING,CLOSE_NOTIFY)"];
	s72 -> s2 [label="I_Alert(FATAL,UNEXPECTED_MESSAGE)"];
	s72 -> s2 [label="O_HELLO_VERIFY_REQUEST"];
	s72 -> s73 [label="O_SERVER_HELLO"];
	s72 -> s2 [label="O_RSA_CERTIFICATE"];
	s72 -> s2 [label="O_CERTIFICATE_REQUEST"];
	s72 -> s2 [label="O_SERVER_HELLO_DONE"];
	s72 -> s2 [label="O_DHE_SERVER_KEY_EXCHANGE"];
	s72 -> s2 [label="O_ECDHE_SERVER_KEY_EXCHANGE"];
	s72 -> s2 [label="O_CHANGE_CIPHER_SPEC"];
	s72 -> s2 [label="O_FINISHED"];
	s72 -> s2 [label="O_APPLICATION"];
	s73 -> s2 [label="I_ECDH_CLIENT_HELLO"];
	s73 -> s2 [label="I_ECDH_CLIENT_KEY_EXCHANGE"];
	s73 -> s2 [label="I_DH_CLIENT_HELLO"];
	s73 -> s2 [label="I_DH_CLIENT_KEY_EXCHANGE"];
	s73 -> s2 [label="I_PSK_CLIENT_HELLO"];
	s73 -> s2 [label="I_PSK_CLIENT_KEY_EXCHANGE"];
	s73 -> s2 [label="I_RSA_CLIENT_HELLO"];
	s73 -> s2 [label="I_RSA_CLIENT_KEY_EXCHANGE"];
	s73 -> s2 [label="I_CHANGE_CIPHER_SPEC"];
	s73 -> s2 [label="I_FINISHED"];
	s73 -> s2 [label="I_APPLICATION"];
	s73 -> s2 [label="I_CERTIFICATE"];
	s73 -> s2 [label="I_EMPTY_CERTIFICATE"];
	s73 -> s2 [label="I_CERTIFICATE_VERIFY"];
	s73 -> s2 [label="I_Alert(WARNING,CLOSE_NOTIFY)"];
	s73 -> s2 [label="I_Alert(FATAL,UNEXPECTED_MESSAGE)"];
	s73 -> s2 [label="O_HELLO_VERIFY_REQUEST"];
	s73 -> s2 [label="O_SERVER_HELLO"];
	s73 -> s74 [label="O_RSA_CERTIFICATE"];
	s73 -> s2 [label="O_CERTIFICATE_REQUEST"];
	s73 -> s2 [label="O_SERVER_HELLO_DONE"];
	s73 -> s2 [label="O_DHE_SERVER_KEY_EXCHANGE"];
	s73 -> s2 [label="O_ECDHE_SERVER_KEY_EXCHANGE"];
	s73 -> s2 [label="O_CHANGE_CIPHER_SPEC"];
	s73 -> s2 [label="O_FINISHED"];
	s73 -> s2 [label="O_APPLICATION"];
	s74 -> s2 [label="I_ECDH_CLIENT_HELLO"];
	s74 -> s2 [label="I_ECDH_CLIENT_KEY_EXCHANGE"];
	s74 -> s2 [label="I_DH_CLIENT_HELLO"];
	s74 -> s2 [label="I_DH_CLIENT_KEY_EXCHANGE"];
	s74 -> s2 [label="I_PSK_CLIENT_HELLO"];
	s74 -> s2 [label="I_PSK_CLIENT_KEY_EXCHANGE"];
	s74 -> s2 [label="I_RSA_CLIENT_HELLO"];
	s74 -> s2 [label="I_RSA_CLIENT_KEY_EXCHANGE"];
	s74 -> s2 [label="I_CHANGE_CIPHER_SPEC"];
	s74 -> s2 [label="I_FINISHED"];
	s74 -> s2 [label="I_APPLICATION"];
	s74 -> s2 [label="I_CERTIFICATE"];
	s74 -> s2 [label="I_EMPTY_CERTIFICATE"];
	s74 -> s2 [label="I_CERTIFICATE_VERIFY"];
	s74 -> s2 [label="I_Alert(WARNING,CLOSE_NOTIFY)"];
	s74 -> s2 [label="I_Alert(FATAL,UNEXPECTED_MESSAGE)"];
	s74 -> s2 [label="O_HELLO_VERIFY_REQUEST"];
	s74 -> s2 [label="O_SERVER_HELLO"];
	s74 -> s2 [label="O_RSA_CERTIFICATE"];
	s74 -> s75 [label="O_CERTIFICATE_REQUEST"];
	s74 -> s2 [label="O_SERVER_HELLO_DONE"];
	s74 -> s2 [label="O_DHE_SERVER_KEY_EXCHANGE"];
	s74 -> s2 [label="O_ECDHE_SERVER_KEY_EXCHANGE"];
	s74 -> s2 [label="O_CHANGE_CIPHER_SPEC"];
	s74 -> s2 [label="O_FINISHED"];
	s74 -> s2 [label="O_APPLICATION"];
	s75 -> s2 [label="I_ECDH_CLIENT_HELLO"];
	s75 -> s2 [label="I_ECDH_CLIENT_KEY_EXCHANGE"];
	s75 -> s2 [label="I_DH_CLIENT_HELLO"];
	s75 -> s2 [label="I_DH_CLIENT_KEY_EXCHANGE"];
	s75 -> s2 [label="I_PSK_CLIENT_HELLO"];
	s75 -> s2 [label="I_PSK_CLIENT_KEY_EXCHANGE"];
	s75 -> s2 [label="I_RSA_CLIENT_HELLO"];
	s75 -> s2 [label="I_RSA_CLIENT_KEY_EXCHANGE"];
	s75 -> s2 [label="I_CHANGE_CIPHER_SPEC"];
	s75 -> s2 [label="I_FINISHED"];
	s75 -> s2 [label="I_APPLICATION"];
	s75 -> s2 [label="I_CERTIFICATE"];
	s75 -> s2 [label="I_EMPTY_CERTIFICATE"];
	s75 -> s2 [label="I_CERTIFICATE_VERIFY"];
	s75 -> s2 [label="I_Alert(WARNING,CLOSE_NOTIFY)"];
	s75 -> s2 [label="I_Alert(FATAL,UNEXPECTED_MESSAGE)"];
	s75 -> s2 [label="O_HELLO_VERIFY_REQUEST"];
	s75 -> s2 [label="O_SERVER_HELLO"];
	s75 -> s2 [label="O_RSA_CERTIFICATE"];
	s75 -> s2 [label="O_CERTIFICATE_REQUEST"];
	s75 -> s76 [label="O_SERVER_HELLO_DONE"];
	s75 -> s2 [label="O_DHE_SERVER_KEY_EXCHANGE"];
	s75 -> s2 [label="O_ECDHE_SERVER_KEY_EXCHANGE"];
	s75 -> s2 [label="O_CHANGE_CIPHER_SPEC"];
	s75 -> s2 [label="O_FINISHED"];
	s75 -> s2 [label="O_APPLICATION"];
	s76 -> s10 [label="I_ECDH_CLIENT_HELLO"];
	s76 -> s12 [label="I_ECDH_CLIENT_KEY_EXCHANGE"];
	s76 -> s10 [label="I_DH_CLIENT_HELLO"];
	s76 -> s12 [label="I_DH_CLIENT_KEY_EXCHANGE"];
	s76 -> s10 [label="I_PSK_CLIENT_HELLO"];
	s76 -> s12 [label="I_PSK_CLIENT_KEY_EXCHANGE"];
	s76 -> s10 [label="I_RSA_CLIENT_HELLO"];
	s76 -> s12 [label="I_RSA_CLIENT_KEY_EXCHANGE"];
	s76 -> s19 [label="I_CHANGE_CIPHER_SPEC"];
	s76 -> s10 [label="I_FINISHED"];
	s76 -> s76 [label="I_APPLICATION"];
	s76 -> s77 [label="I_CERTIFICATE"];
	s76 -> s10 [label="I_EMPTY_CERTIFICATE"];
	s76 -> s10 [label="I_CERTIFICATE_VERIFY"];
	s76 -> s10 [label="I_Alert(WARNING,CLOSE_NOTIFY)"];
	s76 -> s10 [label="I_Alert(FATAL,UNEXPECTED_MESSAGE)"];
	s76 -> s2 [label="O_HELLO_VERIFY_REQUEST"];
	s76 -> s2 [label="O_SERVER_HELLO"];
	s76 -> s2 [label="O_RSA_CERTIFICATE"];
	s76 -> s2 [label="O_CERTIFICATE_REQUEST"];
	s76 -> s2 [label="O_SERVER_HELLO_DONE"];
	s76 -> s2 [label="O_DHE_SERVER_KEY_EXCHANGE"];
	s76 -> s2 [label="O_ECDHE_SERVER_KEY_EXCHANGE"];
	s76 -> s2 [label="O_CHANGE_CIPHER_SPEC"];
	s76 -> s2 [label="O_FINISHED"];
	s76 -> s2 [label="O_APPLICATION"];
	s77 -> s10 [label="I_ECDH_CLIENT_HELLO"];
	s77 -> s12 [label="I_ECDH_CLIENT_KEY_EXCHANGE"];
	s77 -> s10 [label="I_DH_CLIENT_HELLO"];
	s77 -> s45 [label="I_DH_CLIENT_KEY_EXCHANGE"];
	s77 -> s10 [label="I_PSK_CLIENT_HELLO"];
	s77 -> s45 [label="I_PSK_CLIENT_KEY_EXCHANGE"];
	s77 -> s10 [label="I_RSA_CLIENT_HELLO"];
	s77 -> s59 [label="I_RSA_CLIENT_KEY_EXCHANGE"];
	s77 -> s19 [label="I_CHANGE_CIPHER_SPEC"];
	s77 -> s10 [label="I_FINISHED"];
	s77 -> s77 [label="I_APPLICATION"];
	s77 -> s10 [label="I_CERTIFICATE"];
	s77 -> s10 [label="I_EMPTY_CERTIFICATE"];
	s77 -> s10 [label="I_CERTIFICATE_VERIFY"];
	s77 -> s10 [label="I_Alert(WARNING,CLOSE_NOTIFY)"];
	s77 -> s10 [label="I_Alert(FATAL,UNEXPECTED_MESSAGE)"];
	s77 -> s2 [label="O_HELLO_VERIFY_REQUEST"];
	s77 -> s2 [label="O_SERVER_HELLO"];
	s77 -> s2 [label="O_RSA_CERTIFICATE"];
	s77 -> s2 [label="O_CERTIFICATE_REQUEST"];
	s77 -> s2 [label="O_SERVER_HELLO_DONE"];
	s77 -> s2 [label="O_DHE_SERVER_KEY_EXCHANGE"];
	s77 -> s2 [label="O_ECDHE_SERVER_KEY_EXCHANGE"];
	s77 -> s2 [label="O_CHANGE_CIPHER_SPEC"];
	s77 -> s2 [label="O_FINISHED"];
	s77 -> s2 [label="O_APPLICATION"];
	s78 -> s2 [label="I_ECDH_CLIENT_HELLO"];
	s78 -> s2 [label="I_ECDH_CLIENT_KEY_EXCHANGE"];
	s78 -> s2 [label="I_DH_CLIENT_HELLO"];
	s78 -> s2 [label="I_DH_CLIENT_KEY_EXCHANGE"];
	s78 -> s2 [label="I_PSK_CLIENT_HELLO"];
	s78 -> s2 [label="I_PSK_CLIENT_KEY_EXCHANGE"];
	s78 -> s2 [label="I_RSA_CLIENT_HELLO"];
	s78 -> s2 [label="I_RSA_CLIENT_KEY_EXCHANGE"];
	s78 -> s2 [label="I_CHANGE_CIPHER_SPEC"];
	s78 -> s2 [label="I_FINISHED"];
	s78 -> s2 [label="I_APPLICATION"];
	s78 -> s2 [label="I_CERTIFICATE"];
	s78 -> s2 [label="I_EMPTY_CERTIFICATE"];
	s78 -> s2 [label="I_CERTIFICATE_VERIFY"];
	s78 -> s2 [label="I_Alert(WARNING,CLOSE_NOTIFY)"];
	s78 -> s2 [label="I_Alert(FATAL,UNEXPECTED_MESSAGE)"];
	s78 -> s79 [label="O_HELLO_VERIFY_REQUEST"];
	s78 -> s2 [label="O_SERVER_HELLO"];
	s78 -> s2 [label="O_RSA_CERTIFICATE"];
	s78 -> s2 [label="O_CERTIFICATE_REQUEST"];
	s78 -> s2 [label="O_SERVER_HELLO_DONE"];
	s78 -> s2 [label="O_DHE_SERVER_KEY_EXCHANGE"];
	s78 -> s2 [label="O_ECDHE_SERVER_KEY_EXCHANGE"];
	s78 -> s2 [label="O_CHANGE_CIPHER_SPEC"];
	s78 -> s2 [label="O_FINISHED"];
	s78 -> s2 [label="O_APPLICATION"];
	s79 -> s19 [label="I_ECDH_CLIENT_HELLO"];
	s79 -> s80 [label="I_ECDH_CLIENT_KEY_EXCHANGE"];
	s79 -> s19 [label="I_DH_CLIENT_HELLO"];
	s79 -> s80 [label="I_DH_CLIENT_KEY_EXCHANGE"];
	s79 -> s19 [label="I_PSK_CLIENT_HELLO"];
	s79 -> s80 [label="I_PSK_CLIENT_KEY_EXCHANGE"];
	s79 -> s19 [label="I_RSA_CLIENT_HELLO"];
	s79 -> s80 [label="I_RSA_CLIENT_KEY_EXCHANGE"];
	s79 -> s78 [label="I_CHANGE_CIPHER_SPEC"];
	s79 -> s78 [label="I_FINISHED"];
	s79 -> s78 [label="I_APPLICATION"];
	s79 -> s78 [label="I_CERTIFICATE"];
	s79 -> s78 [label="I_EMPTY_CERTIFICATE"];
	s79 -> s78 [label="I_CERTIFICATE_VERIFY"];
	s79 -> s78 [label="I_Alert(WARNING,CLOSE_NOTIFY)"];
	s79 -> s78 [label="I_Alert(FATAL,UNEXPECTED_MESSAGE)"];
	s79 -> s2 [label="O_HELLO_VERIFY_REQUEST"];
	s79 -> s2 [label="O_SERVER_HELLO"];
	s79 -> s2 [label="O_RSA_CERTIFICATE"];
	s79 -> s2 [label="O_CERTIFICATE_REQUEST"];
	s79 -> s2 [label="O_SERVER_HELLO_DONE"];
	s79 -> s2 [label="O_DHE_SERVER_KEY_EXCHANGE"];
	s79 -> s2 [label="O_ECDHE_SERVER_KEY_EXCHANGE"];
	s79 -> s2 [label="O_CHANGE_CIPHER_SPEC"];
	s79 -> s2 [label="O_FINISHED"];
	s79 -> s2 [label="O_APPLICATION"];
	s80 -> s2 [label="I_ECDH_CLIENT_HELLO"];
	s80 -> s2 [label="I_ECDH_CLIENT_KEY_EXCHANGE"];
	s80 -> s2 [label="I_DH_CLIENT_HELLO"];
	s80 -> s2 [label="I_DH_CLIENT_KEY_EXCHANGE"];
	s80 -> s2 [label="I_PSK_CLIENT_HELLO"];
	s80 -> s2 [label="I_PSK_CLIENT_KEY_EXCHANGE"];
	s80 -> s2 [label="I_RSA_CLIENT_HELLO"];
	s80 -> s2 [label="I_RSA_CLIENT_KEY_EXCHANGE"];
	s80 -> s2 [label="I_CHANGE_CIPHER_SPEC"];
	s80 -> s2 [label="I_FINISHED"];
	s80 -> s2 [label="I_APPLICATION"];
	s80 -> s2 [label="I_CERTIFICATE"];
	s80 -> s2 [label="I_EMPTY_CERTIFICATE"];
	s80 -> s2 [label="I_CERTIFICATE_VERIFY"];
	s80 -> s2 [label="I_Alert(WARNING,CLOSE_NOTIFY)"];
	s80 -> s2 [label="I_Alert(FATAL,UNEXPECTED_MESSAGE)"];
	s80 -> s81 [label="O_HELLO_VERIFY_REQUEST"];
	s80 -> s2 [label="O_SERVER_HELLO"];
	s80 -> s2 [label="O_RSA_CERTIFICATE"];
	s80 -> s2 [label="O_CERTIFICATE_REQUEST"];
	s80 -> s2 [label="O_SERVER_HELLO_DONE"];
	s80 -> s2 [label="O_DHE_SERVER_KEY_EXCHANGE"];
	s80 -> s2 [label="O_ECDHE_SERVER_KEY_EXCHANGE"];
	s80 -> s2 [label="O_CHANGE_CIPHER_SPEC"];
	s80 -> s2 [label="O_FINISHED"];
	s80 -> s2 [label="O_APPLICATION"];
	s81 -> s19 [label="I_ECDH_CLIENT_HELLO"];
	s81 -> s80 [label="I_ECDH_CLIENT_KEY_EXCHANGE"];
	s81 -> s19 [label="I_DH_CLIENT_HELLO"];
	s81 -> s80 [label="I_DH_CLIENT_KEY_EXCHANGE"];
	s81 -> s19 [label="I_PSK_CLIENT_HELLO"];
	s81 -> s80 [label="I_PSK_CLIENT_KEY_EXCHANGE"];
	s81 -> s19 [label="I_RSA_CLIENT_HELLO"];
	s81 -> s80 [label="I_RSA_CLIENT_KEY_EXCHANGE"];
	s81 -> s27 [label="I_CHANGE_CIPHER_SPEC"];
	s81 -> s80 [label="I_FINISHED"];
	s81 -> s80 [label="I_APPLICATION"];
	s81 -> s80 [label="I_CERTIFICATE"];
	s81 -> s80 [label="I_EMPTY_CERTIFICATE"];
	s81 -> s80 [label="I_CERTIFICATE_VERIFY"];
	s81 -> s80 [label="I_Alert(WARNING,CLOSE_NOTIFY)"];
	s81 -> s80 [label="I_Alert(FATAL,UNEXPECTED_MESSAGE)"];
	s81 -> s2 [label="O_HELLO_VERIFY_REQUEST"];
	s81 -> s2 [label="O_SERVER_HELLO"];
	s81 -> s2 [label="O_RSA_CERTIFICATE"];
	s81 -> s2 [label="O_CERTIFICATE_REQUEST"];
	s81 -> s2 [label="O_SERVER_HELLO_DONE"];
	s81 -> s2 [label="O_DHE_SERVER_KEY_EXCHANGE"];
	s81 -> s2 [label="O_ECDHE_SERVER_KEY_EXCHANGE"];
	s81 -> s2 [label="O_CHANGE_CIPHER_SPEC"];
	s81 -> s2 [label="O_FINISHED"];
	s81 -> s2 [label="O_APPLICATION"];
	s82 -> s2 [label="I_ECDH_CLIENT_HELLO"];
	s82 -> s2 [label="I_ECDH_CLIENT_KEY_EXCHANGE"];
	s82 -> s2 [label="I_DH_CLIENT_HELLO"];
	s82 -> s2 [label="I_DH_CLIENT_KEY_EXCHANGE"];
	s82 -> s2 [label="I_PSK_CLIENT_HELLO"];
	s82 -> s2 [label="I_PSK_CLIENT_KEY_EXCHANGE"];
	s82 -> s2 [label="I_RSA_CLIENT_HELLO"];
	s82 -> s2 [label="I_RSA_CLIENT_KEY_EXCHANGE"];
	s82 -> s2 [label="I_CHANGE_CIPHER_SPEC"];
	s82 -> s2 [label="I_FINISHED"];
	s82 -> s2 [label="I_APPLICATION"];
	s82 -> s2 [label="I_CERTIFICATE"];
	s82 -> s2 [label="I_EMPTY_CERTIFICATE"];
	s82 -> s2 [label="I_CERTIFICATE_VERIFY"];
	s82 -> s2 [label="I_Alert(WARNING,CLOSE_NOTIFY)"];
	s82 -> s2 [label="I_Alert(FATAL,UNEXPECTED_MESSAGE)"];
	s82 -> s10 [label="O_HELLO_VERIFY_REQUEST"];
	s82 -> s2 [label="O_SERVER_HELLO"];
	s82 -> s2 [label="O_RSA_CERTIFICATE"];
	s82 -> s2 [label="O_CERTIFICATE_REQUEST"];
	s82 -> s2 [label="O_SERVER_HELLO_DONE"];
	s82 -> s2 [label="O_DHE_SERVER_KEY_EXCHANGE"];
	s82 -> s2 [label="O_ECDHE_SERVER_KEY_EXCHANGE"];
	s82 -> s2 [label="O_CHANGE_CIPHER_SPEC"];
	s82 -> s2 [label="O_FINISHED"];
	s82 -> s2 [label="O_APPLICATION"];
	s83 -> s10 [label="I_ECDH_CLIENT_HELLO"];
	s83 -> s21 [label="I_ECDH_CLIENT_KEY_EXCHANGE"];
	s83 -> s10 [label="I_DH_CLIENT_HELLO"];
	s83 -> s12 [label="I_DH_CLIENT_KEY_EXCHANGE"];
	s83 -> s10 [label="I_PSK_CLIENT_HELLO"];
	s83 -> s12 [label="I_PSK_CLIENT_KEY_EXCHANGE"];
	s83 -> s10 [label="I_RSA_CLIENT_HELLO"];
	s83 -> s12 [label="I_RSA_CLIENT_KEY_EXCHANGE"];
	s83 -> s19 [label="I_CHANGE_CIPHER_SPEC"];
	s83 -> s10 [label="I_FINISHED"];
	s83 -> s83 [label="I_APPLICATION"];
	s83 -> s10 [label="I_CERTIFICATE"];
	s83 -> s10 [label="I_EMPTY_CERTIFICATE"];
	s83 -> s10 [label="I_CERTIFICATE_VERIFY"];
	s83 -> s10 [label="I_Alert(WARNING,CLOSE_NOTIFY)"];
	s83 -> s10 [label="I_Alert(FATAL,UNEXPECTED_MESSAGE)"];
	s83 -> s2 [label="O_HELLO_VERIFY_REQUEST"];
	s83 -> s2 [label="O_SERVER_HELLO"];
	s83 -> s2 [label="O_RSA_CERTIFICATE"];
	s83 -> s2 [label="O_CERTIFICATE_REQUEST"];
	s83 -> s2 [label="O_SERVER_HELLO_DONE"];
	s83 -> s2 [label="O_DHE_SERVER_KEY_EXCHANGE"];
	s83 -> s2 [label="O_ECDHE_SERVER_KEY_EXCHANGE"];
	s83 -> s2 [label="O_CHANGE_CIPHER_SPEC"];
	s83 -> s2 [label="O_FINISHED"];
	s83 -> s2 [label="O_APPLICATION"];
	s84 -> s2 [label="I_ECDH_CLIENT_HELLO"];
	s84 -> s2 [label="I_ECDH_CLIENT_KEY_EXCHANGE"];
	s84 -> s2 [label="I_DH_CLIENT_HELLO"];
	s84 -> s2 [label="I_DH_CLIENT_KEY_EXCHANGE"];
	s84 -> s2 [label="I_PSK_CLIENT_HELLO"];
	s84 -> s2 [label="I_PSK_CLIENT_KEY_EXCHANGE"];
	s84 -> s2 [label="I_RSA_CLIENT_HELLO"];
	s84 -> s2 [label="I_RSA_CLIENT_KEY_EXCHANGE"];
	s84 -> s2 [label="I_CHANGE_CIPHER_SPEC"];
	s84 -> s2 [label="I_FINISHED"];
	s84 -> s2 [label="I_APPLICATION"];
	s84 -> s2 [label="I_CERTIFICATE"];
	s84 -> s2 [label="I_EMPTY_CERTIFICATE"];
	s84 -> s2 [label="I_CERTIFICATE_VERIFY"];
	s84 -> s2 [label="I_Alert(WARNING,CLOSE_NOTIFY)"];
	s84 -> s2 [label="I_Alert(FATAL,UNEXPECTED_MESSAGE)"];
	s84 -> s85 [label="O_HELLO_VERIFY_REQUEST"];
	s84 -> s2 [label="O_SERVER_HELLO"];
	s84 -> s2 [label="O_RSA_CERTIFICATE"];
	s84 -> s2 [label="O_CERTIFICATE_REQUEST"];
	s84 -> s2 [label="O_SERVER_HELLO_DONE"];
	s84 -> s2 [label="O_DHE_SERVER_KEY_EXCHANGE"];
	s84 -> s2 [label="O_ECDHE_SERVER_KEY_EXCHANGE"];
	s84 -> s2 [label="O_CHANGE_CIPHER_SPEC"];
	s84 -> s2 [label="O_FINISHED"];
	s84 -> s2 [label="O_APPLICATION"];
	s85 -> s19 [label="I_ECDH_CLIENT_HELLO"];
	s85 -> s84 [label="I_ECDH_CLIENT_KEY_EXCHANGE"];
	s85 -> s19 [label="I_DH_CLIENT_HELLO"];
	s85 -> s84 [label="I_DH_CLIENT_KEY_EXCHANGE"];
	s85 -> s19 [label="I_PSK_CLIENT_HELLO"];
	s85 -> s84 [label="I_PSK_CLIENT_KEY_EXCHANGE"];
	s85 -> s19 [label="I_RSA_CLIENT_HELLO"];
	s85 -> s84 [label="I_RSA_CLIENT_KEY_EXCHANGE"];
	s85 -> s84 [label="I_CHANGE_CIPHER_SPEC"];
	s85 -> s84 [label="I_FINISHED"];
	s85 -> s84 [label="I_APPLICATION"];
	s85 -> s84 [label="I_CERTIFICATE"];
	s85 -> s84 [label="I_EMPTY_CERTIFICATE"];
	s85 -> s84 [label="I_CERTIFICATE_VERIFY"];
	s85 -> s84 [label="I_Alert(WARNING,CLOSE_NOTIFY)"];
	s85 -> s84 [label="I_Alert(FATAL,UNEXPECTED_MESSAGE)"];
	s85 -> s2 [label="O_HELLO_VERIFY_REQUEST"];
	s85 -> s2 [label="O_SERVER_HELLO"];
	s85 -> s2 [label="O_RSA_CERTIFICATE"];
	s85 -> s2 [label="O_CERTIFICATE_REQUEST"];
	s85 -> s2 [label="O_SERVER_HELLO_DONE"];
	s85 -> s2 [label="O_DHE_SERVER_KEY_EXCHANGE"];
	s85 -> s2 [label="O_ECDHE_SERVER_KEY_EXCHANGE"];
	s85 -> s2 [label="O_CHANGE_CIPHER_SPEC"];
	s85 -> s2 [label="O_FINISHED"];
	s85 -> s2 [label="O_APPLICATION"];

__start0 [label="" shape="none" width="0" height="0"];
__start0 -> s0;

}
