digraph g {

	s0 [shape="circle" label="s0"];
	s1 [shape="circle" label="s1"];
	s2 [shape="circle" label="s2"];
	s3 [shape="circle" label="s3"];
	s4 [shape="circle" label="s4"];
	s5 [shape="circle" label="s5"];
	s6 [shape="circle" label="s6"];
	s7 [shape="circle" label="s7"];
	s8 [shape="circle" label="s8"];
	s9 [shape="circle" label="s9"];
	s10 [shape="circle" label="s10"];
	s11 [shape="circle" label="s11"];
	s12 [shape="circle" label="s12"];
	s13 [shape="circle" label="s13"];
	s14 [shape="circle" label="s14"];
	s15 [shape="circle" label="s15"];
	s16 [shape="circle" label="s16"];
	s17 [shape="circle" label="s17"];
	s18 [shape="circle" label="s18"];
	s19 [shape="circle" label="s19"];
	s20 [shape="circle" label="s20"];
	s21 [shape="circle" label="s21"];
	s22 [shape="circle" label="s22"];
	s23 [shape="circle" label="s23"];
	s24 [shape="circle" label="s24"];
	s25 [shape="circle" label="s25"];
	s26 [shape="circle" label="s26"];
	s27 [shape="circle" label="s27"];
	s28 [shape="circle" label="s28"];
	s29 [shape="circle" label="s29"];
	s30 [shape="circle" label="s30"];
	s31 [shape="circle" label="s31"];
	s32 [shape="circle" label="s32"];
	s33 [shape="circle" label="s33"];
	s34 [shape="circle" label="s34"];
	s35 [shape="circle" label="s35"];
	s36 [shape="circle" label="s36"];
	s37 [shape="circle" label="s37"];
	s38 [shape="circle" label="s38"];
	s39 [shape="circle" label="s39"];
	s40 [shape="circle" label="s40"];
	s41 [shape="circle" label="s41"];
	s42 [shape="circle" label="s42"];
	s43 [shape="circle" label="s43"];
	s44 [shape="circle" label="s44"];
	s45 [shape="circle" label="s45"];
	s0 -> s7 [label="HELLO_VERIFY_REQUEST / CLIENT_HELLO+"];
	s0 -> s2 [label="ECDH_SERVER_HELLO / CLIENT_HELLO"];
	s0 -> s1 [label="ECDH_SERVER_KEY_EXCHANGE / CLIENT_HELLO|Alert(FATAL,DECODE_ERROR)"];
	s0 -> s1 [label="RSA_SIGN_CERTIFICATE_REQUEST / CLIENT_HELLO|Alert(FATAL,DECODE_ERROR)"];
	s0 -> s1 [label="RSA_FIXED_ECDH_CERTIFICATE_REQUEST / CLIENT_HELLO|Alert(FATAL,DECODE_ERROR)"];
	s0 -> s1 [label="RSA_FIXED_DH_CERTIFICATE_REQUEST / CLIENT_HELLO|Alert(FATAL,DECODE_ERROR)"];
	s0 -> s1 [label="DSS_SIGN_CERTIFICATE_REQUEST / CLIENT_HELLO|Alert(FATAL,DECODE_ERROR)"];
	s0 -> s1 [label="DSS_FIXED_DH_CERTIFICATE_REQUEST / CLIENT_HELLO|Alert(FATAL,DECODE_ERROR)"];
	s0 -> s1 [label="ECDSA_SIGN_CERTIFICATE_REQUEST / CLIENT_HELLO|Alert(FATAL,DECODE_ERROR)"];
	s0 -> s1 [label="HELLO_REQUEST / CLIENT_HELLO|Alert(FATAL,DECODE_ERROR)"];
	s0 -> s1 [label="SERVER_HELLO_DONE / CLIENT_HELLO|Alert(FATAL,DECODE_ERROR)"];
	s0 -> s3 [label="CHANGE_CIPHER_SPEC / CLIENT_HELLO"];
	s0 -> s1 [label="FINISHED / CLIENT_HELLO|Alert(FATAL,DECODE_ERROR)"];
	s0 -> s4 [label="APPLICATION / CLIENT_HELLO"];
	s0 -> s1 [label="CERTIFICATE / CLIENT_HELLO|Alert(FATAL,DECODE_ERROR)"];
	s0 -> s1 [label="EMPTY_CERTIFICATE / CLIENT_HELLO|Alert(FATAL,DECODE_ERROR)"];
	s0 -> s1 [label="Alert(WARNING,CLOSE_NOTIFY) / CLIENT_HELLO"];
	s0 -> s1 [label="Alert(FATAL,UNEXPECTED_MESSAGE) / CLIENT_HELLO"];
	s1 -> s1 [label="HELLO_VERIFY_REQUEST / SOCKET_CLOSED"];
	s1 -> s1 [label="ECDH_SERVER_HELLO / SOCKET_CLOSED"];
	s1 -> s1 [label="ECDH_SERVER_KEY_EXCHANGE / SOCKET_CLOSED"];
	s1 -> s1 [label="RSA_SIGN_CERTIFICATE_REQUEST / SOCKET_CLOSED"];
	s1 -> s1 [label="RSA_FIXED_ECDH_CERTIFICATE_REQUEST / SOCKET_CLOSED"];
	s1 -> s1 [label="RSA_FIXED_DH_CERTIFICATE_REQUEST / SOCKET_CLOSED"];
	s1 -> s1 [label="DSS_SIGN_CERTIFICATE_REQUEST / SOCKET_CLOSED"];
	s1 -> s1 [label="DSS_FIXED_DH_CERTIFICATE_REQUEST / SOCKET_CLOSED"];
	s1 -> s1 [label="ECDSA_SIGN_CERTIFICATE_REQUEST / SOCKET_CLOSED"];
	s1 -> s1 [label="HELLO_REQUEST / SOCKET_CLOSED"];
	s1 -> s1 [label="SERVER_HELLO_DONE / SOCKET_CLOSED"];
	s1 -> s1 [label="CHANGE_CIPHER_SPEC / SOCKET_CLOSED"];
	s1 -> s1 [label="FINISHED / SOCKET_CLOSED"];
	s1 -> s1 [label="APPLICATION / SOCKET_CLOSED"];
	s1 -> s1 [label="CERTIFICATE / SOCKET_CLOSED"];
	s1 -> s1 [label="EMPTY_CERTIFICATE / SOCKET_CLOSED"];
	s1 -> s1 [label="Alert(WARNING,CLOSE_NOTIFY) / SOCKET_CLOSED"];
	s1 -> s1 [label="Alert(FATAL,UNEXPECTED_MESSAGE) / SOCKET_CLOSED"];
	s2 -> s1 [label="HELLO_VERIFY_REQUEST / Alert(FATAL,DECODE_ERROR)"];
	s2 -> s1 [label="ECDH_SERVER_HELLO / Alert(FATAL,DECODE_ERROR)"];
	s2 -> s1 [label="ECDH_SERVER_KEY_EXCHANGE / Alert(FATAL,DECODE_ERROR)"];
	s2 -> s1 [label="RSA_SIGN_CERTIFICATE_REQUEST / Alert(FATAL,DECODE_ERROR)"];
	s2 -> s1 [label="RSA_FIXED_ECDH_CERTIFICATE_REQUEST / Alert(FATAL,DECODE_ERROR)"];
	s2 -> s1 [label="RSA_FIXED_DH_CERTIFICATE_REQUEST / Alert(FATAL,DECODE_ERROR)"];
	s2 -> s1 [label="DSS_SIGN_CERTIFICATE_REQUEST / Alert(FATAL,DECODE_ERROR)"];
	s2 -> s1 [label="DSS_FIXED_DH_CERTIFICATE_REQUEST / Alert(FATAL,DECODE_ERROR)"];
	s2 -> s1 [label="ECDSA_SIGN_CERTIFICATE_REQUEST / Alert(FATAL,DECODE_ERROR)"];
	s2 -> s5 [label="HELLO_REQUEST / TIMEOUT"];
	s2 -> s1 [label="SERVER_HELLO_DONE / Alert(FATAL,DECODE_ERROR)"];
	s2 -> s3 [label="CHANGE_CIPHER_SPEC / TIMEOUT"];
	s2 -> s1 [label="FINISHED / Alert(FATAL,DECODE_ERROR)"];
	s2 -> s2 [label="APPLICATION / TIMEOUT"];
	s2 -> s6 [label="CERTIFICATE / TIMEOUT"];
	s2 -> s1 [label="EMPTY_CERTIFICATE / Alert(FATAL,DECODE_ERROR)"];
	s2 -> s1 [label="Alert(WARNING,CLOSE_NOTIFY) / TIMEOUT"];
	s2 -> s1 [label="Alert(FATAL,UNEXPECTED_MESSAGE) / TIMEOUT"];
	s3 -> s3 [label="HELLO_VERIFY_REQUEST / TIMEOUT"];
	s3 -> s3 [label="ECDH_SERVER_HELLO / TIMEOUT"];
	s3 -> s3 [label="ECDH_SERVER_KEY_EXCHANGE / TIMEOUT"];
	s3 -> s3 [label="RSA_SIGN_CERTIFICATE_REQUEST / TIMEOUT"];
	s3 -> s3 [label="RSA_FIXED_ECDH_CERTIFICATE_REQUEST / TIMEOUT"];
	s3 -> s3 [label="RSA_FIXED_DH_CERTIFICATE_REQUEST / TIMEOUT"];
	s3 -> s3 [label="DSS_SIGN_CERTIFICATE_REQUEST / TIMEOUT"];
	s3 -> s3 [label="DSS_FIXED_DH_CERTIFICATE_REQUEST / TIMEOUT"];
	s3 -> s3 [label="ECDSA_SIGN_CERTIFICATE_REQUEST / TIMEOUT"];
	s3 -> s5 [label="HELLO_REQUEST / TIMEOUT"];
	s3 -> s3 [label="SERVER_HELLO_DONE / TIMEOUT"];
	s3 -> s3 [label="CHANGE_CIPHER_SPEC / TIMEOUT"];
	s3 -> s3 [label="FINISHED / TIMEOUT"];
	s3 -> s3 [label="APPLICATION / TIMEOUT"];
	s3 -> s3 [label="CERTIFICATE / TIMEOUT"];
	s3 -> s3 [label="EMPTY_CERTIFICATE / TIMEOUT"];
	s3 -> s3 [label="Alert(WARNING,CLOSE_NOTIFY) / TIMEOUT"];
	s3 -> s3 [label="Alert(FATAL,UNEXPECTED_MESSAGE) / TIMEOUT"];
	s4 -> s7 [label="HELLO_VERIFY_REQUEST / CLIENT_HELLO"];
	s4 -> s2 [label="ECDH_SERVER_HELLO / TIMEOUT"];
	s4 -> s1 [label="ECDH_SERVER_KEY_EXCHANGE / Alert(FATAL,DECODE_ERROR)"];
	s4 -> s1 [label="RSA_SIGN_CERTIFICATE_REQUEST / Alert(FATAL,DECODE_ERROR)"];
	s4 -> s1 [label="RSA_FIXED_ECDH_CERTIFICATE_REQUEST / Alert(FATAL,DECODE_ERROR)"];
	s4 -> s1 [label="RSA_FIXED_DH_CERTIFICATE_REQUEST / Alert(FATAL,DECODE_ERROR)"];
	s4 -> s1 [label="DSS_SIGN_CERTIFICATE_REQUEST / Alert(FATAL,DECODE_ERROR)"];
	s4 -> s1 [label="DSS_FIXED_DH_CERTIFICATE_REQUEST / Alert(FATAL,DECODE_ERROR)"];
	s4 -> s1 [label="ECDSA_SIGN_CERTIFICATE_REQUEST / Alert(FATAL,DECODE_ERROR)"];
	s4 -> s1 [label="HELLO_REQUEST / Alert(FATAL,DECODE_ERROR)"];
	s4 -> s1 [label="SERVER_HELLO_DONE / Alert(FATAL,DECODE_ERROR)"];
	s4 -> s3 [label="CHANGE_CIPHER_SPEC / TIMEOUT"];
	s4 -> s1 [label="FINISHED / Alert(FATAL,DECODE_ERROR)"];
	s4 -> s4 [label="APPLICATION / TIMEOUT"];
	s4 -> s1 [label="CERTIFICATE / Alert(FATAL,DECODE_ERROR)"];
	s4 -> s1 [label="EMPTY_CERTIFICATE / Alert(FATAL,DECODE_ERROR)"];
	s4 -> s1 [label="Alert(WARNING,CLOSE_NOTIFY) / TIMEOUT"];
	s4 -> s1 [label="Alert(FATAL,UNEXPECTED_MESSAGE) / TIMEOUT"];
	s5 -> s5 [label="HELLO_VERIFY_REQUEST / DISABLED"];
	s5 -> s5 [label="ECDH_SERVER_HELLO / DISABLED"];
	s5 -> s5 [label="ECDH_SERVER_KEY_EXCHANGE / DISABLED"];
	s5 -> s5 [label="RSA_SIGN_CERTIFICATE_REQUEST / DISABLED"];
	s5 -> s5 [label="RSA_FIXED_ECDH_CERTIFICATE_REQUEST / DISABLED"];
	s5 -> s5 [label="RSA_FIXED_DH_CERTIFICATE_REQUEST / DISABLED"];
	s5 -> s5 [label="DSS_SIGN_CERTIFICATE_REQUEST / DISABLED"];
	s5 -> s5 [label="DSS_FIXED_DH_CERTIFICATE_REQUEST / DISABLED"];
	s5 -> s5 [label="ECDSA_SIGN_CERTIFICATE_REQUEST / DISABLED"];
	s5 -> s5 [label="HELLO_REQUEST / DISABLED"];
	s5 -> s5 [label="SERVER_HELLO_DONE / DISABLED"];
	s5 -> s5 [label="CHANGE_CIPHER_SPEC / DISABLED"];
	s5 -> s5 [label="FINISHED / DISABLED"];
	s5 -> s5 [label="APPLICATION / DISABLED"];
	s5 -> s5 [label="CERTIFICATE / DISABLED"];
	s5 -> s5 [label="EMPTY_CERTIFICATE / DISABLED"];
	s5 -> s5 [label="Alert(WARNING,CLOSE_NOTIFY) / DISABLED"];
	s5 -> s5 [label="Alert(FATAL,UNEXPECTED_MESSAGE) / DISABLED"];
	s6 -> s1 [label="HELLO_VERIFY_REQUEST / Alert(FATAL,UNEXPECTED_MESSAGE)"];
	s6 -> s1 [label="ECDH_SERVER_HELLO / Alert(FATAL,UNEXPECTED_MESSAGE)"];
	s6 -> s37 [label="ECDH_SERVER_KEY_EXCHANGE / TIMEOUT"];
	s6 -> s1 [label="RSA_SIGN_CERTIFICATE_REQUEST / Alert(FATAL,UNEXPECTED_MESSAGE)"];
	s6 -> s1 [label="RSA_FIXED_ECDH_CERTIFICATE_REQUEST / Alert(FATAL,UNEXPECTED_MESSAGE)"];
	s6 -> s1 [label="RSA_FIXED_DH_CERTIFICATE_REQUEST / Alert(FATAL,UNEXPECTED_MESSAGE)"];
	s6 -> s1 [label="DSS_SIGN_CERTIFICATE_REQUEST / Alert(FATAL,UNEXPECTED_MESSAGE)"];
	s6 -> s1 [label="DSS_FIXED_DH_CERTIFICATE_REQUEST / Alert(FATAL,UNEXPECTED_MESSAGE)"];
	s6 -> s1 [label="ECDSA_SIGN_CERTIFICATE_REQUEST / Alert(FATAL,UNEXPECTED_MESSAGE)"];
	s6 -> s5 [label="HELLO_REQUEST / TIMEOUT"];
	s6 -> s1 [label="SERVER_HELLO_DONE / Alert(FATAL,UNEXPECTED_MESSAGE)"];
	s6 -> s3 [label="CHANGE_CIPHER_SPEC / TIMEOUT"];
	s6 -> s1 [label="FINISHED / Alert(FATAL,UNEXPECTED_MESSAGE)"];
	s6 -> s6 [label="APPLICATION / TIMEOUT"];
	s6 -> s1 [label="CERTIFICATE / Alert(FATAL,UNEXPECTED_MESSAGE)"];
	s6 -> s1 [label="EMPTY_CERTIFICATE / Alert(FATAL,UNEXPECTED_MESSAGE)"];
	s6 -> s1 [label="Alert(WARNING,CLOSE_NOTIFY) / TIMEOUT"];
	s6 -> s1 [label="Alert(FATAL,UNEXPECTED_MESSAGE) / TIMEOUT"];
	s7 -> s8 [label="HELLO_VERIFY_REQUEST / CLIENT_HELLO"];
	s7 -> s9 [label="ECDH_SERVER_HELLO / TIMEOUT"];
	s7 -> s1 [label="ECDH_SERVER_KEY_EXCHANGE / Alert(FATAL,DECODE_ERROR)"];
	s7 -> s1 [label="RSA_SIGN_CERTIFICATE_REQUEST / Alert(FATAL,DECODE_ERROR)"];
	s7 -> s1 [label="RSA_FIXED_ECDH_CERTIFICATE_REQUEST / Alert(FATAL,DECODE_ERROR)"];
	s7 -> s1 [label="RSA_FIXED_DH_CERTIFICATE_REQUEST / Alert(FATAL,DECODE_ERROR)"];
	s7 -> s1 [label="DSS_SIGN_CERTIFICATE_REQUEST / Alert(FATAL,DECODE_ERROR)"];
	s7 -> s1 [label="DSS_FIXED_DH_CERTIFICATE_REQUEST / Alert(FATAL,DECODE_ERROR)"];
	s7 -> s1 [label="ECDSA_SIGN_CERTIFICATE_REQUEST / Alert(FATAL,DECODE_ERROR)"];
	s7 -> s7 [label="HELLO_REQUEST / CLIENT_HELLO"];
	s7 -> s1 [label="SERVER_HELLO_DONE / Alert(FATAL,DECODE_ERROR)"];
	s7 -> s3 [label="CHANGE_CIPHER_SPEC / TIMEOUT"];
	s7 -> s1 [label="FINISHED / Alert(FATAL,DECODE_ERROR)"];
	s7 -> s7 [label="APPLICATION / TIMEOUT"];
	s7 -> s1 [label="CERTIFICATE / Alert(FATAL,DECODE_ERROR)"];
	s7 -> s1 [label="EMPTY_CERTIFICATE / Alert(FATAL,DECODE_ERROR)"];
	s7 -> s1 [label="Alert(WARNING,CLOSE_NOTIFY) / TIMEOUT"];
	s7 -> s1 [label="Alert(FATAL,UNEXPECTED_MESSAGE) / TIMEOUT"];
	s8 -> s8 [label="HELLO_VERIFY_REQUEST / CLIENT_HELLO"];
	s8 -> s2 [label="ECDH_SERVER_HELLO / TIMEOUT"];
	s8 -> s1 [label="ECDH_SERVER_KEY_EXCHANGE / Alert(FATAL,DECODE_ERROR)"];
	s8 -> s1 [label="RSA_SIGN_CERTIFICATE_REQUEST / Alert(FATAL,DECODE_ERROR)"];
	s8 -> s1 [label="RSA_FIXED_ECDH_CERTIFICATE_REQUEST / Alert(FATAL,DECODE_ERROR)"];
	s8 -> s1 [label="RSA_FIXED_DH_CERTIFICATE_REQUEST / Alert(FATAL,DECODE_ERROR)"];
	s8 -> s1 [label="DSS_SIGN_CERTIFICATE_REQUEST / Alert(FATAL,DECODE_ERROR)"];
	s8 -> s1 [label="DSS_FIXED_DH_CERTIFICATE_REQUEST / Alert(FATAL,DECODE_ERROR)"];
	s8 -> s1 [label="ECDSA_SIGN_CERTIFICATE_REQUEST / Alert(FATAL,DECODE_ERROR)"];
	s8 -> s5 [label="HELLO_REQUEST / TIMEOUT"];
	s8 -> s1 [label="SERVER_HELLO_DONE / Alert(FATAL,DECODE_ERROR)"];
	s8 -> s3 [label="CHANGE_CIPHER_SPEC / TIMEOUT"];
	s8 -> s1 [label="FINISHED / Alert(FATAL,DECODE_ERROR)"];
	s8 -> s8 [label="APPLICATION / TIMEOUT"];
	s8 -> s1 [label="CERTIFICATE / Alert(FATAL,DECODE_ERROR)"];
	s8 -> s1 [label="EMPTY_CERTIFICATE / Alert(FATAL,DECODE_ERROR)"];
	s8 -> s1 [label="Alert(WARNING,CLOSE_NOTIFY) / TIMEOUT"];
	s8 -> s1 [label="Alert(FATAL,UNEXPECTED_MESSAGE) / TIMEOUT"];
	s9 -> s1 [label="HELLO_VERIFY_REQUEST / Alert(FATAL,DECODE_ERROR)"];
	s9 -> s1 [label="ECDH_SERVER_HELLO / Alert(FATAL,DECODE_ERROR)"];
	s9 -> s1 [label="ECDH_SERVER_KEY_EXCHANGE / Alert(FATAL,DECODE_ERROR)"];
	s9 -> s1 [label="RSA_SIGN_CERTIFICATE_REQUEST / Alert(FATAL,DECODE_ERROR)"];
	s9 -> s1 [label="RSA_FIXED_ECDH_CERTIFICATE_REQUEST / Alert(FATAL,DECODE_ERROR)"];
	s9 -> s1 [label="RSA_FIXED_DH_CERTIFICATE_REQUEST / Alert(FATAL,DECODE_ERROR)"];
	s9 -> s1 [label="DSS_SIGN_CERTIFICATE_REQUEST / Alert(FATAL,DECODE_ERROR)"];
	s9 -> s1 [label="DSS_FIXED_DH_CERTIFICATE_REQUEST / Alert(FATAL,DECODE_ERROR)"];
	s9 -> s1 [label="ECDSA_SIGN_CERTIFICATE_REQUEST / Alert(FATAL,DECODE_ERROR)"];
	s9 -> s10 [label="HELLO_REQUEST / CLIENT_HELLO"];
	s9 -> s1 [label="SERVER_HELLO_DONE / Alert(FATAL,DECODE_ERROR)"];
	s9 -> s3 [label="CHANGE_CIPHER_SPEC / TIMEOUT"];
	s9 -> s1 [label="FINISHED / Alert(FATAL,DECODE_ERROR)"];
	s9 -> s9 [label="APPLICATION / TIMEOUT"];
	s9 -> s11 [label="CERTIFICATE / TIMEOUT"];
	s9 -> s1 [label="EMPTY_CERTIFICATE / Alert(FATAL,DECODE_ERROR)"];
	s9 -> s1 [label="Alert(WARNING,CLOSE_NOTIFY) / TIMEOUT"];
	s9 -> s1 [label="Alert(FATAL,UNEXPECTED_MESSAGE) / TIMEOUT"];
	s10 -> s9 [label="HELLO_VERIFY_REQUEST / TIMEOUT"];
	s10 -> s42 [label="ECDH_SERVER_HELLO / TIMEOUT"];
	s10 -> s9 [label="ECDH_SERVER_KEY_EXCHANGE / TIMEOUT"];
	s10 -> s9 [label="RSA_SIGN_CERTIFICATE_REQUEST / TIMEOUT"];
	s10 -> s9 [label="RSA_FIXED_ECDH_CERTIFICATE_REQUEST / TIMEOUT"];
	s10 -> s9 [label="RSA_FIXED_DH_CERTIFICATE_REQUEST / TIMEOUT"];
	s10 -> s9 [label="DSS_SIGN_CERTIFICATE_REQUEST / TIMEOUT"];
	s10 -> s9 [label="DSS_FIXED_DH_CERTIFICATE_REQUEST / TIMEOUT"];
	s10 -> s9 [label="ECDSA_SIGN_CERTIFICATE_REQUEST / TIMEOUT"];
	s10 -> s10 [label="HELLO_REQUEST / CLIENT_HELLO"];
	s10 -> s9 [label="SERVER_HELLO_DONE / TIMEOUT"];
	s10 -> s3 [label="CHANGE_CIPHER_SPEC / TIMEOUT"];
	s10 -> s9 [label="FINISHED / TIMEOUT"];
	s10 -> s10 [label="APPLICATION / TIMEOUT"];
	s10 -> s9 [label="CERTIFICATE / TIMEOUT"];
	s10 -> s9 [label="EMPTY_CERTIFICATE / TIMEOUT"];
	s10 -> s1 [label="Alert(WARNING,CLOSE_NOTIFY) / TIMEOUT"];
	s10 -> s1 [label="Alert(FATAL,UNEXPECTED_MESSAGE) / TIMEOUT"];
	s11 -> s1 [label="HELLO_VERIFY_REQUEST / Alert(FATAL,UNEXPECTED_MESSAGE)"];
	s11 -> s1 [label="ECDH_SERVER_HELLO / Alert(FATAL,UNEXPECTED_MESSAGE)"];
	s11 -> s12 [label="ECDH_SERVER_KEY_EXCHANGE / TIMEOUT"];
	s11 -> s1 [label="RSA_SIGN_CERTIFICATE_REQUEST / Alert(FATAL,UNEXPECTED_MESSAGE)"];
	s11 -> s1 [label="RSA_FIXED_ECDH_CERTIFICATE_REQUEST / Alert(FATAL,UNEXPECTED_MESSAGE)"];
	s11 -> s1 [label="RSA_FIXED_DH_CERTIFICATE_REQUEST / Alert(FATAL,UNEXPECTED_MESSAGE)"];
	s11 -> s1 [label="DSS_SIGN_CERTIFICATE_REQUEST / Alert(FATAL,UNEXPECTED_MESSAGE)"];
	s11 -> s1 [label="DSS_FIXED_DH_CERTIFICATE_REQUEST / Alert(FATAL,UNEXPECTED_MESSAGE)"];
	s11 -> s1 [label="ECDSA_SIGN_CERTIFICATE_REQUEST / Alert(FATAL,UNEXPECTED_MESSAGE)"];
	s11 -> s15 [label="HELLO_REQUEST / CLIENT_HELLO"];
	s11 -> s1 [label="SERVER_HELLO_DONE / Alert(FATAL,UNEXPECTED_MESSAGE)"];
	s11 -> s3 [label="CHANGE_CIPHER_SPEC / TIMEOUT"];
	s11 -> s1 [label="FINISHED / Alert(FATAL,UNEXPECTED_MESSAGE)"];
	s11 -> s11 [label="APPLICATION / TIMEOUT"];
	s11 -> s1 [label="CERTIFICATE / Alert(FATAL,UNEXPECTED_MESSAGE)"];
	s11 -> s1 [label="EMPTY_CERTIFICATE / Alert(FATAL,UNEXPECTED_MESSAGE)"];
	s11 -> s1 [label="Alert(WARNING,CLOSE_NOTIFY) / TIMEOUT"];
	s11 -> s1 [label="Alert(FATAL,UNEXPECTED_MESSAGE) / TIMEOUT"];
	s12 -> s1 [label="HELLO_VERIFY_REQUEST / Alert(FATAL,DECODE_ERROR)"];
	s12 -> s1 [label="ECDH_SERVER_HELLO / Alert(FATAL,DECODE_ERROR)"];
	s12 -> s1 [label="ECDH_SERVER_KEY_EXCHANGE / Alert(FATAL,DECODE_ERROR)"];
	s12 -> s26 [label="RSA_SIGN_CERTIFICATE_REQUEST / TIMEOUT"];
	s12 -> s26 [label="RSA_FIXED_ECDH_CERTIFICATE_REQUEST / TIMEOUT"];
	s12 -> s26 [label="RSA_FIXED_DH_CERTIFICATE_REQUEST / TIMEOUT"];
	s12 -> s26 [label="DSS_SIGN_CERTIFICATE_REQUEST / TIMEOUT"];
	s12 -> s26 [label="DSS_FIXED_DH_CERTIFICATE_REQUEST / TIMEOUT"];
	s12 -> s26 [label="ECDSA_SIGN_CERTIFICATE_REQUEST / TIMEOUT"];
	s12 -> s13 [label="HELLO_REQUEST / CLIENT_HELLO"];
	s12 -> s18 [label="SERVER_HELLO_DONE / ECDH_CLIENT_KEY_EXCHANGE|CHANGE_CIPHER_SPEC|FINISHED"];
	s12 -> s3 [label="CHANGE_CIPHER_SPEC / TIMEOUT"];
	s12 -> s1 [label="FINISHED / Alert(FATAL,DECODE_ERROR)"];
	s12 -> s12 [label="APPLICATION / TIMEOUT"];
	s12 -> s1 [label="CERTIFICATE / Alert(FATAL,DECODE_ERROR)"];
	s12 -> s1 [label="EMPTY_CERTIFICATE / Alert(FATAL,DECODE_ERROR)"];
	s12 -> s1 [label="Alert(WARNING,CLOSE_NOTIFY) / TIMEOUT"];
	s12 -> s1 [label="Alert(FATAL,UNEXPECTED_MESSAGE) / TIMEOUT"];
	s13 -> s14 [label="HELLO_VERIFY_REQUEST / TIMEOUT"];
	s13 -> s21 [label="ECDH_SERVER_HELLO / TIMEOUT"];
	s13 -> s14 [label="ECDH_SERVER_KEY_EXCHANGE / TIMEOUT"];
	s13 -> s14 [label="RSA_SIGN_CERTIFICATE_REQUEST / TIMEOUT"];
	s13 -> s14 [label="RSA_FIXED_ECDH_CERTIFICATE_REQUEST / TIMEOUT"];
	s13 -> s14 [label="RSA_FIXED_DH_CERTIFICATE_REQUEST / TIMEOUT"];
	s13 -> s14 [label="DSS_SIGN_CERTIFICATE_REQUEST / TIMEOUT"];
	s13 -> s14 [label="DSS_FIXED_DH_CERTIFICATE_REQUEST / TIMEOUT"];
	s13 -> s14 [label="ECDSA_SIGN_CERTIFICATE_REQUEST / TIMEOUT"];
	s13 -> s13 [label="HELLO_REQUEST / CLIENT_HELLO"];
	s13 -> s14 [label="SERVER_HELLO_DONE / TIMEOUT"];
	s13 -> s3 [label="CHANGE_CIPHER_SPEC / TIMEOUT"];
	s13 -> s14 [label="FINISHED / TIMEOUT"];
	s13 -> s13 [label="APPLICATION / TIMEOUT"];
	s13 -> s14 [label="CERTIFICATE / TIMEOUT"];
	s13 -> s14 [label="EMPTY_CERTIFICATE / TIMEOUT"];
	s13 -> s1 [label="Alert(WARNING,CLOSE_NOTIFY) / TIMEOUT"];
	s13 -> s1 [label="Alert(FATAL,UNEXPECTED_MESSAGE) / TIMEOUT"];
	s14 -> s17 [label="HELLO_VERIFY_REQUEST / TIMEOUT"];
	s14 -> s22 [label="ECDH_SERVER_HELLO / TIMEOUT"];
	s14 -> s17 [label="ECDH_SERVER_KEY_EXCHANGE / TIMEOUT"];
	s14 -> s17 [label="RSA_SIGN_CERTIFICATE_REQUEST / TIMEOUT"];
	s14 -> s17 [label="RSA_FIXED_ECDH_CERTIFICATE_REQUEST / TIMEOUT"];
	s14 -> s17 [label="RSA_FIXED_DH_CERTIFICATE_REQUEST / TIMEOUT"];
	s14 -> s17 [label="DSS_SIGN_CERTIFICATE_REQUEST / TIMEOUT"];
	s14 -> s17 [label="DSS_FIXED_DH_CERTIFICATE_REQUEST / TIMEOUT"];
	s14 -> s17 [label="ECDSA_SIGN_CERTIFICATE_REQUEST / TIMEOUT"];
	s14 -> s13 [label="HELLO_REQUEST / CLIENT_HELLO"];
	s14 -> s17 [label="SERVER_HELLO_DONE / TIMEOUT"];
	s14 -> s3 [label="CHANGE_CIPHER_SPEC / TIMEOUT"];
	s14 -> s17 [label="FINISHED / TIMEOUT"];
	s14 -> s14 [label="APPLICATION / TIMEOUT"];
	s14 -> s17 [label="CERTIFICATE / TIMEOUT"];
	s14 -> s17 [label="EMPTY_CERTIFICATE / TIMEOUT"];
	s14 -> s1 [label="Alert(WARNING,CLOSE_NOTIFY) / TIMEOUT"];
	s14 -> s1 [label="Alert(FATAL,UNEXPECTED_MESSAGE) / TIMEOUT"];
	s15 -> s16 [label="HELLO_VERIFY_REQUEST / TIMEOUT"];
	s15 -> s39 [label="ECDH_SERVER_HELLO / TIMEOUT"];
	s15 -> s16 [label="ECDH_SERVER_KEY_EXCHANGE / TIMEOUT"];
	s15 -> s16 [label="RSA_SIGN_CERTIFICATE_REQUEST / TIMEOUT"];
	s15 -> s16 [label="RSA_FIXED_ECDH_CERTIFICATE_REQUEST / TIMEOUT"];
	s15 -> s16 [label="RSA_FIXED_DH_CERTIFICATE_REQUEST / TIMEOUT"];
	s15 -> s16 [label="DSS_SIGN_CERTIFICATE_REQUEST / TIMEOUT"];
	s15 -> s16 [label="DSS_FIXED_DH_CERTIFICATE_REQUEST / TIMEOUT"];
	s15 -> s16 [label="ECDSA_SIGN_CERTIFICATE_REQUEST / TIMEOUT"];
	s15 -> s15 [label="HELLO_REQUEST / CLIENT_HELLO"];
	s15 -> s16 [label="SERVER_HELLO_DONE / TIMEOUT"];
	s15 -> s3 [label="CHANGE_CIPHER_SPEC / TIMEOUT"];
	s15 -> s16 [label="FINISHED / TIMEOUT"];
	s15 -> s15 [label="APPLICATION / TIMEOUT"];
	s15 -> s16 [label="CERTIFICATE / TIMEOUT"];
	s15 -> s16 [label="EMPTY_CERTIFICATE / TIMEOUT"];
	s15 -> s1 [label="Alert(WARNING,CLOSE_NOTIFY) / TIMEOUT"];
	s15 -> s1 [label="Alert(FATAL,UNEXPECTED_MESSAGE) / TIMEOUT"];
	s16 -> s11 [label="HELLO_VERIFY_REQUEST / TIMEOUT"];
	s16 -> s41 [label="ECDH_SERVER_HELLO / TIMEOUT"];
	s16 -> s11 [label="ECDH_SERVER_KEY_EXCHANGE / TIMEOUT"];
	s16 -> s11 [label="RSA_SIGN_CERTIFICATE_REQUEST / TIMEOUT"];
	s16 -> s11 [label="RSA_FIXED_ECDH_CERTIFICATE_REQUEST / TIMEOUT"];
	s16 -> s11 [label="RSA_FIXED_DH_CERTIFICATE_REQUEST / TIMEOUT"];
	s16 -> s11 [label="DSS_SIGN_CERTIFICATE_REQUEST / TIMEOUT"];
	s16 -> s11 [label="DSS_FIXED_DH_CERTIFICATE_REQUEST / TIMEOUT"];
	s16 -> s11 [label="ECDSA_SIGN_CERTIFICATE_REQUEST / TIMEOUT"];
	s16 -> s15 [label="HELLO_REQUEST / CLIENT_HELLO"];
	s16 -> s11 [label="SERVER_HELLO_DONE / TIMEOUT"];
	s16 -> s3 [label="CHANGE_CIPHER_SPEC / TIMEOUT"];
	s16 -> s11 [label="FINISHED / TIMEOUT"];
	s16 -> s16 [label="APPLICATION / TIMEOUT"];
	s16 -> s11 [label="CERTIFICATE / TIMEOUT"];
	s16 -> s11 [label="EMPTY_CERTIFICATE / TIMEOUT"];
	s16 -> s1 [label="Alert(WARNING,CLOSE_NOTIFY) / TIMEOUT"];
	s16 -> s1 [label="Alert(FATAL,UNEXPECTED_MESSAGE) / TIMEOUT"];
	s17 -> s12 [label="HELLO_VERIFY_REQUEST / TIMEOUT"];
	s17 -> s23 [label="ECDH_SERVER_HELLO / TIMEOUT"];
	s17 -> s12 [label="ECDH_SERVER_KEY_EXCHANGE / TIMEOUT"];
	s17 -> s12 [label="RSA_SIGN_CERTIFICATE_REQUEST / TIMEOUT"];
	s17 -> s12 [label="RSA_FIXED_ECDH_CERTIFICATE_REQUEST / TIMEOUT"];
	s17 -> s12 [label="RSA_FIXED_DH_CERTIFICATE_REQUEST / TIMEOUT"];
	s17 -> s12 [label="DSS_SIGN_CERTIFICATE_REQUEST / TIMEOUT"];
	s17 -> s12 [label="DSS_FIXED_DH_CERTIFICATE_REQUEST / TIMEOUT"];
	s17 -> s12 [label="ECDSA_SIGN_CERTIFICATE_REQUEST / TIMEOUT"];
	s17 -> s13 [label="HELLO_REQUEST / CLIENT_HELLO"];
	s17 -> s12 [label="SERVER_HELLO_DONE / TIMEOUT"];
	s17 -> s3 [label="CHANGE_CIPHER_SPEC / TIMEOUT"];
	s17 -> s12 [label="FINISHED / TIMEOUT"];
	s17 -> s17 [label="APPLICATION / TIMEOUT"];
	s17 -> s12 [label="CERTIFICATE / TIMEOUT"];
	s17 -> s12 [label="EMPTY_CERTIFICATE / TIMEOUT"];
	s17 -> s1 [label="Alert(WARNING,CLOSE_NOTIFY) / TIMEOUT"];
	s17 -> s1 [label="Alert(FATAL,UNEXPECTED_MESSAGE) / TIMEOUT"];
	s18 -> s1 [label="HELLO_VERIFY_REQUEST / Alert(FATAL,UNEXPECTED_MESSAGE)"];
	s18 -> s1 [label="ECDH_SERVER_HELLO / Alert(FATAL,UNEXPECTED_MESSAGE)"];
	s18 -> s1 [label="ECDH_SERVER_KEY_EXCHANGE / Alert(FATAL,UNEXPECTED_MESSAGE)"];
	s18 -> s1 [label="RSA_SIGN_CERTIFICATE_REQUEST / Alert(FATAL,UNEXPECTED_MESSAGE)"];
	s18 -> s1 [label="RSA_FIXED_ECDH_CERTIFICATE_REQUEST / Alert(FATAL,UNEXPECTED_MESSAGE)"];
	s18 -> s1 [label="RSA_FIXED_DH_CERTIFICATE_REQUEST / Alert(FATAL,UNEXPECTED_MESSAGE)"];
	s18 -> s1 [label="DSS_SIGN_CERTIFICATE_REQUEST / Alert(FATAL,UNEXPECTED_MESSAGE)"];
	s18 -> s1 [label="DSS_FIXED_DH_CERTIFICATE_REQUEST / Alert(FATAL,UNEXPECTED_MESSAGE)"];
	s18 -> s1 [label="ECDSA_SIGN_CERTIFICATE_REQUEST / Alert(FATAL,UNEXPECTED_MESSAGE)"];
	s18 -> s5 [label="HELLO_REQUEST / TIMEOUT"];
	s18 -> s1 [label="SERVER_HELLO_DONE / Alert(FATAL,UNEXPECTED_MESSAGE)"];
	s18 -> s19 [label="CHANGE_CIPHER_SPEC / TIMEOUT"];
	s18 -> s1 [label="FINISHED / Alert(FATAL,UNEXPECTED_MESSAGE)"];
	s18 -> s18 [label="APPLICATION / TIMEOUT"];
	s18 -> s1 [label="CERTIFICATE / Alert(FATAL,UNEXPECTED_MESSAGE)"];
	s18 -> s1 [label="EMPTY_CERTIFICATE / Alert(FATAL,UNEXPECTED_MESSAGE)"];
	s18 -> s1 [label="Alert(WARNING,CLOSE_NOTIFY) / TIMEOUT"];
	s18 -> s1 [label="Alert(FATAL,UNEXPECTED_MESSAGE) / TIMEOUT"];
	s19 -> s1 [label="HELLO_VERIFY_REQUEST / Alert(FATAL,DECODE_ERROR)"];
	s19 -> s1 [label="ECDH_SERVER_HELLO / Alert(FATAL,DECODE_ERROR)"];
	s19 -> s1 [label="ECDH_SERVER_KEY_EXCHANGE / Alert(FATAL,DECODE_ERROR)"];
	s19 -> s1 [label="RSA_SIGN_CERTIFICATE_REQUEST / Alert(FATAL,DECODE_ERROR)"];
	s19 -> s1 [label="RSA_FIXED_ECDH_CERTIFICATE_REQUEST / Alert(FATAL,DECODE_ERROR)"];
	s19 -> s1 [label="RSA_FIXED_DH_CERTIFICATE_REQUEST / Alert(FATAL,DECODE_ERROR)"];
	s19 -> s1 [label="DSS_SIGN_CERTIFICATE_REQUEST / Alert(FATAL,DECODE_ERROR)"];
	s19 -> s1 [label="DSS_FIXED_DH_CERTIFICATE_REQUEST / Alert(FATAL,DECODE_ERROR)"];
	s19 -> s1 [label="ECDSA_SIGN_CERTIFICATE_REQUEST / Alert(FATAL,DECODE_ERROR)"];
	s19 -> s5 [label="HELLO_REQUEST / TIMEOUT"];
	s19 -> s1 [label="SERVER_HELLO_DONE / Alert(FATAL,DECODE_ERROR)"];
	s19 -> s3 [label="CHANGE_CIPHER_SPEC / TIMEOUT"];
	s19 -> s20 [label="FINISHED / TIMEOUT"];
	s19 -> s19 [label="APPLICATION / TIMEOUT"];
	s19 -> s1 [label="CERTIFICATE / Alert(FATAL,DECODE_ERROR)"];
	s19 -> s1 [label="EMPTY_CERTIFICATE / Alert(FATAL,DECODE_ERROR)"];
	s19 -> s1 [label="Alert(WARNING,CLOSE_NOTIFY) / TIMEOUT"];
	s19 -> s1 [label="Alert(FATAL,UNEXPECTED_MESSAGE) / TIMEOUT"];
	s20 -> s20 [label="HELLO_VERIFY_REQUEST / TIMEOUT"];
	s20 -> s20 [label="ECDH_SERVER_HELLO / TIMEOUT"];
	s20 -> s20 [label="ECDH_SERVER_KEY_EXCHANGE / TIMEOUT"];
	s20 -> s20 [label="RSA_SIGN_CERTIFICATE_REQUEST / TIMEOUT"];
	s20 -> s20 [label="RSA_FIXED_ECDH_CERTIFICATE_REQUEST / TIMEOUT"];
	s20 -> s20 [label="RSA_FIXED_DH_CERTIFICATE_REQUEST / TIMEOUT"];
	s20 -> s20 [label="DSS_SIGN_CERTIFICATE_REQUEST / TIMEOUT"];
	s20 -> s20 [label="DSS_FIXED_DH_CERTIFICATE_REQUEST / TIMEOUT"];
	s20 -> s20 [label="ECDSA_SIGN_CERTIFICATE_REQUEST / TIMEOUT"];
	s20 -> s43 [label="HELLO_REQUEST / CLIENT_HELLO"];
	s20 -> s20 [label="SERVER_HELLO_DONE / TIMEOUT"];
	s20 -> s1 [label="CHANGE_CIPHER_SPEC / TIMEOUT"];
	s20 -> s20 [label="FINISHED / TIMEOUT"];
	s20 -> s20 [label="APPLICATION / APPLICATION"];
	s20 -> s20 [label="CERTIFICATE / TIMEOUT"];
	s20 -> s20 [label="EMPTY_CERTIFICATE / TIMEOUT"];
	s20 -> s1 [label="Alert(WARNING,CLOSE_NOTIFY) / Alert(WARNING,CLOSE_NOTIFY)"];
	s20 -> s1 [label="Alert(FATAL,UNEXPECTED_MESSAGE) / TIMEOUT"];
	s21 -> s22 [label="HELLO_VERIFY_REQUEST / TIMEOUT"];
	s21 -> s22 [label="ECDH_SERVER_HELLO / TIMEOUT"];
	s21 -> s22 [label="ECDH_SERVER_KEY_EXCHANGE / TIMEOUT"];
	s21 -> s22 [label="RSA_SIGN_CERTIFICATE_REQUEST / TIMEOUT"];
	s21 -> s22 [label="RSA_FIXED_ECDH_CERTIFICATE_REQUEST / TIMEOUT"];
	s21 -> s22 [label="RSA_FIXED_DH_CERTIFICATE_REQUEST / TIMEOUT"];
	s21 -> s22 [label="DSS_SIGN_CERTIFICATE_REQUEST / TIMEOUT"];
	s21 -> s22 [label="DSS_FIXED_DH_CERTIFICATE_REQUEST / TIMEOUT"];
	s21 -> s22 [label="ECDSA_SIGN_CERTIFICATE_REQUEST / TIMEOUT"];
	s21 -> s32 [label="HELLO_REQUEST / CLIENT_HELLO"];
	s21 -> s22 [label="SERVER_HELLO_DONE / TIMEOUT"];
	s21 -> s3 [label="CHANGE_CIPHER_SPEC / TIMEOUT"];
	s21 -> s22 [label="FINISHED / TIMEOUT"];
	s21 -> s21 [label="APPLICATION / TIMEOUT"];
	s21 -> s22 [label="CERTIFICATE / TIMEOUT"];
	s21 -> s22 [label="EMPTY_CERTIFICATE / TIMEOUT"];
	s21 -> s1 [label="Alert(WARNING,CLOSE_NOTIFY) / TIMEOUT"];
	s21 -> s1 [label="Alert(FATAL,UNEXPECTED_MESSAGE) / TIMEOUT"];
	s22 -> s23 [label="HELLO_VERIFY_REQUEST / TIMEOUT"];
	s22 -> s23 [label="ECDH_SERVER_HELLO / TIMEOUT"];
	s22 -> s23 [label="ECDH_SERVER_KEY_EXCHANGE / TIMEOUT"];
	s22 -> s23 [label="RSA_SIGN_CERTIFICATE_REQUEST / TIMEOUT"];
	s22 -> s23 [label="RSA_FIXED_ECDH_CERTIFICATE_REQUEST / TIMEOUT"];
	s22 -> s23 [label="RSA_FIXED_DH_CERTIFICATE_REQUEST / TIMEOUT"];
	s22 -> s23 [label="DSS_SIGN_CERTIFICATE_REQUEST / TIMEOUT"];
	s22 -> s23 [label="DSS_FIXED_DH_CERTIFICATE_REQUEST / TIMEOUT"];
	s22 -> s23 [label="ECDSA_SIGN_CERTIFICATE_REQUEST / TIMEOUT"];
	s22 -> s32 [label="HELLO_REQUEST / CLIENT_HELLO"];
	s22 -> s23 [label="SERVER_HELLO_DONE / TIMEOUT"];
	s22 -> s3 [label="CHANGE_CIPHER_SPEC / TIMEOUT"];
	s22 -> s23 [label="FINISHED / TIMEOUT"];
	s22 -> s22 [label="APPLICATION / TIMEOUT"];
	s22 -> s23 [label="CERTIFICATE / TIMEOUT"];
	s22 -> s23 [label="EMPTY_CERTIFICATE / TIMEOUT"];
	s22 -> s1 [label="Alert(WARNING,CLOSE_NOTIFY) / TIMEOUT"];
	s22 -> s1 [label="Alert(FATAL,UNEXPECTED_MESSAGE) / TIMEOUT"];
	s23 -> s1 [label="HELLO_VERIFY_REQUEST / Alert(FATAL,DECODE_ERROR)"];
	s23 -> s1 [label="ECDH_SERVER_HELLO / Alert(FATAL,DECODE_ERROR)"];
	s23 -> s1 [label="ECDH_SERVER_KEY_EXCHANGE / Alert(FATAL,DECODE_ERROR)"];
	s23 -> s25 [label="RSA_SIGN_CERTIFICATE_REQUEST / TIMEOUT"];
	s23 -> s25 [label="RSA_FIXED_ECDH_CERTIFICATE_REQUEST / TIMEOUT"];
	s23 -> s25 [label="RSA_FIXED_DH_CERTIFICATE_REQUEST / TIMEOUT"];
	s23 -> s25 [label="DSS_SIGN_CERTIFICATE_REQUEST / TIMEOUT"];
	s23 -> s25 [label="DSS_FIXED_DH_CERTIFICATE_REQUEST / TIMEOUT"];
	s23 -> s25 [label="ECDSA_SIGN_CERTIFICATE_REQUEST / TIMEOUT"];
	s23 -> s32 [label="HELLO_REQUEST / CLIENT_HELLO"];
	s23 -> s24 [label="SERVER_HELLO_DONE / ECDH_CLIENT_KEY_EXCHANGE|CHANGE_CIPHER_SPEC|UNKNOWN_MESSAGE"];
	s23 -> s3 [label="CHANGE_CIPHER_SPEC / TIMEOUT"];
	s23 -> s1 [label="FINISHED / Alert(FATAL,DECODE_ERROR)"];
	s23 -> s23 [label="APPLICATION / TIMEOUT"];
	s23 -> s1 [label="CERTIFICATE / Alert(FATAL,DECODE_ERROR)"];
	s23 -> s1 [label="EMPTY_CERTIFICATE / Alert(FATAL,DECODE_ERROR)"];
	s23 -> s1 [label="Alert(WARNING,CLOSE_NOTIFY) / TIMEOUT"];
	s23 -> s1 [label="Alert(FATAL,UNEXPECTED_MESSAGE) / TIMEOUT"];
	s24 -> s1 [label="HELLO_VERIFY_REQUEST / UNKNOWN_MESSAGE"];
	s24 -> s1 [label="ECDH_SERVER_HELLO / UNKNOWN_MESSAGE"];
	s24 -> s1 [label="ECDH_SERVER_KEY_EXCHANGE / UNKNOWN_MESSAGE"];
	s24 -> s1 [label="RSA_SIGN_CERTIFICATE_REQUEST / UNKNOWN_MESSAGE"];
	s24 -> s1 [label="RSA_FIXED_ECDH_CERTIFICATE_REQUEST / UNKNOWN_MESSAGE"];
	s24 -> s1 [label="RSA_FIXED_DH_CERTIFICATE_REQUEST / UNKNOWN_MESSAGE"];
	s24 -> s1 [label="DSS_SIGN_CERTIFICATE_REQUEST / UNKNOWN_MESSAGE"];
	s24 -> s1 [label="DSS_FIXED_DH_CERTIFICATE_REQUEST / UNKNOWN_MESSAGE"];
	s24 -> s1 [label="ECDSA_SIGN_CERTIFICATE_REQUEST / UNKNOWN_MESSAGE"];
	s24 -> s5 [label="HELLO_REQUEST / TIMEOUT"];
	s24 -> s1 [label="SERVER_HELLO_DONE / UNKNOWN_MESSAGE"];
	s24 -> s36 [label="CHANGE_CIPHER_SPEC / TIMEOUT"];
	s24 -> s1 [label="FINISHED / UNKNOWN_MESSAGE"];
	s24 -> s24 [label="APPLICATION / TIMEOUT"];
	s24 -> s1 [label="CERTIFICATE / UNKNOWN_MESSAGE"];
	s24 -> s1 [label="EMPTY_CERTIFICATE / UNKNOWN_MESSAGE"];
	s24 -> s1 [label="Alert(WARNING,CLOSE_NOTIFY) / TIMEOUT"];
	s24 -> s1 [label="Alert(FATAL,UNEXPECTED_MESSAGE) / TIMEOUT"];
	s25 -> s1 [label="HELLO_VERIFY_REQUEST / Alert(FATAL,DECODE_ERROR)"];
	s25 -> s1 [label="ECDH_SERVER_HELLO / Alert(FATAL,DECODE_ERROR)"];
	s25 -> s1 [label="ECDH_SERVER_KEY_EXCHANGE / Alert(FATAL,DECODE_ERROR)"];
	s25 -> s1 [label="RSA_SIGN_CERTIFICATE_REQUEST / Alert(FATAL,DECODE_ERROR)"];
	s25 -> s1 [label="RSA_FIXED_ECDH_CERTIFICATE_REQUEST / Alert(FATAL,DECODE_ERROR)"];
	s25 -> s1 [label="RSA_FIXED_DH_CERTIFICATE_REQUEST / Alert(FATAL,DECODE_ERROR)"];
	s25 -> s1 [label="DSS_SIGN_CERTIFICATE_REQUEST / Alert(FATAL,DECODE_ERROR)"];
	s25 -> s1 [label="DSS_FIXED_DH_CERTIFICATE_REQUEST / Alert(FATAL,DECODE_ERROR)"];
	s25 -> s1 [label="ECDSA_SIGN_CERTIFICATE_REQUEST / Alert(FATAL,DECODE_ERROR)"];
	s25 -> s35 [label="HELLO_REQUEST / CLIENT_HELLO"];
	s25 -> s24 [label="SERVER_HELLO_DONE / RSA_CERTIFICATE|ECDH_CLIENT_KEY_EXCHANGE|CERTIFICATE_VERIFY|CHANGE_CIPHER_SPEC|UNKNOWN_MESSAGE"];
	s25 -> s3 [label="CHANGE_CIPHER_SPEC / TIMEOUT"];
	s25 -> s1 [label="FINISHED / Alert(FATAL,DECODE_ERROR)"];
	s25 -> s25 [label="APPLICATION / TIMEOUT"];
	s25 -> s1 [label="CERTIFICATE / Alert(FATAL,DECODE_ERROR)"];
	s25 -> s1 [label="EMPTY_CERTIFICATE / Alert(FATAL,DECODE_ERROR)"];
	s25 -> s1 [label="Alert(WARNING,CLOSE_NOTIFY) / TIMEOUT"];
	s25 -> s1 [label="Alert(FATAL,UNEXPECTED_MESSAGE) / TIMEOUT"];
	s26 -> s1 [label="HELLO_VERIFY_REQUEST / Alert(FATAL,DECODE_ERROR)"];
	s26 -> s1 [label="ECDH_SERVER_HELLO / Alert(FATAL,DECODE_ERROR)"];
	s26 -> s1 [label="ECDH_SERVER_KEY_EXCHANGE / Alert(FATAL,DECODE_ERROR)"];
	s26 -> s1 [label="RSA_SIGN_CERTIFICATE_REQUEST / Alert(FATAL,DECODE_ERROR)"];
	s26 -> s1 [label="RSA_FIXED_ECDH_CERTIFICATE_REQUEST / Alert(FATAL,DECODE_ERROR)"];
	s26 -> s1 [label="RSA_FIXED_DH_CERTIFICATE_REQUEST / Alert(FATAL,DECODE_ERROR)"];
	s26 -> s1 [label="DSS_SIGN_CERTIFICATE_REQUEST / Alert(FATAL,DECODE_ERROR)"];
	s26 -> s1 [label="DSS_FIXED_DH_CERTIFICATE_REQUEST / Alert(FATAL,DECODE_ERROR)"];
	s26 -> s1 [label="ECDSA_SIGN_CERTIFICATE_REQUEST / Alert(FATAL,DECODE_ERROR)"];
	s26 -> s27 [label="HELLO_REQUEST / CLIENT_HELLO"];
	s26 -> s18 [label="SERVER_HELLO_DONE / RSA_CERTIFICATE|ECDH_CLIENT_KEY_EXCHANGE|CERTIFICATE_VERIFY|CHANGE_CIPHER_SPEC|FINISHED"];
	s26 -> s3 [label="CHANGE_CIPHER_SPEC / TIMEOUT"];
	s26 -> s1 [label="FINISHED / Alert(FATAL,DECODE_ERROR)"];
	s26 -> s26 [label="APPLICATION / TIMEOUT"];
	s26 -> s1 [label="CERTIFICATE / Alert(FATAL,DECODE_ERROR)"];
	s26 -> s1 [label="EMPTY_CERTIFICATE / Alert(FATAL,DECODE_ERROR)"];
	s26 -> s1 [label="Alert(WARNING,CLOSE_NOTIFY) / TIMEOUT"];
	s26 -> s1 [label="Alert(FATAL,UNEXPECTED_MESSAGE) / TIMEOUT"];
	s27 -> s28 [label="HELLO_VERIFY_REQUEST / TIMEOUT"];
	s27 -> s31 [label="ECDH_SERVER_HELLO / TIMEOUT"];
	s27 -> s28 [label="ECDH_SERVER_KEY_EXCHANGE / TIMEOUT"];
	s27 -> s28 [label="RSA_SIGN_CERTIFICATE_REQUEST / TIMEOUT"];
	s27 -> s28 [label="RSA_FIXED_ECDH_CERTIFICATE_REQUEST / TIMEOUT"];
	s27 -> s28 [label="RSA_FIXED_DH_CERTIFICATE_REQUEST / TIMEOUT"];
	s27 -> s28 [label="DSS_SIGN_CERTIFICATE_REQUEST / TIMEOUT"];
	s27 -> s28 [label="DSS_FIXED_DH_CERTIFICATE_REQUEST / TIMEOUT"];
	s27 -> s28 [label="ECDSA_SIGN_CERTIFICATE_REQUEST / TIMEOUT"];
	s27 -> s27 [label="HELLO_REQUEST / CLIENT_HELLO"];
	s27 -> s28 [label="SERVER_HELLO_DONE / TIMEOUT"];
	s27 -> s3 [label="CHANGE_CIPHER_SPEC / TIMEOUT"];
	s27 -> s28 [label="FINISHED / TIMEOUT"];
	s27 -> s27 [label="APPLICATION / TIMEOUT"];
	s27 -> s28 [label="CERTIFICATE / TIMEOUT"];
	s27 -> s28 [label="EMPTY_CERTIFICATE / TIMEOUT"];
	s27 -> s1 [label="Alert(WARNING,CLOSE_NOTIFY) / TIMEOUT"];
	s27 -> s1 [label="Alert(FATAL,UNEXPECTED_MESSAGE) / TIMEOUT"];
	s28 -> s29 [label="HELLO_VERIFY_REQUEST / TIMEOUT"];
	s28 -> s30 [label="ECDH_SERVER_HELLO / TIMEOUT"];
	s28 -> s29 [label="ECDH_SERVER_KEY_EXCHANGE / TIMEOUT"];
	s28 -> s29 [label="RSA_SIGN_CERTIFICATE_REQUEST / TIMEOUT"];
	s28 -> s29 [label="RSA_FIXED_ECDH_CERTIFICATE_REQUEST / TIMEOUT"];
	s28 -> s29 [label="RSA_FIXED_DH_CERTIFICATE_REQUEST / TIMEOUT"];
	s28 -> s29 [label="DSS_SIGN_CERTIFICATE_REQUEST / TIMEOUT"];
	s28 -> s29 [label="DSS_FIXED_DH_CERTIFICATE_REQUEST / TIMEOUT"];
	s28 -> s29 [label="ECDSA_SIGN_CERTIFICATE_REQUEST / TIMEOUT"];
	s28 -> s27 [label="HELLO_REQUEST / CLIENT_HELLO"];
	s28 -> s29 [label="SERVER_HELLO_DONE / TIMEOUT"];
	s28 -> s3 [label="CHANGE_CIPHER_SPEC / TIMEOUT"];
	s28 -> s29 [label="FINISHED / TIMEOUT"];
	s28 -> s28 [label="APPLICATION / TIMEOUT"];
	s28 -> s29 [label="CERTIFICATE / TIMEOUT"];
	s28 -> s29 [label="EMPTY_CERTIFICATE / TIMEOUT"];
	s28 -> s1 [label="Alert(WARNING,CLOSE_NOTIFY) / TIMEOUT"];
	s28 -> s1 [label="Alert(FATAL,UNEXPECTED_MESSAGE) / TIMEOUT"];
	s29 -> s34 [label="HELLO_VERIFY_REQUEST / TIMEOUT"];
	s29 -> s33 [label="ECDH_SERVER_HELLO / TIMEOUT"];
	s29 -> s34 [label="ECDH_SERVER_KEY_EXCHANGE / TIMEOUT"];
	s29 -> s34 [label="RSA_SIGN_CERTIFICATE_REQUEST / TIMEOUT"];
	s29 -> s34 [label="RSA_FIXED_ECDH_CERTIFICATE_REQUEST / TIMEOUT"];
	s29 -> s34 [label="RSA_FIXED_DH_CERTIFICATE_REQUEST / TIMEOUT"];
	s29 -> s34 [label="DSS_SIGN_CERTIFICATE_REQUEST / TIMEOUT"];
	s29 -> s34 [label="DSS_FIXED_DH_CERTIFICATE_REQUEST / TIMEOUT"];
	s29 -> s34 [label="ECDSA_SIGN_CERTIFICATE_REQUEST / TIMEOUT"];
	s29 -> s27 [label="HELLO_REQUEST / CLIENT_HELLO"];
	s29 -> s34 [label="SERVER_HELLO_DONE / TIMEOUT"];
	s29 -> s3 [label="CHANGE_CIPHER_SPEC / TIMEOUT"];
	s29 -> s34 [label="FINISHED / TIMEOUT"];
	s29 -> s29 [label="APPLICATION / TIMEOUT"];
	s29 -> s34 [label="CERTIFICATE / TIMEOUT"];
	s29 -> s34 [label="EMPTY_CERTIFICATE / TIMEOUT"];
	s29 -> s1 [label="Alert(WARNING,CLOSE_NOTIFY) / TIMEOUT"];
	s29 -> s1 [label="Alert(FATAL,UNEXPECTED_MESSAGE) / TIMEOUT"];
	s30 -> s33 [label="HELLO_VERIFY_REQUEST / TIMEOUT"];
	s30 -> s33 [label="ECDH_SERVER_HELLO / TIMEOUT"];
	s30 -> s33 [label="ECDH_SERVER_KEY_EXCHANGE / TIMEOUT"];
	s30 -> s33 [label="RSA_SIGN_CERTIFICATE_REQUEST / TIMEOUT"];
	s30 -> s33 [label="RSA_FIXED_ECDH_CERTIFICATE_REQUEST / TIMEOUT"];
	s30 -> s33 [label="RSA_FIXED_DH_CERTIFICATE_REQUEST / TIMEOUT"];
	s30 -> s33 [label="DSS_SIGN_CERTIFICATE_REQUEST / TIMEOUT"];
	s30 -> s33 [label="DSS_FIXED_DH_CERTIFICATE_REQUEST / TIMEOUT"];
	s30 -> s33 [label="ECDSA_SIGN_CERTIFICATE_REQUEST / TIMEOUT"];
	s30 -> s35 [label="HELLO_REQUEST / CLIENT_HELLO"];
	s30 -> s33 [label="SERVER_HELLO_DONE / TIMEOUT"];
	s30 -> s3 [label="CHANGE_CIPHER_SPEC / TIMEOUT"];
	s30 -> s33 [label="FINISHED / TIMEOUT"];
	s30 -> s30 [label="APPLICATION / TIMEOUT"];
	s30 -> s33 [label="CERTIFICATE / TIMEOUT"];
	s30 -> s33 [label="EMPTY_CERTIFICATE / TIMEOUT"];
	s30 -> s1 [label="Alert(WARNING,CLOSE_NOTIFY) / TIMEOUT"];
	s30 -> s1 [label="Alert(FATAL,UNEXPECTED_MESSAGE) / TIMEOUT"];
	s31 -> s30 [label="HELLO_VERIFY_REQUEST / TIMEOUT"];
	s31 -> s30 [label="ECDH_SERVER_HELLO / TIMEOUT"];
	s31 -> s30 [label="ECDH_SERVER_KEY_EXCHANGE / TIMEOUT"];
	s31 -> s30 [label="RSA_SIGN_CERTIFICATE_REQUEST / TIMEOUT"];
	s31 -> s30 [label="RSA_FIXED_ECDH_CERTIFICATE_REQUEST / TIMEOUT"];
	s31 -> s30 [label="RSA_FIXED_DH_CERTIFICATE_REQUEST / TIMEOUT"];
	s31 -> s30 [label="DSS_SIGN_CERTIFICATE_REQUEST / TIMEOUT"];
	s31 -> s30 [label="DSS_FIXED_DH_CERTIFICATE_REQUEST / TIMEOUT"];
	s31 -> s30 [label="ECDSA_SIGN_CERTIFICATE_REQUEST / TIMEOUT"];
	s31 -> s35 [label="HELLO_REQUEST / CLIENT_HELLO"];
	s31 -> s30 [label="SERVER_HELLO_DONE / TIMEOUT"];
	s31 -> s3 [label="CHANGE_CIPHER_SPEC / TIMEOUT"];
	s31 -> s30 [label="FINISHED / TIMEOUT"];
	s31 -> s31 [label="APPLICATION / TIMEOUT"];
	s31 -> s30 [label="CERTIFICATE / TIMEOUT"];
	s31 -> s30 [label="EMPTY_CERTIFICATE / TIMEOUT"];
	s31 -> s1 [label="Alert(WARNING,CLOSE_NOTIFY) / TIMEOUT"];
	s31 -> s1 [label="Alert(FATAL,UNEXPECTED_MESSAGE) / TIMEOUT"];
	s32 -> s21 [label="HELLO_VERIFY_REQUEST / TIMEOUT"];
	s32 -> s21 [label="ECDH_SERVER_HELLO / TIMEOUT"];
	s32 -> s21 [label="ECDH_SERVER_KEY_EXCHANGE / TIMEOUT"];
	s32 -> s21 [label="RSA_SIGN_CERTIFICATE_REQUEST / TIMEOUT"];
	s32 -> s21 [label="RSA_FIXED_ECDH_CERTIFICATE_REQUEST / TIMEOUT"];
	s32 -> s21 [label="RSA_FIXED_DH_CERTIFICATE_REQUEST / TIMEOUT"];
	s32 -> s21 [label="DSS_SIGN_CERTIFICATE_REQUEST / TIMEOUT"];
	s32 -> s21 [label="DSS_FIXED_DH_CERTIFICATE_REQUEST / TIMEOUT"];
	s32 -> s21 [label="ECDSA_SIGN_CERTIFICATE_REQUEST / TIMEOUT"];
	s32 -> s32 [label="HELLO_REQUEST / CLIENT_HELLO"];
	s32 -> s21 [label="SERVER_HELLO_DONE / TIMEOUT"];
	s32 -> s3 [label="CHANGE_CIPHER_SPEC / TIMEOUT"];
	s32 -> s21 [label="FINISHED / TIMEOUT"];
	s32 -> s32 [label="APPLICATION / TIMEOUT"];
	s32 -> s21 [label="CERTIFICATE / TIMEOUT"];
	s32 -> s21 [label="EMPTY_CERTIFICATE / TIMEOUT"];
	s32 -> s1 [label="Alert(WARNING,CLOSE_NOTIFY) / TIMEOUT"];
	s32 -> s1 [label="Alert(FATAL,UNEXPECTED_MESSAGE) / TIMEOUT"];
	s33 -> s25 [label="HELLO_VERIFY_REQUEST / TIMEOUT"];
	s33 -> s25 [label="ECDH_SERVER_HELLO / TIMEOUT"];
	s33 -> s25 [label="ECDH_SERVER_KEY_EXCHANGE / TIMEOUT"];
	s33 -> s25 [label="RSA_SIGN_CERTIFICATE_REQUEST / TIMEOUT"];
	s33 -> s25 [label="RSA_FIXED_ECDH_CERTIFICATE_REQUEST / TIMEOUT"];
	s33 -> s25 [label="RSA_FIXED_DH_CERTIFICATE_REQUEST / TIMEOUT"];
	s33 -> s25 [label="DSS_SIGN_CERTIFICATE_REQUEST / TIMEOUT"];
	s33 -> s25 [label="DSS_FIXED_DH_CERTIFICATE_REQUEST / TIMEOUT"];
	s33 -> s25 [label="ECDSA_SIGN_CERTIFICATE_REQUEST / TIMEOUT"];
	s33 -> s35 [label="HELLO_REQUEST / CLIENT_HELLO"];
	s33 -> s25 [label="SERVER_HELLO_DONE / TIMEOUT"];
	s33 -> s3 [label="CHANGE_CIPHER_SPEC / TIMEOUT"];
	s33 -> s25 [label="FINISHED / TIMEOUT"];
	s33 -> s33 [label="APPLICATION / TIMEOUT"];
	s33 -> s25 [label="CERTIFICATE / TIMEOUT"];
	s33 -> s25 [label="EMPTY_CERTIFICATE / TIMEOUT"];
	s33 -> s1 [label="Alert(WARNING,CLOSE_NOTIFY) / TIMEOUT"];
	s33 -> s1 [label="Alert(FATAL,UNEXPECTED_MESSAGE) / TIMEOUT"];
	s34 -> s26 [label="HELLO_VERIFY_REQUEST / TIMEOUT"];
	s34 -> s25 [label="ECDH_SERVER_HELLO / TIMEOUT"];
	s34 -> s26 [label="ECDH_SERVER_KEY_EXCHANGE / TIMEOUT"];
	s34 -> s26 [label="RSA_SIGN_CERTIFICATE_REQUEST / TIMEOUT"];
	s34 -> s26 [label="RSA_FIXED_ECDH_CERTIFICATE_REQUEST / TIMEOUT"];
	s34 -> s26 [label="RSA_FIXED_DH_CERTIFICATE_REQUEST / TIMEOUT"];
	s34 -> s26 [label="DSS_SIGN_CERTIFICATE_REQUEST / TIMEOUT"];
	s34 -> s26 [label="DSS_FIXED_DH_CERTIFICATE_REQUEST / TIMEOUT"];
	s34 -> s26 [label="ECDSA_SIGN_CERTIFICATE_REQUEST / TIMEOUT"];
	s34 -> s27 [label="HELLO_REQUEST / CLIENT_HELLO"];
	s34 -> s26 [label="SERVER_HELLO_DONE / TIMEOUT"];
	s34 -> s3 [label="CHANGE_CIPHER_SPEC / TIMEOUT"];
	s34 -> s26 [label="FINISHED / TIMEOUT"];
	s34 -> s34 [label="APPLICATION / TIMEOUT"];
	s34 -> s26 [label="CERTIFICATE / TIMEOUT"];
	s34 -> s26 [label="EMPTY_CERTIFICATE / TIMEOUT"];
	s34 -> s1 [label="Alert(WARNING,CLOSE_NOTIFY) / TIMEOUT"];
	s34 -> s1 [label="Alert(FATAL,UNEXPECTED_MESSAGE) / TIMEOUT"];
	s35 -> s31 [label="HELLO_VERIFY_REQUEST / TIMEOUT"];
	s35 -> s31 [label="ECDH_SERVER_HELLO / TIMEOUT"];
	s35 -> s31 [label="ECDH_SERVER_KEY_EXCHANGE / TIMEOUT"];
	s35 -> s31 [label="RSA_SIGN_CERTIFICATE_REQUEST / TIMEOUT"];
	s35 -> s31 [label="RSA_FIXED_ECDH_CERTIFICATE_REQUEST / TIMEOUT"];
	s35 -> s31 [label="RSA_FIXED_DH_CERTIFICATE_REQUEST / TIMEOUT"];
	s35 -> s31 [label="DSS_SIGN_CERTIFICATE_REQUEST / TIMEOUT"];
	s35 -> s31 [label="DSS_FIXED_DH_CERTIFICATE_REQUEST / TIMEOUT"];
	s35 -> s31 [label="ECDSA_SIGN_CERTIFICATE_REQUEST / TIMEOUT"];
	s35 -> s35 [label="HELLO_REQUEST / CLIENT_HELLO"];
	s35 -> s31 [label="SERVER_HELLO_DONE / TIMEOUT"];
	s35 -> s3 [label="CHANGE_CIPHER_SPEC / TIMEOUT"];
	s35 -> s31 [label="FINISHED / TIMEOUT"];
	s35 -> s35 [label="APPLICATION / TIMEOUT"];
	s35 -> s31 [label="CERTIFICATE / TIMEOUT"];
	s35 -> s31 [label="EMPTY_CERTIFICATE / TIMEOUT"];
	s35 -> s1 [label="Alert(WARNING,CLOSE_NOTIFY) / TIMEOUT"];
	s35 -> s1 [label="Alert(FATAL,UNEXPECTED_MESSAGE) / TIMEOUT"];
	s36 -> s1 [label="HELLO_VERIFY_REQUEST / UNKNOWN_MESSAGE"];
	s36 -> s1 [label="ECDH_SERVER_HELLO / UNKNOWN_MESSAGE"];
	s36 -> s1 [label="ECDH_SERVER_KEY_EXCHANGE / UNKNOWN_MESSAGE"];
	s36 -> s1 [label="RSA_SIGN_CERTIFICATE_REQUEST / UNKNOWN_MESSAGE"];
	s36 -> s1 [label="RSA_FIXED_ECDH_CERTIFICATE_REQUEST / UNKNOWN_MESSAGE"];
	s36 -> s1 [label="RSA_FIXED_DH_CERTIFICATE_REQUEST / UNKNOWN_MESSAGE"];
	s36 -> s1 [label="DSS_SIGN_CERTIFICATE_REQUEST / UNKNOWN_MESSAGE"];
	s36 -> s1 [label="DSS_FIXED_DH_CERTIFICATE_REQUEST / UNKNOWN_MESSAGE"];
	s36 -> s1 [label="ECDSA_SIGN_CERTIFICATE_REQUEST / UNKNOWN_MESSAGE"];
	s36 -> s1 [label="HELLO_REQUEST / UNKNOWN_MESSAGE"];
	s36 -> s1 [label="SERVER_HELLO_DONE / UNKNOWN_MESSAGE"];
	s36 -> s1 [label="CHANGE_CIPHER_SPEC / UNKNOWN_MESSAGE"];
	s36 -> s1 [label="FINISHED / UNKNOWN_MESSAGE"];
	s36 -> s36 [label="APPLICATION / TIMEOUT"];
	s36 -> s1 [label="CERTIFICATE / UNKNOWN_MESSAGE"];
	s36 -> s1 [label="EMPTY_CERTIFICATE / UNKNOWN_MESSAGE"];
	s36 -> s1 [label="Alert(WARNING,CLOSE_NOTIFY) / UNKNOWN_MESSAGE"];
	s36 -> s1 [label="Alert(FATAL,UNEXPECTED_MESSAGE) / UNKNOWN_MESSAGE"];
	s37 -> s1 [label="HELLO_VERIFY_REQUEST / Alert(FATAL,DECODE_ERROR)"];
	s37 -> s1 [label="ECDH_SERVER_HELLO / Alert(FATAL,DECODE_ERROR)"];
	s37 -> s1 [label="ECDH_SERVER_KEY_EXCHANGE / Alert(FATAL,DECODE_ERROR)"];
	s37 -> s38 [label="RSA_SIGN_CERTIFICATE_REQUEST / TIMEOUT"];
	s37 -> s38 [label="RSA_FIXED_ECDH_CERTIFICATE_REQUEST / TIMEOUT"];
	s37 -> s38 [label="RSA_FIXED_DH_CERTIFICATE_REQUEST / TIMEOUT"];
	s37 -> s38 [label="DSS_SIGN_CERTIFICATE_REQUEST / TIMEOUT"];
	s37 -> s38 [label="DSS_FIXED_DH_CERTIFICATE_REQUEST / TIMEOUT"];
	s37 -> s38 [label="ECDSA_SIGN_CERTIFICATE_REQUEST / TIMEOUT"];
	s37 -> s5 [label="HELLO_REQUEST / TIMEOUT"];
	s37 -> s18 [label="SERVER_HELLO_DONE / ECDH_CLIENT_KEY_EXCHANGE|CHANGE_CIPHER_SPEC|FINISHED"];
	s37 -> s3 [label="CHANGE_CIPHER_SPEC / TIMEOUT"];
	s37 -> s1 [label="FINISHED / Alert(FATAL,DECODE_ERROR)"];
	s37 -> s37 [label="APPLICATION / TIMEOUT"];
	s37 -> s1 [label="CERTIFICATE / Alert(FATAL,DECODE_ERROR)"];
	s37 -> s1 [label="EMPTY_CERTIFICATE / Alert(FATAL,DECODE_ERROR)"];
	s37 -> s1 [label="Alert(WARNING,CLOSE_NOTIFY) / TIMEOUT"];
	s37 -> s1 [label="Alert(FATAL,UNEXPECTED_MESSAGE) / TIMEOUT"];
	s38 -> s1 [label="HELLO_VERIFY_REQUEST / Alert(FATAL,DECODE_ERROR)"];
	s38 -> s1 [label="ECDH_SERVER_HELLO / Alert(FATAL,DECODE_ERROR)"];
	s38 -> s1 [label="ECDH_SERVER_KEY_EXCHANGE / Alert(FATAL,DECODE_ERROR)"];
	s38 -> s1 [label="RSA_SIGN_CERTIFICATE_REQUEST / Alert(FATAL,DECODE_ERROR)"];
	s38 -> s1 [label="RSA_FIXED_ECDH_CERTIFICATE_REQUEST / Alert(FATAL,DECODE_ERROR)"];
	s38 -> s1 [label="RSA_FIXED_DH_CERTIFICATE_REQUEST / Alert(FATAL,DECODE_ERROR)"];
	s38 -> s1 [label="DSS_SIGN_CERTIFICATE_REQUEST / Alert(FATAL,DECODE_ERROR)"];
	s38 -> s1 [label="DSS_FIXED_DH_CERTIFICATE_REQUEST / Alert(FATAL,DECODE_ERROR)"];
	s38 -> s1 [label="ECDSA_SIGN_CERTIFICATE_REQUEST / Alert(FATAL,DECODE_ERROR)"];
	s38 -> s5 [label="HELLO_REQUEST / TIMEOUT"];
	s38 -> s18 [label="SERVER_HELLO_DONE / RSA_CERTIFICATE|ECDH_CLIENT_KEY_EXCHANGE|CERTIFICATE_VERIFY|CHANGE_CIPHER_SPEC|FINISHED"];
	s38 -> s3 [label="CHANGE_CIPHER_SPEC / TIMEOUT"];
	s38 -> s1 [label="FINISHED / Alert(FATAL,DECODE_ERROR)"];
	s38 -> s38 [label="APPLICATION / TIMEOUT"];
	s38 -> s1 [label="CERTIFICATE / Alert(FATAL,DECODE_ERROR)"];
	s38 -> s1 [label="EMPTY_CERTIFICATE / Alert(FATAL,DECODE_ERROR)"];
	s38 -> s1 [label="Alert(WARNING,CLOSE_NOTIFY) / TIMEOUT"];
	s38 -> s1 [label="Alert(FATAL,UNEXPECTED_MESSAGE) / TIMEOUT"];
	s39 -> s41 [label="HELLO_VERIFY_REQUEST / TIMEOUT"];
	s39 -> s41 [label="ECDH_SERVER_HELLO / TIMEOUT"];
	s39 -> s41 [label="ECDH_SERVER_KEY_EXCHANGE / TIMEOUT"];
	s39 -> s41 [label="RSA_SIGN_CERTIFICATE_REQUEST / TIMEOUT"];
	s39 -> s41 [label="RSA_FIXED_ECDH_CERTIFICATE_REQUEST / TIMEOUT"];
	s39 -> s41 [label="RSA_FIXED_DH_CERTIFICATE_REQUEST / TIMEOUT"];
	s39 -> s41 [label="DSS_SIGN_CERTIFICATE_REQUEST / TIMEOUT"];
	s39 -> s41 [label="DSS_FIXED_DH_CERTIFICATE_REQUEST / TIMEOUT"];
	s39 -> s41 [label="ECDSA_SIGN_CERTIFICATE_REQUEST / TIMEOUT"];
	s39 -> s40 [label="HELLO_REQUEST / CLIENT_HELLO"];
	s39 -> s41 [label="SERVER_HELLO_DONE / TIMEOUT"];
	s39 -> s3 [label="CHANGE_CIPHER_SPEC / TIMEOUT"];
	s39 -> s41 [label="FINISHED / TIMEOUT"];
	s39 -> s39 [label="APPLICATION / TIMEOUT"];
	s39 -> s41 [label="CERTIFICATE / TIMEOUT"];
	s39 -> s41 [label="EMPTY_CERTIFICATE / TIMEOUT"];
	s39 -> s1 [label="Alert(WARNING,CLOSE_NOTIFY) / TIMEOUT"];
	s39 -> s1 [label="Alert(FATAL,UNEXPECTED_MESSAGE) / TIMEOUT"];
	s40 -> s39 [label="HELLO_VERIFY_REQUEST / TIMEOUT"];
	s40 -> s39 [label="ECDH_SERVER_HELLO / TIMEOUT"];
	s40 -> s39 [label="ECDH_SERVER_KEY_EXCHANGE / TIMEOUT"];
	s40 -> s39 [label="RSA_SIGN_CERTIFICATE_REQUEST / TIMEOUT"];
	s40 -> s39 [label="RSA_FIXED_ECDH_CERTIFICATE_REQUEST / TIMEOUT"];
	s40 -> s39 [label="RSA_FIXED_DH_CERTIFICATE_REQUEST / TIMEOUT"];
	s40 -> s39 [label="DSS_SIGN_CERTIFICATE_REQUEST / TIMEOUT"];
	s40 -> s39 [label="DSS_FIXED_DH_CERTIFICATE_REQUEST / TIMEOUT"];
	s40 -> s39 [label="ECDSA_SIGN_CERTIFICATE_REQUEST / TIMEOUT"];
	s40 -> s40 [label="HELLO_REQUEST / CLIENT_HELLO"];
	s40 -> s39 [label="SERVER_HELLO_DONE / TIMEOUT"];
	s40 -> s3 [label="CHANGE_CIPHER_SPEC / TIMEOUT"];
	s40 -> s39 [label="FINISHED / TIMEOUT"];
	s40 -> s40 [label="APPLICATION / TIMEOUT"];
	s40 -> s39 [label="CERTIFICATE / TIMEOUT"];
	s40 -> s39 [label="EMPTY_CERTIFICATE / TIMEOUT"];
	s40 -> s1 [label="Alert(WARNING,CLOSE_NOTIFY) / TIMEOUT"];
	s40 -> s1 [label="Alert(FATAL,UNEXPECTED_MESSAGE) / TIMEOUT"];
	s41 -> s1 [label="HELLO_VERIFY_REQUEST / Alert(FATAL,UNEXPECTED_MESSAGE)"];
	s41 -> s1 [label="ECDH_SERVER_HELLO / Alert(FATAL,UNEXPECTED_MESSAGE)"];
	s41 -> s1 [label="ECDH_SERVER_KEY_EXCHANGE / Alert(FATAL,DECRYPT_ERROR)"];
	s41 -> s1 [label="RSA_SIGN_CERTIFICATE_REQUEST / Alert(FATAL,UNEXPECTED_MESSAGE)"];
	s41 -> s1 [label="RSA_FIXED_ECDH_CERTIFICATE_REQUEST / Alert(FATAL,UNEXPECTED_MESSAGE)"];
	s41 -> s1 [label="RSA_FIXED_DH_CERTIFICATE_REQUEST / Alert(FATAL,UNEXPECTED_MESSAGE)"];
	s41 -> s1 [label="DSS_SIGN_CERTIFICATE_REQUEST / Alert(FATAL,UNEXPECTED_MESSAGE)"];
	s41 -> s1 [label="DSS_FIXED_DH_CERTIFICATE_REQUEST / Alert(FATAL,UNEXPECTED_MESSAGE)"];
	s41 -> s1 [label="ECDSA_SIGN_CERTIFICATE_REQUEST / Alert(FATAL,UNEXPECTED_MESSAGE)"];
	s41 -> s40 [label="HELLO_REQUEST / CLIENT_HELLO"];
	s41 -> s1 [label="SERVER_HELLO_DONE / Alert(FATAL,UNEXPECTED_MESSAGE)"];
	s41 -> s3 [label="CHANGE_CIPHER_SPEC / TIMEOUT"];
	s41 -> s1 [label="FINISHED / Alert(FATAL,UNEXPECTED_MESSAGE)"];
	s41 -> s41 [label="APPLICATION / TIMEOUT"];
	s41 -> s1 [label="CERTIFICATE / Alert(FATAL,UNEXPECTED_MESSAGE)"];
	s41 -> s1 [label="EMPTY_CERTIFICATE / Alert(FATAL,UNEXPECTED_MESSAGE)"];
	s41 -> s1 [label="Alert(WARNING,CLOSE_NOTIFY) / TIMEOUT"];
	s41 -> s1 [label="Alert(FATAL,UNEXPECTED_MESSAGE) / TIMEOUT"];
	s42 -> s1 [label="HELLO_VERIFY_REQUEST / Alert(FATAL,DECODE_ERROR)"];
	s42 -> s1 [label="ECDH_SERVER_HELLO / Alert(FATAL,DECODE_ERROR)"];
	s42 -> s1 [label="ECDH_SERVER_KEY_EXCHANGE / Alert(FATAL,DECODE_ERROR)"];
	s42 -> s1 [label="RSA_SIGN_CERTIFICATE_REQUEST / Alert(FATAL,DECODE_ERROR)"];
	s42 -> s1 [label="RSA_FIXED_ECDH_CERTIFICATE_REQUEST / Alert(FATAL,DECODE_ERROR)"];
	s42 -> s1 [label="RSA_FIXED_DH_CERTIFICATE_REQUEST / Alert(FATAL,DECODE_ERROR)"];
	s42 -> s1 [label="DSS_SIGN_CERTIFICATE_REQUEST / Alert(FATAL,DECODE_ERROR)"];
	s42 -> s1 [label="DSS_FIXED_DH_CERTIFICATE_REQUEST / Alert(FATAL,DECODE_ERROR)"];
	s42 -> s1 [label="ECDSA_SIGN_CERTIFICATE_REQUEST / Alert(FATAL,DECODE_ERROR)"];
	s42 -> s45 [label="HELLO_REQUEST / CLIENT_HELLO"];
	s42 -> s1 [label="SERVER_HELLO_DONE / Alert(FATAL,DECODE_ERROR)"];
	s42 -> s3 [label="CHANGE_CIPHER_SPEC / TIMEOUT"];
	s42 -> s1 [label="FINISHED / Alert(FATAL,DECODE_ERROR)"];
	s42 -> s42 [label="APPLICATION / TIMEOUT"];
	s42 -> s41 [label="CERTIFICATE / TIMEOUT"];
	s42 -> s1 [label="EMPTY_CERTIFICATE / Alert(FATAL,DECODE_ERROR)"];
	s42 -> s1 [label="Alert(WARNING,CLOSE_NOTIFY) / TIMEOUT"];
	s42 -> s1 [label="Alert(FATAL,UNEXPECTED_MESSAGE) / TIMEOUT"];
	s43 -> s43 [label="HELLO_VERIFY_REQUEST / CLIENT_HELLO"];
	s43 -> s2 [label="ECDH_SERVER_HELLO / TIMEOUT"];
	s43 -> s1 [label="ECDH_SERVER_KEY_EXCHANGE / Alert(FATAL,DECODE_ERROR)"];
	s43 -> s1 [label="RSA_SIGN_CERTIFICATE_REQUEST / Alert(FATAL,DECODE_ERROR)"];
	s43 -> s1 [label="RSA_FIXED_ECDH_CERTIFICATE_REQUEST / Alert(FATAL,DECODE_ERROR)"];
	s43 -> s1 [label="RSA_FIXED_DH_CERTIFICATE_REQUEST / Alert(FATAL,DECODE_ERROR)"];
	s43 -> s1 [label="DSS_SIGN_CERTIFICATE_REQUEST / Alert(FATAL,DECODE_ERROR)"];
	s43 -> s1 [label="DSS_FIXED_DH_CERTIFICATE_REQUEST / Alert(FATAL,DECODE_ERROR)"];
	s43 -> s1 [label="ECDSA_SIGN_CERTIFICATE_REQUEST / Alert(FATAL,DECODE_ERROR)"];
	s43 -> s5 [label="HELLO_REQUEST / TIMEOUT"];
	s43 -> s1 [label="SERVER_HELLO_DONE / Alert(FATAL,DECODE_ERROR)"];
	s43 -> s3 [label="CHANGE_CIPHER_SPEC / TIMEOUT"];
	s43 -> s1 [label="FINISHED / Alert(FATAL,DECODE_ERROR)"];
	s43 -> s44 [label="APPLICATION / TIMEOUT"];
	s43 -> s1 [label="CERTIFICATE / Alert(FATAL,DECODE_ERROR)"];
	s43 -> s1 [label="EMPTY_CERTIFICATE / Alert(FATAL,DECODE_ERROR)"];
	s43 -> s1 [label="Alert(WARNING,CLOSE_NOTIFY) / TIMEOUT"];
	s43 -> s1 [label="Alert(FATAL,UNEXPECTED_MESSAGE) / TIMEOUT"];
	s44 -> s44 [label="HELLO_VERIFY_REQUEST / CLIENT_HELLO"];
	s44 -> s2 [label="ECDH_SERVER_HELLO / TIMEOUT"];
	s44 -> s1 [label="ECDH_SERVER_KEY_EXCHANGE / Alert(FATAL,DECODE_ERROR)"];
	s44 -> s1 [label="RSA_SIGN_CERTIFICATE_REQUEST / Alert(FATAL,DECODE_ERROR)"];
	s44 -> s1 [label="RSA_FIXED_ECDH_CERTIFICATE_REQUEST / Alert(FATAL,DECODE_ERROR)"];
	s44 -> s1 [label="RSA_FIXED_DH_CERTIFICATE_REQUEST / Alert(FATAL,DECODE_ERROR)"];
	s44 -> s1 [label="DSS_SIGN_CERTIFICATE_REQUEST / Alert(FATAL,DECODE_ERROR)"];
	s44 -> s1 [label="DSS_FIXED_DH_CERTIFICATE_REQUEST / Alert(FATAL,DECODE_ERROR)"];
	s44 -> s1 [label="ECDSA_SIGN_CERTIFICATE_REQUEST / Alert(FATAL,DECODE_ERROR)"];
	s44 -> s5 [label="HELLO_REQUEST / TIMEOUT"];
	s44 -> s1 [label="SERVER_HELLO_DONE / Alert(FATAL,DECODE_ERROR)"];
	s44 -> s3 [label="CHANGE_CIPHER_SPEC / TIMEOUT"];
	s44 -> s1 [label="FINISHED / Alert(FATAL,DECODE_ERROR)"];
	s44 -> s1 [label="APPLICATION / TIMEOUT"];
	s44 -> s1 [label="CERTIFICATE / Alert(FATAL,DECODE_ERROR)"];
	s44 -> s1 [label="EMPTY_CERTIFICATE / Alert(FATAL,DECODE_ERROR)"];
	s44 -> s1 [label="Alert(WARNING,CLOSE_NOTIFY) / TIMEOUT"];
	s44 -> s1 [label="Alert(FATAL,UNEXPECTED_MESSAGE) / TIMEOUT"];
	s45 -> s42 [label="HELLO_VERIFY_REQUEST / TIMEOUT"];
	s45 -> s42 [label="ECDH_SERVER_HELLO / TIMEOUT"];
	s45 -> s42 [label="ECDH_SERVER_KEY_EXCHANGE / TIMEOUT"];
	s45 -> s42 [label="RSA_SIGN_CERTIFICATE_REQUEST / TIMEOUT"];
	s45 -> s42 [label="RSA_FIXED_ECDH_CERTIFICATE_REQUEST / TIMEOUT"];
	s45 -> s42 [label="RSA_FIXED_DH_CERTIFICATE_REQUEST / TIMEOUT"];
	s45 -> s42 [label="DSS_SIGN_CERTIFICATE_REQUEST / TIMEOUT"];
	s45 -> s42 [label="DSS_FIXED_DH_CERTIFICATE_REQUEST / TIMEOUT"];
	s45 -> s42 [label="ECDSA_SIGN_CERTIFICATE_REQUEST / TIMEOUT"];
	s45 -> s45 [label="HELLO_REQUEST / CLIENT_HELLO"];
	s45 -> s42 [label="SERVER_HELLO_DONE / TIMEOUT"];
	s45 -> s3 [label="CHANGE_CIPHER_SPEC / TIMEOUT"];
	s45 -> s42 [label="FINISHED / TIMEOUT"];
	s45 -> s45 [label="APPLICATION / TIMEOUT"];
	s45 -> s42 [label="CERTIFICATE / TIMEOUT"];
	s45 -> s42 [label="EMPTY_CERTIFICATE / TIMEOUT"];
	s45 -> s1 [label="Alert(WARNING,CLOSE_NOTIFY) / TIMEOUT"];
	s45 -> s1 [label="Alert(FATAL,UNEXPECTED_MESSAGE) / TIMEOUT"];

__start0 [label="" shape="none" width="0" height="0"];
__start0 -> s0;

}
