digraph g {

	s0 [shape="circle" label="s0"];
	s1 [shape="circle" label="s1"];
	s2 [shape="circle" label="s2"];
	s3 [shape="circle" label="s3"];
	s4 [shape="circle" label="s4"];
	s5 [shape="circle" label="s5"];
	s6 [shape="circle" label="s6"];
	s7 [shape="circle" label="s7"];
	s8 [shape="circle" label="s8"];
	s9 [shape="circle" label="s9"];
	s10 [shape="circle" label="s10"];
	s11 [shape="circle" label="s11"];
	s12 [shape="circle" label="s12"];
	s13 [shape="circle" label="s13"];
	s14 [shape="circle" label="s14"];
	s15 [shape="circle" label="s15"];
	s16 [shape="circle" label="s16"];
	s17 [shape="circle" label="s17"];
	s18 [shape="circle" label="s18"];
	s19 [shape="circle" label="s19"];
	s20 [shape="circle" label="s20"];
	s21 [shape="circle" label="s21"];
	s22 [shape="circle" label="s22"];
	s23 [shape="circle" label="s23"];
	s24 [shape="circle" label="s24"];
	s25 [shape="circle" label="s25"];
	s26 [shape="circle" label="s26"];
	s27 [shape="circle" label="s27"];
	s28 [shape="circle" label="s28"];
	s29 [shape="circle" label="s29"];
	s30 [shape="circle" label="s30"];
	s31 [shape="circle" label="s31"];
	s32 [shape="circle" label="s32"];
	s33 [shape="circle" label="s33"];
	s34 [shape="circle" label="s34"];
	s35 [shape="circle" label="s35"];
	s36 [shape="circle" label="s36"];
	s37 [shape="circle" label="s37"];
	s38 [shape="circle" label="s38"];
	s39 [shape="circle" label="s39"];
	s40 [shape="circle" label="s40"];
	s41 [shape="circle" label="s41"];
	s42 [shape="circle" label="s42"];
	s43 [shape="circle" label="s43"];
	s44 [shape="circle" label="s44"];
	s45 [shape="circle" label="s45"];
	s46 [shape="circle" label="s46"];
	s47 [shape="circle" label="s47"];
	s48 [shape="circle" label="s48"];
	s49 [shape="circle" label="s49"];
	s50 [shape="circle" label="s50"];
	s51 [shape="circle" label="s51"];
	s52 [shape="circle" label="s52"];
	s53 [shape="circle" label="s53"];
	s54 [shape="circle" label="s54"];
	s55 [shape="circle" label="s55"];
	s56 [shape="circle" label="s56"];
	s57 [shape="circle" label="s57"];
	s58 [shape="circle" label="s58"];
	s59 [shape="circle" label="s59"];
	s60 [shape="circle" label="s60"];
	s61 [shape="circle" label="s61"];
	s62 [shape="circle" label="s62"];
	s63 [shape="circle" label="s63"];
	s64 [shape="circle" label="s64"];
	s65 [shape="circle" label="s65"];
	s66 [shape="circle" label="s66"];
	s67 [shape="circle" label="s67"];
	s68 [shape="circle" label="s68"];
	s69 [shape="circle" label="s69"];
	s70 [shape="circle" label="s70"];
	s71 [shape="circle" label="s71"];
	s72 [shape="circle" label="s72"];
	s73 [shape="circle" label="s73"];
	s74 [shape="circle" label="s74"];
	s75 [shape="circle" label="s75"];
	s76 [shape="circle" label="s76"];
	s77 [shape="circle" label="s77"];
	s78 [shape="circle" label="s78"];
	s79 [shape="circle" label="s79"];
	s80 [shape="circle" label="s80"];
	s81 [shape="circle" label="s81"];
	s82 [shape="circle" label="s82"];
	s83 [shape="circle" label="s83"];
	s84 [shape="circle" label="s84"];
	s85 [shape="circle" label="s85"];
	s86 [shape="circle" label="s86"];
	s87 [shape="circle" label="s87"];
	s88 [shape="circle" label="s88"];
	s89 [shape="circle" label="s89"];
	s90 [shape="circle" label="s90"];
	s91 [shape="circle" label="s91"];
	s92 [shape="circle" label="s92"];
	s93 [shape="circle" label="s93"];
	s94 [shape="circle" label="s94"];
	s95 [shape="circle" label="s95"];
	s96 [shape="circle" label="s96"];
	s97 [shape="circle" label="s97"];
	s98 [shape="circle" label="s98"];
	s99 [shape="circle" label="s99"];
	s100 [shape="circle" label="s100"];
	s101 [shape="circle" label="s101"];
	s102 [shape="circle" label="s102"];
	s103 [shape="circle" label="s103"];
	s104 [shape="circle" label="s104"];
	s105 [shape="circle" label="s105"];
	s106 [shape="circle" label="s106"];
	s107 [shape="circle" label="s107"];
	s108 [shape="circle" label="s108"];
	s109 [shape="circle" label="s109"];
	s110 [shape="circle" label="s110"];
	s111 [shape="circle" label="s111"];
	s112 [shape="circle" label="s112"];
	s113 [shape="circle" label="s113"];
	s114 [shape="circle" label="s114"];
	s115 [shape="circle" label="s115"];
	s116 [shape="circle" label="s116"];
	s117 [shape="circle" label="s117"];
	s118 [shape="circle" label="s118"];
	s119 [shape="circle" label="s119"];
	s120 [shape="circle" label="s120"];
	s121 [shape="circle" label="s121"];
	s122 [shape="circle" label="s122"];
	s123 [shape="circle" label="s123"];
	s124 [shape="circle" label="s124"];
	s125 [shape="circle" label="s125"];
	s126 [shape="circle" label="s126"];
	s127 [shape="circle" label="s127"];
	s128 [shape="circle" label="s128"];
	s0 -> s4 [label="HELLO_VERIFY_REQUEST / CLIENT_HELLO+"];
	s0 -> s2 [label="PSK_SERVER_HELLO / CLIENT_HELLO"];
	s0 -> s1 [label="SERVER_HELLO_DONE / CLIENT_HELLO|Alert(FATAL,UNEXPECTED_MESSAGE)"];
	s0 -> s1 [label="CHANGE_CIPHER_SPEC / CLIENT_HELLO"];
	s0 -> s1 [label="FINISHED / CLIENT_HELLO|Alert(FATAL,INTERNAL_ERROR)"];
	s0 -> s46 [label="HELLO_REQUEST / CLIENT_HELLO"];
	s0 -> s1 [label="APPLICATION / CLIENT_HELLO|Alert(FATAL,UNEXPECTED_MESSAGE)"];
	s0 -> s1 [label="Alert(WARNING,CLOSE_NOTIFY) / CLIENT_HELLO"];
	s0 -> s1 [label="Alert(FATAL,UNEXPECTED_MESSAGE) / CLIENT_HELLO"];
	s1 -> s1 [label="HELLO_VERIFY_REQUEST / TIMEOUT"];
	s1 -> s1 [label="PSK_SERVER_HELLO / TIMEOUT"];
	s1 -> s1 [label="SERVER_HELLO_DONE / TIMEOUT"];
	s1 -> s1 [label="CHANGE_CIPHER_SPEC / TIMEOUT"];
	s1 -> s1 [label="FINISHED / TIMEOUT"];
	s1 -> s1 [label="HELLO_REQUEST / TIMEOUT"];
	s1 -> s1 [label="APPLICATION / TIMEOUT"];
	s1 -> s1 [label="Alert(WARNING,CLOSE_NOTIFY) / TIMEOUT"];
	s1 -> s1 [label="Alert(FATAL,UNEXPECTED_MESSAGE) / TIMEOUT"];
	s2 -> s4 [label="HELLO_VERIFY_REQUEST / CLIENT_HELLO"];
	s2 -> s1 [label="PSK_SERVER_HELLO / Alert(FATAL,UNEXPECTED_MESSAGE)"];
	s2 -> s3 [label="SERVER_HELLO_DONE / PSK_CLIENT_KEY_EXCHANGE|CHANGE_CIPHER_SPEC|FINISHED"];
	s2 -> s1 [label="CHANGE_CIPHER_SPEC / TIMEOUT"];
	s2 -> s1 [label="FINISHED / Alert(FATAL,INTERNAL_ERROR)"];
	s2 -> s1 [label="HELLO_REQUEST / TIMEOUT"];
	s2 -> s1 [label="APPLICATION / Alert(FATAL,UNEXPECTED_MESSAGE)"];
	s2 -> s1 [label="Alert(WARNING,CLOSE_NOTIFY) / TIMEOUT"];
	s2 -> s1 [label="Alert(FATAL,UNEXPECTED_MESSAGE) / TIMEOUT"];
	s3 -> s1 [label="HELLO_VERIFY_REQUEST / Alert(FATAL,UNEXPECTED_MESSAGE)"];
	s3 -> s1 [label="PSK_SERVER_HELLO / Alert(FATAL,UNEXPECTED_MESSAGE)"];
	s3 -> s1 [label="SERVER_HELLO_DONE / Alert(FATAL,UNEXPECTED_MESSAGE)"];
	s3 -> s5 [label="CHANGE_CIPHER_SPEC / TIMEOUT"];
	s3 -> s1 [label="FINISHED / Alert(FATAL,UNEXPECTED_MESSAGE)"];
	s3 -> s1 [label="HELLO_REQUEST / TIMEOUT"];
	s3 -> s1 [label="APPLICATION / Alert(FATAL,UNEXPECTED_MESSAGE)"];
	s3 -> s1 [label="Alert(WARNING,CLOSE_NOTIFY) / TIMEOUT"];
	s3 -> s1 [label="Alert(FATAL,UNEXPECTED_MESSAGE) / TIMEOUT"];
	s4 -> s4 [label="HELLO_VERIFY_REQUEST / CLIENT_HELLO"];
	s4 -> s38 [label="PSK_SERVER_HELLO / TIMEOUT"];
	s4 -> s1 [label="SERVER_HELLO_DONE / Alert(FATAL,UNEXPECTED_MESSAGE)"];
	s4 -> s1 [label="CHANGE_CIPHER_SPEC / TIMEOUT"];
	s4 -> s1 [label="FINISHED / Alert(FATAL,INTERNAL_ERROR)"];
	s4 -> s1 [label="HELLO_REQUEST / TIMEOUT"];
	s4 -> s1 [label="APPLICATION / Alert(FATAL,UNEXPECTED_MESSAGE)"];
	s4 -> s1 [label="Alert(WARNING,CLOSE_NOTIFY) / TIMEOUT"];
	s4 -> s1 [label="Alert(FATAL,UNEXPECTED_MESSAGE) / TIMEOUT"];
	s5 -> s1 [label="HELLO_VERIFY_REQUEST / Alert(FATAL,UNEXPECTED_MESSAGE)"];
	s5 -> s1 [label="PSK_SERVER_HELLO / Alert(FATAL,UNEXPECTED_MESSAGE)"];
	s5 -> s1 [label="SERVER_HELLO_DONE / Alert(FATAL,UNEXPECTED_MESSAGE)"];
	s5 -> s1 [label="CHANGE_CIPHER_SPEC / TIMEOUT"];
	s5 -> s6 [label="FINISHED / TIMEOUT"];
	s5 -> s1 [label="HELLO_REQUEST / TIMEOUT"];
	s5 -> s8 [label="APPLICATION / TIMEOUT"];
	s5 -> s11 [label="Alert(WARNING,CLOSE_NOTIFY) / TIMEOUT"];
	s5 -> s16 [label="Alert(FATAL,UNEXPECTED_MESSAGE) / TIMEOUT"];
	s6 -> s20 [label="HELLO_VERIFY_REQUEST / TIMEOUT"];
	s6 -> s22 [label="PSK_SERVER_HELLO / TIMEOUT"];
	s6 -> s7 [label="SERVER_HELLO_DONE / TIMEOUT"];
	s6 -> s1 [label="CHANGE_CIPHER_SPEC / TIMEOUT"];
	s6 -> s43 [label="FINISHED / TIMEOUT"];
	s6 -> s19 [label="HELLO_REQUEST / CLIENT_HELLO"];
	s6 -> s6 [label="APPLICATION / APPLICATION"];
	s6 -> s1 [label="Alert(WARNING,CLOSE_NOTIFY) / Alert(WARNING,CLOSE_NOTIFY)"];
	s6 -> s1 [label="Alert(FATAL,UNEXPECTED_MESSAGE) / TIMEOUT"];
	s7 -> s7 [label="HELLO_VERIFY_REQUEST / TIMEOUT"];
	s7 -> s7 [label="PSK_SERVER_HELLO / TIMEOUT"];
	s7 -> s7 [label="SERVER_HELLO_DONE / TIMEOUT"];
	s7 -> s1 [label="CHANGE_CIPHER_SPEC / TIMEOUT"];
	s7 -> s7 [label="FINISHED / TIMEOUT"];
	s7 -> s17 [label="HELLO_REQUEST / CLIENT_HELLO"];
	s7 -> s1 [label="APPLICATION / Alert(FATAL,UNEXPECTED_MESSAGE)"];
	s7 -> s1 [label="Alert(WARNING,CLOSE_NOTIFY) / TIMEOUT"];
	s7 -> s1 [label="Alert(FATAL,UNEXPECTED_MESSAGE) / TIMEOUT"];
	s8 -> s1 [label="HELLO_VERIFY_REQUEST / Alert(FATAL,UNEXPECTED_MESSAGE)"];
	s8 -> s1 [label="PSK_SERVER_HELLO / Alert(FATAL,UNEXPECTED_MESSAGE)"];
	s8 -> s1 [label="SERVER_HELLO_DONE / Alert(FATAL,UNEXPECTED_MESSAGE)"];
	s8 -> s1 [label="CHANGE_CIPHER_SPEC / TIMEOUT"];
	s8 -> s9 [label="FINISHED / TIMEOUT"];
	s8 -> s1 [label="HELLO_REQUEST / TIMEOUT"];
	s8 -> s8 [label="APPLICATION / TIMEOUT"];
	s8 -> s10 [label="Alert(WARNING,CLOSE_NOTIFY) / TIMEOUT"];
	s8 -> s14 [label="Alert(FATAL,UNEXPECTED_MESSAGE) / TIMEOUT"];
	s9 -> s20 [label="HELLO_VERIFY_REQUEST / APPLICATION"];
	s9 -> s22 [label="PSK_SERVER_HELLO / APPLICATION"];
	s9 -> s7 [label="SERVER_HELLO_DONE / APPLICATION"];
	s9 -> s1 [label="CHANGE_CIPHER_SPEC / APPLICATION"];
	s9 -> s43 [label="FINISHED / APPLICATION"];
	s9 -> s19 [label="HELLO_REQUEST / APPLICATION|CLIENT_HELLO"];
	s9 -> s6 [label="APPLICATION / APPLICATION"];
	s9 -> s1 [label="Alert(WARNING,CLOSE_NOTIFY) / APPLICATION|Alert(WARNING,CLOSE_NOTIFY)"];
	s9 -> s1 [label="Alert(FATAL,UNEXPECTED_MESSAGE) / APPLICATION"];
	s10 -> s1 [label="HELLO_VERIFY_REQUEST / Alert(FATAL,UNEXPECTED_MESSAGE)"];
	s10 -> s1 [label="PSK_SERVER_HELLO / Alert(FATAL,UNEXPECTED_MESSAGE)"];
	s10 -> s1 [label="SERVER_HELLO_DONE / Alert(FATAL,UNEXPECTED_MESSAGE)"];
	s10 -> s1 [label="CHANGE_CIPHER_SPEC / TIMEOUT"];
	s10 -> s13 [label="FINISHED / TIMEOUT"];
	s10 -> s1 [label="HELLO_REQUEST / TIMEOUT"];
	s10 -> s10 [label="APPLICATION / TIMEOUT"];
	s10 -> s10 [label="Alert(WARNING,CLOSE_NOTIFY) / TIMEOUT"];
	s10 -> s10 [label="Alert(FATAL,UNEXPECTED_MESSAGE) / TIMEOUT"];
	s11 -> s1 [label="HELLO_VERIFY_REQUEST / Alert(FATAL,UNEXPECTED_MESSAGE)"];
	s11 -> s1 [label="PSK_SERVER_HELLO / Alert(FATAL,UNEXPECTED_MESSAGE)"];
	s11 -> s1 [label="SERVER_HELLO_DONE / Alert(FATAL,UNEXPECTED_MESSAGE)"];
	s11 -> s1 [label="CHANGE_CIPHER_SPEC / TIMEOUT"];
	s11 -> s12 [label="FINISHED / TIMEOUT"];
	s11 -> s1 [label="HELLO_REQUEST / TIMEOUT"];
	s11 -> s11 [label="APPLICATION / TIMEOUT"];
	s11 -> s11 [label="Alert(WARNING,CLOSE_NOTIFY) / TIMEOUT"];
	s11 -> s11 [label="Alert(FATAL,UNEXPECTED_MESSAGE) / TIMEOUT"];
	s12 -> s1 [label="HELLO_VERIFY_REQUEST / Alert(WARNING,CLOSE_NOTIFY)"];
	s12 -> s1 [label="PSK_SERVER_HELLO / Alert(WARNING,CLOSE_NOTIFY)"];
	s12 -> s1 [label="SERVER_HELLO_DONE / Alert(WARNING,CLOSE_NOTIFY)"];
	s12 -> s1 [label="CHANGE_CIPHER_SPEC / Alert(WARNING,CLOSE_NOTIFY)"];
	s12 -> s1 [label="FINISHED / Alert(WARNING,CLOSE_NOTIFY)"];
	s12 -> s1 [label="HELLO_REQUEST / Alert(WARNING,CLOSE_NOTIFY)"];
	s12 -> s1 [label="APPLICATION / Alert(WARNING,CLOSE_NOTIFY)"];
	s12 -> s1 [label="Alert(WARNING,CLOSE_NOTIFY) / Alert(WARNING,CLOSE_NOTIFY)"];
	s12 -> s1 [label="Alert(FATAL,UNEXPECTED_MESSAGE) / Alert(WARNING,CLOSE_NOTIFY)"];
	s13 -> s1 [label="HELLO_VERIFY_REQUEST / APPLICATION|Alert(WARNING,CLOSE_NOTIFY)"];
	s13 -> s1 [label="PSK_SERVER_HELLO / APPLICATION|Alert(WARNING,CLOSE_NOTIFY)"];
	s13 -> s1 [label="SERVER_HELLO_DONE / APPLICATION|Alert(WARNING,CLOSE_NOTIFY)"];
	s13 -> s1 [label="CHANGE_CIPHER_SPEC / APPLICATION|Alert(WARNING,CLOSE_NOTIFY)"];
	s13 -> s1 [label="FINISHED / APPLICATION|Alert(WARNING,CLOSE_NOTIFY)"];
	s13 -> s1 [label="HELLO_REQUEST / APPLICATION|Alert(WARNING,CLOSE_NOTIFY)"];
	s13 -> s1 [label="APPLICATION / APPLICATION|Alert(WARNING,CLOSE_NOTIFY)"];
	s13 -> s1 [label="Alert(WARNING,CLOSE_NOTIFY) / APPLICATION|Alert(WARNING,CLOSE_NOTIFY)"];
	s13 -> s1 [label="Alert(FATAL,UNEXPECTED_MESSAGE) / APPLICATION|Alert(WARNING,CLOSE_NOTIFY)"];
	s14 -> s1 [label="HELLO_VERIFY_REQUEST / Alert(FATAL,UNEXPECTED_MESSAGE)"];
	s14 -> s1 [label="PSK_SERVER_HELLO / Alert(FATAL,UNEXPECTED_MESSAGE)"];
	s14 -> s1 [label="SERVER_HELLO_DONE / Alert(FATAL,UNEXPECTED_MESSAGE)"];
	s14 -> s1 [label="CHANGE_CIPHER_SPEC / TIMEOUT"];
	s14 -> s15 [label="FINISHED / TIMEOUT"];
	s14 -> s1 [label="HELLO_REQUEST / TIMEOUT"];
	s14 -> s14 [label="APPLICATION / TIMEOUT"];
	s14 -> s14 [label="Alert(WARNING,CLOSE_NOTIFY) / TIMEOUT"];
	s14 -> s14 [label="Alert(FATAL,UNEXPECTED_MESSAGE) / TIMEOUT"];
	s15 -> s1 [label="HELLO_VERIFY_REQUEST / APPLICATION"];
	s15 -> s1 [label="PSK_SERVER_HELLO / APPLICATION"];
	s15 -> s1 [label="SERVER_HELLO_DONE / APPLICATION"];
	s15 -> s1 [label="CHANGE_CIPHER_SPEC / APPLICATION"];
	s15 -> s1 [label="FINISHED / APPLICATION"];
	s15 -> s1 [label="HELLO_REQUEST / APPLICATION"];
	s15 -> s1 [label="APPLICATION / APPLICATION"];
	s15 -> s1 [label="Alert(WARNING,CLOSE_NOTIFY) / APPLICATION"];
	s15 -> s1 [label="Alert(FATAL,UNEXPECTED_MESSAGE) / APPLICATION"];
	s16 -> s1 [label="HELLO_VERIFY_REQUEST / Alert(FATAL,UNEXPECTED_MESSAGE)"];
	s16 -> s1 [label="PSK_SERVER_HELLO / Alert(FATAL,UNEXPECTED_MESSAGE)"];
	s16 -> s1 [label="SERVER_HELLO_DONE / Alert(FATAL,UNEXPECTED_MESSAGE)"];
	s16 -> s1 [label="CHANGE_CIPHER_SPEC / TIMEOUT"];
	s16 -> s1 [label="FINISHED / TIMEOUT"];
	s16 -> s1 [label="HELLO_REQUEST / TIMEOUT"];
	s16 -> s16 [label="APPLICATION / TIMEOUT"];
	s16 -> s16 [label="Alert(WARNING,CLOSE_NOTIFY) / TIMEOUT"];
	s16 -> s16 [label="Alert(FATAL,UNEXPECTED_MESSAGE) / TIMEOUT"];
	s17 -> s18 [label="HELLO_VERIFY_REQUEST / CLIENT_HELLO"];
	s17 -> s87 [label="PSK_SERVER_HELLO / TIMEOUT"];
	s17 -> s1 [label="SERVER_HELLO_DONE / Alert(FATAL,UNEXPECTED_MESSAGE)"];
	s17 -> s1 [label="CHANGE_CIPHER_SPEC / TIMEOUT"];
	s17 -> s1 [label="FINISHED / Alert(FATAL,INTERNAL_ERROR)"];
	s17 -> s1 [label="HELLO_REQUEST / TIMEOUT"];
	s17 -> s17 [label="APPLICATION / TIMEOUT"];
	s17 -> s1 [label="Alert(WARNING,CLOSE_NOTIFY) / TIMEOUT"];
	s17 -> s1 [label="Alert(FATAL,UNEXPECTED_MESSAGE) / TIMEOUT"];
	s18 -> s1 [label="HELLO_VERIFY_REQUEST / CLIENT_HELLO|Alert(FATAL,UNEXPECTED_MESSAGE)"];
	s18 -> s79 [label="PSK_SERVER_HELLO / PSK_CLIENT_KEY_EXCHANGE|CHANGE_CIPHER_SPEC|FINISHED"];
	s18 -> s1 [label="SERVER_HELLO_DONE / Alert(FATAL,UNEXPECTED_MESSAGE)"];
	s18 -> s1 [label="CHANGE_CIPHER_SPEC / TIMEOUT"];
	s18 -> s1 [label="FINISHED / Alert(FATAL,INTERNAL_ERROR)"];
	s18 -> s1 [label="HELLO_REQUEST / TIMEOUT"];
	s18 -> s18 [label="APPLICATION / TIMEOUT"];
	s18 -> s1 [label="Alert(WARNING,CLOSE_NOTIFY) / TIMEOUT"];
	s18 -> s1 [label="Alert(FATAL,UNEXPECTED_MESSAGE) / TIMEOUT"];
	s19 -> s19 [label="HELLO_VERIFY_REQUEST / CLIENT_HELLO"];
	s19 -> s86 [label="PSK_SERVER_HELLO / TIMEOUT"];
	s19 -> s1 [label="SERVER_HELLO_DONE / Alert(FATAL,UNEXPECTED_MESSAGE)"];
	s19 -> s1 [label="CHANGE_CIPHER_SPEC / TIMEOUT"];
	s19 -> s1 [label="FINISHED / Alert(FATAL,INTERNAL_ERROR)"];
	s19 -> s1 [label="HELLO_REQUEST / TIMEOUT"];
	s19 -> s19 [label="APPLICATION / TIMEOUT"];
	s19 -> s1 [label="Alert(WARNING,CLOSE_NOTIFY) / TIMEOUT"];
	s19 -> s1 [label="Alert(FATAL,UNEXPECTED_MESSAGE) / TIMEOUT"];
	s20 -> s53 [label="HELLO_VERIFY_REQUEST / TIMEOUT"];
	s20 -> s54 [label="PSK_SERVER_HELLO / TIMEOUT"];
	s20 -> s24 [label="SERVER_HELLO_DONE / TIMEOUT"];
	s20 -> s1 [label="CHANGE_CIPHER_SPEC / TIMEOUT"];
	s20 -> s52 [label="FINISHED / TIMEOUT"];
	s20 -> s21 [label="HELLO_REQUEST / CLIENT_HELLO"];
	s20 -> s1 [label="APPLICATION / Alert(FATAL,UNEXPECTED_MESSAGE)"];
	s20 -> s1 [label="Alert(WARNING,CLOSE_NOTIFY) / TIMEOUT"];
	s20 -> s1 [label="Alert(FATAL,UNEXPECTED_MESSAGE) / TIMEOUT"];
	s21 -> s35 [label="HELLO_VERIFY_REQUEST / CLIENT_HELLO"];
	s21 -> s36 [label="PSK_SERVER_HELLO / TIMEOUT"];
	s21 -> s1 [label="SERVER_HELLO_DONE / Alert(FATAL,UNEXPECTED_MESSAGE)"];
	s21 -> s1 [label="CHANGE_CIPHER_SPEC / TIMEOUT"];
	s21 -> s1 [label="FINISHED / Alert(FATAL,INTERNAL_ERROR)"];
	s21 -> s1 [label="HELLO_REQUEST / TIMEOUT"];
	s21 -> s21 [label="APPLICATION / TIMEOUT"];
	s21 -> s1 [label="Alert(WARNING,CLOSE_NOTIFY) / TIMEOUT"];
	s21 -> s1 [label="Alert(FATAL,UNEXPECTED_MESSAGE) / TIMEOUT"];
	s22 -> s49 [label="HELLO_VERIFY_REQUEST / TIMEOUT"];
	s22 -> s7 [label="PSK_SERVER_HELLO / TIMEOUT"];
	s22 -> s23 [label="SERVER_HELLO_DONE / TIMEOUT"];
	s22 -> s1 [label="CHANGE_CIPHER_SPEC / TIMEOUT"];
	s22 -> s74 [label="FINISHED / TIMEOUT"];
	s22 -> s75 [label="HELLO_REQUEST / CLIENT_HELLO"];
	s22 -> s1 [label="APPLICATION / Alert(FATAL,UNEXPECTED_MESSAGE)"];
	s22 -> s1 [label="Alert(WARNING,CLOSE_NOTIFY) / TIMEOUT"];
	s22 -> s1 [label="Alert(FATAL,UNEXPECTED_MESSAGE) / TIMEOUT"];
	s23 -> s27 [label="HELLO_VERIFY_REQUEST / TIMEOUT"];
	s23 -> s25 [label="PSK_SERVER_HELLO / TIMEOUT"];
	s23 -> s27 [label="SERVER_HELLO_DONE / TIMEOUT"];
	s23 -> s1 [label="CHANGE_CIPHER_SPEC / TIMEOUT"];
	s23 -> s23 [label="FINISHED / TIMEOUT"];
	s23 -> s26 [label="HELLO_REQUEST / CLIENT_HELLO"];
	s23 -> s1 [label="APPLICATION / Alert(FATAL,UNEXPECTED_MESSAGE)"];
	s23 -> s1 [label="Alert(WARNING,CLOSE_NOTIFY) / TIMEOUT"];
	s23 -> s1 [label="Alert(FATAL,UNEXPECTED_MESSAGE) / TIMEOUT"];
	s24 -> s24 [label="HELLO_VERIFY_REQUEST / TIMEOUT"];
	s24 -> s24 [label="PSK_SERVER_HELLO / TIMEOUT"];
	s24 -> s24 [label="SERVER_HELLO_DONE / TIMEOUT"];
	s24 -> s1 [label="CHANGE_CIPHER_SPEC / TIMEOUT"];
	s24 -> s24 [label="FINISHED / TIMEOUT"];
	s24 -> s28 [label="HELLO_REQUEST / CLIENT_HELLO"];
	s24 -> s1 [label="APPLICATION / Alert(FATAL,UNEXPECTED_MESSAGE)"];
	s24 -> s1 [label="Alert(WARNING,CLOSE_NOTIFY) / TIMEOUT"];
	s24 -> s1 [label="Alert(FATAL,UNEXPECTED_MESSAGE) / TIMEOUT"];
	s25 -> s25 [label="HELLO_VERIFY_REQUEST / TIMEOUT"];
	s25 -> s25 [label="PSK_SERVER_HELLO / TIMEOUT"];
	s25 -> s25 [label="SERVER_HELLO_DONE / TIMEOUT"];
	s25 -> s1 [label="CHANGE_CIPHER_SPEC / TIMEOUT"];
	s25 -> s25 [label="FINISHED / TIMEOUT"];
	s25 -> s30 [label="HELLO_REQUEST / CLIENT_HELLO"];
	s25 -> s1 [label="APPLICATION / Alert(FATAL,UNEXPECTED_MESSAGE)"];
	s25 -> s1 [label="Alert(WARNING,CLOSE_NOTIFY) / TIMEOUT"];
	s25 -> s1 [label="Alert(FATAL,UNEXPECTED_MESSAGE) / TIMEOUT"];
	s26 -> s31 [label="HELLO_VERIFY_REQUEST / CLIENT_HELLO"];
	s26 -> s32 [label="PSK_SERVER_HELLO / TIMEOUT"];
	s26 -> s1 [label="SERVER_HELLO_DONE / Alert(FATAL,UNEXPECTED_MESSAGE)"];
	s26 -> s1 [label="CHANGE_CIPHER_SPEC / TIMEOUT"];
	s26 -> s1 [label="FINISHED / Alert(FATAL,INTERNAL_ERROR)"];
	s26 -> s1 [label="HELLO_REQUEST / TIMEOUT"];
	s26 -> s26 [label="APPLICATION / TIMEOUT"];
	s26 -> s1 [label="Alert(WARNING,CLOSE_NOTIFY) / TIMEOUT"];
	s26 -> s1 [label="Alert(FATAL,UNEXPECTED_MESSAGE) / TIMEOUT"];
	s27 -> s27 [label="HELLO_VERIFY_REQUEST / TIMEOUT"];
	s27 -> s25 [label="PSK_SERVER_HELLO / TIMEOUT"];
	s27 -> s27 [label="SERVER_HELLO_DONE / TIMEOUT"];
	s27 -> s1 [label="CHANGE_CIPHER_SPEC / TIMEOUT"];
	s27 -> s27 [label="FINISHED / TIMEOUT"];
	s27 -> s29 [label="HELLO_REQUEST / CLIENT_HELLO"];
	s27 -> s1 [label="APPLICATION / Alert(FATAL,UNEXPECTED_MESSAGE)"];
	s27 -> s1 [label="Alert(WARNING,CLOSE_NOTIFY) / TIMEOUT"];
	s27 -> s1 [label="Alert(FATAL,UNEXPECTED_MESSAGE) / TIMEOUT"];
	s28 -> s33 [label="HELLO_VERIFY_REQUEST / CLIENT_HELLO"];
	s28 -> s37 [label="PSK_SERVER_HELLO / TIMEOUT"];
	s28 -> s1 [label="SERVER_HELLO_DONE / Alert(FATAL,UNEXPECTED_MESSAGE)"];
	s28 -> s1 [label="CHANGE_CIPHER_SPEC / TIMEOUT"];
	s28 -> s1 [label="FINISHED / Alert(FATAL,INTERNAL_ERROR)"];
	s28 -> s1 [label="HELLO_REQUEST / TIMEOUT"];
	s28 -> s28 [label="APPLICATION / TIMEOUT"];
	s28 -> s1 [label="Alert(WARNING,CLOSE_NOTIFY) / TIMEOUT"];
	s28 -> s1 [label="Alert(FATAL,UNEXPECTED_MESSAGE) / TIMEOUT"];
	s29 -> s34 [label="HELLO_VERIFY_REQUEST / CLIENT_HELLO"];
	s29 -> s46 [label="PSK_SERVER_HELLO / TIMEOUT"];
	s29 -> s1 [label="SERVER_HELLO_DONE / Alert(FATAL,UNEXPECTED_MESSAGE)"];
	s29 -> s1 [label="CHANGE_CIPHER_SPEC / TIMEOUT"];
	s29 -> s1 [label="FINISHED / Alert(FATAL,INTERNAL_ERROR)"];
	s29 -> s1 [label="HELLO_REQUEST / TIMEOUT"];
	s29 -> s29 [label="APPLICATION / TIMEOUT"];
	s29 -> s1 [label="Alert(WARNING,CLOSE_NOTIFY) / TIMEOUT"];
	s29 -> s1 [label="Alert(FATAL,UNEXPECTED_MESSAGE) / TIMEOUT"];
	s30 -> s1 [label="HELLO_VERIFY_REQUEST / CLIENT_HELLO"];
	s30 -> s46 [label="PSK_SERVER_HELLO / TIMEOUT"];
	s30 -> s1 [label="SERVER_HELLO_DONE / Alert(FATAL,UNEXPECTED_MESSAGE)"];
	s30 -> s1 [label="CHANGE_CIPHER_SPEC / TIMEOUT"];
	s30 -> s1 [label="FINISHED / Alert(FATAL,INTERNAL_ERROR)"];
	s30 -> s1 [label="HELLO_REQUEST / TIMEOUT"];
	s30 -> s30 [label="APPLICATION / TIMEOUT"];
	s30 -> s1 [label="Alert(WARNING,CLOSE_NOTIFY) / TIMEOUT"];
	s30 -> s1 [label="Alert(FATAL,UNEXPECTED_MESSAGE) / TIMEOUT"];
	s31 -> s78 [label="HELLO_VERIFY_REQUEST / CLIENT_HELLO|PSK_CLIENT_KEY_EXCHANGE|CHANGE_CIPHER_SPEC|FINISHED"];
	s31 -> s1 [label="PSK_SERVER_HELLO / Alert(FATAL,UNEXPECTED_MESSAGE)"];
	s31 -> s1 [label="SERVER_HELLO_DONE / Alert(FATAL,UNEXPECTED_MESSAGE)"];
	s31 -> s1 [label="CHANGE_CIPHER_SPEC / TIMEOUT"];
	s31 -> s1 [label="FINISHED / Alert(FATAL,INTERNAL_ERROR)"];
	s31 -> s1 [label="HELLO_REQUEST / TIMEOUT"];
	s31 -> s31 [label="APPLICATION / TIMEOUT"];
	s31 -> s1 [label="Alert(WARNING,CLOSE_NOTIFY) / TIMEOUT"];
	s31 -> s1 [label="Alert(FATAL,UNEXPECTED_MESSAGE) / TIMEOUT"];
	s32 -> s45 [label="HELLO_VERIFY_REQUEST / CLIENT_HELLO|PSK_CLIENT_KEY_EXCHANGE|CHANGE_CIPHER_SPEC|UNKNOWN_MESSAGE"];
	s32 -> s1 [label="PSK_SERVER_HELLO / Alert(FATAL,UNEXPECTED_MESSAGE)"];
	s32 -> s1 [label="SERVER_HELLO_DONE / PSK_CLIENT_KEY_EXCHANGE|CHANGE_CIPHER_SPEC|FINISHED|Alert(FATAL,UNEXPECTED_MESSAGE)"];
	s32 -> s1 [label="CHANGE_CIPHER_SPEC / TIMEOUT"];
	s32 -> s1 [label="FINISHED / Alert(FATAL,INTERNAL_ERROR)"];
	s32 -> s1 [label="HELLO_REQUEST / TIMEOUT"];
	s32 -> s1 [label="APPLICATION / Alert(FATAL,UNEXPECTED_MESSAGE)"];
	s32 -> s1 [label="Alert(WARNING,CLOSE_NOTIFY) / TIMEOUT"];
	s32 -> s1 [label="Alert(FATAL,UNEXPECTED_MESSAGE) / TIMEOUT"];
	s33 -> s1 [label="HELLO_VERIFY_REQUEST / CLIENT_HELLO+|Alert(FATAL,UNEXPECTED_MESSAGE)"];
	s33 -> s1 [label="PSK_SERVER_HELLO / CLIENT_HELLO|Alert(FATAL,UNEXPECTED_MESSAGE)"];
	s33 -> s1 [label="SERVER_HELLO_DONE / Alert(FATAL,UNEXPECTED_MESSAGE)"];
	s33 -> s1 [label="CHANGE_CIPHER_SPEC / TIMEOUT"];
	s33 -> s1 [label="FINISHED / Alert(FATAL,INTERNAL_ERROR)"];
	s33 -> s1 [label="HELLO_REQUEST / TIMEOUT"];
	s33 -> s33 [label="APPLICATION / TIMEOUT"];
	s33 -> s1 [label="Alert(WARNING,CLOSE_NOTIFY) / TIMEOUT"];
	s33 -> s1 [label="Alert(FATAL,UNEXPECTED_MESSAGE) / TIMEOUT"];
	s34 -> s1 [label="HELLO_VERIFY_REQUEST / CLIENT_HELLO|PSK_CLIENT_KEY_EXCHANGE|CHANGE_CIPHER_SPEC|FINISHED|Alert(FATAL,UNEXPECTED_MESSAGE)"];
	s34 -> s1 [label="PSK_SERVER_HELLO / Alert(FATAL,UNEXPECTED_MESSAGE)"];
	s34 -> s1 [label="SERVER_HELLO_DONE / Alert(FATAL,UNEXPECTED_MESSAGE)"];
	s34 -> s1 [label="CHANGE_CIPHER_SPEC / TIMEOUT"];
	s34 -> s1 [label="FINISHED / Alert(FATAL,INTERNAL_ERROR)"];
	s34 -> s1 [label="HELLO_REQUEST / TIMEOUT"];
	s34 -> s34 [label="APPLICATION / TIMEOUT"];
	s34 -> s1 [label="Alert(WARNING,CLOSE_NOTIFY) / TIMEOUT"];
	s34 -> s1 [label="Alert(FATAL,UNEXPECTED_MESSAGE) / TIMEOUT"];
	s35 -> s89 [label="HELLO_VERIFY_REQUEST / CLIENT_HELLO+"];
	s35 -> s89 [label="PSK_SERVER_HELLO / CLIENT_HELLO"];
	s35 -> s1 [label="SERVER_HELLO_DONE / Alert(FATAL,UNEXPECTED_MESSAGE)"];
	s35 -> s1 [label="CHANGE_CIPHER_SPEC / TIMEOUT"];
	s35 -> s1 [label="FINISHED / Alert(FATAL,INTERNAL_ERROR)"];
	s35 -> s1 [label="HELLO_REQUEST / TIMEOUT"];
	s35 -> s35 [label="APPLICATION / TIMEOUT"];
	s35 -> s1 [label="Alert(WARNING,CLOSE_NOTIFY) / TIMEOUT"];
	s35 -> s1 [label="Alert(FATAL,UNEXPECTED_MESSAGE) / TIMEOUT"];
	s36 -> s89 [label="HELLO_VERIFY_REQUEST / CLIENT_HELLO+"];
	s36 -> s1 [label="PSK_SERVER_HELLO / Alert(FATAL,UNEXPECTED_MESSAGE)"];
	s36 -> s1 [label="SERVER_HELLO_DONE / PSK_CLIENT_KEY_EXCHANGE|CHANGE_CIPHER_SPEC|FINISHED|Alert(FATAL,UNEXPECTED_MESSAGE)"];
	s36 -> s1 [label="CHANGE_CIPHER_SPEC / TIMEOUT"];
	s36 -> s1 [label="FINISHED / Alert(FATAL,INTERNAL_ERROR)"];
	s36 -> s1 [label="HELLO_REQUEST / TIMEOUT"];
	s36 -> s1 [label="APPLICATION / Alert(FATAL,UNEXPECTED_MESSAGE)"];
	s36 -> s1 [label="Alert(WARNING,CLOSE_NOTIFY) / TIMEOUT"];
	s36 -> s1 [label="Alert(FATAL,UNEXPECTED_MESSAGE) / TIMEOUT"];
	s37 -> s1 [label="HELLO_VERIFY_REQUEST / CLIENT_HELLO+|Alert(FATAL,UNEXPECTED_MESSAGE)"];
	s37 -> s1 [label="PSK_SERVER_HELLO / Alert(FATAL,UNEXPECTED_MESSAGE)"];
	s37 -> s1 [label="SERVER_HELLO_DONE / PSK_CLIENT_KEY_EXCHANGE|CHANGE_CIPHER_SPEC|FINISHED|Alert(FATAL,UNEXPECTED_MESSAGE)"];
	s37 -> s1 [label="CHANGE_CIPHER_SPEC / TIMEOUT"];
	s37 -> s1 [label="FINISHED / Alert(FATAL,INTERNAL_ERROR)"];
	s37 -> s1 [label="HELLO_REQUEST / TIMEOUT"];
	s37 -> s1 [label="APPLICATION / Alert(FATAL,UNEXPECTED_MESSAGE)"];
	s37 -> s1 [label="Alert(WARNING,CLOSE_NOTIFY) / TIMEOUT"];
	s37 -> s1 [label="Alert(FATAL,UNEXPECTED_MESSAGE) / TIMEOUT"];
	s38 -> s4 [label="HELLO_VERIFY_REQUEST / CLIENT_HELLO"];
	s38 -> s1 [label="PSK_SERVER_HELLO / Alert(FATAL,UNEXPECTED_MESSAGE)"];
	s38 -> s39 [label="SERVER_HELLO_DONE / PSK_CLIENT_KEY_EXCHANGE|CHANGE_CIPHER_SPEC|FINISHED"];
	s38 -> s1 [label="CHANGE_CIPHER_SPEC / TIMEOUT"];
	s38 -> s1 [label="FINISHED / Alert(FATAL,INTERNAL_ERROR)"];
	s38 -> s1 [label="HELLO_REQUEST / TIMEOUT"];
	s38 -> s1 [label="APPLICATION / Alert(FATAL,UNEXPECTED_MESSAGE)"];
	s38 -> s1 [label="Alert(WARNING,CLOSE_NOTIFY) / TIMEOUT"];
	s38 -> s1 [label="Alert(FATAL,UNEXPECTED_MESSAGE) / TIMEOUT"];
	s39 -> s1 [label="HELLO_VERIFY_REQUEST / Alert(FATAL,UNEXPECTED_MESSAGE)"];
	s39 -> s1 [label="PSK_SERVER_HELLO / Alert(FATAL,UNEXPECTED_MESSAGE)"];
	s39 -> s1 [label="SERVER_HELLO_DONE / Alert(FATAL,UNEXPECTED_MESSAGE)"];
	s39 -> s40 [label="CHANGE_CIPHER_SPEC / TIMEOUT"];
	s39 -> s1 [label="FINISHED / Alert(FATAL,UNEXPECTED_MESSAGE)"];
	s39 -> s1 [label="HELLO_REQUEST / TIMEOUT"];
	s39 -> s1 [label="APPLICATION / Alert(FATAL,UNEXPECTED_MESSAGE)"];
	s39 -> s1 [label="Alert(WARNING,CLOSE_NOTIFY) / TIMEOUT"];
	s39 -> s1 [label="Alert(FATAL,UNEXPECTED_MESSAGE) / TIMEOUT"];
	s40 -> s1 [label="HELLO_VERIFY_REQUEST / Alert(FATAL,UNEXPECTED_MESSAGE)"];
	s40 -> s1 [label="PSK_SERVER_HELLO / Alert(FATAL,UNEXPECTED_MESSAGE)"];
	s40 -> s1 [label="SERVER_HELLO_DONE / Alert(FATAL,UNEXPECTED_MESSAGE)"];
	s40 -> s1 [label="CHANGE_CIPHER_SPEC / TIMEOUT"];
	s40 -> s43 [label="FINISHED / TIMEOUT"];
	s40 -> s1 [label="HELLO_REQUEST / TIMEOUT"];
	s40 -> s41 [label="APPLICATION / TIMEOUT"];
	s40 -> s11 [label="Alert(WARNING,CLOSE_NOTIFY) / TIMEOUT"];
	s40 -> s16 [label="Alert(FATAL,UNEXPECTED_MESSAGE) / TIMEOUT"];
	s41 -> s1 [label="HELLO_VERIFY_REQUEST / Alert(FATAL,UNEXPECTED_MESSAGE)"];
	s41 -> s1 [label="PSK_SERVER_HELLO / Alert(FATAL,UNEXPECTED_MESSAGE)"];
	s41 -> s1 [label="SERVER_HELLO_DONE / Alert(FATAL,UNEXPECTED_MESSAGE)"];
	s41 -> s1 [label="CHANGE_CIPHER_SPEC / TIMEOUT"];
	s41 -> s42 [label="FINISHED / TIMEOUT"];
	s41 -> s1 [label="HELLO_REQUEST / TIMEOUT"];
	s41 -> s41 [label="APPLICATION / TIMEOUT"];
	s41 -> s10 [label="Alert(WARNING,CLOSE_NOTIFY) / TIMEOUT"];
	s41 -> s14 [label="Alert(FATAL,UNEXPECTED_MESSAGE) / TIMEOUT"];
	s42 -> s44 [label="HELLO_VERIFY_REQUEST / APPLICATION"];
	s42 -> s44 [label="PSK_SERVER_HELLO / APPLICATION"];
	s42 -> s44 [label="SERVER_HELLO_DONE / APPLICATION"];
	s42 -> s1 [label="CHANGE_CIPHER_SPEC / APPLICATION"];
	s42 -> s43 [label="FINISHED / APPLICATION"];
	s42 -> s19 [label="HELLO_REQUEST / APPLICATION|CLIENT_HELLO"];
	s42 -> s43 [label="APPLICATION / APPLICATION"];
	s42 -> s1 [label="Alert(WARNING,CLOSE_NOTIFY) / APPLICATION|Alert(WARNING,CLOSE_NOTIFY)"];
	s42 -> s1 [label="Alert(FATAL,UNEXPECTED_MESSAGE) / APPLICATION"];
	s43 -> s44 [label="HELLO_VERIFY_REQUEST / TIMEOUT"];
	s43 -> s44 [label="PSK_SERVER_HELLO / TIMEOUT"];
	s43 -> s44 [label="SERVER_HELLO_DONE / TIMEOUT"];
	s43 -> s1 [label="CHANGE_CIPHER_SPEC / TIMEOUT"];
	s43 -> s43 [label="FINISHED / TIMEOUT"];
	s43 -> s19 [label="HELLO_REQUEST / CLIENT_HELLO"];
	s43 -> s43 [label="APPLICATION / APPLICATION"];
	s43 -> s1 [label="Alert(WARNING,CLOSE_NOTIFY) / Alert(WARNING,CLOSE_NOTIFY)"];
	s43 -> s1 [label="Alert(FATAL,UNEXPECTED_MESSAGE) / TIMEOUT"];
	s44 -> s44 [label="HELLO_VERIFY_REQUEST / TIMEOUT"];
	s44 -> s44 [label="PSK_SERVER_HELLO / TIMEOUT"];
	s44 -> s44 [label="SERVER_HELLO_DONE / TIMEOUT"];
	s44 -> s1 [label="CHANGE_CIPHER_SPEC / TIMEOUT"];
	s44 -> s44 [label="FINISHED / TIMEOUT"];
	s44 -> s19 [label="HELLO_REQUEST / CLIENT_HELLO"];
	s44 -> s1 [label="APPLICATION / Alert(FATAL,UNEXPECTED_MESSAGE)"];
	s44 -> s1 [label="Alert(WARNING,CLOSE_NOTIFY) / TIMEOUT"];
	s44 -> s1 [label="Alert(FATAL,UNEXPECTED_MESSAGE) / TIMEOUT"];
	s45 -> s47 [label="HELLO_VERIFY_REQUEST / TIMEOUT"];
	s45 -> s47 [label="PSK_SERVER_HELLO / TIMEOUT"];
	s45 -> s47 [label="SERVER_HELLO_DONE / TIMEOUT"];
	s45 -> s1 [label="CHANGE_CIPHER_SPEC / TIMEOUT"];
	s45 -> s47 [label="FINISHED / TIMEOUT"];
	s45 -> s1 [label="HELLO_REQUEST / TIMEOUT"];
	s45 -> s1 [label="APPLICATION / UNKNOWN_MESSAGE"];
	s45 -> s1 [label="Alert(WARNING,CLOSE_NOTIFY) / TIMEOUT"];
	s45 -> s1 [label="Alert(FATAL,UNEXPECTED_MESSAGE) / TIMEOUT"];
	s46 -> s46 [label="HELLO_VERIFY_REQUEST / TIMEOUT"];
	s46 -> s46 [label="PSK_SERVER_HELLO / TIMEOUT"];
	s46 -> s46 [label="SERVER_HELLO_DONE / TIMEOUT"];
	s46 -> s1 [label="CHANGE_CIPHER_SPEC / TIMEOUT"];
	s46 -> s46 [label="FINISHED / TIMEOUT"];
	s46 -> s1 [label="HELLO_REQUEST / TIMEOUT"];
	s46 -> s1 [label="APPLICATION / Alert(FATAL,UNEXPECTED_MESSAGE)"];
	s46 -> s1 [label="Alert(WARNING,CLOSE_NOTIFY) / TIMEOUT"];
	s46 -> s1 [label="Alert(FATAL,UNEXPECTED_MESSAGE) / TIMEOUT"];
	s47 -> s48 [label="HELLO_VERIFY_REQUEST / TIMEOUT"];
	s47 -> s48 [label="PSK_SERVER_HELLO / TIMEOUT"];
	s47 -> s48 [label="SERVER_HELLO_DONE / TIMEOUT"];
	s47 -> s1 [label="CHANGE_CIPHER_SPEC / TIMEOUT"];
	s47 -> s48 [label="FINISHED / TIMEOUT"];
	s47 -> s1 [label="HELLO_REQUEST / TIMEOUT"];
	s47 -> s1 [label="APPLICATION / UNKNOWN_MESSAGE"];
	s47 -> s1 [label="Alert(WARNING,CLOSE_NOTIFY) / TIMEOUT"];
	s47 -> s1 [label="Alert(FATAL,UNEXPECTED_MESSAGE) / TIMEOUT"];
	s48 -> s1 [label="HELLO_VERIFY_REQUEST / UNKNOWN_MESSAGE"];
	s48 -> s1 [label="PSK_SERVER_HELLO / UNKNOWN_MESSAGE"];
	s48 -> s1 [label="SERVER_HELLO_DONE / UNKNOWN_MESSAGE"];
	s48 -> s1 [label="CHANGE_CIPHER_SPEC / TIMEOUT"];
	s48 -> s1 [label="FINISHED / UNKNOWN_MESSAGE"];
	s48 -> s1 [label="HELLO_REQUEST / TIMEOUT"];
	s48 -> s1 [label="APPLICATION / UNKNOWN_MESSAGE"];
	s48 -> s1 [label="Alert(WARNING,CLOSE_NOTIFY) / TIMEOUT"];
	s48 -> s1 [label="Alert(FATAL,UNEXPECTED_MESSAGE) / TIMEOUT"];
	s49 -> s49 [label="HELLO_VERIFY_REQUEST / TIMEOUT"];
	s49 -> s49 [label="PSK_SERVER_HELLO / TIMEOUT"];
	s49 -> s50 [label="SERVER_HELLO_DONE / TIMEOUT"];
	s49 -> s1 [label="CHANGE_CIPHER_SPEC / TIMEOUT"];
	s49 -> s49 [label="FINISHED / TIMEOUT"];
	s49 -> s69 [label="HELLO_REQUEST / CLIENT_HELLO"];
	s49 -> s1 [label="APPLICATION / Alert(FATAL,UNEXPECTED_MESSAGE)"];
	s49 -> s1 [label="Alert(WARNING,CLOSE_NOTIFY) / TIMEOUT"];
	s49 -> s1 [label="Alert(FATAL,UNEXPECTED_MESSAGE) / TIMEOUT"];
	s50 -> s50 [label="HELLO_VERIFY_REQUEST / TIMEOUT"];
	s50 -> s50 [label="PSK_SERVER_HELLO / TIMEOUT"];
	s50 -> s50 [label="SERVER_HELLO_DONE / TIMEOUT"];
	s50 -> s1 [label="CHANGE_CIPHER_SPEC / TIMEOUT"];
	s50 -> s50 [label="FINISHED / TIMEOUT"];
	s50 -> s51 [label="HELLO_REQUEST / CLIENT_HELLO"];
	s50 -> s1 [label="APPLICATION / Alert(FATAL,UNEXPECTED_MESSAGE)"];
	s50 -> s1 [label="Alert(WARNING,CLOSE_NOTIFY) / TIMEOUT"];
	s50 -> s1 [label="Alert(FATAL,UNEXPECTED_MESSAGE) / TIMEOUT"];
	s51 -> s37 [label="HELLO_VERIFY_REQUEST / CLIENT_HELLO"];
	s51 -> s37 [label="PSK_SERVER_HELLO / TIMEOUT"];
	s51 -> s1 [label="SERVER_HELLO_DONE / Alert(FATAL,UNEXPECTED_MESSAGE)"];
	s51 -> s1 [label="CHANGE_CIPHER_SPEC / TIMEOUT"];
	s51 -> s1 [label="FINISHED / Alert(FATAL,INTERNAL_ERROR)"];
	s51 -> s1 [label="HELLO_REQUEST / TIMEOUT"];
	s51 -> s51 [label="APPLICATION / TIMEOUT"];
	s51 -> s1 [label="Alert(WARNING,CLOSE_NOTIFY) / TIMEOUT"];
	s51 -> s1 [label="Alert(FATAL,UNEXPECTED_MESSAGE) / TIMEOUT"];
	s52 -> s52 [label="HELLO_VERIFY_REQUEST / TIMEOUT"];
	s52 -> s52 [label="PSK_SERVER_HELLO / TIMEOUT"];
	s52 -> s52 [label="SERVER_HELLO_DONE / TIMEOUT"];
	s52 -> s1 [label="CHANGE_CIPHER_SPEC / TIMEOUT"];
	s52 -> s52 [label="FINISHED / TIMEOUT"];
	s52 -> s21 [label="HELLO_REQUEST / CLIENT_HELLO"];
	s52 -> s1 [label="APPLICATION / Alert(FATAL,UNEXPECTED_MESSAGE)"];
	s52 -> s1 [label="Alert(WARNING,CLOSE_NOTIFY) / TIMEOUT"];
	s52 -> s1 [label="Alert(FATAL,UNEXPECTED_MESSAGE) / TIMEOUT"];
	s53 -> s95 [label="HELLO_VERIFY_REQUEST / TIMEOUT"];
	s53 -> s55 [label="PSK_SERVER_HELLO / TIMEOUT"];
	s53 -> s57 [label="SERVER_HELLO_DONE / TIMEOUT"];
	s53 -> s1 [label="CHANGE_CIPHER_SPEC / TIMEOUT"];
	s53 -> s58 [label="FINISHED / TIMEOUT"];
	s53 -> s67 [label="HELLO_REQUEST / CLIENT_HELLO"];
	s53 -> s1 [label="APPLICATION / Alert(FATAL,UNEXPECTED_MESSAGE)"];
	s53 -> s1 [label="Alert(WARNING,CLOSE_NOTIFY) / TIMEOUT"];
	s53 -> s1 [label="Alert(FATAL,UNEXPECTED_MESSAGE) / TIMEOUT"];
	s54 -> s95 [label="HELLO_VERIFY_REQUEST / TIMEOUT"];
	s54 -> s24 [label="PSK_SERVER_HELLO / TIMEOUT"];
	s54 -> s56 [label="SERVER_HELLO_DONE / TIMEOUT"];
	s54 -> s1 [label="CHANGE_CIPHER_SPEC / TIMEOUT"];
	s54 -> s52 [label="FINISHED / TIMEOUT"];
	s54 -> s92 [label="HELLO_REQUEST / CLIENT_HELLO"];
	s54 -> s1 [label="APPLICATION / Alert(FATAL,UNEXPECTED_MESSAGE)"];
	s54 -> s1 [label="Alert(WARNING,CLOSE_NOTIFY) / TIMEOUT"];
	s54 -> s1 [label="Alert(FATAL,UNEXPECTED_MESSAGE) / TIMEOUT"];
	s55 -> s113 [label="HELLO_VERIFY_REQUEST / TIMEOUT"];
	s55 -> s57 [label="PSK_SERVER_HELLO / TIMEOUT"];
	s55 -> s71 [label="SERVER_HELLO_DONE / TIMEOUT"];
	s55 -> s1 [label="CHANGE_CIPHER_SPEC / TIMEOUT"];
	s55 -> s123 [label="FINISHED / TIMEOUT"];
	s55 -> s111 [label="HELLO_REQUEST / CLIENT_HELLO"];
	s55 -> s1 [label="APPLICATION / Alert(FATAL,UNEXPECTED_MESSAGE)"];
	s55 -> s1 [label="Alert(WARNING,CLOSE_NOTIFY) / TIMEOUT"];
	s55 -> s1 [label="Alert(FATAL,UNEXPECTED_MESSAGE) / TIMEOUT"];
	s56 -> s59 [label="HELLO_VERIFY_REQUEST / TIMEOUT"];
	s56 -> s25 [label="PSK_SERVER_HELLO / TIMEOUT"];
	s56 -> s59 [label="SERVER_HELLO_DONE / TIMEOUT"];
	s56 -> s1 [label="CHANGE_CIPHER_SPEC / TIMEOUT"];
	s56 -> s56 [label="FINISHED / TIMEOUT"];
	s56 -> s60 [label="HELLO_REQUEST / CLIENT_HELLO"];
	s56 -> s1 [label="APPLICATION / Alert(FATAL,UNEXPECTED_MESSAGE)"];
	s56 -> s1 [label="Alert(WARNING,CLOSE_NOTIFY) / TIMEOUT"];
	s56 -> s1 [label="Alert(FATAL,UNEXPECTED_MESSAGE) / TIMEOUT"];
	s57 -> s57 [label="HELLO_VERIFY_REQUEST / TIMEOUT"];
	s57 -> s57 [label="PSK_SERVER_HELLO / TIMEOUT"];
	s57 -> s57 [label="SERVER_HELLO_DONE / TIMEOUT"];
	s57 -> s1 [label="CHANGE_CIPHER_SPEC / TIMEOUT"];
	s57 -> s57 [label="FINISHED / TIMEOUT"];
	s57 -> s61 [label="HELLO_REQUEST / CLIENT_HELLO"];
	s57 -> s1 [label="APPLICATION / Alert(FATAL,UNEXPECTED_MESSAGE)"];
	s57 -> s1 [label="Alert(WARNING,CLOSE_NOTIFY) / TIMEOUT"];
	s57 -> s1 [label="Alert(FATAL,UNEXPECTED_MESSAGE) / TIMEOUT"];
	s58 -> s58 [label="HELLO_VERIFY_REQUEST / TIMEOUT"];
	s58 -> s58 [label="PSK_SERVER_HELLO / TIMEOUT"];
	s58 -> s58 [label="SERVER_HELLO_DONE / TIMEOUT"];
	s58 -> s1 [label="CHANGE_CIPHER_SPEC / TIMEOUT"];
	s58 -> s58 [label="FINISHED / TIMEOUT"];
	s58 -> s67 [label="HELLO_REQUEST / CLIENT_HELLO"];
	s58 -> s1 [label="APPLICATION / Alert(FATAL,UNEXPECTED_MESSAGE)"];
	s58 -> s1 [label="Alert(WARNING,CLOSE_NOTIFY) / TIMEOUT"];
	s58 -> s1 [label="Alert(FATAL,UNEXPECTED_MESSAGE) / TIMEOUT"];
	s59 -> s59 [label="HELLO_VERIFY_REQUEST / TIMEOUT"];
	s59 -> s25 [label="PSK_SERVER_HELLO / TIMEOUT"];
	s59 -> s59 [label="SERVER_HELLO_DONE / TIMEOUT"];
	s59 -> s1 [label="CHANGE_CIPHER_SPEC / TIMEOUT"];
	s59 -> s59 [label="FINISHED / TIMEOUT"];
	s59 -> s62 [label="HELLO_REQUEST / CLIENT_HELLO"];
	s59 -> s1 [label="APPLICATION / Alert(FATAL,UNEXPECTED_MESSAGE)"];
	s59 -> s1 [label="Alert(WARNING,CLOSE_NOTIFY) / TIMEOUT"];
	s59 -> s1 [label="Alert(FATAL,UNEXPECTED_MESSAGE) / TIMEOUT"];
	s60 -> s64 [label="HELLO_VERIFY_REQUEST / CLIENT_HELLO"];
	s60 -> s65 [label="PSK_SERVER_HELLO / TIMEOUT"];
	s60 -> s1 [label="SERVER_HELLO_DONE / Alert(FATAL,UNEXPECTED_MESSAGE)"];
	s60 -> s1 [label="CHANGE_CIPHER_SPEC / TIMEOUT"];
	s60 -> s1 [label="FINISHED / Alert(FATAL,INTERNAL_ERROR)"];
	s60 -> s1 [label="HELLO_REQUEST / TIMEOUT"];
	s60 -> s60 [label="APPLICATION / TIMEOUT"];
	s60 -> s1 [label="Alert(WARNING,CLOSE_NOTIFY) / TIMEOUT"];
	s60 -> s1 [label="Alert(FATAL,UNEXPECTED_MESSAGE) / TIMEOUT"];
	s61 -> s63 [label="HELLO_VERIFY_REQUEST / CLIENT_HELLO"];
	s61 -> s37 [label="PSK_SERVER_HELLO / TIMEOUT"];
	s61 -> s1 [label="SERVER_HELLO_DONE / Alert(FATAL,UNEXPECTED_MESSAGE)"];
	s61 -> s1 [label="CHANGE_CIPHER_SPEC / TIMEOUT"];
	s61 -> s1 [label="FINISHED / Alert(FATAL,INTERNAL_ERROR)"];
	s61 -> s1 [label="HELLO_REQUEST / TIMEOUT"];
	s61 -> s61 [label="APPLICATION / TIMEOUT"];
	s61 -> s1 [label="Alert(WARNING,CLOSE_NOTIFY) / TIMEOUT"];
	s61 -> s1 [label="Alert(FATAL,UNEXPECTED_MESSAGE) / TIMEOUT"];
	s62 -> s66 [label="HELLO_VERIFY_REQUEST / CLIENT_HELLO"];
	s62 -> s46 [label="PSK_SERVER_HELLO / TIMEOUT"];
	s62 -> s1 [label="SERVER_HELLO_DONE / Alert(FATAL,UNEXPECTED_MESSAGE)"];
	s62 -> s1 [label="CHANGE_CIPHER_SPEC / TIMEOUT"];
	s62 -> s1 [label="FINISHED / Alert(FATAL,INTERNAL_ERROR)"];
	s62 -> s1 [label="HELLO_REQUEST / TIMEOUT"];
	s62 -> s62 [label="APPLICATION / TIMEOUT"];
	s62 -> s1 [label="Alert(WARNING,CLOSE_NOTIFY) / TIMEOUT"];
	s62 -> s1 [label="Alert(FATAL,UNEXPECTED_MESSAGE) / TIMEOUT"];
	s63 -> s1 [label="HELLO_VERIFY_REQUEST / CLIENT_HELLO+|Alert(FATAL,UNEXPECTED_MESSAGE)"];
	s63 -> s1 [label="PSK_SERVER_HELLO / CLIENT_HELLO+|Alert(FATAL,UNEXPECTED_MESSAGE)"];
	s63 -> s1 [label="SERVER_HELLO_DONE / Alert(FATAL,UNEXPECTED_MESSAGE)"];
	s63 -> s1 [label="CHANGE_CIPHER_SPEC / TIMEOUT"];
	s63 -> s1 [label="FINISHED / Alert(FATAL,INTERNAL_ERROR)"];
	s63 -> s1 [label="HELLO_REQUEST / TIMEOUT"];
	s63 -> s63 [label="APPLICATION / TIMEOUT"];
	s63 -> s1 [label="Alert(WARNING,CLOSE_NOTIFY) / TIMEOUT"];
	s63 -> s1 [label="Alert(FATAL,UNEXPECTED_MESSAGE) / TIMEOUT"];
	s64 -> s97 [label="HELLO_VERIFY_REQUEST / CLIENT_HELLO+|PSK_CLIENT_KEY_EXCHANGE|CHANGE_CIPHER_SPEC|FINISHED"];
	s64 -> s85 [label="PSK_SERVER_HELLO / CLIENT_HELLO|PSK_CLIENT_KEY_EXCHANGE|CHANGE_CIPHER_SPEC|UNKNOWN_MESSAGE"];
	s64 -> s1 [label="SERVER_HELLO_DONE / Alert(FATAL,UNEXPECTED_MESSAGE)"];
	s64 -> s1 [label="CHANGE_CIPHER_SPEC / TIMEOUT"];
	s64 -> s1 [label="FINISHED / Alert(FATAL,INTERNAL_ERROR)"];
	s64 -> s1 [label="HELLO_REQUEST / TIMEOUT"];
	s64 -> s64 [label="APPLICATION / TIMEOUT"];
	s64 -> s1 [label="Alert(WARNING,CLOSE_NOTIFY) / TIMEOUT"];
	s64 -> s1 [label="Alert(FATAL,UNEXPECTED_MESSAGE) / TIMEOUT"];
	s65 -> s85 [label="HELLO_VERIFY_REQUEST / CLIENT_HELLO+|PSK_CLIENT_KEY_EXCHANGE|CHANGE_CIPHER_SPEC|UNKNOWN_MESSAGE"];
	s65 -> s1 [label="PSK_SERVER_HELLO / Alert(FATAL,UNEXPECTED_MESSAGE)"];
	s65 -> s1 [label="SERVER_HELLO_DONE / PSK_CLIENT_KEY_EXCHANGE|CHANGE_CIPHER_SPEC|FINISHED|Alert(FATAL,UNEXPECTED_MESSAGE)"];
	s65 -> s1 [label="CHANGE_CIPHER_SPEC / TIMEOUT"];
	s65 -> s1 [label="FINISHED / Alert(FATAL,INTERNAL_ERROR)"];
	s65 -> s1 [label="HELLO_REQUEST / TIMEOUT"];
	s65 -> s1 [label="APPLICATION / Alert(FATAL,UNEXPECTED_MESSAGE)"];
	s65 -> s1 [label="Alert(WARNING,CLOSE_NOTIFY) / TIMEOUT"];
	s65 -> s1 [label="Alert(FATAL,UNEXPECTED_MESSAGE) / TIMEOUT"];
	s66 -> s1 [label="HELLO_VERIFY_REQUEST / CLIENT_HELLO+|PSK_CLIENT_KEY_EXCHANGE|CHANGE_CIPHER_SPEC|FINISHED|Alert(FATAL,UNEXPECTED_MESSAGE)"];
	s66 -> s1 [label="PSK_SERVER_HELLO / TIMEOUT"];
	s66 -> s1 [label="SERVER_HELLO_DONE / Alert(FATAL,UNEXPECTED_MESSAGE)"];
	s66 -> s1 [label="CHANGE_CIPHER_SPEC / TIMEOUT"];
	s66 -> s1 [label="FINISHED / Alert(FATAL,INTERNAL_ERROR)"];
	s66 -> s1 [label="HELLO_REQUEST / TIMEOUT"];
	s66 -> s66 [label="APPLICATION / TIMEOUT"];
	s66 -> s1 [label="Alert(WARNING,CLOSE_NOTIFY) / TIMEOUT"];
	s66 -> s1 [label="Alert(FATAL,UNEXPECTED_MESSAGE) / TIMEOUT"];
	s67 -> s68 [label="HELLO_VERIFY_REQUEST / CLIENT_HELLO"];
	s67 -> s36 [label="PSK_SERVER_HELLO / TIMEOUT"];
	s67 -> s1 [label="SERVER_HELLO_DONE / Alert(FATAL,UNEXPECTED_MESSAGE)"];
	s67 -> s1 [label="CHANGE_CIPHER_SPEC / TIMEOUT"];
	s67 -> s1 [label="FINISHED / Alert(FATAL,INTERNAL_ERROR)"];
	s67 -> s1 [label="HELLO_REQUEST / TIMEOUT"];
	s67 -> s67 [label="APPLICATION / TIMEOUT"];
	s67 -> s1 [label="Alert(WARNING,CLOSE_NOTIFY) / TIMEOUT"];
	s67 -> s1 [label="Alert(FATAL,UNEXPECTED_MESSAGE) / TIMEOUT"];
	s68 -> s100 [label="HELLO_VERIFY_REQUEST / CLIENT_HELLO+"];
	s68 -> s100 [label="PSK_SERVER_HELLO / CLIENT_HELLO+"];
	s68 -> s1 [label="SERVER_HELLO_DONE / Alert(FATAL,UNEXPECTED_MESSAGE)"];
	s68 -> s1 [label="CHANGE_CIPHER_SPEC / TIMEOUT"];
	s68 -> s1 [label="FINISHED / Alert(FATAL,INTERNAL_ERROR)"];
	s68 -> s1 [label="HELLO_REQUEST / TIMEOUT"];
	s68 -> s68 [label="APPLICATION / TIMEOUT"];
	s68 -> s1 [label="Alert(WARNING,CLOSE_NOTIFY) / TIMEOUT"];
	s68 -> s1 [label="Alert(FATAL,UNEXPECTED_MESSAGE) / TIMEOUT"];
	s69 -> s70 [label="HELLO_VERIFY_REQUEST / CLIENT_HELLO"];
	s69 -> s36 [label="PSK_SERVER_HELLO / TIMEOUT"];
	s69 -> s1 [label="SERVER_HELLO_DONE / Alert(FATAL,UNEXPECTED_MESSAGE)"];
	s69 -> s1 [label="CHANGE_CIPHER_SPEC / TIMEOUT"];
	s69 -> s1 [label="FINISHED / Alert(FATAL,INTERNAL_ERROR)"];
	s69 -> s1 [label="HELLO_REQUEST / TIMEOUT"];
	s69 -> s69 [label="APPLICATION / TIMEOUT"];
	s69 -> s1 [label="Alert(WARNING,CLOSE_NOTIFY) / TIMEOUT"];
	s69 -> s1 [label="Alert(FATAL,UNEXPECTED_MESSAGE) / TIMEOUT"];
	s70 -> s100 [label="HELLO_VERIFY_REQUEST / CLIENT_HELLO+"];
	s70 -> s1 [label="PSK_SERVER_HELLO / Alert(FATAL,UNEXPECTED_MESSAGE)"];
	s70 -> s1 [label="SERVER_HELLO_DONE / Alert(FATAL,UNEXPECTED_MESSAGE)"];
	s70 -> s1 [label="CHANGE_CIPHER_SPEC / TIMEOUT"];
	s70 -> s1 [label="FINISHED / Alert(FATAL,INTERNAL_ERROR)"];
	s70 -> s1 [label="HELLO_REQUEST / TIMEOUT"];
	s70 -> s70 [label="APPLICATION / TIMEOUT"];
	s70 -> s1 [label="Alert(WARNING,CLOSE_NOTIFY) / TIMEOUT"];
	s70 -> s1 [label="Alert(FATAL,UNEXPECTED_MESSAGE) / TIMEOUT"];
	s71 -> s59 [label="HELLO_VERIFY_REQUEST / TIMEOUT"];
	s71 -> s25 [label="PSK_SERVER_HELLO / TIMEOUT"];
	s71 -> s59 [label="SERVER_HELLO_DONE / TIMEOUT"];
	s71 -> s1 [label="CHANGE_CIPHER_SPEC / TIMEOUT"];
	s71 -> s71 [label="FINISHED / TIMEOUT"];
	s71 -> s72 [label="HELLO_REQUEST / CLIENT_HELLO"];
	s71 -> s1 [label="APPLICATION / Alert(FATAL,UNEXPECTED_MESSAGE)"];
	s71 -> s1 [label="Alert(WARNING,CLOSE_NOTIFY) / TIMEOUT"];
	s71 -> s1 [label="Alert(FATAL,UNEXPECTED_MESSAGE) / TIMEOUT"];
	s72 -> s73 [label="HELLO_VERIFY_REQUEST / CLIENT_HELLO"];
	s72 -> s90 [label="PSK_SERVER_HELLO / TIMEOUT"];
	s72 -> s1 [label="SERVER_HELLO_DONE / Alert(FATAL,UNEXPECTED_MESSAGE)"];
	s72 -> s1 [label="CHANGE_CIPHER_SPEC / TIMEOUT"];
	s72 -> s1 [label="FINISHED / Alert(FATAL,INTERNAL_ERROR)"];
	s72 -> s1 [label="HELLO_REQUEST / TIMEOUT"];
	s72 -> s72 [label="APPLICATION / TIMEOUT"];
	s72 -> s1 [label="Alert(WARNING,CLOSE_NOTIFY) / TIMEOUT"];
	s72 -> s1 [label="Alert(FATAL,UNEXPECTED_MESSAGE) / TIMEOUT"];
	s73 -> s96 [label="HELLO_VERIFY_REQUEST / CLIENT_HELLO+|PSK_CLIENT_KEY_EXCHANGE|CHANGE_CIPHER_SPEC|FINISHED"];
	s73 -> s91 [label="PSK_SERVER_HELLO / CLIENT_HELLO+|PSK_CLIENT_KEY_EXCHANGE|CHANGE_CIPHER_SPEC|UNKNOWN_MESSAGE"];
	s73 -> s1 [label="SERVER_HELLO_DONE / Alert(FATAL,UNEXPECTED_MESSAGE)"];
	s73 -> s1 [label="CHANGE_CIPHER_SPEC / TIMEOUT"];
	s73 -> s1 [label="FINISHED / Alert(FATAL,INTERNAL_ERROR)"];
	s73 -> s1 [label="HELLO_REQUEST / TIMEOUT"];
	s73 -> s73 [label="APPLICATION / TIMEOUT"];
	s73 -> s1 [label="Alert(WARNING,CLOSE_NOTIFY) / TIMEOUT"];
	s73 -> s1 [label="Alert(FATAL,UNEXPECTED_MESSAGE) / TIMEOUT"];
	s74 -> s74 [label="HELLO_VERIFY_REQUEST / TIMEOUT"];
	s74 -> s74 [label="PSK_SERVER_HELLO / TIMEOUT"];
	s74 -> s74 [label="SERVER_HELLO_DONE / TIMEOUT"];
	s74 -> s1 [label="CHANGE_CIPHER_SPEC / TIMEOUT"];
	s74 -> s74 [label="FINISHED / TIMEOUT"];
	s74 -> s75 [label="HELLO_REQUEST / CLIENT_HELLO"];
	s74 -> s1 [label="APPLICATION / Alert(FATAL,UNEXPECTED_MESSAGE)"];
	s74 -> s1 [label="Alert(WARNING,CLOSE_NOTIFY) / TIMEOUT"];
	s74 -> s1 [label="Alert(FATAL,UNEXPECTED_MESSAGE) / TIMEOUT"];
	s75 -> s77 [label="HELLO_VERIFY_REQUEST / CLIENT_HELLO"];
	s75 -> s76 [label="PSK_SERVER_HELLO / TIMEOUT"];
	s75 -> s1 [label="SERVER_HELLO_DONE / Alert(FATAL,UNEXPECTED_MESSAGE)"];
	s75 -> s1 [label="CHANGE_CIPHER_SPEC / TIMEOUT"];
	s75 -> s1 [label="FINISHED / Alert(FATAL,INTERNAL_ERROR)"];
	s75 -> s1 [label="HELLO_REQUEST / TIMEOUT"];
	s75 -> s75 [label="APPLICATION / TIMEOUT"];
	s75 -> s1 [label="Alert(WARNING,CLOSE_NOTIFY) / TIMEOUT"];
	s75 -> s1 [label="Alert(FATAL,UNEXPECTED_MESSAGE) / TIMEOUT"];
	s76 -> s83 [label="HELLO_VERIFY_REQUEST / CLIENT_HELLO"];
	s76 -> s1 [label="PSK_SERVER_HELLO / Alert(FATAL,UNEXPECTED_MESSAGE)"];
	s76 -> s1 [label="SERVER_HELLO_DONE / PSK_CLIENT_KEY_EXCHANGE|CHANGE_CIPHER_SPEC|FINISHED|Alert(FATAL,UNEXPECTED_MESSAGE)"];
	s76 -> s1 [label="CHANGE_CIPHER_SPEC / TIMEOUT"];
	s76 -> s1 [label="FINISHED / Alert(FATAL,INTERNAL_ERROR)"];
	s76 -> s1 [label="HELLO_REQUEST / TIMEOUT"];
	s76 -> s1 [label="APPLICATION / Alert(FATAL,UNEXPECTED_MESSAGE)"];
	s76 -> s1 [label="Alert(WARNING,CLOSE_NOTIFY) / TIMEOUT"];
	s76 -> s1 [label="Alert(FATAL,UNEXPECTED_MESSAGE) / TIMEOUT"];
	s77 -> s83 [label="HELLO_VERIFY_REQUEST / CLIENT_HELLO"];
	s77 -> s1 [label="PSK_SERVER_HELLO / Alert(FATAL,UNEXPECTED_MESSAGE)"];
	s77 -> s1 [label="SERVER_HELLO_DONE / Alert(FATAL,UNEXPECTED_MESSAGE)"];
	s77 -> s1 [label="CHANGE_CIPHER_SPEC / TIMEOUT"];
	s77 -> s1 [label="FINISHED / Alert(FATAL,INTERNAL_ERROR)"];
	s77 -> s1 [label="HELLO_REQUEST / TIMEOUT"];
	s77 -> s77 [label="APPLICATION / TIMEOUT"];
	s77 -> s1 [label="Alert(WARNING,CLOSE_NOTIFY) / TIMEOUT"];
	s77 -> s1 [label="Alert(FATAL,UNEXPECTED_MESSAGE) / TIMEOUT"];
	s78 -> s79 [label="HELLO_VERIFY_REQUEST / TIMEOUT"];
	s78 -> s79 [label="PSK_SERVER_HELLO / TIMEOUT"];
	s78 -> s79 [label="SERVER_HELLO_DONE / TIMEOUT"];
	s78 -> s99 [label="CHANGE_CIPHER_SPEC / TIMEOUT"];
	s78 -> s79 [label="FINISHED / TIMEOUT"];
	s78 -> s1 [label="HELLO_REQUEST / TIMEOUT"];
	s78 -> s1 [label="APPLICATION / Alert(FATAL,UNEXPECTED_MESSAGE)"];
	s78 -> s1 [label="Alert(WARNING,CLOSE_NOTIFY) / TIMEOUT"];
	s78 -> s1 [label="Alert(FATAL,UNEXPECTED_MESSAGE) / TIMEOUT"];
	s79 -> s80 [label="HELLO_VERIFY_REQUEST / TIMEOUT"];
	s79 -> s81 [label="PSK_SERVER_HELLO / TIMEOUT"];
	s79 -> s80 [label="SERVER_HELLO_DONE / TIMEOUT"];
	s79 -> s88 [label="CHANGE_CIPHER_SPEC / TIMEOUT"];
	s79 -> s80 [label="FINISHED / TIMEOUT"];
	s79 -> s1 [label="HELLO_REQUEST / TIMEOUT"];
	s79 -> s1 [label="APPLICATION / Alert(FATAL,UNEXPECTED_MESSAGE)"];
	s79 -> s1 [label="Alert(WARNING,CLOSE_NOTIFY) / TIMEOUT"];
	s79 -> s1 [label="Alert(FATAL,UNEXPECTED_MESSAGE) / TIMEOUT"];
	s80 -> s1 [label="HELLO_VERIFY_REQUEST / Alert(FATAL,UNEXPECTED_MESSAGE)"];
	s80 -> s1 [label="PSK_SERVER_HELLO / Alert(FATAL,UNEXPECTED_MESSAGE)"];
	s80 -> s1 [label="SERVER_HELLO_DONE / Alert(FATAL,UNEXPECTED_MESSAGE)"];
	s80 -> s82 [label="CHANGE_CIPHER_SPEC / TIMEOUT"];
	s80 -> s1 [label="FINISHED / Alert(FATAL,UNEXPECTED_MESSAGE)"];
	s80 -> s1 [label="HELLO_REQUEST / TIMEOUT"];
	s80 -> s1 [label="APPLICATION / Alert(FATAL,UNEXPECTED_MESSAGE)"];
	s80 -> s1 [label="Alert(WARNING,CLOSE_NOTIFY) / TIMEOUT"];
	s80 -> s1 [label="Alert(FATAL,UNEXPECTED_MESSAGE) / TIMEOUT"];
	s81 -> s1 [label="HELLO_VERIFY_REQUEST / Alert(FATAL,UNEXPECTED_MESSAGE)"];
	s81 -> s1 [label="PSK_SERVER_HELLO / Alert(FATAL,UNEXPECTED_MESSAGE)"];
	s81 -> s1 [label="SERVER_HELLO_DONE / Alert(FATAL,UNEXPECTED_MESSAGE)"];
	s81 -> s1 [label="CHANGE_CIPHER_SPEC / TIMEOUT"];
	s81 -> s1 [label="FINISHED / Alert(FATAL,UNEXPECTED_MESSAGE)"];
	s81 -> s1 [label="HELLO_REQUEST / TIMEOUT"];
	s81 -> s1 [label="APPLICATION / Alert(FATAL,UNEXPECTED_MESSAGE)"];
	s81 -> s1 [label="Alert(WARNING,CLOSE_NOTIFY) / TIMEOUT"];
	s81 -> s1 [label="Alert(FATAL,UNEXPECTED_MESSAGE) / TIMEOUT"];
	s82 -> s1 [label="HELLO_VERIFY_REQUEST / Alert(FATAL,UNEXPECTED_MESSAGE)"];
	s82 -> s1 [label="PSK_SERVER_HELLO / Alert(FATAL,UNEXPECTED_MESSAGE)"];
	s82 -> s1 [label="SERVER_HELLO_DONE / Alert(FATAL,UNEXPECTED_MESSAGE)"];
	s82 -> s1 [label="CHANGE_CIPHER_SPEC / TIMEOUT"];
	s82 -> s1 [label="FINISHED / Alert(FATAL,DECRYPT_ERROR)"];
	s82 -> s1 [label="HELLO_REQUEST / TIMEOUT"];
	s82 -> s82 [label="APPLICATION / TIMEOUT"];
	s82 -> s82 [label="Alert(WARNING,CLOSE_NOTIFY) / TIMEOUT"];
	s82 -> s82 [label="Alert(FATAL,UNEXPECTED_MESSAGE) / TIMEOUT"];
	s83 -> s84 [label="HELLO_VERIFY_REQUEST / TIMEOUT"];
	s83 -> s84 [label="PSK_SERVER_HELLO / TIMEOUT"];
	s83 -> s84 [label="SERVER_HELLO_DONE / TIMEOUT"];
	s83 -> s1 [label="CHANGE_CIPHER_SPEC / TIMEOUT"];
	s83 -> s84 [label="FINISHED / TIMEOUT"];
	s83 -> s1 [label="HELLO_REQUEST / TIMEOUT"];
	s83 -> s1 [label="APPLICATION / Alert(FATAL,UNEXPECTED_MESSAGE)"];
	s83 -> s1 [label="Alert(WARNING,CLOSE_NOTIFY) / TIMEOUT"];
	s83 -> s1 [label="Alert(FATAL,UNEXPECTED_MESSAGE) / TIMEOUT"];
	s84 -> s19 [label="HELLO_VERIFY_REQUEST / CLIENT_HELLO"];
	s84 -> s1 [label="PSK_SERVER_HELLO / Alert(FATAL,UNEXPECTED_MESSAGE)"];
	s84 -> s48 [label="SERVER_HELLO_DONE / PSK_CLIENT_KEY_EXCHANGE|CHANGE_CIPHER_SPEC|UNKNOWN_MESSAGE"];
	s84 -> s1 [label="CHANGE_CIPHER_SPEC / TIMEOUT"];
	s84 -> s1 [label="FINISHED / Alert(FATAL,INTERNAL_ERROR)"];
	s84 -> s1 [label="HELLO_REQUEST / TIMEOUT"];
	s84 -> s1 [label="APPLICATION / Alert(FATAL,UNEXPECTED_MESSAGE)"];
	s84 -> s1 [label="Alert(WARNING,CLOSE_NOTIFY) / TIMEOUT"];
	s84 -> s1 [label="Alert(FATAL,UNEXPECTED_MESSAGE) / TIMEOUT"];
	s85 -> s45 [label="HELLO_VERIFY_REQUEST / TIMEOUT"];
	s85 -> s45 [label="PSK_SERVER_HELLO / TIMEOUT"];
	s85 -> s45 [label="SERVER_HELLO_DONE / TIMEOUT"];
	s85 -> s1 [label="CHANGE_CIPHER_SPEC / TIMEOUT"];
	s85 -> s45 [label="FINISHED / TIMEOUT"];
	s85 -> s1 [label="HELLO_REQUEST / TIMEOUT"];
	s85 -> s1 [label="APPLICATION / UNKNOWN_MESSAGE"];
	s85 -> s1 [label="Alert(WARNING,CLOSE_NOTIFY) / TIMEOUT"];
	s85 -> s1 [label="Alert(FATAL,UNEXPECTED_MESSAGE) / TIMEOUT"];
	s86 -> s19 [label="HELLO_VERIFY_REQUEST / CLIENT_HELLO"];
	s86 -> s1 [label="PSK_SERVER_HELLO / Alert(FATAL,UNEXPECTED_MESSAGE)"];
	s86 -> s39 [label="SERVER_HELLO_DONE / PSK_CLIENT_KEY_EXCHANGE|CHANGE_CIPHER_SPEC|FINISHED"];
	s86 -> s1 [label="CHANGE_CIPHER_SPEC / TIMEOUT"];
	s86 -> s1 [label="FINISHED / Alert(FATAL,INTERNAL_ERROR)"];
	s86 -> s1 [label="HELLO_REQUEST / TIMEOUT"];
	s86 -> s1 [label="APPLICATION / Alert(FATAL,UNEXPECTED_MESSAGE)"];
	s86 -> s1 [label="Alert(WARNING,CLOSE_NOTIFY) / TIMEOUT"];
	s86 -> s1 [label="Alert(FATAL,UNEXPECTED_MESSAGE) / TIMEOUT"];
	s87 -> s1 [label="HELLO_VERIFY_REQUEST / CLIENT_HELLO|Alert(FATAL,UNEXPECTED_MESSAGE)"];
	s87 -> s1 [label="PSK_SERVER_HELLO / Alert(FATAL,UNEXPECTED_MESSAGE)"];
	s87 -> s1 [label="SERVER_HELLO_DONE / PSK_CLIENT_KEY_EXCHANGE|CHANGE_CIPHER_SPEC|FINISHED|Alert(FATAL,UNEXPECTED_MESSAGE)"];
	s87 -> s1 [label="CHANGE_CIPHER_SPEC / TIMEOUT"];
	s87 -> s1 [label="FINISHED / Alert(FATAL,INTERNAL_ERROR)"];
	s87 -> s1 [label="HELLO_REQUEST / TIMEOUT"];
	s87 -> s1 [label="APPLICATION / Alert(FATAL,UNEXPECTED_MESSAGE)"];
	s87 -> s1 [label="Alert(WARNING,CLOSE_NOTIFY) / TIMEOUT"];
	s87 -> s1 [label="Alert(FATAL,UNEXPECTED_MESSAGE) / TIMEOUT"];
	s88 -> s82 [label="HELLO_VERIFY_REQUEST / TIMEOUT"];
	s88 -> s82 [label="PSK_SERVER_HELLO / TIMEOUT"];
	s88 -> s82 [label="SERVER_HELLO_DONE / TIMEOUT"];
	s88 -> s1 [label="CHANGE_CIPHER_SPEC / TIMEOUT"];
	s88 -> s82 [label="FINISHED / TIMEOUT"];
	s88 -> s1 [label="HELLO_REQUEST / TIMEOUT"];
	s88 -> s88 [label="APPLICATION / TIMEOUT"];
	s88 -> s88 [label="Alert(WARNING,CLOSE_NOTIFY) / TIMEOUT"];
	s88 -> s88 [label="Alert(FATAL,UNEXPECTED_MESSAGE) / TIMEOUT"];
	s89 -> s19 [label="HELLO_VERIFY_REQUEST / TIMEOUT"];
	s89 -> s19 [label="PSK_SERVER_HELLO / TIMEOUT"];
	s89 -> s19 [label="SERVER_HELLO_DONE / TIMEOUT"];
	s89 -> s1 [label="CHANGE_CIPHER_SPEC / TIMEOUT"];
	s89 -> s19 [label="FINISHED / TIMEOUT"];
	s89 -> s1 [label="HELLO_REQUEST / TIMEOUT"];
	s89 -> s89 [label="APPLICATION / TIMEOUT"];
	s89 -> s1 [label="Alert(WARNING,CLOSE_NOTIFY) / TIMEOUT"];
	s89 -> s1 [label="Alert(FATAL,UNEXPECTED_MESSAGE) / TIMEOUT"];
	s90 -> s91 [label="HELLO_VERIFY_REQUEST / CLIENT_HELLO+|PSK_CLIENT_KEY_EXCHANGE|CHANGE_CIPHER_SPEC|UNKNOWN_MESSAGE"];
	s90 -> s1 [label="PSK_SERVER_HELLO / Alert(FATAL,UNEXPECTED_MESSAGE)"];
	s90 -> s1 [label="SERVER_HELLO_DONE / PSK_CLIENT_KEY_EXCHANGE|CHANGE_CIPHER_SPEC|FINISHED|Alert(FATAL,UNEXPECTED_MESSAGE)"];
	s90 -> s1 [label="CHANGE_CIPHER_SPEC / TIMEOUT"];
	s90 -> s1 [label="FINISHED / Alert(FATAL,INTERNAL_ERROR)"];
	s90 -> s1 [label="HELLO_REQUEST / TIMEOUT"];
	s90 -> s1 [label="APPLICATION / Alert(FATAL,UNEXPECTED_MESSAGE)"];
	s90 -> s1 [label="Alert(WARNING,CLOSE_NOTIFY) / TIMEOUT"];
	s90 -> s1 [label="Alert(FATAL,UNEXPECTED_MESSAGE) / TIMEOUT"];
	s91 -> s85 [label="HELLO_VERIFY_REQUEST / TIMEOUT"];
	s91 -> s85 [label="PSK_SERVER_HELLO / TIMEOUT"];
	s91 -> s85 [label="SERVER_HELLO_DONE / TIMEOUT"];
	s91 -> s1 [label="CHANGE_CIPHER_SPEC / TIMEOUT"];
	s91 -> s85 [label="FINISHED / TIMEOUT"];
	s91 -> s1 [label="HELLO_REQUEST / TIMEOUT"];
	s91 -> s1 [label="APPLICATION / UNKNOWN_MESSAGE"];
	s91 -> s1 [label="Alert(WARNING,CLOSE_NOTIFY) / TIMEOUT"];
	s91 -> s1 [label="Alert(FATAL,UNEXPECTED_MESSAGE) / TIMEOUT"];
	s92 -> s35 [label="HELLO_VERIFY_REQUEST / CLIENT_HELLO"];
	s92 -> s93 [label="PSK_SERVER_HELLO / TIMEOUT"];
	s92 -> s1 [label="SERVER_HELLO_DONE / Alert(FATAL,UNEXPECTED_MESSAGE)"];
	s92 -> s1 [label="CHANGE_CIPHER_SPEC / TIMEOUT"];
	s92 -> s1 [label="FINISHED / Alert(FATAL,INTERNAL_ERROR)"];
	s92 -> s1 [label="HELLO_REQUEST / TIMEOUT"];
	s92 -> s92 [label="APPLICATION / TIMEOUT"];
	s92 -> s1 [label="Alert(WARNING,CLOSE_NOTIFY) / TIMEOUT"];
	s92 -> s1 [label="Alert(FATAL,UNEXPECTED_MESSAGE) / TIMEOUT"];
	s93 -> s94 [label="HELLO_VERIFY_REQUEST / CLIENT_HELLO+"];
	s93 -> s1 [label="PSK_SERVER_HELLO / Alert(FATAL,UNEXPECTED_MESSAGE)"];
	s93 -> s1 [label="SERVER_HELLO_DONE / PSK_CLIENT_KEY_EXCHANGE|CHANGE_CIPHER_SPEC|FINISHED|Alert(FATAL,UNEXPECTED_MESSAGE)"];
	s93 -> s1 [label="CHANGE_CIPHER_SPEC / TIMEOUT"];
	s93 -> s1 [label="FINISHED / Alert(FATAL,INTERNAL_ERROR)"];
	s93 -> s1 [label="HELLO_REQUEST / TIMEOUT"];
	s93 -> s1 [label="APPLICATION / Alert(FATAL,UNEXPECTED_MESSAGE)"];
	s93 -> s1 [label="Alert(WARNING,CLOSE_NOTIFY) / TIMEOUT"];
	s93 -> s1 [label="Alert(FATAL,UNEXPECTED_MESSAGE) / TIMEOUT"];
	s94 -> s83 [label="HELLO_VERIFY_REQUEST / TIMEOUT"];
	s94 -> s83 [label="PSK_SERVER_HELLO / TIMEOUT"];
	s94 -> s83 [label="SERVER_HELLO_DONE / TIMEOUT"];
	s94 -> s1 [label="CHANGE_CIPHER_SPEC / TIMEOUT"];
	s94 -> s83 [label="FINISHED / TIMEOUT"];
	s94 -> s1 [label="HELLO_REQUEST / TIMEOUT"];
	s94 -> s1 [label="APPLICATION / Alert(FATAL,UNEXPECTED_MESSAGE)"];
	s94 -> s1 [label="Alert(WARNING,CLOSE_NOTIFY) / TIMEOUT"];
	s94 -> s1 [label="Alert(FATAL,UNEXPECTED_MESSAGE) / TIMEOUT"];
	s95 -> s113 [label="HELLO_VERIFY_REQUEST / TIMEOUT"];
	s95 -> s101 [label="PSK_SERVER_HELLO / TIMEOUT"];
	s95 -> s57 [label="SERVER_HELLO_DONE / TIMEOUT"];
	s95 -> s1 [label="CHANGE_CIPHER_SPEC / TIMEOUT"];
	s95 -> s58 [label="FINISHED / TIMEOUT"];
	s95 -> s67 [label="HELLO_REQUEST / CLIENT_HELLO"];
	s95 -> s1 [label="APPLICATION / Alert(FATAL,UNEXPECTED_MESSAGE)"];
	s95 -> s1 [label="Alert(WARNING,CLOSE_NOTIFY) / TIMEOUT"];
	s95 -> s1 [label="Alert(FATAL,UNEXPECTED_MESSAGE) / TIMEOUT"];
	s96 -> s97 [label="HELLO_VERIFY_REQUEST / TIMEOUT"];
	s96 -> s97 [label="PSK_SERVER_HELLO / TIMEOUT"];
	s96 -> s97 [label="SERVER_HELLO_DONE / TIMEOUT"];
	s96 -> s106 [label="CHANGE_CIPHER_SPEC / TIMEOUT"];
	s96 -> s97 [label="FINISHED / TIMEOUT"];
	s96 -> s1 [label="HELLO_REQUEST / TIMEOUT"];
	s96 -> s1 [label="APPLICATION / Alert(FATAL,UNEXPECTED_MESSAGE)"];
	s96 -> s1 [label="Alert(WARNING,CLOSE_NOTIFY) / TIMEOUT"];
	s96 -> s1 [label="Alert(FATAL,UNEXPECTED_MESSAGE) / TIMEOUT"];
	s97 -> s78 [label="HELLO_VERIFY_REQUEST / TIMEOUT"];
	s97 -> s78 [label="PSK_SERVER_HELLO / TIMEOUT"];
	s97 -> s78 [label="SERVER_HELLO_DONE / TIMEOUT"];
	s97 -> s98 [label="CHANGE_CIPHER_SPEC / TIMEOUT"];
	s97 -> s78 [label="FINISHED / TIMEOUT"];
	s97 -> s1 [label="HELLO_REQUEST / TIMEOUT"];
	s97 -> s1 [label="APPLICATION / Alert(FATAL,UNEXPECTED_MESSAGE)"];
	s97 -> s1 [label="Alert(WARNING,CLOSE_NOTIFY) / TIMEOUT"];
	s97 -> s1 [label="Alert(FATAL,UNEXPECTED_MESSAGE) / TIMEOUT"];
	s98 -> s99 [label="HELLO_VERIFY_REQUEST / TIMEOUT"];
	s98 -> s99 [label="PSK_SERVER_HELLO / TIMEOUT"];
	s98 -> s99 [label="SERVER_HELLO_DONE / TIMEOUT"];
	s98 -> s1 [label="CHANGE_CIPHER_SPEC / TIMEOUT"];
	s98 -> s99 [label="FINISHED / TIMEOUT"];
	s98 -> s1 [label="HELLO_REQUEST / TIMEOUT"];
	s98 -> s98 [label="APPLICATION / TIMEOUT"];
	s98 -> s98 [label="Alert(WARNING,CLOSE_NOTIFY) / TIMEOUT"];
	s98 -> s98 [label="Alert(FATAL,UNEXPECTED_MESSAGE) / TIMEOUT"];
	s99 -> s88 [label="HELLO_VERIFY_REQUEST / TIMEOUT"];
	s99 -> s88 [label="PSK_SERVER_HELLO / TIMEOUT"];
	s99 -> s88 [label="SERVER_HELLO_DONE / TIMEOUT"];
	s99 -> s1 [label="CHANGE_CIPHER_SPEC / TIMEOUT"];
	s99 -> s88 [label="FINISHED / TIMEOUT"];
	s99 -> s1 [label="HELLO_REQUEST / TIMEOUT"];
	s99 -> s99 [label="APPLICATION / TIMEOUT"];
	s99 -> s99 [label="Alert(WARNING,CLOSE_NOTIFY) / TIMEOUT"];
	s99 -> s99 [label="Alert(FATAL,UNEXPECTED_MESSAGE) / TIMEOUT"];
	s100 -> s89 [label="HELLO_VERIFY_REQUEST / TIMEOUT"];
	s100 -> s89 [label="PSK_SERVER_HELLO / TIMEOUT"];
	s100 -> s89 [label="SERVER_HELLO_DONE / TIMEOUT"];
	s100 -> s1 [label="CHANGE_CIPHER_SPEC / TIMEOUT"];
	s100 -> s89 [label="FINISHED / TIMEOUT"];
	s100 -> s1 [label="HELLO_REQUEST / TIMEOUT"];
	s100 -> s100 [label="APPLICATION / TIMEOUT"];
	s100 -> s1 [label="Alert(WARNING,CLOSE_NOTIFY) / TIMEOUT"];
	s100 -> s1 [label="Alert(FATAL,UNEXPECTED_MESSAGE) / TIMEOUT"];
	s101 -> s120 [label="HELLO_VERIFY_REQUEST / TIMEOUT"];
	s101 -> s57 [label="PSK_SERVER_HELLO / TIMEOUT"];
	s101 -> s102 [label="SERVER_HELLO_DONE / TIMEOUT"];
	s101 -> s1 [label="CHANGE_CIPHER_SPEC / TIMEOUT"];
	s101 -> s123 [label="FINISHED / TIMEOUT"];
	s101 -> s107 [label="HELLO_REQUEST / CLIENT_HELLO"];
	s101 -> s1 [label="APPLICATION / Alert(FATAL,UNEXPECTED_MESSAGE)"];
	s101 -> s1 [label="Alert(WARNING,CLOSE_NOTIFY) / TIMEOUT"];
	s101 -> s1 [label="Alert(FATAL,UNEXPECTED_MESSAGE) / TIMEOUT"];
	s102 -> s59 [label="HELLO_VERIFY_REQUEST / TIMEOUT"];
	s102 -> s25 [label="PSK_SERVER_HELLO / TIMEOUT"];
	s102 -> s59 [label="SERVER_HELLO_DONE / TIMEOUT"];
	s102 -> s1 [label="CHANGE_CIPHER_SPEC / TIMEOUT"];
	s102 -> s102 [label="FINISHED / TIMEOUT"];
	s102 -> s103 [label="HELLO_REQUEST / CLIENT_HELLO"];
	s102 -> s1 [label="APPLICATION / Alert(FATAL,UNEXPECTED_MESSAGE)"];
	s102 -> s1 [label="Alert(WARNING,CLOSE_NOTIFY) / TIMEOUT"];
	s102 -> s1 [label="Alert(FATAL,UNEXPECTED_MESSAGE) / TIMEOUT"];
	s103 -> s104 [label="HELLO_VERIFY_REQUEST / CLIENT_HELLO"];
	s103 -> s90 [label="PSK_SERVER_HELLO / TIMEOUT"];
	s103 -> s1 [label="SERVER_HELLO_DONE / Alert(FATAL,UNEXPECTED_MESSAGE)"];
	s103 -> s1 [label="CHANGE_CIPHER_SPEC / TIMEOUT"];
	s103 -> s1 [label="FINISHED / Alert(FATAL,INTERNAL_ERROR)"];
	s103 -> s1 [label="HELLO_REQUEST / TIMEOUT"];
	s103 -> s103 [label="APPLICATION / TIMEOUT"];
	s103 -> s1 [label="Alert(WARNING,CLOSE_NOTIFY) / TIMEOUT"];
	s103 -> s1 [label="Alert(FATAL,UNEXPECTED_MESSAGE) / TIMEOUT"];
	s104 -> s105 [label="HELLO_VERIFY_REQUEST / CLIENT_HELLO+|PSK_CLIENT_KEY_EXCHANGE|CHANGE_CIPHER_SPEC|FINISHED"];
	s104 -> s91 [label="PSK_SERVER_HELLO / CLIENT_HELLO+|PSK_CLIENT_KEY_EXCHANGE|CHANGE_CIPHER_SPEC|UNKNOWN_MESSAGE"];
	s104 -> s1 [label="SERVER_HELLO_DONE / Alert(FATAL,UNEXPECTED_MESSAGE)"];
	s104 -> s1 [label="CHANGE_CIPHER_SPEC / TIMEOUT"];
	s104 -> s1 [label="FINISHED / Alert(FATAL,INTERNAL_ERROR)"];
	s104 -> s1 [label="HELLO_REQUEST / TIMEOUT"];
	s104 -> s104 [label="APPLICATION / TIMEOUT"];
	s104 -> s1 [label="Alert(WARNING,CLOSE_NOTIFY) / TIMEOUT"];
	s104 -> s1 [label="Alert(FATAL,UNEXPECTED_MESSAGE) / TIMEOUT"];
	s105 -> s96 [label="HELLO_VERIFY_REQUEST / TIMEOUT"];
	s105 -> s96 [label="PSK_SERVER_HELLO / TIMEOUT"];
	s105 -> s96 [label="SERVER_HELLO_DONE / TIMEOUT"];
	s105 -> s119 [label="CHANGE_CIPHER_SPEC / TIMEOUT"];
	s105 -> s96 [label="FINISHED / TIMEOUT"];
	s105 -> s1 [label="HELLO_REQUEST / TIMEOUT"];
	s105 -> s1 [label="APPLICATION / Alert(FATAL,UNEXPECTED_MESSAGE)"];
	s105 -> s1 [label="Alert(WARNING,CLOSE_NOTIFY) / TIMEOUT"];
	s105 -> s1 [label="Alert(FATAL,UNEXPECTED_MESSAGE) / TIMEOUT"];
	s106 -> s98 [label="HELLO_VERIFY_REQUEST / TIMEOUT"];
	s106 -> s98 [label="PSK_SERVER_HELLO / TIMEOUT"];
	s106 -> s98 [label="SERVER_HELLO_DONE / TIMEOUT"];
	s106 -> s1 [label="CHANGE_CIPHER_SPEC / TIMEOUT"];
	s106 -> s98 [label="FINISHED / TIMEOUT"];
	s106 -> s1 [label="HELLO_REQUEST / TIMEOUT"];
	s106 -> s106 [label="APPLICATION / TIMEOUT"];
	s106 -> s106 [label="Alert(WARNING,CLOSE_NOTIFY) / TIMEOUT"];
	s106 -> s106 [label="Alert(FATAL,UNEXPECTED_MESSAGE) / TIMEOUT"];
	s107 -> s108 [label="HELLO_VERIFY_REQUEST / CLIENT_HELLO"];
	s107 -> s93 [label="PSK_SERVER_HELLO / TIMEOUT"];
	s107 -> s1 [label="SERVER_HELLO_DONE / Alert(FATAL,UNEXPECTED_MESSAGE)"];
	s107 -> s1 [label="CHANGE_CIPHER_SPEC / TIMEOUT"];
	s107 -> s1 [label="FINISHED / Alert(FATAL,INTERNAL_ERROR)"];
	s107 -> s1 [label="HELLO_REQUEST / TIMEOUT"];
	s107 -> s107 [label="APPLICATION / TIMEOUT"];
	s107 -> s1 [label="Alert(WARNING,CLOSE_NOTIFY) / TIMEOUT"];
	s107 -> s1 [label="Alert(FATAL,UNEXPECTED_MESSAGE) / TIMEOUT"];
	s108 -> s109 [label="HELLO_VERIFY_REQUEST / CLIENT_HELLO+"];
	s108 -> s109 [label="PSK_SERVER_HELLO / CLIENT_HELLO+"];
	s108 -> s1 [label="SERVER_HELLO_DONE / Alert(FATAL,UNEXPECTED_MESSAGE)"];
	s108 -> s1 [label="CHANGE_CIPHER_SPEC / TIMEOUT"];
	s108 -> s1 [label="FINISHED / Alert(FATAL,INTERNAL_ERROR)"];
	s108 -> s1 [label="HELLO_REQUEST / TIMEOUT"];
	s108 -> s108 [label="APPLICATION / TIMEOUT"];
	s108 -> s1 [label="Alert(WARNING,CLOSE_NOTIFY) / TIMEOUT"];
	s108 -> s1 [label="Alert(FATAL,UNEXPECTED_MESSAGE) / TIMEOUT"];
	s109 -> s110 [label="HELLO_VERIFY_REQUEST / TIMEOUT"];
	s109 -> s110 [label="PSK_SERVER_HELLO / TIMEOUT"];
	s109 -> s110 [label="SERVER_HELLO_DONE / TIMEOUT"];
	s109 -> s1 [label="CHANGE_CIPHER_SPEC / TIMEOUT"];
	s109 -> s110 [label="FINISHED / TIMEOUT"];
	s109 -> s1 [label="HELLO_REQUEST / TIMEOUT"];
	s109 -> s1 [label="APPLICATION / Alert(FATAL,UNEXPECTED_MESSAGE)"];
	s109 -> s1 [label="Alert(WARNING,CLOSE_NOTIFY) / TIMEOUT"];
	s109 -> s1 [label="Alert(FATAL,UNEXPECTED_MESSAGE) / TIMEOUT"];
	s110 -> s94 [label="HELLO_VERIFY_REQUEST / TIMEOUT"];
	s110 -> s94 [label="PSK_SERVER_HELLO / TIMEOUT"];
	s110 -> s94 [label="SERVER_HELLO_DONE / TIMEOUT"];
	s110 -> s1 [label="CHANGE_CIPHER_SPEC / TIMEOUT"];
	s110 -> s94 [label="FINISHED / TIMEOUT"];
	s110 -> s1 [label="HELLO_REQUEST / TIMEOUT"];
	s110 -> s1 [label="APPLICATION / Alert(FATAL,UNEXPECTED_MESSAGE)"];
	s110 -> s1 [label="Alert(WARNING,CLOSE_NOTIFY) / TIMEOUT"];
	s110 -> s1 [label="Alert(FATAL,UNEXPECTED_MESSAGE) / TIMEOUT"];
	s111 -> s112 [label="HELLO_VERIFY_REQUEST / CLIENT_HELLO"];
	s111 -> s93 [label="PSK_SERVER_HELLO / TIMEOUT"];
	s111 -> s1 [label="SERVER_HELLO_DONE / Alert(FATAL,UNEXPECTED_MESSAGE)"];
	s111 -> s1 [label="CHANGE_CIPHER_SPEC / TIMEOUT"];
	s111 -> s1 [label="FINISHED / Alert(FATAL,INTERNAL_ERROR)"];
	s111 -> s1 [label="HELLO_REQUEST / TIMEOUT"];
	s111 -> s111 [label="APPLICATION / TIMEOUT"];
	s111 -> s1 [label="Alert(WARNING,CLOSE_NOTIFY) / TIMEOUT"];
	s111 -> s1 [label="Alert(FATAL,UNEXPECTED_MESSAGE) / TIMEOUT"];
	s112 -> s110 [label="HELLO_VERIFY_REQUEST / CLIENT_HELLO+"];
	s112 -> s110 [label="PSK_SERVER_HELLO / CLIENT_HELLO+"];
	s112 -> s1 [label="SERVER_HELLO_DONE / Alert(FATAL,UNEXPECTED_MESSAGE)"];
	s112 -> s1 [label="CHANGE_CIPHER_SPEC / TIMEOUT"];
	s112 -> s1 [label="FINISHED / Alert(FATAL,INTERNAL_ERROR)"];
	s112 -> s1 [label="HELLO_REQUEST / TIMEOUT"];
	s112 -> s112 [label="APPLICATION / TIMEOUT"];
	s112 -> s1 [label="Alert(WARNING,CLOSE_NOTIFY) / TIMEOUT"];
	s112 -> s1 [label="Alert(FATAL,UNEXPECTED_MESSAGE) / TIMEOUT"];
	s113 -> s120 [label="HELLO_VERIFY_REQUEST / TIMEOUT"];
	s113 -> s114 [label="PSK_SERVER_HELLO / TIMEOUT"];
	s113 -> s57 [label="SERVER_HELLO_DONE / TIMEOUT"];
	s113 -> s1 [label="CHANGE_CIPHER_SPEC / TIMEOUT"];
	s113 -> s58 [label="FINISHED / TIMEOUT"];
	s113 -> s67 [label="HELLO_REQUEST / CLIENT_HELLO"];
	s113 -> s1 [label="APPLICATION / Alert(FATAL,UNEXPECTED_MESSAGE)"];
	s113 -> s1 [label="Alert(WARNING,CLOSE_NOTIFY) / TIMEOUT"];
	s113 -> s1 [label="Alert(FATAL,UNEXPECTED_MESSAGE) / TIMEOUT"];
	s114 -> s120 [label="HELLO_VERIFY_REQUEST / TIMEOUT"];
	s114 -> s57 [label="PSK_SERVER_HELLO / TIMEOUT"];
	s114 -> s115 [label="SERVER_HELLO_DONE / TIMEOUT"];
	s114 -> s1 [label="CHANGE_CIPHER_SPEC / TIMEOUT"];
	s114 -> s123 [label="FINISHED / TIMEOUT"];
	s114 -> s124 [label="HELLO_REQUEST / CLIENT_HELLO"];
	s114 -> s1 [label="APPLICATION / Alert(FATAL,UNEXPECTED_MESSAGE)"];
	s114 -> s1 [label="Alert(WARNING,CLOSE_NOTIFY) / TIMEOUT"];
	s114 -> s1 [label="Alert(FATAL,UNEXPECTED_MESSAGE) / TIMEOUT"];
	s115 -> s59 [label="HELLO_VERIFY_REQUEST / TIMEOUT"];
	s115 -> s25 [label="PSK_SERVER_HELLO / TIMEOUT"];
	s115 -> s59 [label="SERVER_HELLO_DONE / TIMEOUT"];
	s115 -> s1 [label="CHANGE_CIPHER_SPEC / TIMEOUT"];
	s115 -> s115 [label="FINISHED / TIMEOUT"];
	s115 -> s116 [label="HELLO_REQUEST / CLIENT_HELLO"];
	s115 -> s1 [label="APPLICATION / Alert(FATAL,UNEXPECTED_MESSAGE)"];
	s115 -> s1 [label="Alert(WARNING,CLOSE_NOTIFY) / TIMEOUT"];
	s115 -> s1 [label="Alert(FATAL,UNEXPECTED_MESSAGE) / TIMEOUT"];
	s116 -> s117 [label="HELLO_VERIFY_REQUEST / CLIENT_HELLO"];
	s116 -> s90 [label="PSK_SERVER_HELLO / TIMEOUT"];
	s116 -> s1 [label="SERVER_HELLO_DONE / Alert(FATAL,UNEXPECTED_MESSAGE)"];
	s116 -> s1 [label="CHANGE_CIPHER_SPEC / TIMEOUT"];
	s116 -> s1 [label="FINISHED / Alert(FATAL,INTERNAL_ERROR)"];
	s116 -> s1 [label="HELLO_REQUEST / TIMEOUT"];
	s116 -> s116 [label="APPLICATION / TIMEOUT"];
	s116 -> s1 [label="Alert(WARNING,CLOSE_NOTIFY) / TIMEOUT"];
	s116 -> s1 [label="Alert(FATAL,UNEXPECTED_MESSAGE) / TIMEOUT"];
	s117 -> s118 [label="HELLO_VERIFY_REQUEST / CLIENT_HELLO+|PSK_CLIENT_KEY_EXCHANGE|CHANGE_CIPHER_SPEC|FINISHED"];
	s117 -> s91 [label="PSK_SERVER_HELLO / CLIENT_HELLO+|PSK_CLIENT_KEY_EXCHANGE|CHANGE_CIPHER_SPEC|UNKNOWN_MESSAGE"];
	s117 -> s1 [label="SERVER_HELLO_DONE / Alert(FATAL,UNEXPECTED_MESSAGE)"];
	s117 -> s1 [label="CHANGE_CIPHER_SPEC / TIMEOUT"];
	s117 -> s1 [label="FINISHED / Alert(FATAL,INTERNAL_ERROR)"];
	s117 -> s1 [label="HELLO_REQUEST / TIMEOUT"];
	s117 -> s117 [label="APPLICATION / TIMEOUT"];
	s117 -> s1 [label="Alert(WARNING,CLOSE_NOTIFY) / TIMEOUT"];
	s117 -> s1 [label="Alert(FATAL,UNEXPECTED_MESSAGE) / TIMEOUT"];
	s118 -> s105 [label="HELLO_VERIFY_REQUEST / TIMEOUT"];
	s118 -> s105 [label="PSK_SERVER_HELLO / TIMEOUT"];
	s118 -> s105 [label="SERVER_HELLO_DONE / TIMEOUT"];
	s118 -> s1 [label="CHANGE_CIPHER_SPEC / TIMEOUT"];
	s118 -> s105 [label="FINISHED / TIMEOUT"];
	s118 -> s1 [label="HELLO_REQUEST / TIMEOUT"];
	s118 -> s1 [label="APPLICATION / Alert(FATAL,UNEXPECTED_MESSAGE)"];
	s118 -> s1 [label="Alert(WARNING,CLOSE_NOTIFY) / TIMEOUT"];
	s118 -> s1 [label="Alert(FATAL,UNEXPECTED_MESSAGE) / TIMEOUT"];
	s119 -> s106 [label="HELLO_VERIFY_REQUEST / TIMEOUT"];
	s119 -> s106 [label="PSK_SERVER_HELLO / TIMEOUT"];
	s119 -> s106 [label="SERVER_HELLO_DONE / TIMEOUT"];
	s119 -> s1 [label="CHANGE_CIPHER_SPEC / TIMEOUT"];
	s119 -> s106 [label="FINISHED / TIMEOUT"];
	s119 -> s1 [label="HELLO_REQUEST / TIMEOUT"];
	s119 -> s119 [label="APPLICATION / TIMEOUT"];
	s119 -> s119 [label="Alert(WARNING,CLOSE_NOTIFY) / TIMEOUT"];
	s119 -> s119 [label="Alert(FATAL,UNEXPECTED_MESSAGE) / TIMEOUT"];
	s120 -> s120 [label="HELLO_VERIFY_REQUEST / TIMEOUT"];
	s120 -> s121 [label="PSK_SERVER_HELLO / TIMEOUT"];
	s120 -> s57 [label="SERVER_HELLO_DONE / TIMEOUT"];
	s120 -> s1 [label="CHANGE_CIPHER_SPEC / TIMEOUT"];
	s120 -> s58 [label="FINISHED / TIMEOUT"];
	s120 -> s67 [label="HELLO_REQUEST / CLIENT_HELLO"];
	s120 -> s1 [label="APPLICATION / Alert(FATAL,UNEXPECTED_MESSAGE)"];
	s120 -> s1 [label="Alert(WARNING,CLOSE_NOTIFY) / TIMEOUT"];
	s120 -> s1 [label="Alert(FATAL,UNEXPECTED_MESSAGE) / TIMEOUT"];
	s121 -> s122 [label="HELLO_VERIFY_REQUEST / TIMEOUT"];
	s121 -> s57 [label="PSK_SERVER_HELLO / TIMEOUT"];
	s121 -> s126 [label="SERVER_HELLO_DONE / TIMEOUT"];
	s121 -> s1 [label="CHANGE_CIPHER_SPEC / TIMEOUT"];
	s121 -> s123 [label="FINISHED / TIMEOUT"];
	s121 -> s124 [label="HELLO_REQUEST / CLIENT_HELLO"];
	s121 -> s1 [label="APPLICATION / Alert(FATAL,UNEXPECTED_MESSAGE)"];
	s121 -> s1 [label="Alert(WARNING,CLOSE_NOTIFY) / TIMEOUT"];
	s121 -> s1 [label="Alert(FATAL,UNEXPECTED_MESSAGE) / TIMEOUT"];
	s122 -> s58 [label="HELLO_VERIFY_REQUEST / TIMEOUT"];
	s122 -> s123 [label="PSK_SERVER_HELLO / TIMEOUT"];
	s122 -> s57 [label="SERVER_HELLO_DONE / TIMEOUT"];
	s122 -> s1 [label="CHANGE_CIPHER_SPEC / TIMEOUT"];
	s122 -> s58 [label="FINISHED / TIMEOUT"];
	s122 -> s67 [label="HELLO_REQUEST / CLIENT_HELLO"];
	s122 -> s1 [label="APPLICATION / Alert(FATAL,UNEXPECTED_MESSAGE)"];
	s122 -> s1 [label="Alert(WARNING,CLOSE_NOTIFY) / TIMEOUT"];
	s122 -> s1 [label="Alert(FATAL,UNEXPECTED_MESSAGE) / TIMEOUT"];
	s123 -> s123 [label="HELLO_VERIFY_REQUEST / TIMEOUT"];
	s123 -> s123 [label="PSK_SERVER_HELLO / TIMEOUT"];
	s123 -> s123 [label="SERVER_HELLO_DONE / TIMEOUT"];
	s123 -> s1 [label="CHANGE_CIPHER_SPEC / TIMEOUT"];
	s123 -> s123 [label="FINISHED / TIMEOUT"];
	s123 -> s124 [label="HELLO_REQUEST / CLIENT_HELLO"];
	s123 -> s1 [label="APPLICATION / Alert(FATAL,UNEXPECTED_MESSAGE)"];
	s123 -> s1 [label="Alert(WARNING,CLOSE_NOTIFY) / TIMEOUT"];
	s123 -> s1 [label="Alert(FATAL,UNEXPECTED_MESSAGE) / TIMEOUT"];
	s124 -> s125 [label="HELLO_VERIFY_REQUEST / CLIENT_HELLO"];
	s124 -> s93 [label="PSK_SERVER_HELLO / TIMEOUT"];
	s124 -> s1 [label="SERVER_HELLO_DONE / Alert(FATAL,UNEXPECTED_MESSAGE)"];
	s124 -> s1 [label="CHANGE_CIPHER_SPEC / TIMEOUT"];
	s124 -> s1 [label="FINISHED / Alert(FATAL,INTERNAL_ERROR)"];
	s124 -> s1 [label="HELLO_REQUEST / TIMEOUT"];
	s124 -> s124 [label="APPLICATION / TIMEOUT"];
	s124 -> s1 [label="Alert(WARNING,CLOSE_NOTIFY) / TIMEOUT"];
	s124 -> s1 [label="Alert(FATAL,UNEXPECTED_MESSAGE) / TIMEOUT"];
	s125 -> s46 [label="HELLO_VERIFY_REQUEST / CLIENT_HELLO+"];
	s125 -> s46 [label="PSK_SERVER_HELLO / CLIENT_HELLO+"];
	s125 -> s1 [label="SERVER_HELLO_DONE / Alert(FATAL,UNEXPECTED_MESSAGE)"];
	s125 -> s1 [label="CHANGE_CIPHER_SPEC / TIMEOUT"];
	s125 -> s1 [label="FINISHED / Alert(FATAL,INTERNAL_ERROR)"];
	s125 -> s1 [label="HELLO_REQUEST / TIMEOUT"];
	s125 -> s125 [label="APPLICATION / TIMEOUT"];
	s125 -> s1 [label="Alert(WARNING,CLOSE_NOTIFY) / TIMEOUT"];
	s125 -> s1 [label="Alert(FATAL,UNEXPECTED_MESSAGE) / TIMEOUT"];
	s126 -> s59 [label="HELLO_VERIFY_REQUEST / TIMEOUT"];
	s126 -> s25 [label="PSK_SERVER_HELLO / TIMEOUT"];
	s126 -> s59 [label="SERVER_HELLO_DONE / TIMEOUT"];
	s126 -> s1 [label="CHANGE_CIPHER_SPEC / TIMEOUT"];
	s126 -> s126 [label="FINISHED / TIMEOUT"];
	s126 -> s127 [label="HELLO_REQUEST / CLIENT_HELLO"];
	s126 -> s1 [label="APPLICATION / Alert(FATAL,UNEXPECTED_MESSAGE)"];
	s126 -> s1 [label="Alert(WARNING,CLOSE_NOTIFY) / TIMEOUT"];
	s126 -> s1 [label="Alert(FATAL,UNEXPECTED_MESSAGE) / TIMEOUT"];
	s127 -> s128 [label="HELLO_VERIFY_REQUEST / CLIENT_HELLO"];
	s127 -> s90 [label="PSK_SERVER_HELLO / TIMEOUT"];
	s127 -> s1 [label="SERVER_HELLO_DONE / Alert(FATAL,UNEXPECTED_MESSAGE)"];
	s127 -> s1 [label="CHANGE_CIPHER_SPEC / TIMEOUT"];
	s127 -> s1 [label="FINISHED / Alert(FATAL,INTERNAL_ERROR)"];
	s127 -> s1 [label="HELLO_REQUEST / TIMEOUT"];
	s127 -> s127 [label="APPLICATION / TIMEOUT"];
	s127 -> s1 [label="Alert(WARNING,CLOSE_NOTIFY) / TIMEOUT"];
	s127 -> s1 [label="Alert(FATAL,UNEXPECTED_MESSAGE) / TIMEOUT"];
	s128 -> s46 [label="HELLO_VERIFY_REQUEST / CLIENT_HELLO+|PSK_CLIENT_KEY_EXCHANGE|CHANGE_CIPHER_SPEC|FINISHED"];
	s128 -> s91 [label="PSK_SERVER_HELLO / CLIENT_HELLO+|PSK_CLIENT_KEY_EXCHANGE|CHANGE_CIPHER_SPEC|UNKNOWN_MESSAGE"];
	s128 -> s1 [label="SERVER_HELLO_DONE / Alert(FATAL,UNEXPECTED_MESSAGE)"];
	s128 -> s1 [label="CHANGE_CIPHER_SPEC / TIMEOUT"];
	s128 -> s1 [label="FINISHED / Alert(FATAL,INTERNAL_ERROR)"];
	s128 -> s1 [label="HELLO_REQUEST / TIMEOUT"];
	s128 -> s128 [label="APPLICATION / TIMEOUT"];
	s128 -> s1 [label="Alert(WARNING,CLOSE_NOTIFY) / TIMEOUT"];
	s128 -> s1 [label="Alert(FATAL,UNEXPECTED_MESSAGE) / TIMEOUT"];

__start0 [label="" shape="none" width="0" height="0"];
__start0 -> s0;

}
