digraph g {

	s0 [shape="circle" label="s0"];
	s1 [shape="circle" label="s1"];
	s2 [shape="circle" label="s2"];
	s3 [shape="circle" label="s3"];
	s4 [shape="circle" label="s4"];
	s0 -> s3 [label="HELLO_VERIFY_REQUEST / CLIENT_HELLO+"];
	s0 -> s1 [label="ECDH_SERVER_HELLO / CLIENT_HELLO"];
	s0 -> s4 [label="ECDH_SERVER_KEY_EXCHANGE / CLIENT_HELLO,Alert(FATAL,DECODE_ERROR)"];
	s0 -> s1 [label="DH_SERVER_HELLO / CLIENT_HELLO"];
	s0 -> s4 [label="DH_SERVER_KEY_EXCHANGE / CLIENT_HELLO,Alert(FATAL,DECODE_ERROR)"];
	s0 -> s1 [label="RSA_SERVER_HELLO / CLIENT_HELLO"];
	s0 -> s4 [label="RSA_SIGN_CERTIFICATE_REQUEST / CLIENT_HELLO,Alert(FATAL,DECODE_ERROR)"];
	s0 -> s4 [label="RSA_FIXED_ECDH_CERTIFICATE_REQUEST / CLIENT_HELLO,Alert(FATAL,DECODE_ERROR)"];
	s0 -> s4 [label="RSA_FIXED_DH_CERTIFICATE_REQUEST / CLIENT_HELLO,Alert(FATAL,DECODE_ERROR)"];
	s0 -> s4 [label="DSS_SIGN_CERTIFICATE_REQUEST / CLIENT_HELLO,Alert(FATAL,DECODE_ERROR)"];
	s0 -> s4 [label="DSS_FIXED_DH_CERTIFICATE_REQUEST / CLIENT_HELLO,Alert(FATAL,DECODE_ERROR)"];
	s0 -> s4 [label="SERVER_HELLO_DONE / CLIENT_HELLO,Alert(FATAL,DECODE_ERROR)"];
	s0 -> s2 [label="CHANGE_CIPHER_SPEC / CLIENT_HELLO"];
	s0 -> s4 [label="FINISHED / CLIENT_HELLO,Alert(FATAL,DECODE_ERROR)"];
	s0 -> s3 [label="APPLICATION / CLIENT_HELLO"];
	s0 -> s4 [label="CERTIFICATE / CLIENT_HELLO,Alert(FATAL,DECODE_ERROR)"];
	s0 -> s4 [label="EMPTY_CERTIFICATE / CLIENT_HELLO,Alert(FATAL,DECODE_ERROR)"];
	s0 -> s4 [label="Alert(WARNING,CLOSE_NOTIFY) / CLIENT_HELLO"];
	s0 -> s4 [label="Alert(FATAL,UNEXPECTED_MESSAGE) / CLIENT_HELLO"];
	s1 -> s4 [label="HELLO_VERIFY_REQUEST / Alert(FATAL,DECODE_ERROR)"];
	s1 -> s4 [label="ECDH_SERVER_HELLO / Alert(FATAL,DECODE_ERROR)"];
	s1 -> s4 [label="ECDH_SERVER_KEY_EXCHANGE / Alert(FATAL,DECODE_ERROR)"];
	s1 -> s4 [label="DH_SERVER_HELLO / Alert(FATAL,DECODE_ERROR)"];
	s1 -> s4 [label="DH_SERVER_KEY_EXCHANGE / Alert(FATAL,DECODE_ERROR)"];
	s1 -> s4 [label="RSA_SERVER_HELLO / Alert(FATAL,DECODE_ERROR)"];
	s1 -> s4 [label="RSA_SIGN_CERTIFICATE_REQUEST / Alert(FATAL,DECODE_ERROR)"];
	s1 -> s4 [label="RSA_FIXED_ECDH_CERTIFICATE_REQUEST / Alert(FATAL,DECODE_ERROR)"];
	s1 -> s4 [label="RSA_FIXED_DH_CERTIFICATE_REQUEST / Alert(FATAL,DECODE_ERROR)"];
	s1 -> s4 [label="DSS_SIGN_CERTIFICATE_REQUEST / Alert(FATAL,DECODE_ERROR)"];
	s1 -> s4 [label="DSS_FIXED_DH_CERTIFICATE_REQUEST / Alert(FATAL,DECODE_ERROR)"];
	s1 -> s4 [label="SERVER_HELLO_DONE / Alert(FATAL,DECODE_ERROR)"];
	s1 -> s2 [label="CHANGE_CIPHER_SPEC / TIMEOUT"];
	s1 -> s4 [label="FINISHED / Alert(FATAL,DECODE_ERROR)"];
	s1 -> s1 [label="APPLICATION / TIMEOUT"];
	s1 -> s1 [label="CERTIFICATE / TIMEOUT"];
	s1 -> s4 [label="EMPTY_CERTIFICATE / Alert(FATAL,DECODE_ERROR)"];
	s1 -> s4 [label="Alert(WARNING,CLOSE_NOTIFY) / TIMEOUT"];
	s1 -> s4 [label="Alert(FATAL,UNEXPECTED_MESSAGE) / TIMEOUT"];
	s2 -> s2 [label="HELLO_VERIFY_REQUEST / TIMEOUT"];
	s2 -> s2 [label="ECDH_SERVER_HELLO / TIMEOUT"];
	s2 -> s2 [label="ECDH_SERVER_KEY_EXCHANGE / TIMEOUT"];
	s2 -> s2 [label="DH_SERVER_HELLO / TIMEOUT"];
	s2 -> s2 [label="DH_SERVER_KEY_EXCHANGE / TIMEOUT"];
	s2 -> s2 [label="RSA_SERVER_HELLO / TIMEOUT"];
	s2 -> s2 [label="RSA_SIGN_CERTIFICATE_REQUEST / TIMEOUT"];
	s2 -> s2 [label="RSA_FIXED_ECDH_CERTIFICATE_REQUEST / TIMEOUT"];
	s2 -> s2 [label="RSA_FIXED_DH_CERTIFICATE_REQUEST / TIMEOUT"];
	s2 -> s2 [label="DSS_SIGN_CERTIFICATE_REQUEST / TIMEOUT"];
	s2 -> s2 [label="DSS_FIXED_DH_CERTIFICATE_REQUEST / TIMEOUT"];
	s2 -> s2 [label="SERVER_HELLO_DONE / TIMEOUT"];
	s2 -> s2 [label="CHANGE_CIPHER_SPEC / TIMEOUT"];
	s2 -> s2 [label="FINISHED / TIMEOUT"];
	s2 -> s2 [label="APPLICATION / TIMEOUT"];
	s2 -> s2 [label="CERTIFICATE / TIMEOUT"];
	s2 -> s2 [label="EMPTY_CERTIFICATE / TIMEOUT"];
	s2 -> s2 [label="Alert(WARNING,CLOSE_NOTIFY) / TIMEOUT"];
	s2 -> s2 [label="Alert(FATAL,UNEXPECTED_MESSAGE) / TIMEOUT"];
	s3 -> s3 [label="HELLO_VERIFY_REQUEST / CLIENT_HELLO"];
	s3 -> s1 [label="ECDH_SERVER_HELLO / TIMEOUT"];
	s3 -> s4 [label="ECDH_SERVER_KEY_EXCHANGE / Alert(FATAL,DECODE_ERROR)"];
	s3 -> s1 [label="DH_SERVER_HELLO / TIMEOUT"];
	s3 -> s4 [label="DH_SERVER_KEY_EXCHANGE / Alert(FATAL,DECODE_ERROR)"];
	s3 -> s1 [label="RSA_SERVER_HELLO / TIMEOUT"];
	s3 -> s4 [label="RSA_SIGN_CERTIFICATE_REQUEST / Alert(FATAL,DECODE_ERROR)"];
	s3 -> s4 [label="RSA_FIXED_ECDH_CERTIFICATE_REQUEST / Alert(FATAL,DECODE_ERROR)"];
	s3 -> s4 [label="RSA_FIXED_DH_CERTIFICATE_REQUEST / Alert(FATAL,DECODE_ERROR)"];
	s3 -> s4 [label="DSS_SIGN_CERTIFICATE_REQUEST / Alert(FATAL,DECODE_ERROR)"];
	s3 -> s4 [label="DSS_FIXED_DH_CERTIFICATE_REQUEST / Alert(FATAL,DECODE_ERROR)"];
	s3 -> s4 [label="SERVER_HELLO_DONE / Alert(FATAL,DECODE_ERROR)"];
	s3 -> s2 [label="CHANGE_CIPHER_SPEC / TIMEOUT"];
	s3 -> s4 [label="FINISHED / Alert(FATAL,DECODE_ERROR)"];
	s3 -> s3 [label="APPLICATION / TIMEOUT"];
	s3 -> s4 [label="CERTIFICATE / Alert(FATAL,DECODE_ERROR)"];
	s3 -> s4 [label="EMPTY_CERTIFICATE / Alert(FATAL,DECODE_ERROR)"];
	s3 -> s4 [label="Alert(WARNING,CLOSE_NOTIFY) / TIMEOUT"];
	s3 -> s4 [label="Alert(FATAL,UNEXPECTED_MESSAGE) / TIMEOUT"];
	s4 -> s4 [label="HELLO_VERIFY_REQUEST / SOCKET_CLOSED"];
	s4 -> s4 [label="ECDH_SERVER_HELLO / SOCKET_CLOSED"];
	s4 -> s4 [label="ECDH_SERVER_KEY_EXCHANGE / SOCKET_CLOSED"];
	s4 -> s4 [label="DH_SERVER_HELLO / SOCKET_CLOSED"];
	s4 -> s4 [label="DH_SERVER_KEY_EXCHANGE / SOCKET_CLOSED"];
	s4 -> s4 [label="RSA_SERVER_HELLO / SOCKET_CLOSED"];
	s4 -> s4 [label="RSA_SIGN_CERTIFICATE_REQUEST / SOCKET_CLOSED"];
	s4 -> s4 [label="RSA_FIXED_ECDH_CERTIFICATE_REQUEST / SOCKET_CLOSED"];
	s4 -> s4 [label="RSA_FIXED_DH_CERTIFICATE_REQUEST / SOCKET_CLOSED"];
	s4 -> s4 [label="DSS_SIGN_CERTIFICATE_REQUEST / SOCKET_CLOSED"];
	s4 -> s4 [label="DSS_FIXED_DH_CERTIFICATE_REQUEST / SOCKET_CLOSED"];
	s4 -> s4 [label="SERVER_HELLO_DONE / SOCKET_CLOSED"];
	s4 -> s4 [label="CHANGE_CIPHER_SPEC / SOCKET_CLOSED"];
	s4 -> s4 [label="FINISHED / SOCKET_CLOSED"];
	s4 -> s4 [label="APPLICATION / SOCKET_CLOSED"];
	s4 -> s4 [label="CERTIFICATE / SOCKET_CLOSED"];
	s4 -> s4 [label="EMPTY_CERTIFICATE / SOCKET_CLOSED"];
	s4 -> s4 [label="Alert(WARNING,CLOSE_NOTIFY) / SOCKET_CLOSED"];
	s4 -> s4 [label="Alert(FATAL,UNEXPECTED_MESSAGE) / SOCKET_CLOSED"];

__start0 [label="" shape="none" width="0" height="0"];
__start0 -> s0;

}
