digraph g {

	s0 [shape="circle" label="s0"];
	s1 [shape="circle" label="s1"];
	s2 [shape="circle" label="s2"];
	s3 [shape="circle" label="s3"];
	s4 [shape="circle" label="s4"];
	s5 [shape="circle" label="s5"];
	s6 [shape="circle" label="s6"];
	s7 [shape="circle" label="s7"];
	s8 [shape="circle" label="s8"];
	s9 [shape="circle" label="s9"];
	s10 [shape="circle" label="s10"];
	s11 [shape="circle" label="s11"];
	s12 [shape="circle" label="s12"];
	s13 [shape="circle" label="s13"];
	s14 [shape="circle" label="s14"];
	s15 [shape="circle" label="s15"];
	s16 [shape="circle" label="s16"];
	s17 [shape="circle" label="s17"];
	s18 [shape="circle" label="s18"];
	s19 [shape="circle" label="s19"];
	s20 [shape="circle" label="s20"];
	s21 [shape="circle" label="s21"];
	s22 [shape="circle" label="s22"];
	s23 [shape="circle" label="s23"];
	s24 [shape="circle" label="s24"];
	s25 [shape="circle" label="s25"];
	s26 [shape="circle" label="s26"];
	s27 [shape="circle" label="s27"];
	s28 [shape="circle" label="s28"];
	s29 [shape="circle" label="s29"];
	s30 [shape="circle" label="s30"];
	s31 [shape="circle" label="s31"];
	s32 [shape="circle" label="s32"];
	s33 [shape="circle" label="s33"];
	s34 [shape="circle" label="s34"];
	s35 [shape="circle" label="s35"];
	s36 [shape="circle" label="s36"];
	s37 [shape="circle" label="s37"];
	s38 [shape="circle" label="s38"];
	s39 [shape="circle" label="s39"];
	s40 [shape="circle" label="s40"];
	s41 [shape="circle" label="s41"];
	s42 [shape="circle" label="s42"];
	s43 [shape="circle" label="s43"];
	s44 [shape="circle" label="s44"];
	s45 [shape="circle" label="s45"];
	s46 [shape="circle" label="s46"];
	s47 [shape="circle" label="s47"];
	s48 [shape="circle" label="s48"];
	s0 -> s5 [label="HELLO_VERIFY_REQUEST / CLIENT_HELLO+"];
	s0 -> s1 [label="PSK_SERVER_HELLO / CLIENT_HELLO"];
	s0 -> s3 [label="SERVER_HELLO_DONE / CLIENT_HELLO,Alert(FATAL,UNEXPECTED_MESSAGE)"];
	s0 -> s3 [label="CHANGE_CIPHER_SPEC / CLIENT_HELLO"];
	s0 -> s3 [label="FINISHED / CLIENT_HELLO,Alert(FATAL,INTERNAL_ERROR)"];
	s0 -> s6 [label="HELLO_REQUEST / CLIENT_HELLO"];
	s0 -> s3 [label="APPLICATION / CLIENT_HELLO,Alert(FATAL,UNEXPECTED_MESSAGE)"];
	s0 -> s3 [label="Alert(WARNING,CLOSE_NOTIFY) / CLIENT_HELLO"];
	s0 -> s3 [label="Alert(FATAL,UNEXPECTED_MESSAGE) / CLIENT_HELLO"];
	s1 -> s5 [label="HELLO_VERIFY_REQUEST / CLIENT_HELLO"];
	s1 -> s3 [label="PSK_SERVER_HELLO / Alert(FATAL,UNEXPECTED_MESSAGE)"];
	s1 -> s2 [label="SERVER_HELLO_DONE / PSK_CLIENT_KEY_EXCHANGE,CHANGE_CIPHER_SPEC,FINISHED"];
	s1 -> s3 [label="CHANGE_CIPHER_SPEC / TIMEOUT"];
	s1 -> s3 [label="FINISHED / Alert(FATAL,INTERNAL_ERROR)"];
	s1 -> s3 [label="HELLO_REQUEST / TIMEOUT"];
	s1 -> s3 [label="APPLICATION / Alert(FATAL,UNEXPECTED_MESSAGE)"];
	s1 -> s3 [label="Alert(WARNING,CLOSE_NOTIFY) / TIMEOUT"];
	s1 -> s3 [label="Alert(FATAL,UNEXPECTED_MESSAGE) / TIMEOUT"];
	s2 -> s3 [label="HELLO_VERIFY_REQUEST / Alert(FATAL,UNEXPECTED_MESSAGE)"];
	s2 -> s3 [label="PSK_SERVER_HELLO / Alert(FATAL,UNEXPECTED_MESSAGE)"];
	s2 -> s3 [label="SERVER_HELLO_DONE / Alert(FATAL,UNEXPECTED_MESSAGE)"];
	s2 -> s4 [label="CHANGE_CIPHER_SPEC / TIMEOUT"];
	s2 -> s3 [label="FINISHED / Alert(FATAL,UNEXPECTED_MESSAGE)"];
	s2 -> s3 [label="HELLO_REQUEST / TIMEOUT"];
	s2 -> s3 [label="APPLICATION / Alert(FATAL,UNEXPECTED_MESSAGE)"];
	s2 -> s3 [label="Alert(WARNING,CLOSE_NOTIFY) / TIMEOUT"];
	s2 -> s3 [label="Alert(FATAL,UNEXPECTED_MESSAGE) / TIMEOUT"];
	s3 -> s3 [label="HELLO_VERIFY_REQUEST / TIMEOUT"];
	s3 -> s3 [label="PSK_SERVER_HELLO / TIMEOUT"];
	s3 -> s3 [label="SERVER_HELLO_DONE / TIMEOUT"];
	s3 -> s3 [label="CHANGE_CIPHER_SPEC / TIMEOUT"];
	s3 -> s3 [label="FINISHED / TIMEOUT"];
	s3 -> s3 [label="HELLO_REQUEST / TIMEOUT"];
	s3 -> s3 [label="APPLICATION / TIMEOUT"];
	s3 -> s3 [label="Alert(WARNING,CLOSE_NOTIFY) / TIMEOUT"];
	s3 -> s3 [label="Alert(FATAL,UNEXPECTED_MESSAGE) / TIMEOUT"];
	s4 -> s3 [label="HELLO_VERIFY_REQUEST / Alert(FATAL,UNEXPECTED_MESSAGE)"];
	s4 -> s3 [label="PSK_SERVER_HELLO / Alert(FATAL,UNEXPECTED_MESSAGE)"];
	s4 -> s3 [label="SERVER_HELLO_DONE / Alert(FATAL,UNEXPECTED_MESSAGE)"];
	s4 -> s3 [label="CHANGE_CIPHER_SPEC / TIMEOUT"];
	s4 -> s7 [label="FINISHED / TIMEOUT"];
	s4 -> s3 [label="HELLO_REQUEST / TIMEOUT"];
	s4 -> s4 [label="APPLICATION / TIMEOUT"];
	s4 -> s9 [label="Alert(WARNING,CLOSE_NOTIFY) / TIMEOUT"];
	s4 -> s8 [label="Alert(FATAL,UNEXPECTED_MESSAGE) / TIMEOUT"];
	s5 -> s5 [label="HELLO_VERIFY_REQUEST / CLIENT_HELLO"];
	s5 -> s1 [label="PSK_SERVER_HELLO / TIMEOUT"];
	s5 -> s3 [label="SERVER_HELLO_DONE / Alert(FATAL,UNEXPECTED_MESSAGE)"];
	s5 -> s3 [label="CHANGE_CIPHER_SPEC / TIMEOUT"];
	s5 -> s3 [label="FINISHED / Alert(FATAL,INTERNAL_ERROR)"];
	s5 -> s3 [label="HELLO_REQUEST / TIMEOUT"];
	s5 -> s3 [label="APPLICATION / Alert(FATAL,UNEXPECTED_MESSAGE)"];
	s5 -> s3 [label="Alert(WARNING,CLOSE_NOTIFY) / TIMEOUT"];
	s5 -> s3 [label="Alert(FATAL,UNEXPECTED_MESSAGE) / TIMEOUT"];
	s6 -> s6 [label="HELLO_VERIFY_REQUEST / TIMEOUT"];
	s6 -> s6 [label="PSK_SERVER_HELLO / TIMEOUT"];
	s6 -> s6 [label="SERVER_HELLO_DONE / TIMEOUT"];
	s6 -> s3 [label="CHANGE_CIPHER_SPEC / TIMEOUT"];
	s6 -> s6 [label="FINISHED / TIMEOUT"];
	s6 -> s3 [label="HELLO_REQUEST / TIMEOUT"];
	s6 -> s3 [label="APPLICATION / Alert(FATAL,UNEXPECTED_MESSAGE)"];
	s6 -> s3 [label="Alert(WARNING,CLOSE_NOTIFY) / TIMEOUT"];
	s6 -> s3 [label="Alert(FATAL,UNEXPECTED_MESSAGE) / TIMEOUT"];
	s7 -> s20 [label="HELLO_VERIFY_REQUEST / TIMEOUT"];
	s7 -> s19 [label="PSK_SERVER_HELLO / TIMEOUT"];
	s7 -> s11 [label="SERVER_HELLO_DONE / TIMEOUT"];
	s7 -> s3 [label="CHANGE_CIPHER_SPEC / TIMEOUT"];
	s7 -> s7 [label="FINISHED / TIMEOUT"];
	s7 -> s14 [label="HELLO_REQUEST / CLIENT_HELLO"];
	s7 -> s7 [label="APPLICATION / TIMEOUT"];
	s7 -> s3 [label="Alert(WARNING,CLOSE_NOTIFY) / Alert(WARNING,CLOSE_NOTIFY)"];
	s7 -> s3 [label="Alert(FATAL,UNEXPECTED_MESSAGE) / TIMEOUT"];
	s8 -> s3 [label="HELLO_VERIFY_REQUEST / Alert(FATAL,UNEXPECTED_MESSAGE)"];
	s8 -> s3 [label="PSK_SERVER_HELLO / Alert(FATAL,UNEXPECTED_MESSAGE)"];
	s8 -> s3 [label="SERVER_HELLO_DONE / Alert(FATAL,UNEXPECTED_MESSAGE)"];
	s8 -> s3 [label="CHANGE_CIPHER_SPEC / TIMEOUT"];
	s8 -> s3 [label="FINISHED / TIMEOUT"];
	s8 -> s3 [label="HELLO_REQUEST / TIMEOUT"];
	s8 -> s8 [label="APPLICATION / TIMEOUT"];
	s8 -> s8 [label="Alert(WARNING,CLOSE_NOTIFY) / TIMEOUT"];
	s8 -> s8 [label="Alert(FATAL,UNEXPECTED_MESSAGE) / TIMEOUT"];
	s9 -> s3 [label="HELLO_VERIFY_REQUEST / Alert(FATAL,UNEXPECTED_MESSAGE)"];
	s9 -> s3 [label="PSK_SERVER_HELLO / Alert(FATAL,UNEXPECTED_MESSAGE)"];
	s9 -> s3 [label="SERVER_HELLO_DONE / Alert(FATAL,UNEXPECTED_MESSAGE)"];
	s9 -> s3 [label="CHANGE_CIPHER_SPEC / TIMEOUT"];
	s9 -> s10 [label="FINISHED / TIMEOUT"];
	s9 -> s3 [label="HELLO_REQUEST / TIMEOUT"];
	s9 -> s9 [label="APPLICATION / TIMEOUT"];
	s9 -> s9 [label="Alert(WARNING,CLOSE_NOTIFY) / TIMEOUT"];
	s9 -> s9 [label="Alert(FATAL,UNEXPECTED_MESSAGE) / TIMEOUT"];
	s10 -> s3 [label="HELLO_VERIFY_REQUEST / Alert(WARNING,CLOSE_NOTIFY)"];
	s10 -> s3 [label="PSK_SERVER_HELLO / Alert(WARNING,CLOSE_NOTIFY)"];
	s10 -> s3 [label="SERVER_HELLO_DONE / Alert(WARNING,CLOSE_NOTIFY)"];
	s10 -> s3 [label="CHANGE_CIPHER_SPEC / Alert(WARNING,CLOSE_NOTIFY)"];
	s10 -> s3 [label="FINISHED / Alert(WARNING,CLOSE_NOTIFY)"];
	s10 -> s3 [label="HELLO_REQUEST / Alert(WARNING,CLOSE_NOTIFY)"];
	s10 -> s3 [label="APPLICATION / Alert(WARNING,CLOSE_NOTIFY)"];
	s10 -> s3 [label="Alert(WARNING,CLOSE_NOTIFY) / Alert(WARNING,CLOSE_NOTIFY)"];
	s10 -> s3 [label="Alert(FATAL,UNEXPECTED_MESSAGE) / Alert(WARNING,CLOSE_NOTIFY)"];
	s11 -> s11 [label="HELLO_VERIFY_REQUEST / TIMEOUT"];
	s11 -> s11 [label="PSK_SERVER_HELLO / TIMEOUT"];
	s11 -> s11 [label="SERVER_HELLO_DONE / TIMEOUT"];
	s11 -> s3 [label="CHANGE_CIPHER_SPEC / TIMEOUT"];
	s11 -> s11 [label="FINISHED / TIMEOUT"];
	s11 -> s12 [label="HELLO_REQUEST / CLIENT_HELLO"];
	s11 -> s3 [label="APPLICATION / Alert(FATAL,UNEXPECTED_MESSAGE)"];
	s11 -> s3 [label="Alert(WARNING,CLOSE_NOTIFY) / TIMEOUT"];
	s11 -> s3 [label="Alert(FATAL,UNEXPECTED_MESSAGE) / TIMEOUT"];
	s12 -> s13 [label="HELLO_VERIFY_REQUEST / CLIENT_HELLO"];
	s12 -> s18 [label="PSK_SERVER_HELLO / TIMEOUT"];
	s12 -> s3 [label="SERVER_HELLO_DONE / Alert(FATAL,UNEXPECTED_MESSAGE)"];
	s12 -> s3 [label="CHANGE_CIPHER_SPEC / TIMEOUT"];
	s12 -> s3 [label="FINISHED / Alert(FATAL,INTERNAL_ERROR)"];
	s12 -> s3 [label="HELLO_REQUEST / TIMEOUT"];
	s12 -> s12 [label="APPLICATION / TIMEOUT"];
	s12 -> s3 [label="Alert(WARNING,CLOSE_NOTIFY) / TIMEOUT"];
	s12 -> s3 [label="Alert(FATAL,UNEXPECTED_MESSAGE) / TIMEOUT"];
	s13 -> s3 [label="HELLO_VERIFY_REQUEST / CLIENT_HELLO,Alert(FATAL,UNEXPECTED_MESSAGE)"];
	s13 -> s46 [label="PSK_SERVER_HELLO / PSK_CLIENT_KEY_EXCHANGE,CHANGE_CIPHER_SPEC,FINISHED"];
	s13 -> s3 [label="SERVER_HELLO_DONE / Alert(FATAL,UNEXPECTED_MESSAGE)"];
	s13 -> s3 [label="CHANGE_CIPHER_SPEC / TIMEOUT"];
	s13 -> s3 [label="FINISHED / Alert(FATAL,INTERNAL_ERROR)"];
	s13 -> s3 [label="HELLO_REQUEST / TIMEOUT"];
	s13 -> s13 [label="APPLICATION / TIMEOUT"];
	s13 -> s3 [label="Alert(WARNING,CLOSE_NOTIFY) / TIMEOUT"];
	s13 -> s3 [label="Alert(FATAL,UNEXPECTED_MESSAGE) / TIMEOUT"];
	s14 -> s37 [label="HELLO_VERIFY_REQUEST / CLIENT_HELLO"];
	s14 -> s15 [label="PSK_SERVER_HELLO / TIMEOUT"];
	s14 -> s3 [label="SERVER_HELLO_DONE / Alert(FATAL,UNEXPECTED_MESSAGE)"];
	s14 -> s3 [label="CHANGE_CIPHER_SPEC / TIMEOUT"];
	s14 -> s3 [label="FINISHED / Alert(FATAL,INTERNAL_ERROR)"];
	s14 -> s3 [label="HELLO_REQUEST / TIMEOUT"];
	s14 -> s14 [label="APPLICATION / TIMEOUT"];
	s14 -> s3 [label="Alert(WARNING,CLOSE_NOTIFY) / TIMEOUT"];
	s14 -> s3 [label="Alert(FATAL,UNEXPECTED_MESSAGE) / TIMEOUT"];
	s15 -> s37 [label="HELLO_VERIFY_REQUEST / CLIENT_HELLO"];
	s15 -> s3 [label="PSK_SERVER_HELLO / Alert(FATAL,UNEXPECTED_MESSAGE)"];
	s15 -> s16 [label="SERVER_HELLO_DONE / PSK_CLIENT_KEY_EXCHANGE,CHANGE_CIPHER_SPEC,FINISHED"];
	s15 -> s3 [label="CHANGE_CIPHER_SPEC / TIMEOUT"];
	s15 -> s3 [label="FINISHED / Alert(FATAL,INTERNAL_ERROR)"];
	s15 -> s3 [label="HELLO_REQUEST / TIMEOUT"];
	s15 -> s3 [label="APPLICATION / Alert(FATAL,UNEXPECTED_MESSAGE)"];
	s15 -> s3 [label="Alert(WARNING,CLOSE_NOTIFY) / TIMEOUT"];
	s15 -> s3 [label="Alert(FATAL,UNEXPECTED_MESSAGE) / TIMEOUT"];
	s16 -> s3 [label="HELLO_VERIFY_REQUEST / Alert(FATAL,UNEXPECTED_MESSAGE)"];
	s16 -> s3 [label="PSK_SERVER_HELLO / Alert(FATAL,UNEXPECTED_MESSAGE)"];
	s16 -> s3 [label="SERVER_HELLO_DONE / Alert(FATAL,UNEXPECTED_MESSAGE)"];
	s16 -> s17 [label="CHANGE_CIPHER_SPEC / TIMEOUT"];
	s16 -> s3 [label="FINISHED / Alert(FATAL,UNEXPECTED_MESSAGE)"];
	s16 -> s3 [label="HELLO_REQUEST / TIMEOUT"];
	s16 -> s3 [label="APPLICATION / Alert(FATAL,UNEXPECTED_MESSAGE)"];
	s16 -> s3 [label="Alert(WARNING,CLOSE_NOTIFY) / TIMEOUT"];
	s16 -> s3 [label="Alert(FATAL,UNEXPECTED_MESSAGE) / TIMEOUT"];
	s17 -> s3 [label="HELLO_VERIFY_REQUEST / Alert(FATAL,UNEXPECTED_MESSAGE)"];
	s17 -> s3 [label="PSK_SERVER_HELLO / Alert(FATAL,UNEXPECTED_MESSAGE)"];
	s17 -> s3 [label="SERVER_HELLO_DONE / Alert(FATAL,UNEXPECTED_MESSAGE)"];
	s17 -> s3 [label="CHANGE_CIPHER_SPEC / TIMEOUT"];
	s17 -> s3 [label="FINISHED / Alert(FATAL,DECRYPT_ERROR)"];
	s17 -> s3 [label="HELLO_REQUEST / TIMEOUT"];
	s17 -> s17 [label="APPLICATION / TIMEOUT"];
	s17 -> s17 [label="Alert(WARNING,CLOSE_NOTIFY) / TIMEOUT"];
	s17 -> s17 [label="Alert(FATAL,UNEXPECTED_MESSAGE) / TIMEOUT"];
	s18 -> s3 [label="HELLO_VERIFY_REQUEST / CLIENT_HELLO,Alert(FATAL,UNEXPECTED_MESSAGE)"];
	s18 -> s3 [label="PSK_SERVER_HELLO / Alert(FATAL,UNEXPECTED_MESSAGE)"];
	s18 -> s3 [label="SERVER_HELLO_DONE / PSK_CLIENT_KEY_EXCHANGE,CHANGE_CIPHER_SPEC,FINISHED,Alert(FATAL,UNEXPECTED_MESSAGE)"];
	s18 -> s3 [label="CHANGE_CIPHER_SPEC / TIMEOUT"];
	s18 -> s3 [label="FINISHED / Alert(FATAL,INTERNAL_ERROR)"];
	s18 -> s3 [label="HELLO_REQUEST / TIMEOUT"];
	s18 -> s3 [label="APPLICATION / Alert(FATAL,UNEXPECTED_MESSAGE)"];
	s18 -> s3 [label="Alert(WARNING,CLOSE_NOTIFY) / TIMEOUT"];
	s18 -> s3 [label="Alert(FATAL,UNEXPECTED_MESSAGE) / TIMEOUT"];
	s19 -> s20 [label="HELLO_VERIFY_REQUEST / TIMEOUT"];
	s19 -> s11 [label="PSK_SERVER_HELLO / TIMEOUT"];
	s19 -> s21 [label="SERVER_HELLO_DONE / TIMEOUT"];
	s19 -> s3 [label="CHANGE_CIPHER_SPEC / TIMEOUT"];
	s19 -> s19 [label="FINISHED / TIMEOUT"];
	s19 -> s35 [label="HELLO_REQUEST / CLIENT_HELLO"];
	s19 -> s3 [label="APPLICATION / Alert(FATAL,UNEXPECTED_MESSAGE)"];
	s19 -> s3 [label="Alert(WARNING,CLOSE_NOTIFY) / TIMEOUT"];
	s19 -> s3 [label="Alert(FATAL,UNEXPECTED_MESSAGE) / TIMEOUT"];
	s20 -> s20 [label="HELLO_VERIFY_REQUEST / TIMEOUT"];
	s20 -> s20 [label="PSK_SERVER_HELLO / TIMEOUT"];
	s20 -> s23 [label="SERVER_HELLO_DONE / TIMEOUT"];
	s20 -> s3 [label="CHANGE_CIPHER_SPEC / TIMEOUT"];
	s20 -> s20 [label="FINISHED / TIMEOUT"];
	s20 -> s22 [label="HELLO_REQUEST / CLIENT_HELLO"];
	s20 -> s3 [label="APPLICATION / Alert(FATAL,UNEXPECTED_MESSAGE)"];
	s20 -> s3 [label="Alert(WARNING,CLOSE_NOTIFY) / TIMEOUT"];
	s20 -> s3 [label="Alert(FATAL,UNEXPECTED_MESSAGE) / TIMEOUT"];
	s21 -> s26 [label="HELLO_VERIFY_REQUEST / TIMEOUT"];
	s21 -> s27 [label="PSK_SERVER_HELLO / TIMEOUT"];
	s21 -> s26 [label="SERVER_HELLO_DONE / TIMEOUT"];
	s21 -> s3 [label="CHANGE_CIPHER_SPEC / TIMEOUT"];
	s21 -> s21 [label="FINISHED / TIMEOUT"];
	s21 -> s24 [label="HELLO_REQUEST / CLIENT_HELLO"];
	s21 -> s3 [label="APPLICATION / Alert(FATAL,UNEXPECTED_MESSAGE)"];
	s21 -> s3 [label="Alert(WARNING,CLOSE_NOTIFY) / TIMEOUT"];
	s21 -> s3 [label="Alert(FATAL,UNEXPECTED_MESSAGE) / TIMEOUT"];
	s22 -> s0 [label="HELLO_VERIFY_REQUEST / CLIENT_HELLO"];
	s22 -> s0 [label="PSK_SERVER_HELLO / TIMEOUT"];
	s22 -> s3 [label="SERVER_HELLO_DONE / Alert(FATAL,UNEXPECTED_MESSAGE)"];
	s22 -> s3 [label="CHANGE_CIPHER_SPEC / TIMEOUT"];
	s22 -> s3 [label="FINISHED / Alert(FATAL,INTERNAL_ERROR)"];
	s22 -> s3 [label="HELLO_REQUEST / TIMEOUT"];
	s22 -> s22 [label="APPLICATION / TIMEOUT"];
	s22 -> s3 [label="Alert(WARNING,CLOSE_NOTIFY) / TIMEOUT"];
	s22 -> s3 [label="Alert(FATAL,UNEXPECTED_MESSAGE) / TIMEOUT"];
	s23 -> s23 [label="HELLO_VERIFY_REQUEST / TIMEOUT"];
	s23 -> s23 [label="PSK_SERVER_HELLO / TIMEOUT"];
	s23 -> s23 [label="SERVER_HELLO_DONE / TIMEOUT"];
	s23 -> s3 [label="CHANGE_CIPHER_SPEC / TIMEOUT"];
	s23 -> s23 [label="FINISHED / TIMEOUT"];
	s23 -> s25 [label="HELLO_REQUEST / CLIENT_HELLO"];
	s23 -> s3 [label="APPLICATION / Alert(FATAL,UNEXPECTED_MESSAGE)"];
	s23 -> s3 [label="Alert(WARNING,CLOSE_NOTIFY) / TIMEOUT"];
	s23 -> s3 [label="Alert(FATAL,UNEXPECTED_MESSAGE) / TIMEOUT"];
	s24 -> s28 [label="HELLO_VERIFY_REQUEST / CLIENT_HELLO"];
	s24 -> s30 [label="PSK_SERVER_HELLO / TIMEOUT"];
	s24 -> s3 [label="SERVER_HELLO_DONE / Alert(FATAL,UNEXPECTED_MESSAGE)"];
	s24 -> s3 [label="CHANGE_CIPHER_SPEC / TIMEOUT"];
	s24 -> s3 [label="FINISHED / Alert(FATAL,INTERNAL_ERROR)"];
	s24 -> s3 [label="HELLO_REQUEST / TIMEOUT"];
	s24 -> s24 [label="APPLICATION / TIMEOUT"];
	s24 -> s3 [label="Alert(WARNING,CLOSE_NOTIFY) / TIMEOUT"];
	s24 -> s3 [label="Alert(FATAL,UNEXPECTED_MESSAGE) / TIMEOUT"];
	s25 -> s32 [label="HELLO_VERIFY_REQUEST / CLIENT_HELLO"];
	s25 -> s36 [label="PSK_SERVER_HELLO / TIMEOUT"];
	s25 -> s3 [label="SERVER_HELLO_DONE / Alert(FATAL,UNEXPECTED_MESSAGE)"];
	s25 -> s3 [label="CHANGE_CIPHER_SPEC / TIMEOUT"];
	s25 -> s3 [label="FINISHED / Alert(FATAL,INTERNAL_ERROR)"];
	s25 -> s3 [label="HELLO_REQUEST / TIMEOUT"];
	s25 -> s25 [label="APPLICATION / TIMEOUT"];
	s25 -> s3 [label="Alert(WARNING,CLOSE_NOTIFY) / TIMEOUT"];
	s25 -> s3 [label="Alert(FATAL,UNEXPECTED_MESSAGE) / TIMEOUT"];
	s26 -> s26 [label="HELLO_VERIFY_REQUEST / TIMEOUT"];
	s26 -> s27 [label="PSK_SERVER_HELLO / TIMEOUT"];
	s26 -> s26 [label="SERVER_HELLO_DONE / TIMEOUT"];
	s26 -> s3 [label="CHANGE_CIPHER_SPEC / TIMEOUT"];
	s26 -> s26 [label="FINISHED / TIMEOUT"];
	s26 -> s31 [label="HELLO_REQUEST / CLIENT_HELLO"];
	s26 -> s3 [label="APPLICATION / Alert(FATAL,UNEXPECTED_MESSAGE)"];
	s26 -> s3 [label="Alert(WARNING,CLOSE_NOTIFY) / TIMEOUT"];
	s26 -> s3 [label="Alert(FATAL,UNEXPECTED_MESSAGE) / TIMEOUT"];
	s27 -> s27 [label="HELLO_VERIFY_REQUEST / TIMEOUT"];
	s27 -> s27 [label="PSK_SERVER_HELLO / TIMEOUT"];
	s27 -> s27 [label="SERVER_HELLO_DONE / TIMEOUT"];
	s27 -> s3 [label="CHANGE_CIPHER_SPEC / TIMEOUT"];
	s27 -> s27 [label="FINISHED / TIMEOUT"];
	s27 -> s29 [label="HELLO_REQUEST / CLIENT_HELLO"];
	s27 -> s3 [label="APPLICATION / Alert(FATAL,UNEXPECTED_MESSAGE)"];
	s27 -> s3 [label="Alert(WARNING,CLOSE_NOTIFY) / TIMEOUT"];
	s27 -> s3 [label="Alert(FATAL,UNEXPECTED_MESSAGE) / TIMEOUT"];
	s28 -> s6 [label="HELLO_VERIFY_REQUEST / CLIENT_HELLO,PSK_CLIENT_KEY_EXCHANGE,CHANGE_CIPHER_SPEC,FINISHED"];
	s28 -> s3 [label="PSK_SERVER_HELLO / Alert(FATAL,UNEXPECTED_MESSAGE)"];
	s28 -> s3 [label="SERVER_HELLO_DONE / Alert(FATAL,UNEXPECTED_MESSAGE)"];
	s28 -> s3 [label="CHANGE_CIPHER_SPEC / TIMEOUT"];
	s28 -> s3 [label="FINISHED / Alert(FATAL,INTERNAL_ERROR)"];
	s28 -> s3 [label="HELLO_REQUEST / TIMEOUT"];
	s28 -> s28 [label="APPLICATION / TIMEOUT"];
	s28 -> s3 [label="Alert(WARNING,CLOSE_NOTIFY) / TIMEOUT"];
	s28 -> s3 [label="Alert(FATAL,UNEXPECTED_MESSAGE) / TIMEOUT"];
	s29 -> s47 [label="HELLO_VERIFY_REQUEST / CLIENT_HELLO"];
	s29 -> s43 [label="PSK_SERVER_HELLO / TIMEOUT"];
	s29 -> s3 [label="SERVER_HELLO_DONE / Alert(FATAL,UNEXPECTED_MESSAGE)"];
	s29 -> s3 [label="CHANGE_CIPHER_SPEC / TIMEOUT"];
	s29 -> s3 [label="FINISHED / Alert(FATAL,INTERNAL_ERROR)"];
	s29 -> s3 [label="HELLO_REQUEST / TIMEOUT"];
	s29 -> s29 [label="APPLICATION / TIMEOUT"];
	s29 -> s3 [label="Alert(WARNING,CLOSE_NOTIFY) / TIMEOUT"];
	s29 -> s3 [label="Alert(FATAL,UNEXPECTED_MESSAGE) / TIMEOUT"];
	s30 -> s33 [label="HELLO_VERIFY_REQUEST / CLIENT_HELLO,PSK_CLIENT_KEY_EXCHANGE,CHANGE_CIPHER_SPEC,UNKNOWN_MESSAGE"];
	s30 -> s3 [label="PSK_SERVER_HELLO / Alert(FATAL,UNEXPECTED_MESSAGE)"];
	s30 -> s3 [label="SERVER_HELLO_DONE / PSK_CLIENT_KEY_EXCHANGE,CHANGE_CIPHER_SPEC,FINISHED,Alert(FATAL,UNEXPECTED_MESSAGE)"];
	s30 -> s3 [label="CHANGE_CIPHER_SPEC / TIMEOUT"];
	s30 -> s3 [label="FINISHED / Alert(FATAL,INTERNAL_ERROR)"];
	s30 -> s3 [label="HELLO_REQUEST / TIMEOUT"];
	s30 -> s3 [label="APPLICATION / Alert(FATAL,UNEXPECTED_MESSAGE)"];
	s30 -> s3 [label="Alert(WARNING,CLOSE_NOTIFY) / TIMEOUT"];
	s30 -> s3 [label="Alert(FATAL,UNEXPECTED_MESSAGE) / TIMEOUT"];
	s31 -> s34 [label="HELLO_VERIFY_REQUEST / CLIENT_HELLO"];
	s31 -> s43 [label="PSK_SERVER_HELLO / TIMEOUT"];
	s31 -> s3 [label="SERVER_HELLO_DONE / Alert(FATAL,UNEXPECTED_MESSAGE)"];
	s31 -> s3 [label="CHANGE_CIPHER_SPEC / TIMEOUT"];
	s31 -> s3 [label="FINISHED / Alert(FATAL,INTERNAL_ERROR)"];
	s31 -> s3 [label="HELLO_REQUEST / TIMEOUT"];
	s31 -> s31 [label="APPLICATION / TIMEOUT"];
	s31 -> s3 [label="Alert(WARNING,CLOSE_NOTIFY) / TIMEOUT"];
	s31 -> s3 [label="Alert(FATAL,UNEXPECTED_MESSAGE) / TIMEOUT"];
	s32 -> s3 [label="HELLO_VERIFY_REQUEST / CLIENT_HELLO+,Alert(FATAL,UNEXPECTED_MESSAGE)"];
	s32 -> s3 [label="PSK_SERVER_HELLO / CLIENT_HELLO,Alert(FATAL,UNEXPECTED_MESSAGE)"];
	s32 -> s3 [label="SERVER_HELLO_DONE / Alert(FATAL,UNEXPECTED_MESSAGE)"];
	s32 -> s3 [label="CHANGE_CIPHER_SPEC / TIMEOUT"];
	s32 -> s3 [label="FINISHED / Alert(FATAL,INTERNAL_ERROR)"];
	s32 -> s3 [label="HELLO_REQUEST / TIMEOUT"];
	s32 -> s32 [label="APPLICATION / TIMEOUT"];
	s32 -> s3 [label="Alert(WARNING,CLOSE_NOTIFY) / TIMEOUT"];
	s32 -> s3 [label="Alert(FATAL,UNEXPECTED_MESSAGE) / TIMEOUT"];
	s33 -> s39 [label="HELLO_VERIFY_REQUEST / TIMEOUT"];
	s33 -> s39 [label="PSK_SERVER_HELLO / TIMEOUT"];
	s33 -> s39 [label="SERVER_HELLO_DONE / TIMEOUT"];
	s33 -> s3 [label="CHANGE_CIPHER_SPEC / TIMEOUT"];
	s33 -> s39 [label="FINISHED / TIMEOUT"];
	s33 -> s3 [label="HELLO_REQUEST / TIMEOUT"];
	s33 -> s3 [label="APPLICATION / UNKNOWN_MESSAGE"];
	s33 -> s3 [label="Alert(WARNING,CLOSE_NOTIFY) / TIMEOUT"];
	s33 -> s3 [label="Alert(FATAL,UNEXPECTED_MESSAGE) / TIMEOUT"];
	s34 -> s3 [label="HELLO_VERIFY_REQUEST / CLIENT_HELLO,PSK_CLIENT_KEY_EXCHANGE,CHANGE_CIPHER_SPEC,FINISHED,Alert(FATAL,UNEXPECTED_MESSAGE)"];
	s34 -> s3 [label="PSK_SERVER_HELLO / Alert(FATAL,UNEXPECTED_MESSAGE)"];
	s34 -> s3 [label="SERVER_HELLO_DONE / Alert(FATAL,UNEXPECTED_MESSAGE)"];
	s34 -> s3 [label="CHANGE_CIPHER_SPEC / TIMEOUT"];
	s34 -> s3 [label="FINISHED / Alert(FATAL,INTERNAL_ERROR)"];
	s34 -> s3 [label="HELLO_REQUEST / TIMEOUT"];
	s34 -> s34 [label="APPLICATION / TIMEOUT"];
	s34 -> s3 [label="Alert(WARNING,CLOSE_NOTIFY) / TIMEOUT"];
	s34 -> s3 [label="Alert(FATAL,UNEXPECTED_MESSAGE) / TIMEOUT"];
	s35 -> s42 [label="HELLO_VERIFY_REQUEST / CLIENT_HELLO"];
	s35 -> s41 [label="PSK_SERVER_HELLO / TIMEOUT"];
	s35 -> s3 [label="SERVER_HELLO_DONE / Alert(FATAL,UNEXPECTED_MESSAGE)"];
	s35 -> s3 [label="CHANGE_CIPHER_SPEC / TIMEOUT"];
	s35 -> s3 [label="FINISHED / Alert(FATAL,INTERNAL_ERROR)"];
	s35 -> s3 [label="HELLO_REQUEST / TIMEOUT"];
	s35 -> s35 [label="APPLICATION / TIMEOUT"];
	s35 -> s3 [label="Alert(WARNING,CLOSE_NOTIFY) / TIMEOUT"];
	s35 -> s3 [label="Alert(FATAL,UNEXPECTED_MESSAGE) / TIMEOUT"];
	s36 -> s3 [label="HELLO_VERIFY_REQUEST / CLIENT_HELLO+,Alert(FATAL,UNEXPECTED_MESSAGE)"];
	s36 -> s3 [label="PSK_SERVER_HELLO / Alert(FATAL,UNEXPECTED_MESSAGE)"];
	s36 -> s3 [label="SERVER_HELLO_DONE / PSK_CLIENT_KEY_EXCHANGE,CHANGE_CIPHER_SPEC,FINISHED,Alert(FATAL,UNEXPECTED_MESSAGE)"];
	s36 -> s3 [label="CHANGE_CIPHER_SPEC / TIMEOUT"];
	s36 -> s3 [label="FINISHED / Alert(FATAL,INTERNAL_ERROR)"];
	s36 -> s3 [label="HELLO_REQUEST / TIMEOUT"];
	s36 -> s3 [label="APPLICATION / Alert(FATAL,UNEXPECTED_MESSAGE)"];
	s36 -> s3 [label="Alert(WARNING,CLOSE_NOTIFY) / TIMEOUT"];
	s36 -> s3 [label="Alert(FATAL,UNEXPECTED_MESSAGE) / TIMEOUT"];
	s37 -> s37 [label="HELLO_VERIFY_REQUEST / CLIENT_HELLO"];
	s37 -> s38 [label="PSK_SERVER_HELLO / TIMEOUT"];
	s37 -> s3 [label="SERVER_HELLO_DONE / Alert(FATAL,UNEXPECTED_MESSAGE)"];
	s37 -> s3 [label="CHANGE_CIPHER_SPEC / TIMEOUT"];
	s37 -> s3 [label="FINISHED / Alert(FATAL,INTERNAL_ERROR)"];
	s37 -> s3 [label="HELLO_REQUEST / TIMEOUT"];
	s37 -> s37 [label="APPLICATION / TIMEOUT"];
	s37 -> s3 [label="Alert(WARNING,CLOSE_NOTIFY) / TIMEOUT"];
	s37 -> s3 [label="Alert(FATAL,UNEXPECTED_MESSAGE) / TIMEOUT"];
	s38 -> s37 [label="HELLO_VERIFY_REQUEST / CLIENT_HELLO"];
	s38 -> s3 [label="PSK_SERVER_HELLO / Alert(FATAL,UNEXPECTED_MESSAGE)"];
	s38 -> s2 [label="SERVER_HELLO_DONE / PSK_CLIENT_KEY_EXCHANGE,CHANGE_CIPHER_SPEC,FINISHED"];
	s38 -> s3 [label="CHANGE_CIPHER_SPEC / TIMEOUT"];
	s38 -> s3 [label="FINISHED / Alert(FATAL,INTERNAL_ERROR)"];
	s38 -> s3 [label="HELLO_REQUEST / TIMEOUT"];
	s38 -> s3 [label="APPLICATION / Alert(FATAL,UNEXPECTED_MESSAGE)"];
	s38 -> s3 [label="Alert(WARNING,CLOSE_NOTIFY) / TIMEOUT"];
	s38 -> s3 [label="Alert(FATAL,UNEXPECTED_MESSAGE) / TIMEOUT"];
	s39 -> s40 [label="HELLO_VERIFY_REQUEST / TIMEOUT"];
	s39 -> s40 [label="PSK_SERVER_HELLO / TIMEOUT"];
	s39 -> s40 [label="SERVER_HELLO_DONE / TIMEOUT"];
	s39 -> s3 [label="CHANGE_CIPHER_SPEC / TIMEOUT"];
	s39 -> s40 [label="FINISHED / TIMEOUT"];
	s39 -> s3 [label="HELLO_REQUEST / TIMEOUT"];
	s39 -> s3 [label="APPLICATION / UNKNOWN_MESSAGE"];
	s39 -> s3 [label="Alert(WARNING,CLOSE_NOTIFY) / TIMEOUT"];
	s39 -> s3 [label="Alert(FATAL,UNEXPECTED_MESSAGE) / TIMEOUT"];
	s40 -> s3 [label="HELLO_VERIFY_REQUEST / UNKNOWN_MESSAGE"];
	s40 -> s3 [label="PSK_SERVER_HELLO / UNKNOWN_MESSAGE"];
	s40 -> s3 [label="SERVER_HELLO_DONE / UNKNOWN_MESSAGE"];
	s40 -> s3 [label="CHANGE_CIPHER_SPEC / TIMEOUT"];
	s40 -> s3 [label="FINISHED / UNKNOWN_MESSAGE"];
	s40 -> s3 [label="HELLO_REQUEST / TIMEOUT"];
	s40 -> s3 [label="APPLICATION / UNKNOWN_MESSAGE"];
	s40 -> s3 [label="Alert(WARNING,CLOSE_NOTIFY) / TIMEOUT"];
	s40 -> s3 [label="Alert(FATAL,UNEXPECTED_MESSAGE) / TIMEOUT"];
	s41 -> s44 [label="HELLO_VERIFY_REQUEST / CLIENT_HELLO"];
	s41 -> s3 [label="PSK_SERVER_HELLO / Alert(FATAL,UNEXPECTED_MESSAGE)"];
	s41 -> s3 [label="SERVER_HELLO_DONE / PSK_CLIENT_KEY_EXCHANGE,CHANGE_CIPHER_SPEC,FINISHED,Alert(FATAL,UNEXPECTED_MESSAGE)"];
	s41 -> s3 [label="CHANGE_CIPHER_SPEC / TIMEOUT"];
	s41 -> s3 [label="FINISHED / Alert(FATAL,INTERNAL_ERROR)"];
	s41 -> s3 [label="HELLO_REQUEST / TIMEOUT"];
	s41 -> s3 [label="APPLICATION / Alert(FATAL,UNEXPECTED_MESSAGE)"];
	s41 -> s3 [label="Alert(WARNING,CLOSE_NOTIFY) / TIMEOUT"];
	s41 -> s3 [label="Alert(FATAL,UNEXPECTED_MESSAGE) / TIMEOUT"];
	s42 -> s44 [label="HELLO_VERIFY_REQUEST / CLIENT_HELLO"];
	s42 -> s3 [label="PSK_SERVER_HELLO / Alert(FATAL,UNEXPECTED_MESSAGE)"];
	s42 -> s3 [label="SERVER_HELLO_DONE / Alert(FATAL,UNEXPECTED_MESSAGE)"];
	s42 -> s3 [label="CHANGE_CIPHER_SPEC / TIMEOUT"];
	s42 -> s3 [label="FINISHED / Alert(FATAL,INTERNAL_ERROR)"];
	s42 -> s3 [label="HELLO_REQUEST / TIMEOUT"];
	s42 -> s42 [label="APPLICATION / TIMEOUT"];
	s42 -> s3 [label="Alert(WARNING,CLOSE_NOTIFY) / TIMEOUT"];
	s42 -> s3 [label="Alert(FATAL,UNEXPECTED_MESSAGE) / TIMEOUT"];
	s43 -> s3 [label="HELLO_VERIFY_REQUEST / TIMEOUT"];
	s43 -> s3 [label="PSK_SERVER_HELLO / Alert(FATAL,UNEXPECTED_MESSAGE)"];
	s43 -> s3 [label="SERVER_HELLO_DONE / PSK_CLIENT_KEY_EXCHANGE,CHANGE_CIPHER_SPEC,FINISHED,Alert(FATAL,UNEXPECTED_MESSAGE)"];
	s43 -> s3 [label="CHANGE_CIPHER_SPEC / TIMEOUT"];
	s43 -> s3 [label="FINISHED / Alert(FATAL,INTERNAL_ERROR)"];
	s43 -> s3 [label="HELLO_REQUEST / TIMEOUT"];
	s43 -> s3 [label="APPLICATION / Alert(FATAL,UNEXPECTED_MESSAGE)"];
	s43 -> s3 [label="Alert(WARNING,CLOSE_NOTIFY) / TIMEOUT"];
	s43 -> s3 [label="Alert(FATAL,UNEXPECTED_MESSAGE) / TIMEOUT"];
	s44 -> s15 [label="HELLO_VERIFY_REQUEST / TIMEOUT"];
	s44 -> s45 [label="PSK_SERVER_HELLO / TIMEOUT"];
	s44 -> s15 [label="SERVER_HELLO_DONE / TIMEOUT"];
	s44 -> s3 [label="CHANGE_CIPHER_SPEC / TIMEOUT"];
	s44 -> s15 [label="FINISHED / TIMEOUT"];
	s44 -> s3 [label="HELLO_REQUEST / TIMEOUT"];
	s44 -> s3 [label="APPLICATION / Alert(FATAL,UNEXPECTED_MESSAGE)"];
	s44 -> s3 [label="Alert(WARNING,CLOSE_NOTIFY) / TIMEOUT"];
	s44 -> s3 [label="Alert(FATAL,UNEXPECTED_MESSAGE) / TIMEOUT"];
	s45 -> s37 [label="HELLO_VERIFY_REQUEST / CLIENT_HELLO"];
	s45 -> s3 [label="PSK_SERVER_HELLO / Alert(FATAL,UNEXPECTED_MESSAGE)"];
	s45 -> s40 [label="SERVER_HELLO_DONE / PSK_CLIENT_KEY_EXCHANGE,CHANGE_CIPHER_SPEC,UNKNOWN_MESSAGE"];
	s45 -> s3 [label="CHANGE_CIPHER_SPEC / TIMEOUT"];
	s45 -> s3 [label="FINISHED / Alert(FATAL,INTERNAL_ERROR)"];
	s45 -> s3 [label="HELLO_REQUEST / TIMEOUT"];
	s45 -> s3 [label="APPLICATION / Alert(FATAL,UNEXPECTED_MESSAGE)"];
	s45 -> s3 [label="Alert(WARNING,CLOSE_NOTIFY) / TIMEOUT"];
	s45 -> s3 [label="Alert(FATAL,UNEXPECTED_MESSAGE) / TIMEOUT"];
	s46 -> s16 [label="HELLO_VERIFY_REQUEST / TIMEOUT"];
	s46 -> s2 [label="PSK_SERVER_HELLO / TIMEOUT"];
	s46 -> s16 [label="SERVER_HELLO_DONE / TIMEOUT"];
	s46 -> s48 [label="CHANGE_CIPHER_SPEC / TIMEOUT"];
	s46 -> s16 [label="FINISHED / TIMEOUT"];
	s46 -> s3 [label="HELLO_REQUEST / TIMEOUT"];
	s46 -> s3 [label="APPLICATION / Alert(FATAL,UNEXPECTED_MESSAGE)"];
	s46 -> s3 [label="Alert(WARNING,CLOSE_NOTIFY) / TIMEOUT"];
	s46 -> s3 [label="Alert(FATAL,UNEXPECTED_MESSAGE) / TIMEOUT"];
	s47 -> s3 [label="HELLO_VERIFY_REQUEST / TIMEOUT"];
	s47 -> s3 [label="PSK_SERVER_HELLO / Alert(FATAL,UNEXPECTED_MESSAGE)"];
	s47 -> s3 [label="SERVER_HELLO_DONE / Alert(FATAL,UNEXPECTED_MESSAGE)"];
	s47 -> s3 [label="CHANGE_CIPHER_SPEC / TIMEOUT"];
	s47 -> s3 [label="FINISHED / Alert(FATAL,INTERNAL_ERROR)"];
	s47 -> s3 [label="HELLO_REQUEST / TIMEOUT"];
	s47 -> s47 [label="APPLICATION / TIMEOUT"];
	s47 -> s3 [label="Alert(WARNING,CLOSE_NOTIFY) / TIMEOUT"];
	s47 -> s3 [label="Alert(FATAL,UNEXPECTED_MESSAGE) / TIMEOUT"];
	s48 -> s17 [label="HELLO_VERIFY_REQUEST / TIMEOUT"];
	s48 -> s17 [label="PSK_SERVER_HELLO / TIMEOUT"];
	s48 -> s17 [label="SERVER_HELLO_DONE / TIMEOUT"];
	s48 -> s3 [label="CHANGE_CIPHER_SPEC / TIMEOUT"];
	s48 -> s17 [label="FINISHED / TIMEOUT"];
	s48 -> s3 [label="HELLO_REQUEST / TIMEOUT"];
	s48 -> s48 [label="APPLICATION / TIMEOUT"];
	s48 -> s48 [label="Alert(WARNING,CLOSE_NOTIFY) / TIMEOUT"];
	s48 -> s48 [label="Alert(FATAL,UNEXPECTED_MESSAGE) / TIMEOUT"];

__start0 [label="" shape="none" width="0" height="0"];
__start0 -> s0;

}
