digraph g {

	s0 [shape="circle" label="s0"];
	s1 [shape="circle" label="s1"];
	s2 [shape="circle" label="s2"];
	s3 [shape="circle" label="s3"];
	s4 [shape="circle" label="s4"];
	s5 [shape="circle" label="s5"];
	s6 [shape="circle" label="s6"];
	s7 [shape="circle" label="s7"];
	s8 [shape="circle" label="s8"];
	s9 [shape="circle" label="s9"];
	s10 [shape="circle" label="s10"];
	s11 [shape="circle" label="s11"];
	s12 [shape="circle" label="s12"];
	s13 [shape="circle" label="s13"];
	s14 [shape="circle" label="s14"];
	s15 [shape="circle" label="s15"];
	s16 [shape="circle" label="s16"];
	s17 [shape="circle" label="s17"];
	s18 [shape="circle" label="s18"];
	s19 [shape="circle" label="s19"];
	s20 [shape="circle" label="s20"];
	s21 [shape="circle" label="s21"];
	s22 [shape="circle" label="s22"];
	s23 [shape="circle" label="s23"];
	s24 [shape="circle" label="s24"];
	s25 [shape="circle" label="s25"];
	s26 [shape="circle" label="s26"];
	s27 [shape="circle" label="s27"];
	s28 [shape="circle" label="s28"];
	s29 [shape="circle" label="s29"];
	s30 [shape="circle" label="s30"];
	s31 [shape="circle" label="s31"];
	s32 [shape="circle" label="s32"];
	s33 [shape="circle" label="s33"];
	s34 [shape="circle" label="s34"];
	s35 [shape="circle" label="s35"];
	s36 [shape="circle" label="s36"];
	s37 [shape="circle" label="s37"];
	s38 [shape="circle" label="s38"];
	s39 [shape="circle" label="s39"];
	s40 [shape="circle" label="s40"];
	s41 [shape="circle" label="s41"];
	s42 [shape="circle" label="s42"];
	s43 [shape="circle" label="s43"];
	s44 [shape="circle" label="s44"];
	s45 [shape="circle" label="s45"];
	s46 [shape="circle" label="s46"];
	s47 [shape="circle" label="s47"];
	s48 [shape="circle" label="s48"];
	s49 [shape="circle" label="s49"];
	s50 [shape="circle" label="s50"];
	s51 [shape="circle" label="s51"];
	s52 [shape="circle" label="s52"];
	s53 [shape="circle" label="s53"];
	s54 [shape="circle" label="s54"];
	s55 [shape="circle" label="s55"];
	s56 [shape="circle" label="s56"];
	s57 [shape="circle" label="s57"];
	s58 [shape="circle" label="s58"];
	s59 [shape="circle" label="s59"];
	s60 [shape="circle" label="s60"];
	s61 [shape="circle" label="s61"];
	s62 [shape="circle" label="s62"];
	s63 [shape="circle" label="s63"];
	s64 [shape="circle" label="s64"];
	s65 [shape="circle" label="s65"];
	s66 [shape="circle" label="s66"];
	s67 [shape="circle" label="s67"];
	s68 [shape="circle" label="s68"];
	s69 [shape="circle" label="s69"];
	s70 [shape="circle" label="s70"];
	s71 [shape="circle" label="s71"];
	s72 [shape="circle" label="s72"];
	s73 [shape="circle" label="s73"];
	s74 [shape="circle" label="s74"];
	s75 [shape="circle" label="s75"];
	s76 [shape="circle" label="s76"];
	s77 [shape="circle" label="s77"];
	s78 [shape="circle" label="s78"];
	s79 [shape="circle" label="s79"];
	s80 [shape="circle" label="s80"];
	s81 [shape="circle" label="s81"];
	s0 -> s4 [label="HELLO_VERIFY_REQUEST / CLIENT_HELLO+"];
	s0 -> s1 [label="PSK_SERVER_HELLO / CLIENT_HELLO"];
	s0 -> s3 [label="PSK_SERVER_HELLO_EPOCH_1 / CLIENT_HELLO"];
	s0 -> s3 [label="SERVER_HELLO_DONE / CLIENT_HELLO,Alert(FATAL,DECODE_ERROR)"];
	s0 -> s7 [label="CHANGE_CIPHER_SPEC / CLIENT_HELLO"];
	s0 -> s3 [label="FINISHED / CLIENT_HELLO,Alert(FATAL,DECODE_ERROR)"];
	s0 -> s3 [label="FINISHED_EPOCH_0 / CLIENT_HELLO,Alert(FATAL,DECODE_ERROR)"];
	s0 -> s4 [label="APPLICATION_EPOCH_0 / CLIENT_HELLO"];
	s0 -> s4 [label="APPLICATION / CLIENT_HELLO"];
	s0 -> s3 [label="Alert(WARNING,CLOSE_NOTIFY) / CLIENT_HELLO"];
	s0 -> s3 [label="Alert(FATAL,UNEXPECTED_MESSAGE) / CLIENT_HELLO"];
	s1 -> s3 [label="HELLO_VERIFY_REQUEST / Alert(FATAL,DECODE_ERROR)"];
	s1 -> s3 [label="PSK_SERVER_HELLO / Alert(FATAL,DECODE_ERROR)"];
	s1 -> s3 [label="PSK_SERVER_HELLO_EPOCH_1 / TIMEOUT"];
	s1 -> s2 [label="SERVER_HELLO_DONE / PSK_CLIENT_KEY_EXCHANGE,CHANGE_CIPHER_SPEC,FINISHED"];
	s1 -> s7 [label="CHANGE_CIPHER_SPEC / TIMEOUT"];
	s1 -> s3 [label="FINISHED / Alert(FATAL,DECODE_ERROR)"];
	s1 -> s3 [label="FINISHED_EPOCH_0 / Alert(FATAL,DECODE_ERROR)"];
	s1 -> s1 [label="APPLICATION_EPOCH_0 / TIMEOUT"];
	s1 -> s1 [label="APPLICATION / TIMEOUT"];
	s1 -> s3 [label="Alert(WARNING,CLOSE_NOTIFY) / TIMEOUT"];
	s1 -> s3 [label="Alert(FATAL,UNEXPECTED_MESSAGE) / TIMEOUT"];
	s2 -> s3 [label="HELLO_VERIFY_REQUEST / Alert(FATAL,UNEXPECTED_MESSAGE)"];
	s2 -> s3 [label="PSK_SERVER_HELLO / Alert(FATAL,UNEXPECTED_MESSAGE)"];
	s2 -> s70 [label="PSK_SERVER_HELLO_EPOCH_1 / TIMEOUT"];
	s2 -> s3 [label="SERVER_HELLO_DONE / Alert(FATAL,UNEXPECTED_MESSAGE)"];
	s2 -> s5 [label="CHANGE_CIPHER_SPEC / TIMEOUT"];
	s2 -> s3 [label="FINISHED / Alert(FATAL,UNEXPECTED_MESSAGE)"];
	s2 -> s3 [label="FINISHED_EPOCH_0 / Alert(FATAL,UNEXPECTED_MESSAGE)"];
	s2 -> s2 [label="APPLICATION_EPOCH_0 / TIMEOUT"];
	s2 -> s2 [label="APPLICATION / TIMEOUT"];
	s2 -> s3 [label="Alert(WARNING,CLOSE_NOTIFY) / TIMEOUT"];
	s2 -> s3 [label="Alert(FATAL,UNEXPECTED_MESSAGE) / TIMEOUT"];
	s3 -> s3 [label="HELLO_VERIFY_REQUEST / TIMEOUT"];
	s3 -> s3 [label="PSK_SERVER_HELLO / TIMEOUT"];
	s3 -> s3 [label="PSK_SERVER_HELLO_EPOCH_1 / TIMEOUT"];
	s3 -> s3 [label="SERVER_HELLO_DONE / TIMEOUT"];
	s3 -> s3 [label="CHANGE_CIPHER_SPEC / TIMEOUT"];
	s3 -> s3 [label="FINISHED / TIMEOUT"];
	s3 -> s3 [label="FINISHED_EPOCH_0 / TIMEOUT"];
	s3 -> s3 [label="APPLICATION_EPOCH_0 / TIMEOUT"];
	s3 -> s3 [label="APPLICATION / TIMEOUT"];
	s3 -> s3 [label="Alert(WARNING,CLOSE_NOTIFY) / TIMEOUT"];
	s3 -> s3 [label="Alert(FATAL,UNEXPECTED_MESSAGE) / TIMEOUT"];
	s4 -> s4 [label="HELLO_VERIFY_REQUEST / CLIENT_HELLO"];
	s4 -> s8 [label="PSK_SERVER_HELLO / TIMEOUT"];
	s4 -> s3 [label="PSK_SERVER_HELLO_EPOCH_1 / TIMEOUT"];
	s4 -> s3 [label="SERVER_HELLO_DONE / Alert(FATAL,DECODE_ERROR)"];
	s4 -> s7 [label="CHANGE_CIPHER_SPEC / TIMEOUT"];
	s4 -> s3 [label="FINISHED / Alert(FATAL,DECODE_ERROR)"];
	s4 -> s3 [label="FINISHED_EPOCH_0 / Alert(FATAL,DECODE_ERROR)"];
	s4 -> s4 [label="APPLICATION_EPOCH_0 / TIMEOUT"];
	s4 -> s4 [label="APPLICATION / TIMEOUT"];
	s4 -> s3 [label="Alert(WARNING,CLOSE_NOTIFY) / TIMEOUT"];
	s4 -> s3 [label="Alert(FATAL,UNEXPECTED_MESSAGE) / TIMEOUT"];
	s5 -> s3 [label="HELLO_VERIFY_REQUEST / Alert(FATAL,DECODE_ERROR)"];
	s5 -> s3 [label="PSK_SERVER_HELLO / Alert(FATAL,DECODE_ERROR)"];
	s5 -> s3 [label="PSK_SERVER_HELLO_EPOCH_1 / Alert(FATAL,DECODE_ERROR)"];
	s5 -> s3 [label="SERVER_HELLO_DONE / Alert(FATAL,DECODE_ERROR)"];
	s5 -> s11 [label="CHANGE_CIPHER_SPEC / TIMEOUT"];
	s5 -> s6 [label="FINISHED / APPLICATION"];
	s5 -> s19 [label="FINISHED_EPOCH_0 / TIMEOUT"];
	s5 -> s5 [label="APPLICATION_EPOCH_0 / TIMEOUT"];
	s5 -> s5 [label="APPLICATION / TIMEOUT"];
	s5 -> s3 [label="Alert(WARNING,CLOSE_NOTIFY) / TIMEOUT"];
	s5 -> s3 [label="Alert(FATAL,UNEXPECTED_MESSAGE) / TIMEOUT"];
	s6 -> s6 [label="HELLO_VERIFY_REQUEST / TIMEOUT"];
	s6 -> s22 [label="PSK_SERVER_HELLO / TIMEOUT"];
	s6 -> s22 [label="PSK_SERVER_HELLO_EPOCH_1 / TIMEOUT"];
	s6 -> s6 [label="SERVER_HELLO_DONE / TIMEOUT"];
	s6 -> s3 [label="CHANGE_CIPHER_SPEC / TIMEOUT"];
	s6 -> s6 [label="FINISHED / TIMEOUT"];
	s6 -> s6 [label="FINISHED_EPOCH_0 / TIMEOUT"];
	s6 -> s6 [label="APPLICATION_EPOCH_0 / TIMEOUT"];
	s6 -> s6 [label="APPLICATION / APPLICATION"];
	s6 -> s3 [label="Alert(WARNING,CLOSE_NOTIFY) / Alert(WARNING,CLOSE_NOTIFY)"];
	s6 -> s3 [label="Alert(FATAL,UNEXPECTED_MESSAGE) / TIMEOUT"];
	s7 -> s3 [label="HELLO_VERIFY_REQUEST / TIMEOUT"];
	s7 -> s3 [label="PSK_SERVER_HELLO / TIMEOUT"];
	s7 -> s3 [label="PSK_SERVER_HELLO_EPOCH_1 / TIMEOUT"];
	s7 -> s3 [label="SERVER_HELLO_DONE / TIMEOUT"];
	s7 -> s3 [label="CHANGE_CIPHER_SPEC / TIMEOUT"];
	s7 -> s3 [label="FINISHED / TIMEOUT"];
	s7 -> s3 [label="FINISHED_EPOCH_0 / Alert(FATAL,DECODE_ERROR)"];
	s7 -> s7 [label="APPLICATION_EPOCH_0 / TIMEOUT"];
	s7 -> s7 [label="APPLICATION / TIMEOUT"];
	s7 -> s7 [label="Alert(WARNING,CLOSE_NOTIFY) / TIMEOUT"];
	s7 -> s7 [label="Alert(FATAL,UNEXPECTED_MESSAGE) / TIMEOUT"];
	s8 -> s3 [label="HELLO_VERIFY_REQUEST / Alert(FATAL,DECODE_ERROR)"];
	s8 -> s3 [label="PSK_SERVER_HELLO / Alert(FATAL,DECODE_ERROR)"];
	s8 -> s3 [label="PSK_SERVER_HELLO_EPOCH_1 / TIMEOUT"];
	s8 -> s9 [label="SERVER_HELLO_DONE / PSK_CLIENT_KEY_EXCHANGE,CHANGE_CIPHER_SPEC,FINISHED"];
	s8 -> s7 [label="CHANGE_CIPHER_SPEC / TIMEOUT"];
	s8 -> s3 [label="FINISHED / Alert(FATAL,DECODE_ERROR)"];
	s8 -> s3 [label="FINISHED_EPOCH_0 / Alert(FATAL,DECODE_ERROR)"];
	s8 -> s8 [label="APPLICATION_EPOCH_0 / TIMEOUT"];
	s8 -> s8 [label="APPLICATION / TIMEOUT"];
	s8 -> s3 [label="Alert(WARNING,CLOSE_NOTIFY) / TIMEOUT"];
	s8 -> s3 [label="Alert(FATAL,UNEXPECTED_MESSAGE) / TIMEOUT"];
	s9 -> s3 [label="HELLO_VERIFY_REQUEST / Alert(FATAL,UNEXPECTED_MESSAGE)"];
	s9 -> s3 [label="PSK_SERVER_HELLO / Alert(FATAL,UNEXPECTED_MESSAGE)"];
	s9 -> s70 [label="PSK_SERVER_HELLO_EPOCH_1 / TIMEOUT"];
	s9 -> s3 [label="SERVER_HELLO_DONE / Alert(FATAL,UNEXPECTED_MESSAGE)"];
	s9 -> s10 [label="CHANGE_CIPHER_SPEC / TIMEOUT"];
	s9 -> s3 [label="FINISHED / Alert(FATAL,UNEXPECTED_MESSAGE)"];
	s9 -> s3 [label="FINISHED_EPOCH_0 / Alert(FATAL,UNEXPECTED_MESSAGE)"];
	s9 -> s9 [label="APPLICATION_EPOCH_0 / TIMEOUT"];
	s9 -> s9 [label="APPLICATION / TIMEOUT"];
	s9 -> s3 [label="Alert(WARNING,CLOSE_NOTIFY) / TIMEOUT"];
	s9 -> s3 [label="Alert(FATAL,UNEXPECTED_MESSAGE) / TIMEOUT"];
	s10 -> s3 [label="HELLO_VERIFY_REQUEST / Alert(FATAL,DECODE_ERROR)"];
	s10 -> s3 [label="PSK_SERVER_HELLO / Alert(FATAL,DECODE_ERROR)"];
	s10 -> s3 [label="PSK_SERVER_HELLO_EPOCH_1 / Alert(FATAL,DECODE_ERROR)"];
	s10 -> s3 [label="SERVER_HELLO_DONE / Alert(FATAL,DECODE_ERROR)"];
	s10 -> s11 [label="CHANGE_CIPHER_SPEC / TIMEOUT"];
	s10 -> s3 [label="FINISHED / Alert(FATAL,DECODE_ERROR)"];
	s10 -> s19 [label="FINISHED_EPOCH_0 / TIMEOUT"];
	s10 -> s10 [label="APPLICATION_EPOCH_0 / TIMEOUT"];
	s10 -> s10 [label="APPLICATION / TIMEOUT"];
	s10 -> s3 [label="Alert(WARNING,CLOSE_NOTIFY) / TIMEOUT"];
	s10 -> s3 [label="Alert(FATAL,UNEXPECTED_MESSAGE) / TIMEOUT"];
	s11 -> s16 [label="HELLO_VERIFY_REQUEST / TIMEOUT"];
	s11 -> s12 [label="PSK_SERVER_HELLO / TIMEOUT"];
	s11 -> s12 [label="PSK_SERVER_HELLO_EPOCH_1 / TIMEOUT"];
	s11 -> s16 [label="SERVER_HELLO_DONE / TIMEOUT"];
	s11 -> s11 [label="CHANGE_CIPHER_SPEC / TIMEOUT"];
	s11 -> s16 [label="FINISHED / TIMEOUT"];
	s11 -> s43 [label="FINISHED_EPOCH_0 / TIMEOUT"];
	s11 -> s11 [label="APPLICATION_EPOCH_0 / TIMEOUT"];
	s11 -> s14 [label="APPLICATION / TIMEOUT"];
	s11 -> s14 [label="Alert(WARNING,CLOSE_NOTIFY) / TIMEOUT"];
	s11 -> s14 [label="Alert(FATAL,UNEXPECTED_MESSAGE) / TIMEOUT"];
	s12 -> s25 [label="HELLO_VERIFY_REQUEST / TIMEOUT"];
	s12 -> s25 [label="PSK_SERVER_HELLO / TIMEOUT"];
	s12 -> s44 [label="PSK_SERVER_HELLO_EPOCH_1 / TIMEOUT"];
	s12 -> s25 [label="SERVER_HELLO_DONE / TIMEOUT"];
	s12 -> s17 [label="CHANGE_CIPHER_SPEC / TIMEOUT"];
	s12 -> s25 [label="FINISHED / TIMEOUT"];
	s12 -> s13 [label="FINISHED_EPOCH_0 / TIMEOUT"];
	s12 -> s13 [label="APPLICATION_EPOCH_0 / TIMEOUT"];
	s12 -> s25 [label="APPLICATION / TIMEOUT"];
	s12 -> s25 [label="Alert(WARNING,CLOSE_NOTIFY) / TIMEOUT"];
	s12 -> s25 [label="Alert(FATAL,UNEXPECTED_MESSAGE) / TIMEOUT"];
	s13 -> s13 [label="HELLO_VERIFY_REQUEST / TIMEOUT"];
	s13 -> s13 [label="PSK_SERVER_HELLO / TIMEOUT"];
	s13 -> s3 [label="PSK_SERVER_HELLO_EPOCH_1 / UNKNOWN_MESSAGE"];
	s13 -> s13 [label="SERVER_HELLO_DONE / TIMEOUT"];
	s13 -> s15 [label="CHANGE_CIPHER_SPEC / TIMEOUT"];
	s13 -> s13 [label="FINISHED / TIMEOUT"];
	s13 -> s13 [label="FINISHED_EPOCH_0 / TIMEOUT"];
	s13 -> s13 [label="APPLICATION_EPOCH_0 / TIMEOUT"];
	s13 -> s13 [label="APPLICATION / TIMEOUT"];
	s13 -> s13 [label="Alert(WARNING,CLOSE_NOTIFY) / TIMEOUT"];
	s13 -> s13 [label="Alert(FATAL,UNEXPECTED_MESSAGE) / TIMEOUT"];
	s14 -> s43 [label="HELLO_VERIFY_REQUEST / TIMEOUT"];
	s14 -> s25 [label="PSK_SERVER_HELLO / TIMEOUT"];
	s14 -> s3 [label="PSK_SERVER_HELLO_EPOCH_1 / Alert(FATAL,DECODE_ERROR)"];
	s14 -> s43 [label="SERVER_HELLO_DONE / TIMEOUT"];
	s14 -> s11 [label="CHANGE_CIPHER_SPEC / TIMEOUT"];
	s14 -> s43 [label="FINISHED / TIMEOUT"];
	s14 -> s16 [label="FINISHED_EPOCH_0 / TIMEOUT"];
	s14 -> s14 [label="APPLICATION_EPOCH_0 / TIMEOUT"];
	s14 -> s14 [label="APPLICATION / TIMEOUT"];
	s14 -> s14 [label="Alert(WARNING,CLOSE_NOTIFY) / TIMEOUT"];
	s14 -> s14 [label="Alert(FATAL,UNEXPECTED_MESSAGE) / TIMEOUT"];
	s15 -> s13 [label="HELLO_VERIFY_REQUEST / TIMEOUT"];
	s15 -> s13 [label="PSK_SERVER_HELLO / TIMEOUT"];
	s15 -> s13 [label="PSK_SERVER_HELLO_EPOCH_1 / TIMEOUT"];
	s15 -> s13 [label="SERVER_HELLO_DONE / TIMEOUT"];
	s15 -> s15 [label="CHANGE_CIPHER_SPEC / TIMEOUT"];
	s15 -> s13 [label="FINISHED / TIMEOUT"];
	s15 -> s15 [label="FINISHED_EPOCH_0 / TIMEOUT"];
	s15 -> s15 [label="APPLICATION_EPOCH_0 / TIMEOUT"];
	s15 -> s13 [label="APPLICATION / TIMEOUT"];
	s15 -> s13 [label="Alert(WARNING,CLOSE_NOTIFY) / TIMEOUT"];
	s15 -> s13 [label="Alert(FATAL,UNEXPECTED_MESSAGE) / TIMEOUT"];
	s16 -> s43 [label="HELLO_VERIFY_REQUEST / TIMEOUT"];
	s16 -> s25 [label="PSK_SERVER_HELLO / TIMEOUT"];
	s16 -> s44 [label="PSK_SERVER_HELLO_EPOCH_1 / TIMEOUT"];
	s16 -> s43 [label="SERVER_HELLO_DONE / TIMEOUT"];
	s16 -> s43 [label="CHANGE_CIPHER_SPEC / TIMEOUT"];
	s16 -> s43 [label="FINISHED / TIMEOUT"];
	s16 -> s16 [label="FINISHED_EPOCH_0 / TIMEOUT"];
	s16 -> s16 [label="APPLICATION_EPOCH_0 / TIMEOUT"];
	s16 -> s43 [label="APPLICATION / TIMEOUT"];
	s16 -> s43 [label="Alert(WARNING,CLOSE_NOTIFY) / TIMEOUT"];
	s16 -> s43 [label="Alert(FATAL,UNEXPECTED_MESSAGE) / TIMEOUT"];
	s17 -> s18 [label="HELLO_VERIFY_REQUEST / TIMEOUT"];
	s17 -> s18 [label="PSK_SERVER_HELLO / TIMEOUT"];
	s17 -> s18 [label="PSK_SERVER_HELLO_EPOCH_1 / TIMEOUT"];
	s17 -> s18 [label="SERVER_HELLO_DONE / TIMEOUT"];
	s17 -> s17 [label="CHANGE_CIPHER_SPEC / TIMEOUT"];
	s17 -> s18 [label="FINISHED / TIMEOUT"];
	s17 -> s15 [label="FINISHED_EPOCH_0 / TIMEOUT"];
	s17 -> s15 [label="APPLICATION_EPOCH_0 / TIMEOUT"];
	s17 -> s18 [label="APPLICATION / TIMEOUT"];
	s17 -> s18 [label="Alert(WARNING,CLOSE_NOTIFY) / TIMEOUT"];
	s17 -> s18 [label="Alert(FATAL,UNEXPECTED_MESSAGE) / TIMEOUT"];
	s18 -> s18 [label="HELLO_VERIFY_REQUEST / TIMEOUT"];
	s18 -> s18 [label="PSK_SERVER_HELLO / TIMEOUT"];
	s18 -> s3 [label="PSK_SERVER_HELLO_EPOCH_1 / Alert(FATAL,BAD_RECORD_MAC)"];
	s18 -> s18 [label="SERVER_HELLO_DONE / TIMEOUT"];
	s18 -> s17 [label="CHANGE_CIPHER_SPEC / TIMEOUT"];
	s18 -> s18 [label="FINISHED / TIMEOUT"];
	s18 -> s13 [label="FINISHED_EPOCH_0 / TIMEOUT"];
	s18 -> s13 [label="APPLICATION_EPOCH_0 / TIMEOUT"];
	s18 -> s18 [label="APPLICATION / TIMEOUT"];
	s18 -> s18 [label="Alert(WARNING,CLOSE_NOTIFY) / TIMEOUT"];
	s18 -> s18 [label="Alert(FATAL,UNEXPECTED_MESSAGE) / TIMEOUT"];
	s19 -> s19 [label="HELLO_VERIFY_REQUEST / TIMEOUT"];
	s19 -> s20 [label="PSK_SERVER_HELLO / TIMEOUT"];
	s19 -> s20 [label="PSK_SERVER_HELLO_EPOCH_1 / TIMEOUT"];
	s19 -> s19 [label="SERVER_HELLO_DONE / TIMEOUT"];
	s19 -> s43 [label="CHANGE_CIPHER_SPEC / TIMEOUT"];
	s19 -> s19 [label="FINISHED / TIMEOUT"];
	s19 -> s19 [label="FINISHED_EPOCH_0 / TIMEOUT"];
	s19 -> s19 [label="APPLICATION_EPOCH_0 / TIMEOUT"];
	s19 -> s19 [label="APPLICATION / TIMEOUT"];
	s19 -> s3 [label="Alert(WARNING,CLOSE_NOTIFY) / TIMEOUT"];
	s19 -> s3 [label="Alert(FATAL,UNEXPECTED_MESSAGE) / TIMEOUT"];
	s20 -> s79 [label="HELLO_VERIFY_REQUEST / TIMEOUT"];
	s20 -> s79 [label="PSK_SERVER_HELLO / TIMEOUT"];
	s20 -> s79 [label="PSK_SERVER_HELLO_EPOCH_1 / TIMEOUT"];
	s20 -> s79 [label="SERVER_HELLO_DONE / TIMEOUT"];
	s20 -> s23 [label="CHANGE_CIPHER_SPEC / TIMEOUT"];
	s20 -> s79 [label="FINISHED / TIMEOUT"];
	s20 -> s21 [label="FINISHED_EPOCH_0 / TIMEOUT"];
	s20 -> s21 [label="APPLICATION_EPOCH_0 / TIMEOUT"];
	s20 -> s80 [label="APPLICATION / TIMEOUT"];
	s20 -> s3 [label="Alert(WARNING,CLOSE_NOTIFY) / TIMEOUT"];
	s20 -> s3 [label="Alert(FATAL,UNEXPECTED_MESSAGE) / TIMEOUT"];
	s21 -> s3 [label="HELLO_VERIFY_REQUEST / UNKNOWN_MESSAGE"];
	s21 -> s3 [label="PSK_SERVER_HELLO / UNKNOWN_MESSAGE"];
	s21 -> s3 [label="PSK_SERVER_HELLO_EPOCH_1 / UNKNOWN_MESSAGE"];
	s21 -> s3 [label="SERVER_HELLO_DONE / UNKNOWN_MESSAGE"];
	s21 -> s3 [label="CHANGE_CIPHER_SPEC / UNKNOWN_MESSAGE"];
	s21 -> s3 [label="FINISHED / UNKNOWN_MESSAGE"];
	s21 -> s21 [label="FINISHED_EPOCH_0 / TIMEOUT"];
	s21 -> s21 [label="APPLICATION_EPOCH_0 / TIMEOUT"];
	s21 -> s21 [label="APPLICATION / TIMEOUT"];
	s21 -> s3 [label="Alert(WARNING,CLOSE_NOTIFY) / UNKNOWN_MESSAGE"];
	s21 -> s3 [label="Alert(FATAL,UNEXPECTED_MESSAGE) / UNKNOWN_MESSAGE"];
	s22 -> s22 [label="HELLO_VERIFY_REQUEST / TIMEOUT"];
	s22 -> s22 [label="PSK_SERVER_HELLO / TIMEOUT"];
	s22 -> s22 [label="PSK_SERVER_HELLO_EPOCH_1 / TIMEOUT"];
	s22 -> s22 [label="SERVER_HELLO_DONE / TIMEOUT"];
	s22 -> s3 [label="CHANGE_CIPHER_SPEC / TIMEOUT"];
	s22 -> s22 [label="FINISHED / TIMEOUT"];
	s22 -> s3 [label="FINISHED_EPOCH_0 / TIMEOUT"];
	s22 -> s3 [label="APPLICATION_EPOCH_0 / TIMEOUT"];
	s22 -> s22 [label="APPLICATION / APPLICATION"];
	s22 -> s3 [label="Alert(WARNING,CLOSE_NOTIFY) / Alert(WARNING,CLOSE_NOTIFY)"];
	s22 -> s3 [label="Alert(FATAL,UNEXPECTED_MESSAGE) / TIMEOUT"];
	s23 -> s54 [label="HELLO_VERIFY_REQUEST / TIMEOUT"];
	s23 -> s54 [label="PSK_SERVER_HELLO / TIMEOUT"];
	s23 -> s54 [label="PSK_SERVER_HELLO_EPOCH_1 / TIMEOUT"];
	s23 -> s54 [label="SERVER_HELLO_DONE / TIMEOUT"];
	s23 -> s23 [label="CHANGE_CIPHER_SPEC / TIMEOUT"];
	s23 -> s54 [label="FINISHED / TIMEOUT"];
	s23 -> s24 [label="FINISHED_EPOCH_0 / TIMEOUT"];
	s23 -> s24 [label="APPLICATION_EPOCH_0 / TIMEOUT"];
	s23 -> s54 [label="APPLICATION / TIMEOUT"];
	s23 -> s54 [label="Alert(WARNING,CLOSE_NOTIFY) / TIMEOUT"];
	s23 -> s54 [label="Alert(FATAL,UNEXPECTED_MESSAGE) / TIMEOUT"];
	s24 -> s46 [label="HELLO_VERIFY_REQUEST / TIMEOUT"];
	s24 -> s46 [label="PSK_SERVER_HELLO / TIMEOUT"];
	s24 -> s46 [label="PSK_SERVER_HELLO_EPOCH_1 / TIMEOUT"];
	s24 -> s46 [label="SERVER_HELLO_DONE / TIMEOUT"];
	s24 -> s24 [label="CHANGE_CIPHER_SPEC / TIMEOUT"];
	s24 -> s46 [label="FINISHED / TIMEOUT"];
	s24 -> s24 [label="FINISHED_EPOCH_0 / TIMEOUT"];
	s24 -> s24 [label="APPLICATION_EPOCH_0 / TIMEOUT"];
	s24 -> s46 [label="APPLICATION / TIMEOUT"];
	s24 -> s46 [label="Alert(WARNING,CLOSE_NOTIFY) / TIMEOUT"];
	s24 -> s46 [label="Alert(FATAL,UNEXPECTED_MESSAGE) / TIMEOUT"];
	s25 -> s32 [label="HELLO_VERIFY_REQUEST / TIMEOUT"];
	s25 -> s32 [label="PSK_SERVER_HELLO / TIMEOUT"];
	s25 -> s26 [label="PSK_SERVER_HELLO_EPOCH_1 / TIMEOUT"];
	s25 -> s32 [label="SERVER_HELLO_DONE / TIMEOUT"];
	s25 -> s17 [label="CHANGE_CIPHER_SPEC / TIMEOUT"];
	s25 -> s32 [label="FINISHED / TIMEOUT"];
	s25 -> s13 [label="FINISHED_EPOCH_0 / TIMEOUT"];
	s25 -> s13 [label="APPLICATION_EPOCH_0 / TIMEOUT"];
	s25 -> s32 [label="APPLICATION / TIMEOUT"];
	s25 -> s32 [label="Alert(WARNING,CLOSE_NOTIFY) / TIMEOUT"];
	s25 -> s32 [label="Alert(FATAL,UNEXPECTED_MESSAGE) / TIMEOUT"];
	s26 -> s31 [label="HELLO_VERIFY_REQUEST / TIMEOUT"];
	s26 -> s31 [label="PSK_SERVER_HELLO / TIMEOUT"];
	s26 -> s27 [label="PSK_SERVER_HELLO_EPOCH_1 / TIMEOUT"];
	s26 -> s31 [label="SERVER_HELLO_DONE / TIMEOUT"];
	s26 -> s40 [label="CHANGE_CIPHER_SPEC / TIMEOUT"];
	s26 -> s31 [label="FINISHED / TIMEOUT"];
	s26 -> s33 [label="FINISHED_EPOCH_0 / TIMEOUT"];
	s26 -> s33 [label="APPLICATION_EPOCH_0 / TIMEOUT"];
	s26 -> s31 [label="APPLICATION / TIMEOUT"];
	s26 -> s31 [label="Alert(WARNING,CLOSE_NOTIFY) / TIMEOUT"];
	s26 -> s31 [label="Alert(FATAL,UNEXPECTED_MESSAGE) / TIMEOUT"];
	s27 -> s27 [label="HELLO_VERIFY_REQUEST / TIMEOUT"];
	s27 -> s27 [label="PSK_SERVER_HELLO / TIMEOUT"];
	s27 -> s27 [label="PSK_SERVER_HELLO_EPOCH_1 / TIMEOUT"];
	s27 -> s27 [label="SERVER_HELLO_DONE / TIMEOUT"];
	s27 -> s36 [label="CHANGE_CIPHER_SPEC / TIMEOUT"];
	s27 -> s27 [label="FINISHED / TIMEOUT"];
	s27 -> s28 [label="FINISHED_EPOCH_0 / TIMEOUT"];
	s27 -> s28 [label="APPLICATION_EPOCH_0 / TIMEOUT"];
	s27 -> s27 [label="APPLICATION / TIMEOUT"];
	s27 -> s27 [label="Alert(WARNING,CLOSE_NOTIFY) / TIMEOUT"];
	s27 -> s27 [label="Alert(FATAL,UNEXPECTED_MESSAGE) / TIMEOUT"];
	s28 -> s28 [label="HELLO_VERIFY_REQUEST / TIMEOUT"];
	s28 -> s28 [label="PSK_SERVER_HELLO / TIMEOUT"];
	s28 -> s3 [label="PSK_SERVER_HELLO_EPOCH_1 / UNKNOWN_MESSAGE"];
	s28 -> s28 [label="SERVER_HELLO_DONE / TIMEOUT"];
	s28 -> s29 [label="CHANGE_CIPHER_SPEC / TIMEOUT"];
	s28 -> s28 [label="FINISHED / TIMEOUT"];
	s28 -> s28 [label="FINISHED_EPOCH_0 / TIMEOUT"];
	s28 -> s28 [label="APPLICATION_EPOCH_0 / TIMEOUT"];
	s28 -> s28 [label="APPLICATION / TIMEOUT"];
	s28 -> s28 [label="Alert(WARNING,CLOSE_NOTIFY) / TIMEOUT"];
	s28 -> s28 [label="Alert(FATAL,UNEXPECTED_MESSAGE) / TIMEOUT"];
	s29 -> s30 [label="HELLO_VERIFY_REQUEST / TIMEOUT"];
	s29 -> s30 [label="PSK_SERVER_HELLO / TIMEOUT"];
	s29 -> s30 [label="PSK_SERVER_HELLO_EPOCH_1 / TIMEOUT"];
	s29 -> s30 [label="SERVER_HELLO_DONE / TIMEOUT"];
	s29 -> s29 [label="CHANGE_CIPHER_SPEC / TIMEOUT"];
	s29 -> s30 [label="FINISHED / TIMEOUT"];
	s29 -> s29 [label="FINISHED_EPOCH_0 / TIMEOUT"];
	s29 -> s29 [label="APPLICATION_EPOCH_0 / TIMEOUT"];
	s29 -> s30 [label="APPLICATION / TIMEOUT"];
	s29 -> s30 [label="Alert(WARNING,CLOSE_NOTIFY) / TIMEOUT"];
	s29 -> s30 [label="Alert(FATAL,UNEXPECTED_MESSAGE) / TIMEOUT"];
	s30 -> s39 [label="HELLO_VERIFY_REQUEST / TIMEOUT"];
	s30 -> s39 [label="PSK_SERVER_HELLO / TIMEOUT"];
	s30 -> s3 [label="PSK_SERVER_HELLO_EPOCH_1 / UNKNOWN_MESSAGE"];
	s30 -> s39 [label="SERVER_HELLO_DONE / TIMEOUT"];
	s30 -> s29 [label="CHANGE_CIPHER_SPEC / TIMEOUT"];
	s30 -> s39 [label="FINISHED / TIMEOUT"];
	s30 -> s30 [label="FINISHED_EPOCH_0 / TIMEOUT"];
	s30 -> s30 [label="APPLICATION_EPOCH_0 / TIMEOUT"];
	s30 -> s39 [label="APPLICATION / TIMEOUT"];
	s30 -> s39 [label="Alert(WARNING,CLOSE_NOTIFY) / TIMEOUT"];
	s30 -> s39 [label="Alert(FATAL,UNEXPECTED_MESSAGE) / TIMEOUT"];
	s31 -> s31 [label="HELLO_VERIFY_REQUEST / TIMEOUT"];
	s31 -> s31 [label="PSK_SERVER_HELLO / TIMEOUT"];
	s31 -> s31 [label="PSK_SERVER_HELLO_EPOCH_1 / TIMEOUT"];
	s31 -> s31 [label="SERVER_HELLO_DONE / TIMEOUT"];
	s31 -> s40 [label="CHANGE_CIPHER_SPEC / TIMEOUT"];
	s31 -> s31 [label="FINISHED / TIMEOUT"];
	s31 -> s33 [label="FINISHED_EPOCH_0 / TIMEOUT"];
	s31 -> s33 [label="APPLICATION_EPOCH_0 / TIMEOUT"];
	s31 -> s31 [label="APPLICATION / TIMEOUT"];
	s31 -> s31 [label="Alert(WARNING,CLOSE_NOTIFY) / TIMEOUT"];
	s31 -> s31 [label="Alert(FATAL,UNEXPECTED_MESSAGE) / TIMEOUT"];
	s32 -> s32 [label="HELLO_VERIFY_REQUEST / TIMEOUT"];
	s32 -> s32 [label="PSK_SERVER_HELLO / TIMEOUT"];
	s32 -> s32 [label="PSK_SERVER_HELLO_EPOCH_1 / TIMEOUT"];
	s32 -> s32 [label="SERVER_HELLO_DONE / TIMEOUT"];
	s32 -> s17 [label="CHANGE_CIPHER_SPEC / TIMEOUT"];
	s32 -> s32 [label="FINISHED / TIMEOUT"];
	s32 -> s13 [label="FINISHED_EPOCH_0 / TIMEOUT"];
	s32 -> s13 [label="APPLICATION_EPOCH_0 / TIMEOUT"];
	s32 -> s32 [label="APPLICATION / TIMEOUT"];
	s32 -> s32 [label="Alert(WARNING,CLOSE_NOTIFY) / TIMEOUT"];
	s32 -> s32 [label="Alert(FATAL,UNEXPECTED_MESSAGE) / TIMEOUT"];
	s33 -> s33 [label="HELLO_VERIFY_REQUEST / TIMEOUT"];
	s33 -> s33 [label="PSK_SERVER_HELLO / TIMEOUT"];
	s33 -> s3 [label="PSK_SERVER_HELLO_EPOCH_1 / UNKNOWN_MESSAGE"];
	s33 -> s33 [label="SERVER_HELLO_DONE / TIMEOUT"];
	s33 -> s34 [label="CHANGE_CIPHER_SPEC / TIMEOUT"];
	s33 -> s33 [label="FINISHED / TIMEOUT"];
	s33 -> s33 [label="FINISHED_EPOCH_0 / TIMEOUT"];
	s33 -> s33 [label="APPLICATION_EPOCH_0 / TIMEOUT"];
	s33 -> s33 [label="APPLICATION / TIMEOUT"];
	s33 -> s33 [label="Alert(WARNING,CLOSE_NOTIFY) / TIMEOUT"];
	s33 -> s33 [label="Alert(FATAL,UNEXPECTED_MESSAGE) / TIMEOUT"];
	s34 -> s35 [label="HELLO_VERIFY_REQUEST / TIMEOUT"];
	s34 -> s35 [label="PSK_SERVER_HELLO / TIMEOUT"];
	s34 -> s35 [label="PSK_SERVER_HELLO_EPOCH_1 / TIMEOUT"];
	s34 -> s35 [label="SERVER_HELLO_DONE / TIMEOUT"];
	s34 -> s34 [label="CHANGE_CIPHER_SPEC / TIMEOUT"];
	s34 -> s35 [label="FINISHED / TIMEOUT"];
	s34 -> s34 [label="FINISHED_EPOCH_0 / TIMEOUT"];
	s34 -> s34 [label="APPLICATION_EPOCH_0 / TIMEOUT"];
	s34 -> s35 [label="APPLICATION / TIMEOUT"];
	s34 -> s35 [label="Alert(WARNING,CLOSE_NOTIFY) / TIMEOUT"];
	s34 -> s35 [label="Alert(FATAL,UNEXPECTED_MESSAGE) / TIMEOUT"];
	s35 -> s48 [label="HELLO_VERIFY_REQUEST / TIMEOUT"];
	s35 -> s48 [label="PSK_SERVER_HELLO / TIMEOUT"];
	s35 -> s3 [label="PSK_SERVER_HELLO_EPOCH_1 / UNKNOWN_MESSAGE"];
	s35 -> s48 [label="SERVER_HELLO_DONE / TIMEOUT"];
	s35 -> s34 [label="CHANGE_CIPHER_SPEC / TIMEOUT"];
	s35 -> s48 [label="FINISHED / TIMEOUT"];
	s35 -> s35 [label="FINISHED_EPOCH_0 / TIMEOUT"];
	s35 -> s35 [label="APPLICATION_EPOCH_0 / TIMEOUT"];
	s35 -> s48 [label="APPLICATION / TIMEOUT"];
	s35 -> s48 [label="Alert(WARNING,CLOSE_NOTIFY) / TIMEOUT"];
	s35 -> s48 [label="Alert(FATAL,UNEXPECTED_MESSAGE) / TIMEOUT"];
	s36 -> s37 [label="HELLO_VERIFY_REQUEST / TIMEOUT"];
	s36 -> s37 [label="PSK_SERVER_HELLO / TIMEOUT"];
	s36 -> s37 [label="PSK_SERVER_HELLO_EPOCH_1 / TIMEOUT"];
	s36 -> s37 [label="SERVER_HELLO_DONE / TIMEOUT"];
	s36 -> s36 [label="CHANGE_CIPHER_SPEC / TIMEOUT"];
	s36 -> s37 [label="FINISHED / TIMEOUT"];
	s36 -> s29 [label="FINISHED_EPOCH_0 / TIMEOUT"];
	s36 -> s29 [label="APPLICATION_EPOCH_0 / TIMEOUT"];
	s36 -> s37 [label="APPLICATION / TIMEOUT"];
	s36 -> s37 [label="Alert(WARNING,CLOSE_NOTIFY) / TIMEOUT"];
	s36 -> s37 [label="Alert(FATAL,UNEXPECTED_MESSAGE) / TIMEOUT"];
	s37 -> s38 [label="HELLO_VERIFY_REQUEST / TIMEOUT"];
	s37 -> s38 [label="PSK_SERVER_HELLO / TIMEOUT"];
	s37 -> s3 [label="PSK_SERVER_HELLO_EPOCH_1 / Alert(FATAL,BAD_RECORD_MAC)"];
	s37 -> s38 [label="SERVER_HELLO_DONE / TIMEOUT"];
	s37 -> s36 [label="CHANGE_CIPHER_SPEC / TIMEOUT"];
	s37 -> s38 [label="FINISHED / TIMEOUT"];
	s37 -> s30 [label="FINISHED_EPOCH_0 / TIMEOUT"];
	s37 -> s30 [label="APPLICATION_EPOCH_0 / TIMEOUT"];
	s37 -> s38 [label="APPLICATION / TIMEOUT"];
	s37 -> s38 [label="Alert(WARNING,CLOSE_NOTIFY) / TIMEOUT"];
	s37 -> s38 [label="Alert(FATAL,UNEXPECTED_MESSAGE) / TIMEOUT"];
	s38 -> s42 [label="HELLO_VERIFY_REQUEST / TIMEOUT"];
	s38 -> s42 [label="PSK_SERVER_HELLO / TIMEOUT"];
	s38 -> s42 [label="PSK_SERVER_HELLO_EPOCH_1 / TIMEOUT"];
	s38 -> s42 [label="SERVER_HELLO_DONE / TIMEOUT"];
	s38 -> s36 [label="CHANGE_CIPHER_SPEC / TIMEOUT"];
	s38 -> s42 [label="FINISHED / TIMEOUT"];
	s38 -> s39 [label="FINISHED_EPOCH_0 / TIMEOUT"];
	s38 -> s39 [label="APPLICATION_EPOCH_0 / TIMEOUT"];
	s38 -> s42 [label="APPLICATION / TIMEOUT"];
	s38 -> s42 [label="Alert(WARNING,CLOSE_NOTIFY) / TIMEOUT"];
	s38 -> s42 [label="Alert(FATAL,UNEXPECTED_MESSAGE) / TIMEOUT"];
	s39 -> s47 [label="HELLO_VERIFY_REQUEST / TIMEOUT"];
	s39 -> s47 [label="PSK_SERVER_HELLO / TIMEOUT"];
	s39 -> s47 [label="PSK_SERVER_HELLO_EPOCH_1 / TIMEOUT"];
	s39 -> s47 [label="SERVER_HELLO_DONE / TIMEOUT"];
	s39 -> s29 [label="CHANGE_CIPHER_SPEC / TIMEOUT"];
	s39 -> s47 [label="FINISHED / TIMEOUT"];
	s39 -> s39 [label="FINISHED_EPOCH_0 / TIMEOUT"];
	s39 -> s39 [label="APPLICATION_EPOCH_0 / TIMEOUT"];
	s39 -> s47 [label="APPLICATION / TIMEOUT"];
	s39 -> s47 [label="Alert(WARNING,CLOSE_NOTIFY) / TIMEOUT"];
	s39 -> s47 [label="Alert(FATAL,UNEXPECTED_MESSAGE) / TIMEOUT"];
	s40 -> s41 [label="HELLO_VERIFY_REQUEST / TIMEOUT"];
	s40 -> s41 [label="PSK_SERVER_HELLO / TIMEOUT"];
	s40 -> s41 [label="PSK_SERVER_HELLO_EPOCH_1 / TIMEOUT"];
	s40 -> s41 [label="SERVER_HELLO_DONE / TIMEOUT"];
	s40 -> s40 [label="CHANGE_CIPHER_SPEC / TIMEOUT"];
	s40 -> s41 [label="FINISHED / TIMEOUT"];
	s40 -> s34 [label="FINISHED_EPOCH_0 / TIMEOUT"];
	s40 -> s34 [label="APPLICATION_EPOCH_0 / TIMEOUT"];
	s40 -> s41 [label="APPLICATION / TIMEOUT"];
	s40 -> s41 [label="Alert(WARNING,CLOSE_NOTIFY) / TIMEOUT"];
	s40 -> s41 [label="Alert(FATAL,UNEXPECTED_MESSAGE) / TIMEOUT"];
	s41 -> s49 [label="HELLO_VERIFY_REQUEST / TIMEOUT"];
	s41 -> s49 [label="PSK_SERVER_HELLO / TIMEOUT"];
	s41 -> s3 [label="PSK_SERVER_HELLO_EPOCH_1 / Alert(FATAL,BAD_RECORD_MAC)"];
	s41 -> s49 [label="SERVER_HELLO_DONE / TIMEOUT"];
	s41 -> s40 [label="CHANGE_CIPHER_SPEC / TIMEOUT"];
	s41 -> s49 [label="FINISHED / TIMEOUT"];
	s41 -> s35 [label="FINISHED_EPOCH_0 / TIMEOUT"];
	s41 -> s35 [label="APPLICATION_EPOCH_0 / TIMEOUT"];
	s41 -> s49 [label="APPLICATION / TIMEOUT"];
	s41 -> s49 [label="Alert(WARNING,CLOSE_NOTIFY) / TIMEOUT"];
	s41 -> s49 [label="Alert(FATAL,UNEXPECTED_MESSAGE) / TIMEOUT"];
	s42 -> s81 [label="HELLO_VERIFY_REQUEST / TIMEOUT"];
	s42 -> s81 [label="PSK_SERVER_HELLO / TIMEOUT"];
	s42 -> s81 [label="PSK_SERVER_HELLO_EPOCH_1 / TIMEOUT"];
	s42 -> s81 [label="SERVER_HELLO_DONE / TIMEOUT"];
	s42 -> s36 [label="CHANGE_CIPHER_SPEC / TIMEOUT"];
	s42 -> s81 [label="FINISHED / TIMEOUT"];
	s42 -> s47 [label="FINISHED_EPOCH_0 / TIMEOUT"];
	s42 -> s47 [label="APPLICATION_EPOCH_0 / TIMEOUT"];
	s42 -> s81 [label="APPLICATION / TIMEOUT"];
	s42 -> s81 [label="Alert(WARNING,CLOSE_NOTIFY) / TIMEOUT"];
	s42 -> s81 [label="Alert(FATAL,UNEXPECTED_MESSAGE) / TIMEOUT"];
	s43 -> s16 [label="HELLO_VERIFY_REQUEST / TIMEOUT"];
	s43 -> s12 [label="PSK_SERVER_HELLO / TIMEOUT"];
	s43 -> s12 [label="PSK_SERVER_HELLO_EPOCH_1 / TIMEOUT"];
	s43 -> s16 [label="SERVER_HELLO_DONE / TIMEOUT"];
	s43 -> s43 [label="CHANGE_CIPHER_SPEC / TIMEOUT"];
	s43 -> s16 [label="FINISHED / TIMEOUT"];
	s43 -> s43 [label="FINISHED_EPOCH_0 / TIMEOUT"];
	s43 -> s43 [label="APPLICATION_EPOCH_0 / TIMEOUT"];
	s43 -> s16 [label="APPLICATION / TIMEOUT"];
	s43 -> s16 [label="Alert(WARNING,CLOSE_NOTIFY) / TIMEOUT"];
	s43 -> s16 [label="Alert(FATAL,UNEXPECTED_MESSAGE) / TIMEOUT"];
	s44 -> s53 [label="HELLO_VERIFY_REQUEST / TIMEOUT"];
	s44 -> s53 [label="PSK_SERVER_HELLO / TIMEOUT"];
	s44 -> s51 [label="PSK_SERVER_HELLO_EPOCH_1 / TIMEOUT"];
	s44 -> s53 [label="SERVER_HELLO_DONE / TIMEOUT"];
	s44 -> s23 [label="CHANGE_CIPHER_SPEC / TIMEOUT"];
	s44 -> s53 [label="FINISHED / TIMEOUT"];
	s44 -> s45 [label="FINISHED_EPOCH_0 / TIMEOUT"];
	s44 -> s45 [label="APPLICATION_EPOCH_0 / TIMEOUT"];
	s44 -> s53 [label="APPLICATION / TIMEOUT"];
	s44 -> s53 [label="Alert(WARNING,CLOSE_NOTIFY) / TIMEOUT"];
	s44 -> s53 [label="Alert(FATAL,UNEXPECTED_MESSAGE) / TIMEOUT"];
	s45 -> s45 [label="HELLO_VERIFY_REQUEST / TIMEOUT"];
	s45 -> s45 [label="PSK_SERVER_HELLO / TIMEOUT"];
	s45 -> s3 [label="PSK_SERVER_HELLO_EPOCH_1 / UNKNOWN_MESSAGE"];
	s45 -> s45 [label="SERVER_HELLO_DONE / TIMEOUT"];
	s45 -> s24 [label="CHANGE_CIPHER_SPEC / TIMEOUT"];
	s45 -> s45 [label="FINISHED / TIMEOUT"];
	s45 -> s45 [label="FINISHED_EPOCH_0 / TIMEOUT"];
	s45 -> s45 [label="APPLICATION_EPOCH_0 / TIMEOUT"];
	s45 -> s45 [label="APPLICATION / TIMEOUT"];
	s45 -> s45 [label="Alert(WARNING,CLOSE_NOTIFY) / TIMEOUT"];
	s45 -> s45 [label="Alert(FATAL,UNEXPECTED_MESSAGE) / TIMEOUT"];
	s46 -> s45 [label="HELLO_VERIFY_REQUEST / TIMEOUT"];
	s46 -> s45 [label="PSK_SERVER_HELLO / TIMEOUT"];
	s46 -> s45 [label="PSK_SERVER_HELLO_EPOCH_1 / TIMEOUT"];
	s46 -> s45 [label="SERVER_HELLO_DONE / TIMEOUT"];
	s46 -> s24 [label="CHANGE_CIPHER_SPEC / TIMEOUT"];
	s46 -> s45 [label="FINISHED / TIMEOUT"];
	s46 -> s46 [label="FINISHED_EPOCH_0 / TIMEOUT"];
	s46 -> s46 [label="APPLICATION_EPOCH_0 / TIMEOUT"];
	s46 -> s45 [label="APPLICATION / TIMEOUT"];
	s46 -> s45 [label="Alert(WARNING,CLOSE_NOTIFY) / TIMEOUT"];
	s46 -> s45 [label="Alert(FATAL,UNEXPECTED_MESSAGE) / TIMEOUT"];
	s47 -> s28 [label="HELLO_VERIFY_REQUEST / TIMEOUT"];
	s47 -> s28 [label="PSK_SERVER_HELLO / TIMEOUT"];
	s47 -> s28 [label="PSK_SERVER_HELLO_EPOCH_1 / TIMEOUT"];
	s47 -> s28 [label="SERVER_HELLO_DONE / TIMEOUT"];
	s47 -> s29 [label="CHANGE_CIPHER_SPEC / TIMEOUT"];
	s47 -> s28 [label="FINISHED / TIMEOUT"];
	s47 -> s47 [label="FINISHED_EPOCH_0 / TIMEOUT"];
	s47 -> s47 [label="APPLICATION_EPOCH_0 / TIMEOUT"];
	s47 -> s28 [label="APPLICATION / TIMEOUT"];
	s47 -> s28 [label="Alert(WARNING,CLOSE_NOTIFY) / TIMEOUT"];
	s47 -> s28 [label="Alert(FATAL,UNEXPECTED_MESSAGE) / TIMEOUT"];
	s48 -> s33 [label="HELLO_VERIFY_REQUEST / TIMEOUT"];
	s48 -> s33 [label="PSK_SERVER_HELLO / TIMEOUT"];
	s48 -> s33 [label="PSK_SERVER_HELLO_EPOCH_1 / TIMEOUT"];
	s48 -> s33 [label="SERVER_HELLO_DONE / TIMEOUT"];
	s48 -> s34 [label="CHANGE_CIPHER_SPEC / TIMEOUT"];
	s48 -> s33 [label="FINISHED / TIMEOUT"];
	s48 -> s48 [label="FINISHED_EPOCH_0 / TIMEOUT"];
	s48 -> s48 [label="APPLICATION_EPOCH_0 / TIMEOUT"];
	s48 -> s33 [label="APPLICATION / TIMEOUT"];
	s48 -> s33 [label="Alert(WARNING,CLOSE_NOTIFY) / TIMEOUT"];
	s48 -> s33 [label="Alert(FATAL,UNEXPECTED_MESSAGE) / TIMEOUT"];
	s49 -> s50 [label="HELLO_VERIFY_REQUEST / TIMEOUT"];
	s49 -> s50 [label="PSK_SERVER_HELLO / TIMEOUT"];
	s49 -> s50 [label="PSK_SERVER_HELLO_EPOCH_1 / TIMEOUT"];
	s49 -> s50 [label="SERVER_HELLO_DONE / TIMEOUT"];
	s49 -> s40 [label="CHANGE_CIPHER_SPEC / TIMEOUT"];
	s49 -> s50 [label="FINISHED / TIMEOUT"];
	s49 -> s48 [label="FINISHED_EPOCH_0 / TIMEOUT"];
	s49 -> s48 [label="APPLICATION_EPOCH_0 / TIMEOUT"];
	s49 -> s50 [label="APPLICATION / TIMEOUT"];
	s49 -> s50 [label="Alert(WARNING,CLOSE_NOTIFY) / TIMEOUT"];
	s49 -> s50 [label="Alert(FATAL,UNEXPECTED_MESSAGE) / TIMEOUT"];
	s50 -> s50 [label="HELLO_VERIFY_REQUEST / TIMEOUT"];
	s50 -> s50 [label="PSK_SERVER_HELLO / TIMEOUT"];
	s50 -> s3 [label="PSK_SERVER_HELLO_EPOCH_1 / Alert(FATAL,BAD_RECORD_MAC)"];
	s50 -> s50 [label="SERVER_HELLO_DONE / TIMEOUT"];
	s50 -> s40 [label="CHANGE_CIPHER_SPEC / TIMEOUT"];
	s50 -> s50 [label="FINISHED / TIMEOUT"];
	s50 -> s33 [label="FINISHED_EPOCH_0 / TIMEOUT"];
	s50 -> s33 [label="APPLICATION_EPOCH_0 / TIMEOUT"];
	s50 -> s50 [label="APPLICATION / TIMEOUT"];
	s50 -> s50 [label="Alert(WARNING,CLOSE_NOTIFY) / TIMEOUT"];
	s50 -> s50 [label="Alert(FATAL,UNEXPECTED_MESSAGE) / TIMEOUT"];
	s51 -> s56 [label="HELLO_VERIFY_REQUEST / TIMEOUT"];
	s51 -> s56 [label="PSK_SERVER_HELLO / TIMEOUT"];
	s51 -> s52 [label="PSK_SERVER_HELLO_EPOCH_1 / TIMEOUT"];
	s51 -> s56 [label="SERVER_HELLO_DONE / TIMEOUT"];
	s51 -> s59 [label="CHANGE_CIPHER_SPEC / TIMEOUT"];
	s51 -> s56 [label="FINISHED / TIMEOUT"];
	s51 -> s57 [label="FINISHED_EPOCH_0 / TIMEOUT"];
	s51 -> s57 [label="APPLICATION_EPOCH_0 / TIMEOUT"];
	s51 -> s56 [label="APPLICATION / TIMEOUT"];
	s51 -> s56 [label="Alert(WARNING,CLOSE_NOTIFY) / TIMEOUT"];
	s51 -> s56 [label="Alert(FATAL,UNEXPECTED_MESSAGE) / TIMEOUT"];
	s52 -> s52 [label="HELLO_VERIFY_REQUEST / TIMEOUT"];
	s52 -> s52 [label="PSK_SERVER_HELLO / TIMEOUT"];
	s52 -> s52 [label="PSK_SERVER_HELLO_EPOCH_1 / TIMEOUT"];
	s52 -> s52 [label="SERVER_HELLO_DONE / TIMEOUT"];
	s52 -> s3 [label="CHANGE_CIPHER_SPEC / TIMEOUT"];
	s52 -> s52 [label="FINISHED / TIMEOUT"];
	s52 -> s76 [label="FINISHED_EPOCH_0 / TIMEOUT"];
	s52 -> s76 [label="APPLICATION_EPOCH_0 / TIMEOUT"];
	s52 -> s52 [label="APPLICATION / TIMEOUT"];
	s52 -> s52 [label="Alert(WARNING,CLOSE_NOTIFY) / TIMEOUT"];
	s52 -> s52 [label="Alert(FATAL,UNEXPECTED_MESSAGE) / TIMEOUT"];
	s53 -> s53 [label="HELLO_VERIFY_REQUEST / TIMEOUT"];
	s53 -> s53 [label="PSK_SERVER_HELLO / TIMEOUT"];
	s53 -> s60 [label="PSK_SERVER_HELLO_EPOCH_1 / TIMEOUT"];
	s53 -> s53 [label="SERVER_HELLO_DONE / TIMEOUT"];
	s53 -> s23 [label="CHANGE_CIPHER_SPEC / TIMEOUT"];
	s53 -> s53 [label="FINISHED / TIMEOUT"];
	s53 -> s45 [label="FINISHED_EPOCH_0 / TIMEOUT"];
	s53 -> s45 [label="APPLICATION_EPOCH_0 / TIMEOUT"];
	s53 -> s53 [label="APPLICATION / TIMEOUT"];
	s53 -> s53 [label="Alert(WARNING,CLOSE_NOTIFY) / TIMEOUT"];
	s53 -> s53 [label="Alert(FATAL,UNEXPECTED_MESSAGE) / TIMEOUT"];
	s54 -> s55 [label="HELLO_VERIFY_REQUEST / TIMEOUT"];
	s54 -> s55 [label="PSK_SERVER_HELLO / TIMEOUT"];
	s54 -> s55 [label="PSK_SERVER_HELLO_EPOCH_1 / TIMEOUT"];
	s54 -> s55 [label="SERVER_HELLO_DONE / TIMEOUT"];
	s54 -> s23 [label="CHANGE_CIPHER_SPEC / TIMEOUT"];
	s54 -> s55 [label="FINISHED / TIMEOUT"];
	s54 -> s46 [label="FINISHED_EPOCH_0 / TIMEOUT"];
	s54 -> s46 [label="APPLICATION_EPOCH_0 / TIMEOUT"];
	s54 -> s55 [label="APPLICATION / TIMEOUT"];
	s54 -> s55 [label="Alert(WARNING,CLOSE_NOTIFY) / TIMEOUT"];
	s54 -> s55 [label="Alert(FATAL,UNEXPECTED_MESSAGE) / TIMEOUT"];
	s55 -> s55 [label="HELLO_VERIFY_REQUEST / TIMEOUT"];
	s55 -> s55 [label="PSK_SERVER_HELLO / TIMEOUT"];
	s55 -> s3 [label="PSK_SERVER_HELLO_EPOCH_1 / Alert(FATAL,BAD_RECORD_MAC)"];
	s55 -> s55 [label="SERVER_HELLO_DONE / TIMEOUT"];
	s55 -> s23 [label="CHANGE_CIPHER_SPEC / TIMEOUT"];
	s55 -> s55 [label="FINISHED / TIMEOUT"];
	s55 -> s45 [label="FINISHED_EPOCH_0 / TIMEOUT"];
	s55 -> s45 [label="APPLICATION_EPOCH_0 / TIMEOUT"];
	s55 -> s55 [label="APPLICATION / TIMEOUT"];
	s55 -> s55 [label="Alert(WARNING,CLOSE_NOTIFY) / TIMEOUT"];
	s55 -> s55 [label="Alert(FATAL,UNEXPECTED_MESSAGE) / TIMEOUT"];
	s56 -> s56 [label="HELLO_VERIFY_REQUEST / TIMEOUT"];
	s56 -> s56 [label="PSK_SERVER_HELLO / TIMEOUT"];
	s56 -> s56 [label="PSK_SERVER_HELLO_EPOCH_1 / TIMEOUT"];
	s56 -> s56 [label="SERVER_HELLO_DONE / TIMEOUT"];
	s56 -> s59 [label="CHANGE_CIPHER_SPEC / TIMEOUT"];
	s56 -> s56 [label="FINISHED / TIMEOUT"];
	s56 -> s57 [label="FINISHED_EPOCH_0 / TIMEOUT"];
	s56 -> s57 [label="APPLICATION_EPOCH_0 / TIMEOUT"];
	s56 -> s56 [label="APPLICATION / TIMEOUT"];
	s56 -> s56 [label="Alert(WARNING,CLOSE_NOTIFY) / TIMEOUT"];
	s56 -> s56 [label="Alert(FATAL,UNEXPECTED_MESSAGE) / TIMEOUT"];
	s57 -> s57 [label="HELLO_VERIFY_REQUEST / TIMEOUT"];
	s57 -> s57 [label="PSK_SERVER_HELLO / TIMEOUT"];
	s57 -> s3 [label="PSK_SERVER_HELLO_EPOCH_1 / UNKNOWN_MESSAGE"];
	s57 -> s57 [label="SERVER_HELLO_DONE / TIMEOUT"];
	s57 -> s58 [label="CHANGE_CIPHER_SPEC / TIMEOUT"];
	s57 -> s57 [label="FINISHED / TIMEOUT"];
	s57 -> s57 [label="FINISHED_EPOCH_0 / TIMEOUT"];
	s57 -> s57 [label="APPLICATION_EPOCH_0 / TIMEOUT"];
	s57 -> s57 [label="APPLICATION / TIMEOUT"];
	s57 -> s57 [label="Alert(WARNING,CLOSE_NOTIFY) / TIMEOUT"];
	s57 -> s57 [label="Alert(FATAL,UNEXPECTED_MESSAGE) / TIMEOUT"];
	s58 -> s63 [label="HELLO_VERIFY_REQUEST / TIMEOUT"];
	s58 -> s63 [label="PSK_SERVER_HELLO / TIMEOUT"];
	s58 -> s63 [label="PSK_SERVER_HELLO_EPOCH_1 / TIMEOUT"];
	s58 -> s63 [label="SERVER_HELLO_DONE / TIMEOUT"];
	s58 -> s58 [label="CHANGE_CIPHER_SPEC / TIMEOUT"];
	s58 -> s63 [label="FINISHED / TIMEOUT"];
	s58 -> s58 [label="FINISHED_EPOCH_0 / TIMEOUT"];
	s58 -> s58 [label="APPLICATION_EPOCH_0 / TIMEOUT"];
	s58 -> s63 [label="APPLICATION / TIMEOUT"];
	s58 -> s63 [label="Alert(WARNING,CLOSE_NOTIFY) / TIMEOUT"];
	s58 -> s63 [label="Alert(FATAL,UNEXPECTED_MESSAGE) / TIMEOUT"];
	s59 -> s65 [label="HELLO_VERIFY_REQUEST / TIMEOUT"];
	s59 -> s65 [label="PSK_SERVER_HELLO / TIMEOUT"];
	s59 -> s65 [label="PSK_SERVER_HELLO_EPOCH_1 / TIMEOUT"];
	s59 -> s65 [label="SERVER_HELLO_DONE / TIMEOUT"];
	s59 -> s59 [label="CHANGE_CIPHER_SPEC / TIMEOUT"];
	s59 -> s65 [label="FINISHED / TIMEOUT"];
	s59 -> s58 [label="FINISHED_EPOCH_0 / TIMEOUT"];
	s59 -> s58 [label="APPLICATION_EPOCH_0 / TIMEOUT"];
	s59 -> s65 [label="APPLICATION / TIMEOUT"];
	s59 -> s65 [label="Alert(WARNING,CLOSE_NOTIFY) / TIMEOUT"];
	s59 -> s65 [label="Alert(FATAL,UNEXPECTED_MESSAGE) / TIMEOUT"];
	s60 -> s60 [label="HELLO_VERIFY_REQUEST / TIMEOUT"];
	s60 -> s60 [label="PSK_SERVER_HELLO / TIMEOUT"];
	s60 -> s60 [label="PSK_SERVER_HELLO_EPOCH_1 / TIMEOUT"];
	s60 -> s60 [label="SERVER_HELLO_DONE / TIMEOUT"];
	s60 -> s72 [label="CHANGE_CIPHER_SPEC / TIMEOUT"];
	s60 -> s60 [label="FINISHED / TIMEOUT"];
	s60 -> s61 [label="FINISHED_EPOCH_0 / TIMEOUT"];
	s60 -> s61 [label="APPLICATION_EPOCH_0 / TIMEOUT"];
	s60 -> s60 [label="APPLICATION / TIMEOUT"];
	s60 -> s60 [label="Alert(WARNING,CLOSE_NOTIFY) / TIMEOUT"];
	s60 -> s60 [label="Alert(FATAL,UNEXPECTED_MESSAGE) / TIMEOUT"];
	s61 -> s61 [label="HELLO_VERIFY_REQUEST / TIMEOUT"];
	s61 -> s61 [label="PSK_SERVER_HELLO / TIMEOUT"];
	s61 -> s3 [label="PSK_SERVER_HELLO_EPOCH_1 / UNKNOWN_MESSAGE"];
	s61 -> s61 [label="SERVER_HELLO_DONE / TIMEOUT"];
	s61 -> s62 [label="CHANGE_CIPHER_SPEC / TIMEOUT"];
	s61 -> s61 [label="FINISHED / TIMEOUT"];
	s61 -> s61 [label="FINISHED_EPOCH_0 / TIMEOUT"];
	s61 -> s61 [label="APPLICATION_EPOCH_0 / TIMEOUT"];
	s61 -> s61 [label="APPLICATION / TIMEOUT"];
	s61 -> s61 [label="Alert(WARNING,CLOSE_NOTIFY) / TIMEOUT"];
	s61 -> s61 [label="Alert(FATAL,UNEXPECTED_MESSAGE) / TIMEOUT"];
	s62 -> s68 [label="HELLO_VERIFY_REQUEST / TIMEOUT"];
	s62 -> s68 [label="PSK_SERVER_HELLO / TIMEOUT"];
	s62 -> s68 [label="PSK_SERVER_HELLO_EPOCH_1 / TIMEOUT"];
	s62 -> s68 [label="SERVER_HELLO_DONE / TIMEOUT"];
	s62 -> s62 [label="CHANGE_CIPHER_SPEC / TIMEOUT"];
	s62 -> s68 [label="FINISHED / TIMEOUT"];
	s62 -> s62 [label="FINISHED_EPOCH_0 / TIMEOUT"];
	s62 -> s62 [label="APPLICATION_EPOCH_0 / TIMEOUT"];
	s62 -> s68 [label="APPLICATION / TIMEOUT"];
	s62 -> s68 [label="Alert(WARNING,CLOSE_NOTIFY) / TIMEOUT"];
	s62 -> s68 [label="Alert(FATAL,UNEXPECTED_MESSAGE) / TIMEOUT"];
	s63 -> s64 [label="HELLO_VERIFY_REQUEST / TIMEOUT"];
	s63 -> s64 [label="PSK_SERVER_HELLO / TIMEOUT"];
	s63 -> s64 [label="PSK_SERVER_HELLO_EPOCH_1 / TIMEOUT"];
	s63 -> s64 [label="SERVER_HELLO_DONE / TIMEOUT"];
	s63 -> s58 [label="CHANGE_CIPHER_SPEC / TIMEOUT"];
	s63 -> s64 [label="FINISHED / TIMEOUT"];
	s63 -> s63 [label="FINISHED_EPOCH_0 / TIMEOUT"];
	s63 -> s63 [label="APPLICATION_EPOCH_0 / TIMEOUT"];
	s63 -> s64 [label="APPLICATION / TIMEOUT"];
	s63 -> s64 [label="Alert(WARNING,CLOSE_NOTIFY) / TIMEOUT"];
	s63 -> s64 [label="Alert(FATAL,UNEXPECTED_MESSAGE) / TIMEOUT"];
	s64 -> s57 [label="HELLO_VERIFY_REQUEST / TIMEOUT"];
	s64 -> s57 [label="PSK_SERVER_HELLO / TIMEOUT"];
	s64 -> s57 [label="PSK_SERVER_HELLO_EPOCH_1 / TIMEOUT"];
	s64 -> s57 [label="SERVER_HELLO_DONE / TIMEOUT"];
	s64 -> s58 [label="CHANGE_CIPHER_SPEC / TIMEOUT"];
	s64 -> s57 [label="FINISHED / TIMEOUT"];
	s64 -> s64 [label="FINISHED_EPOCH_0 / TIMEOUT"];
	s64 -> s64 [label="APPLICATION_EPOCH_0 / TIMEOUT"];
	s64 -> s57 [label="APPLICATION / TIMEOUT"];
	s64 -> s57 [label="Alert(WARNING,CLOSE_NOTIFY) / TIMEOUT"];
	s64 -> s57 [label="Alert(FATAL,UNEXPECTED_MESSAGE) / TIMEOUT"];
	s65 -> s66 [label="HELLO_VERIFY_REQUEST / TIMEOUT"];
	s65 -> s66 [label="PSK_SERVER_HELLO / TIMEOUT"];
	s65 -> s66 [label="PSK_SERVER_HELLO_EPOCH_1 / TIMEOUT"];
	s65 -> s66 [label="SERVER_HELLO_DONE / TIMEOUT"];
	s65 -> s59 [label="CHANGE_CIPHER_SPEC / TIMEOUT"];
	s65 -> s66 [label="FINISHED / TIMEOUT"];
	s65 -> s63 [label="FINISHED_EPOCH_0 / TIMEOUT"];
	s65 -> s63 [label="APPLICATION_EPOCH_0 / TIMEOUT"];
	s65 -> s66 [label="APPLICATION / TIMEOUT"];
	s65 -> s66 [label="Alert(WARNING,CLOSE_NOTIFY) / TIMEOUT"];
	s65 -> s66 [label="Alert(FATAL,UNEXPECTED_MESSAGE) / TIMEOUT"];
	s66 -> s67 [label="HELLO_VERIFY_REQUEST / TIMEOUT"];
	s66 -> s67 [label="PSK_SERVER_HELLO / TIMEOUT"];
	s66 -> s67 [label="PSK_SERVER_HELLO_EPOCH_1 / TIMEOUT"];
	s66 -> s67 [label="SERVER_HELLO_DONE / TIMEOUT"];
	s66 -> s59 [label="CHANGE_CIPHER_SPEC / TIMEOUT"];
	s66 -> s67 [label="FINISHED / TIMEOUT"];
	s66 -> s64 [label="FINISHED_EPOCH_0 / TIMEOUT"];
	s66 -> s64 [label="APPLICATION_EPOCH_0 / TIMEOUT"];
	s66 -> s67 [label="APPLICATION / TIMEOUT"];
	s66 -> s67 [label="Alert(WARNING,CLOSE_NOTIFY) / TIMEOUT"];
	s66 -> s67 [label="Alert(FATAL,UNEXPECTED_MESSAGE) / TIMEOUT"];
	s67 -> s67 [label="HELLO_VERIFY_REQUEST / TIMEOUT"];
	s67 -> s67 [label="PSK_SERVER_HELLO / TIMEOUT"];
	s67 -> s3 [label="PSK_SERVER_HELLO_EPOCH_1 / Alert(FATAL,BAD_RECORD_MAC)"];
	s67 -> s67 [label="SERVER_HELLO_DONE / TIMEOUT"];
	s67 -> s59 [label="CHANGE_CIPHER_SPEC / TIMEOUT"];
	s67 -> s67 [label="FINISHED / TIMEOUT"];
	s67 -> s57 [label="FINISHED_EPOCH_0 / TIMEOUT"];
	s67 -> s57 [label="APPLICATION_EPOCH_0 / TIMEOUT"];
	s67 -> s67 [label="APPLICATION / TIMEOUT"];
	s67 -> s67 [label="Alert(WARNING,CLOSE_NOTIFY) / TIMEOUT"];
	s67 -> s67 [label="Alert(FATAL,UNEXPECTED_MESSAGE) / TIMEOUT"];
	s68 -> s69 [label="HELLO_VERIFY_REQUEST / TIMEOUT"];
	s68 -> s69 [label="PSK_SERVER_HELLO / TIMEOUT"];
	s68 -> s69 [label="PSK_SERVER_HELLO_EPOCH_1 / TIMEOUT"];
	s68 -> s69 [label="SERVER_HELLO_DONE / TIMEOUT"];
	s68 -> s62 [label="CHANGE_CIPHER_SPEC / TIMEOUT"];
	s68 -> s69 [label="FINISHED / TIMEOUT"];
	s68 -> s68 [label="FINISHED_EPOCH_0 / TIMEOUT"];
	s68 -> s68 [label="APPLICATION_EPOCH_0 / TIMEOUT"];
	s68 -> s69 [label="APPLICATION / TIMEOUT"];
	s68 -> s69 [label="Alert(WARNING,CLOSE_NOTIFY) / TIMEOUT"];
	s68 -> s69 [label="Alert(FATAL,UNEXPECTED_MESSAGE) / TIMEOUT"];
	s69 -> s73 [label="HELLO_VERIFY_REQUEST / TIMEOUT"];
	s69 -> s73 [label="PSK_SERVER_HELLO / TIMEOUT"];
	s69 -> s3 [label="PSK_SERVER_HELLO_EPOCH_1 / UNKNOWN_MESSAGE"];
	s69 -> s73 [label="SERVER_HELLO_DONE / TIMEOUT"];
	s69 -> s62 [label="CHANGE_CIPHER_SPEC / TIMEOUT"];
	s69 -> s73 [label="FINISHED / TIMEOUT"];
	s69 -> s69 [label="FINISHED_EPOCH_0 / TIMEOUT"];
	s69 -> s69 [label="APPLICATION_EPOCH_0 / TIMEOUT"];
	s69 -> s73 [label="APPLICATION / TIMEOUT"];
	s69 -> s73 [label="Alert(WARNING,CLOSE_NOTIFY) / TIMEOUT"];
	s69 -> s73 [label="Alert(FATAL,UNEXPECTED_MESSAGE) / TIMEOUT"];
	s70 -> s70 [label="HELLO_VERIFY_REQUEST / TIMEOUT"];
	s70 -> s70 [label="PSK_SERVER_HELLO / TIMEOUT"];
	s70 -> s70 [label="PSK_SERVER_HELLO_EPOCH_1 / TIMEOUT"];
	s70 -> s70 [label="SERVER_HELLO_DONE / TIMEOUT"];
	s70 -> s71 [label="CHANGE_CIPHER_SPEC / TIMEOUT"];
	s70 -> s70 [label="FINISHED / TIMEOUT"];
	s70 -> s70 [label="FINISHED_EPOCH_0 / TIMEOUT"];
	s70 -> s70 [label="APPLICATION_EPOCH_0 / TIMEOUT"];
	s70 -> s70 [label="APPLICATION / TIMEOUT"];
	s70 -> s3 [label="Alert(WARNING,CLOSE_NOTIFY) / TIMEOUT"];
	s70 -> s3 [label="Alert(FATAL,UNEXPECTED_MESSAGE) / TIMEOUT"];
	s71 -> s3 [label="HELLO_VERIFY_REQUEST / Alert(FATAL,BAD_RECORD_MAC)"];
	s71 -> s3 [label="PSK_SERVER_HELLO / Alert(FATAL,BAD_RECORD_MAC)"];
	s71 -> s3 [label="PSK_SERVER_HELLO_EPOCH_1 / Alert(FATAL,BAD_RECORD_MAC)"];
	s71 -> s3 [label="SERVER_HELLO_DONE / Alert(FATAL,BAD_RECORD_MAC)"];
	s71 -> s3 [label="CHANGE_CIPHER_SPEC / Alert(FATAL,BAD_RECORD_MAC)"];
	s71 -> s3 [label="FINISHED / Alert(FATAL,BAD_RECORD_MAC)"];
	s71 -> s21 [label="FINISHED_EPOCH_0 / TIMEOUT"];
	s71 -> s21 [label="APPLICATION_EPOCH_0 / TIMEOUT"];
	s71 -> s71 [label="APPLICATION / TIMEOUT"];
	s71 -> s3 [label="Alert(WARNING,CLOSE_NOTIFY) / Alert(FATAL,BAD_RECORD_MAC)"];
	s71 -> s3 [label="Alert(FATAL,UNEXPECTED_MESSAGE) / Alert(FATAL,BAD_RECORD_MAC)"];
	s72 -> s74 [label="HELLO_VERIFY_REQUEST / TIMEOUT"];
	s72 -> s74 [label="PSK_SERVER_HELLO / TIMEOUT"];
	s72 -> s74 [label="PSK_SERVER_HELLO_EPOCH_1 / TIMEOUT"];
	s72 -> s74 [label="SERVER_HELLO_DONE / TIMEOUT"];
	s72 -> s72 [label="CHANGE_CIPHER_SPEC / TIMEOUT"];
	s72 -> s74 [label="FINISHED / TIMEOUT"];
	s72 -> s62 [label="FINISHED_EPOCH_0 / TIMEOUT"];
	s72 -> s62 [label="APPLICATION_EPOCH_0 / TIMEOUT"];
	s72 -> s74 [label="APPLICATION / TIMEOUT"];
	s72 -> s74 [label="Alert(WARNING,CLOSE_NOTIFY) / TIMEOUT"];
	s72 -> s74 [label="Alert(FATAL,UNEXPECTED_MESSAGE) / TIMEOUT"];
	s73 -> s61 [label="HELLO_VERIFY_REQUEST / TIMEOUT"];
	s73 -> s61 [label="PSK_SERVER_HELLO / TIMEOUT"];
	s73 -> s61 [label="PSK_SERVER_HELLO_EPOCH_1 / TIMEOUT"];
	s73 -> s61 [label="SERVER_HELLO_DONE / TIMEOUT"];
	s73 -> s62 [label="CHANGE_CIPHER_SPEC / TIMEOUT"];
	s73 -> s61 [label="FINISHED / TIMEOUT"];
	s73 -> s73 [label="FINISHED_EPOCH_0 / TIMEOUT"];
	s73 -> s73 [label="APPLICATION_EPOCH_0 / TIMEOUT"];
	s73 -> s61 [label="APPLICATION / TIMEOUT"];
	s73 -> s61 [label="Alert(WARNING,CLOSE_NOTIFY) / TIMEOUT"];
	s73 -> s61 [label="Alert(FATAL,UNEXPECTED_MESSAGE) / TIMEOUT"];
	s74 -> s75 [label="HELLO_VERIFY_REQUEST / TIMEOUT"];
	s74 -> s75 [label="PSK_SERVER_HELLO / TIMEOUT"];
	s74 -> s75 [label="PSK_SERVER_HELLO_EPOCH_1 / TIMEOUT"];
	s74 -> s75 [label="SERVER_HELLO_DONE / TIMEOUT"];
	s74 -> s72 [label="CHANGE_CIPHER_SPEC / TIMEOUT"];
	s74 -> s75 [label="FINISHED / TIMEOUT"];
	s74 -> s68 [label="FINISHED_EPOCH_0 / TIMEOUT"];
	s74 -> s68 [label="APPLICATION_EPOCH_0 / TIMEOUT"];
	s74 -> s75 [label="APPLICATION / TIMEOUT"];
	s74 -> s75 [label="Alert(WARNING,CLOSE_NOTIFY) / TIMEOUT"];
	s74 -> s75 [label="Alert(FATAL,UNEXPECTED_MESSAGE) / TIMEOUT"];
	s75 -> s77 [label="HELLO_VERIFY_REQUEST / TIMEOUT"];
	s75 -> s77 [label="PSK_SERVER_HELLO / TIMEOUT"];
	s75 -> s3 [label="PSK_SERVER_HELLO_EPOCH_1 / Alert(FATAL,BAD_RECORD_MAC)"];
	s75 -> s77 [label="SERVER_HELLO_DONE / TIMEOUT"];
	s75 -> s72 [label="CHANGE_CIPHER_SPEC / TIMEOUT"];
	s75 -> s77 [label="FINISHED / TIMEOUT"];
	s75 -> s69 [label="FINISHED_EPOCH_0 / TIMEOUT"];
	s75 -> s69 [label="APPLICATION_EPOCH_0 / TIMEOUT"];
	s75 -> s77 [label="APPLICATION / TIMEOUT"];
	s75 -> s77 [label="Alert(WARNING,CLOSE_NOTIFY) / TIMEOUT"];
	s75 -> s77 [label="Alert(FATAL,UNEXPECTED_MESSAGE) / TIMEOUT"];
	s76 -> s76 [label="HELLO_VERIFY_REQUEST / TIMEOUT"];
	s76 -> s76 [label="PSK_SERVER_HELLO / TIMEOUT"];
	s76 -> s3 [label="PSK_SERVER_HELLO_EPOCH_1 / UNKNOWN_MESSAGE"];
	s76 -> s76 [label="SERVER_HELLO_DONE / TIMEOUT"];
	s76 -> s3 [label="CHANGE_CIPHER_SPEC / TIMEOUT"];
	s76 -> s76 [label="FINISHED / TIMEOUT"];
	s76 -> s76 [label="FINISHED_EPOCH_0 / TIMEOUT"];
	s76 -> s76 [label="APPLICATION_EPOCH_0 / TIMEOUT"];
	s76 -> s76 [label="APPLICATION / TIMEOUT"];
	s76 -> s76 [label="Alert(WARNING,CLOSE_NOTIFY) / TIMEOUT"];
	s76 -> s76 [label="Alert(FATAL,UNEXPECTED_MESSAGE) / TIMEOUT"];
	s77 -> s78 [label="HELLO_VERIFY_REQUEST / TIMEOUT"];
	s77 -> s78 [label="PSK_SERVER_HELLO / TIMEOUT"];
	s77 -> s78 [label="PSK_SERVER_HELLO_EPOCH_1 / TIMEOUT"];
	s77 -> s78 [label="SERVER_HELLO_DONE / TIMEOUT"];
	s77 -> s72 [label="CHANGE_CIPHER_SPEC / TIMEOUT"];
	s77 -> s78 [label="FINISHED / TIMEOUT"];
	s77 -> s73 [label="FINISHED_EPOCH_0 / TIMEOUT"];
	s77 -> s73 [label="APPLICATION_EPOCH_0 / TIMEOUT"];
	s77 -> s78 [label="APPLICATION / TIMEOUT"];
	s77 -> s78 [label="Alert(WARNING,CLOSE_NOTIFY) / TIMEOUT"];
	s77 -> s78 [label="Alert(FATAL,UNEXPECTED_MESSAGE) / TIMEOUT"];
	s78 -> s78 [label="HELLO_VERIFY_REQUEST / TIMEOUT"];
	s78 -> s78 [label="PSK_SERVER_HELLO / TIMEOUT"];
	s78 -> s3 [label="PSK_SERVER_HELLO_EPOCH_1 / Alert(FATAL,BAD_RECORD_MAC)"];
	s78 -> s78 [label="SERVER_HELLO_DONE / TIMEOUT"];
	s78 -> s72 [label="CHANGE_CIPHER_SPEC / TIMEOUT"];
	s78 -> s78 [label="FINISHED / TIMEOUT"];
	s78 -> s61 [label="FINISHED_EPOCH_0 / TIMEOUT"];
	s78 -> s61 [label="APPLICATION_EPOCH_0 / TIMEOUT"];
	s78 -> s78 [label="APPLICATION / TIMEOUT"];
	s78 -> s78 [label="Alert(WARNING,CLOSE_NOTIFY) / TIMEOUT"];
	s78 -> s78 [label="Alert(FATAL,UNEXPECTED_MESSAGE) / TIMEOUT"];
	s79 -> s79 [label="HELLO_VERIFY_REQUEST / TIMEOUT"];
	s79 -> s79 [label="PSK_SERVER_HELLO / TIMEOUT"];
	s79 -> s79 [label="PSK_SERVER_HELLO_EPOCH_1 / TIMEOUT"];
	s79 -> s79 [label="SERVER_HELLO_DONE / TIMEOUT"];
	s79 -> s59 [label="CHANGE_CIPHER_SPEC / TIMEOUT"];
	s79 -> s79 [label="FINISHED / TIMEOUT"];
	s79 -> s21 [label="FINISHED_EPOCH_0 / TIMEOUT"];
	s79 -> s21 [label="APPLICATION_EPOCH_0 / TIMEOUT"];
	s79 -> s20 [label="APPLICATION / TIMEOUT"];
	s79 -> s3 [label="Alert(WARNING,CLOSE_NOTIFY) / TIMEOUT"];
	s79 -> s3 [label="Alert(FATAL,UNEXPECTED_MESSAGE) / TIMEOUT"];
	s80 -> s80 [label="HELLO_VERIFY_REQUEST / TIMEOUT"];
	s80 -> s80 [label="PSK_SERVER_HELLO / TIMEOUT"];
	s80 -> s80 [label="PSK_SERVER_HELLO_EPOCH_1 / TIMEOUT"];
	s80 -> s80 [label="SERVER_HELLO_DONE / TIMEOUT"];
	s80 -> s40 [label="CHANGE_CIPHER_SPEC / TIMEOUT"];
	s80 -> s80 [label="FINISHED / TIMEOUT"];
	s80 -> s21 [label="FINISHED_EPOCH_0 / TIMEOUT"];
	s80 -> s21 [label="APPLICATION_EPOCH_0 / TIMEOUT"];
	s80 -> s20 [label="APPLICATION / TIMEOUT"];
	s80 -> s3 [label="Alert(WARNING,CLOSE_NOTIFY) / TIMEOUT"];
	s80 -> s3 [label="Alert(FATAL,UNEXPECTED_MESSAGE) / TIMEOUT"];
	s81 -> s81 [label="HELLO_VERIFY_REQUEST / TIMEOUT"];
	s81 -> s81 [label="PSK_SERVER_HELLO / TIMEOUT"];
	s81 -> s3 [label="PSK_SERVER_HELLO_EPOCH_1 / Alert(FATAL,BAD_RECORD_MAC)"];
	s81 -> s81 [label="SERVER_HELLO_DONE / TIMEOUT"];
	s81 -> s36 [label="CHANGE_CIPHER_SPEC / TIMEOUT"];
	s81 -> s81 [label="FINISHED / TIMEOUT"];
	s81 -> s28 [label="FINISHED_EPOCH_0 / TIMEOUT"];
	s81 -> s28 [label="APPLICATION_EPOCH_0 / TIMEOUT"];
	s81 -> s81 [label="APPLICATION / TIMEOUT"];
	s81 -> s81 [label="Alert(WARNING,CLOSE_NOTIFY) / TIMEOUT"];
	s81 -> s81 [label="Alert(FATAL,UNEXPECTED_MESSAGE) / TIMEOUT"];

__start0 [label="" shape="none" width="0" height="0"];
__start0 -> s0;

}
