digraph g {

	s0 [shape="circle" label="s0"];
	s1 [shape="circle" label="s1"];
	s2 [shape="circle" label="s2"];
	s3 [shape="circle" label="s3"];
	s4 [shape="circle" label="s4"];
	s5 [shape="circle" label="s5"];
	s6 [shape="circle" label="s6"];
	s7 [shape="circle" label="s7"];
	s8 [shape="circle" label="s8"];
	s9 [shape="circle" label="s9"];
	s10 [shape="circle" label="s10"];
	s11 [shape="circle" label="s11"];
	s12 [shape="circle" label="s12"];
	s13 [shape="circle" label="s13"];
	s0 -> s6 [label="HELLO_VERIFY_REQUEST / CLIENT_HELLO+"];
	s0 -> s4 [label="ECDH_SERVER_HELLO / CLIENT_HELLO"];
	s0 -> s1 [label="ECDH_SERVER_KEY_EXCHANGE / CLIENT_HELLO,Alert(FATAL,UNEXPECTED_MESSAGE)"];
	s0 -> s7 [label="DH_SERVER_HELLO / CLIENT_HELLO"];
	s0 -> s1 [label="DH_SERVER_KEY_EXCHANGE / CLIENT_HELLO,Alert(FATAL,UNEXPECTED_MESSAGE)"];
	s0 -> s2 [label="RSA_SERVER_HELLO / CLIENT_HELLO"];
	s0 -> s1 [label="RSA_SIGN_CERTIFICATE_REQUEST / CLIENT_HELLO,Alert(FATAL,UNEXPECTED_MESSAGE)"];
	s0 -> s1 [label="RSA_FIXED_ECDH_CERTIFICATE_REQUEST / CLIENT_HELLO,Alert(FATAL,UNEXPECTED_MESSAGE)"];
	s0 -> s1 [label="RSA_FIXED_DH_CERTIFICATE_REQUEST / CLIENT_HELLO,Alert(FATAL,UNEXPECTED_MESSAGE)"];
	s0 -> s1 [label="DSS_SIGN_CERTIFICATE_REQUEST / CLIENT_HELLO,Alert(FATAL,UNEXPECTED_MESSAGE)"];
	s0 -> s1 [label="DSS_FIXED_DH_CERTIFICATE_REQUEST / CLIENT_HELLO,Alert(FATAL,UNEXPECTED_MESSAGE)"];
	s0 -> s1 [label="SERVER_HELLO_DONE / CLIENT_HELLO,Alert(FATAL,UNEXPECTED_MESSAGE)"];
	s0 -> s1 [label="CHANGE_CIPHER_SPEC / CLIENT_HELLO"];
	s0 -> s1 [label="FINISHED / CLIENT_HELLO,Alert(FATAL,INTERNAL_ERROR)"];
	s0 -> s1 [label="APPLICATION / CLIENT_HELLO,Alert(FATAL,UNEXPECTED_MESSAGE)"];
	s0 -> s1 [label="CERTIFICATE / CLIENT_HELLO,Alert(FATAL,UNEXPECTED_MESSAGE)"];
	s0 -> s1 [label="EMPTY_CERTIFICATE / CLIENT_HELLO,Alert(FATAL,UNEXPECTED_MESSAGE)"];
	s0 -> s1 [label="Alert(WARNING,CLOSE_NOTIFY) / CLIENT_HELLO"];
	s0 -> s1 [label="Alert(FATAL,UNEXPECTED_MESSAGE) / CLIENT_HELLO"];
	s1 -> s1 [label="HELLO_VERIFY_REQUEST / TIMEOUT"];
	s1 -> s1 [label="ECDH_SERVER_HELLO / TIMEOUT"];
	s1 -> s1 [label="ECDH_SERVER_KEY_EXCHANGE / TIMEOUT"];
	s1 -> s1 [label="DH_SERVER_HELLO / TIMEOUT"];
	s1 -> s1 [label="DH_SERVER_KEY_EXCHANGE / TIMEOUT"];
	s1 -> s1 [label="RSA_SERVER_HELLO / TIMEOUT"];
	s1 -> s1 [label="RSA_SIGN_CERTIFICATE_REQUEST / TIMEOUT"];
	s1 -> s1 [label="RSA_FIXED_ECDH_CERTIFICATE_REQUEST / TIMEOUT"];
	s1 -> s1 [label="RSA_FIXED_DH_CERTIFICATE_REQUEST / TIMEOUT"];
	s1 -> s1 [label="DSS_SIGN_CERTIFICATE_REQUEST / TIMEOUT"];
	s1 -> s1 [label="DSS_FIXED_DH_CERTIFICATE_REQUEST / TIMEOUT"];
	s1 -> s1 [label="SERVER_HELLO_DONE / TIMEOUT"];
	s1 -> s1 [label="CHANGE_CIPHER_SPEC / TIMEOUT"];
	s1 -> s1 [label="FINISHED / TIMEOUT"];
	s1 -> s1 [label="APPLICATION / TIMEOUT"];
	s1 -> s1 [label="CERTIFICATE / TIMEOUT"];
	s1 -> s1 [label="EMPTY_CERTIFICATE / TIMEOUT"];
	s1 -> s1 [label="Alert(WARNING,CLOSE_NOTIFY) / TIMEOUT"];
	s1 -> s1 [label="Alert(FATAL,UNEXPECTED_MESSAGE) / TIMEOUT"];
	s2 -> s6 [label="HELLO_VERIFY_REQUEST / CLIENT_HELLO"];
	s2 -> s1 [label="ECDH_SERVER_HELLO / Alert(FATAL,UNEXPECTED_MESSAGE)"];
	s2 -> s1 [label="ECDH_SERVER_KEY_EXCHANGE / Alert(FATAL,UNEXPECTED_MESSAGE)"];
	s2 -> s1 [label="DH_SERVER_HELLO / Alert(FATAL,UNEXPECTED_MESSAGE)"];
	s2 -> s1 [label="DH_SERVER_KEY_EXCHANGE / Alert(FATAL,UNEXPECTED_MESSAGE)"];
	s2 -> s1 [label="RSA_SERVER_HELLO / Alert(FATAL,UNEXPECTED_MESSAGE)"];
	s2 -> s1 [label="RSA_SIGN_CERTIFICATE_REQUEST / Alert(FATAL,UNEXPECTED_MESSAGE)"];
	s2 -> s1 [label="RSA_FIXED_ECDH_CERTIFICATE_REQUEST / Alert(FATAL,UNEXPECTED_MESSAGE)"];
	s2 -> s1 [label="RSA_FIXED_DH_CERTIFICATE_REQUEST / Alert(FATAL,UNEXPECTED_MESSAGE)"];
	s2 -> s1 [label="DSS_SIGN_CERTIFICATE_REQUEST / Alert(FATAL,UNEXPECTED_MESSAGE)"];
	s2 -> s1 [label="DSS_FIXED_DH_CERTIFICATE_REQUEST / Alert(FATAL,UNEXPECTED_MESSAGE)"];
	s2 -> s1 [label="SERVER_HELLO_DONE / Alert(FATAL,UNEXPECTED_MESSAGE)"];
	s2 -> s1 [label="CHANGE_CIPHER_SPEC / TIMEOUT"];
	s2 -> s1 [label="FINISHED / Alert(FATAL,INTERNAL_ERROR)"];
	s2 -> s1 [label="APPLICATION / Alert(FATAL,UNEXPECTED_MESSAGE)"];
	s2 -> s3 [label="CERTIFICATE / TIMEOUT"];
	s2 -> s1 [label="EMPTY_CERTIFICATE / Alert(FATAL,DECODE_ERROR)"];
	s2 -> s1 [label="Alert(WARNING,CLOSE_NOTIFY) / TIMEOUT"];
	s2 -> s1 [label="Alert(FATAL,UNEXPECTED_MESSAGE) / TIMEOUT"];
	s3 -> s1 [label="HELLO_VERIFY_REQUEST / Alert(FATAL,UNEXPECTED_MESSAGE)"];
	s3 -> s1 [label="ECDH_SERVER_HELLO / Alert(FATAL,UNEXPECTED_MESSAGE)"];
	s3 -> s1 [label="ECDH_SERVER_KEY_EXCHANGE / Alert(FATAL,UNEXPECTED_MESSAGE)"];
	s3 -> s1 [label="DH_SERVER_HELLO / Alert(FATAL,UNEXPECTED_MESSAGE)"];
	s3 -> s1 [label="DH_SERVER_KEY_EXCHANGE / Alert(FATAL,UNEXPECTED_MESSAGE)"];
	s3 -> s1 [label="RSA_SERVER_HELLO / Alert(FATAL,UNEXPECTED_MESSAGE)"];
	s3 -> s9 [label="RSA_SIGN_CERTIFICATE_REQUEST / TIMEOUT"];
	s3 -> s9 [label="RSA_FIXED_ECDH_CERTIFICATE_REQUEST / TIMEOUT"];
	s3 -> s9 [label="RSA_FIXED_DH_CERTIFICATE_REQUEST / TIMEOUT"];
	s3 -> s9 [label="DSS_SIGN_CERTIFICATE_REQUEST / TIMEOUT"];
	s3 -> s9 [label="DSS_FIXED_DH_CERTIFICATE_REQUEST / TIMEOUT"];
	s3 -> s10 [label="SERVER_HELLO_DONE / RSA_CLIENT_KEY_EXCHANGE,CHANGE_CIPHER_SPEC,FINISHED"];
	s3 -> s1 [label="CHANGE_CIPHER_SPEC / TIMEOUT"];
	s3 -> s1 [label="FINISHED / Alert(FATAL,INTERNAL_ERROR)"];
	s3 -> s1 [label="APPLICATION / Alert(FATAL,UNEXPECTED_MESSAGE)"];
	s3 -> s1 [label="CERTIFICATE / Alert(FATAL,UNEXPECTED_MESSAGE)"];
	s3 -> s1 [label="EMPTY_CERTIFICATE / Alert(FATAL,UNEXPECTED_MESSAGE)"];
	s3 -> s1 [label="Alert(WARNING,CLOSE_NOTIFY) / TIMEOUT"];
	s3 -> s1 [label="Alert(FATAL,UNEXPECTED_MESSAGE) / TIMEOUT"];
	s4 -> s6 [label="HELLO_VERIFY_REQUEST / CLIENT_HELLO"];
	s4 -> s1 [label="ECDH_SERVER_HELLO / Alert(FATAL,UNEXPECTED_MESSAGE)"];
	s4 -> s1 [label="ECDH_SERVER_KEY_EXCHANGE / Alert(FATAL,UNEXPECTED_MESSAGE)"];
	s4 -> s1 [label="DH_SERVER_HELLO / Alert(FATAL,UNEXPECTED_MESSAGE)"];
	s4 -> s1 [label="DH_SERVER_KEY_EXCHANGE / Alert(FATAL,UNEXPECTED_MESSAGE)"];
	s4 -> s1 [label="RSA_SERVER_HELLO / Alert(FATAL,UNEXPECTED_MESSAGE)"];
	s4 -> s1 [label="RSA_SIGN_CERTIFICATE_REQUEST / Alert(FATAL,UNEXPECTED_MESSAGE)"];
	s4 -> s1 [label="RSA_FIXED_ECDH_CERTIFICATE_REQUEST / Alert(FATAL,UNEXPECTED_MESSAGE)"];
	s4 -> s1 [label="RSA_FIXED_DH_CERTIFICATE_REQUEST / Alert(FATAL,UNEXPECTED_MESSAGE)"];
	s4 -> s1 [label="DSS_SIGN_CERTIFICATE_REQUEST / Alert(FATAL,UNEXPECTED_MESSAGE)"];
	s4 -> s1 [label="DSS_FIXED_DH_CERTIFICATE_REQUEST / Alert(FATAL,UNEXPECTED_MESSAGE)"];
	s4 -> s1 [label="SERVER_HELLO_DONE / Alert(FATAL,UNEXPECTED_MESSAGE)"];
	s4 -> s1 [label="CHANGE_CIPHER_SPEC / TIMEOUT"];
	s4 -> s1 [label="FINISHED / Alert(FATAL,INTERNAL_ERROR)"];
	s4 -> s1 [label="APPLICATION / Alert(FATAL,UNEXPECTED_MESSAGE)"];
	s4 -> s5 [label="CERTIFICATE / TIMEOUT"];
	s4 -> s1 [label="EMPTY_CERTIFICATE / Alert(FATAL,DECODE_ERROR)"];
	s4 -> s1 [label="Alert(WARNING,CLOSE_NOTIFY) / TIMEOUT"];
	s4 -> s1 [label="Alert(FATAL,UNEXPECTED_MESSAGE) / TIMEOUT"];
	s5 -> s1 [label="HELLO_VERIFY_REQUEST / Alert(FATAL,UNEXPECTED_MESSAGE)"];
	s5 -> s1 [label="ECDH_SERVER_HELLO / Alert(FATAL,UNEXPECTED_MESSAGE)"];
	s5 -> s13 [label="ECDH_SERVER_KEY_EXCHANGE / TIMEOUT"];
	s5 -> s1 [label="DH_SERVER_HELLO / Alert(FATAL,UNEXPECTED_MESSAGE)"];
	s5 -> s1 [label="DH_SERVER_KEY_EXCHANGE / Alert(FATAL,ILLEGAL_PARAMETER)"];
	s5 -> s1 [label="RSA_SERVER_HELLO / Alert(FATAL,UNEXPECTED_MESSAGE)"];
	s5 -> s1 [label="RSA_SIGN_CERTIFICATE_REQUEST / Alert(FATAL,UNEXPECTED_MESSAGE)"];
	s5 -> s1 [label="RSA_FIXED_ECDH_CERTIFICATE_REQUEST / Alert(FATAL,UNEXPECTED_MESSAGE)"];
	s5 -> s1 [label="RSA_FIXED_DH_CERTIFICATE_REQUEST / Alert(FATAL,UNEXPECTED_MESSAGE)"];
	s5 -> s1 [label="DSS_SIGN_CERTIFICATE_REQUEST / Alert(FATAL,UNEXPECTED_MESSAGE)"];
	s5 -> s1 [label="DSS_FIXED_DH_CERTIFICATE_REQUEST / Alert(FATAL,UNEXPECTED_MESSAGE)"];
	s5 -> s1 [label="SERVER_HELLO_DONE / Alert(FATAL,UNEXPECTED_MESSAGE)"];
	s5 -> s1 [label="CHANGE_CIPHER_SPEC / TIMEOUT"];
	s5 -> s1 [label="FINISHED / Alert(FATAL,INTERNAL_ERROR)"];
	s5 -> s1 [label="APPLICATION / Alert(FATAL,UNEXPECTED_MESSAGE)"];
	s5 -> s1 [label="CERTIFICATE / Alert(FATAL,UNEXPECTED_MESSAGE)"];
	s5 -> s1 [label="EMPTY_CERTIFICATE / Alert(FATAL,UNEXPECTED_MESSAGE)"];
	s5 -> s1 [label="Alert(WARNING,CLOSE_NOTIFY) / TIMEOUT"];
	s5 -> s1 [label="Alert(FATAL,UNEXPECTED_MESSAGE) / TIMEOUT"];
	s6 -> s6 [label="HELLO_VERIFY_REQUEST / CLIENT_HELLO"];
	s6 -> s4 [label="ECDH_SERVER_HELLO / TIMEOUT"];
	s6 -> s1 [label="ECDH_SERVER_KEY_EXCHANGE / Alert(FATAL,UNEXPECTED_MESSAGE)"];
	s6 -> s7 [label="DH_SERVER_HELLO / TIMEOUT"];
	s6 -> s1 [label="DH_SERVER_KEY_EXCHANGE / Alert(FATAL,UNEXPECTED_MESSAGE)"];
	s6 -> s2 [label="RSA_SERVER_HELLO / TIMEOUT"];
	s6 -> s1 [label="RSA_SIGN_CERTIFICATE_REQUEST / Alert(FATAL,UNEXPECTED_MESSAGE)"];
	s6 -> s1 [label="RSA_FIXED_ECDH_CERTIFICATE_REQUEST / Alert(FATAL,UNEXPECTED_MESSAGE)"];
	s6 -> s1 [label="RSA_FIXED_DH_CERTIFICATE_REQUEST / Alert(FATAL,UNEXPECTED_MESSAGE)"];
	s6 -> s1 [label="DSS_SIGN_CERTIFICATE_REQUEST / Alert(FATAL,UNEXPECTED_MESSAGE)"];
	s6 -> s1 [label="DSS_FIXED_DH_CERTIFICATE_REQUEST / Alert(FATAL,UNEXPECTED_MESSAGE)"];
	s6 -> s1 [label="SERVER_HELLO_DONE / Alert(FATAL,UNEXPECTED_MESSAGE)"];
	s6 -> s1 [label="CHANGE_CIPHER_SPEC / TIMEOUT"];
	s6 -> s1 [label="FINISHED / Alert(FATAL,INTERNAL_ERROR)"];
	s6 -> s1 [label="APPLICATION / Alert(FATAL,UNEXPECTED_MESSAGE)"];
	s6 -> s1 [label="CERTIFICATE / Alert(FATAL,UNEXPECTED_MESSAGE)"];
	s6 -> s1 [label="EMPTY_CERTIFICATE / Alert(FATAL,UNEXPECTED_MESSAGE)"];
	s6 -> s1 [label="Alert(WARNING,CLOSE_NOTIFY) / TIMEOUT"];
	s6 -> s1 [label="Alert(FATAL,UNEXPECTED_MESSAGE) / TIMEOUT"];
	s7 -> s6 [label="HELLO_VERIFY_REQUEST / CLIENT_HELLO"];
	s7 -> s1 [label="ECDH_SERVER_HELLO / Alert(FATAL,UNEXPECTED_MESSAGE)"];
	s7 -> s1 [label="ECDH_SERVER_KEY_EXCHANGE / Alert(FATAL,UNEXPECTED_MESSAGE)"];
	s7 -> s1 [label="DH_SERVER_HELLO / Alert(FATAL,UNEXPECTED_MESSAGE)"];
	s7 -> s1 [label="DH_SERVER_KEY_EXCHANGE / Alert(FATAL,UNEXPECTED_MESSAGE)"];
	s7 -> s1 [label="RSA_SERVER_HELLO / Alert(FATAL,UNEXPECTED_MESSAGE)"];
	s7 -> s1 [label="RSA_SIGN_CERTIFICATE_REQUEST / Alert(FATAL,UNEXPECTED_MESSAGE)"];
	s7 -> s1 [label="RSA_FIXED_ECDH_CERTIFICATE_REQUEST / Alert(FATAL,UNEXPECTED_MESSAGE)"];
	s7 -> s1 [label="RSA_FIXED_DH_CERTIFICATE_REQUEST / Alert(FATAL,UNEXPECTED_MESSAGE)"];
	s7 -> s1 [label="DSS_SIGN_CERTIFICATE_REQUEST / Alert(FATAL,UNEXPECTED_MESSAGE)"];
	s7 -> s1 [label="DSS_FIXED_DH_CERTIFICATE_REQUEST / Alert(FATAL,UNEXPECTED_MESSAGE)"];
	s7 -> s1 [label="SERVER_HELLO_DONE / Alert(FATAL,UNEXPECTED_MESSAGE)"];
	s7 -> s1 [label="CHANGE_CIPHER_SPEC / TIMEOUT"];
	s7 -> s1 [label="FINISHED / Alert(FATAL,INTERNAL_ERROR)"];
	s7 -> s1 [label="APPLICATION / Alert(FATAL,UNEXPECTED_MESSAGE)"];
	s7 -> s8 [label="CERTIFICATE / TIMEOUT"];
	s7 -> s1 [label="EMPTY_CERTIFICATE / Alert(FATAL,DECODE_ERROR)"];
	s7 -> s1 [label="Alert(WARNING,CLOSE_NOTIFY) / TIMEOUT"];
	s7 -> s1 [label="Alert(FATAL,UNEXPECTED_MESSAGE) / TIMEOUT"];
	s8 -> s1 [label="HELLO_VERIFY_REQUEST / Alert(FATAL,UNEXPECTED_MESSAGE)"];
	s8 -> s1 [label="ECDH_SERVER_HELLO / Alert(FATAL,UNEXPECTED_MESSAGE)"];
	s8 -> s1 [label="ECDH_SERVER_KEY_EXCHANGE / Alert(FATAL,DECODE_ERROR)"];
	s8 -> s1 [label="DH_SERVER_HELLO / Alert(FATAL,UNEXPECTED_MESSAGE)"];
	s8 -> s12 [label="DH_SERVER_KEY_EXCHANGE / TIMEOUT"];
	s8 -> s1 [label="RSA_SERVER_HELLO / Alert(FATAL,UNEXPECTED_MESSAGE)"];
	s8 -> s1 [label="RSA_SIGN_CERTIFICATE_REQUEST / Alert(FATAL,UNEXPECTED_MESSAGE)"];
	s8 -> s1 [label="RSA_FIXED_ECDH_CERTIFICATE_REQUEST / Alert(FATAL,UNEXPECTED_MESSAGE)"];
	s8 -> s1 [label="RSA_FIXED_DH_CERTIFICATE_REQUEST / Alert(FATAL,UNEXPECTED_MESSAGE)"];
	s8 -> s1 [label="DSS_SIGN_CERTIFICATE_REQUEST / Alert(FATAL,UNEXPECTED_MESSAGE)"];
	s8 -> s1 [label="DSS_FIXED_DH_CERTIFICATE_REQUEST / Alert(FATAL,UNEXPECTED_MESSAGE)"];
	s8 -> s1 [label="SERVER_HELLO_DONE / Alert(FATAL,UNEXPECTED_MESSAGE)"];
	s8 -> s1 [label="CHANGE_CIPHER_SPEC / TIMEOUT"];
	s8 -> s1 [label="FINISHED / Alert(FATAL,INTERNAL_ERROR)"];
	s8 -> s1 [label="APPLICATION / Alert(FATAL,UNEXPECTED_MESSAGE)"];
	s8 -> s1 [label="CERTIFICATE / Alert(FATAL,UNEXPECTED_MESSAGE)"];
	s8 -> s1 [label="EMPTY_CERTIFICATE / Alert(FATAL,UNEXPECTED_MESSAGE)"];
	s8 -> s1 [label="Alert(WARNING,CLOSE_NOTIFY) / TIMEOUT"];
	s8 -> s1 [label="Alert(FATAL,UNEXPECTED_MESSAGE) / TIMEOUT"];
	s9 -> s1 [label="HELLO_VERIFY_REQUEST / Alert(FATAL,UNEXPECTED_MESSAGE)"];
	s9 -> s1 [label="ECDH_SERVER_HELLO / Alert(FATAL,UNEXPECTED_MESSAGE)"];
	s9 -> s1 [label="ECDH_SERVER_KEY_EXCHANGE / Alert(FATAL,UNEXPECTED_MESSAGE)"];
	s9 -> s1 [label="DH_SERVER_HELLO / Alert(FATAL,UNEXPECTED_MESSAGE)"];
	s9 -> s1 [label="DH_SERVER_KEY_EXCHANGE / Alert(FATAL,UNEXPECTED_MESSAGE)"];
	s9 -> s1 [label="RSA_SERVER_HELLO / Alert(FATAL,UNEXPECTED_MESSAGE)"];
	s9 -> s1 [label="RSA_SIGN_CERTIFICATE_REQUEST / Alert(FATAL,UNEXPECTED_MESSAGE)"];
	s9 -> s1 [label="RSA_FIXED_ECDH_CERTIFICATE_REQUEST / Alert(FATAL,UNEXPECTED_MESSAGE)"];
	s9 -> s1 [label="RSA_FIXED_DH_CERTIFICATE_REQUEST / Alert(FATAL,UNEXPECTED_MESSAGE)"];
	s9 -> s1 [label="DSS_SIGN_CERTIFICATE_REQUEST / Alert(FATAL,UNEXPECTED_MESSAGE)"];
	s9 -> s1 [label="DSS_FIXED_DH_CERTIFICATE_REQUEST / Alert(FATAL,UNEXPECTED_MESSAGE)"];
	s9 -> s10 [label="SERVER_HELLO_DONE / CERTIFICATE,RSA_CLIENT_KEY_EXCHANGE,CERTIFICATE_VERIFY,CHANGE_CIPHER_SPEC,FINISHED"];
	s9 -> s1 [label="CHANGE_CIPHER_SPEC / TIMEOUT"];
	s9 -> s1 [label="FINISHED / Alert(FATAL,INTERNAL_ERROR)"];
	s9 -> s1 [label="APPLICATION / Alert(FATAL,UNEXPECTED_MESSAGE)"];
	s9 -> s1 [label="CERTIFICATE / Alert(FATAL,UNEXPECTED_MESSAGE)"];
	s9 -> s1 [label="EMPTY_CERTIFICATE / Alert(FATAL,UNEXPECTED_MESSAGE)"];
	s9 -> s1 [label="Alert(WARNING,CLOSE_NOTIFY) / TIMEOUT"];
	s9 -> s1 [label="Alert(FATAL,UNEXPECTED_MESSAGE) / TIMEOUT"];
	s10 -> s1 [label="HELLO_VERIFY_REQUEST / Alert(FATAL,UNEXPECTED_MESSAGE)"];
	s10 -> s1 [label="ECDH_SERVER_HELLO / UNKNOWN_MESSAGE"];
	s10 -> s1 [label="ECDH_SERVER_KEY_EXCHANGE / Alert(FATAL,UNEXPECTED_MESSAGE)"];
	s10 -> s1 [label="DH_SERVER_HELLO / Alert(FATAL,UNEXPECTED_MESSAGE)"];
	s10 -> s1 [label="DH_SERVER_KEY_EXCHANGE / Alert(FATAL,UNEXPECTED_MESSAGE)"];
	s10 -> s1 [label="RSA_SERVER_HELLO / Alert(FATAL,UNEXPECTED_MESSAGE)"];
	s10 -> s1 [label="RSA_SIGN_CERTIFICATE_REQUEST / Alert(FATAL,UNEXPECTED_MESSAGE)"];
	s10 -> s1 [label="RSA_FIXED_ECDH_CERTIFICATE_REQUEST / Alert(FATAL,UNEXPECTED_MESSAGE)"];
	s10 -> s1 [label="RSA_FIXED_DH_CERTIFICATE_REQUEST / Alert(FATAL,UNEXPECTED_MESSAGE)"];
	s10 -> s1 [label="DSS_SIGN_CERTIFICATE_REQUEST / Alert(FATAL,UNEXPECTED_MESSAGE)"];
	s10 -> s1 [label="DSS_FIXED_DH_CERTIFICATE_REQUEST / Alert(FATAL,UNEXPECTED_MESSAGE)"];
	s10 -> s1 [label="SERVER_HELLO_DONE / Alert(FATAL,UNEXPECTED_MESSAGE)"];
	s10 -> s11 [label="CHANGE_CIPHER_SPEC / TIMEOUT"];
	s10 -> s1 [label="FINISHED / Alert(FATAL,UNEXPECTED_MESSAGE)"];
	s10 -> s1 [label="APPLICATION / Alert(FATAL,UNEXPECTED_MESSAGE)"];
	s10 -> s1 [label="CERTIFICATE / Alert(FATAL,UNEXPECTED_MESSAGE)"];
	s10 -> s1 [label="EMPTY_CERTIFICATE / Alert(FATAL,UNEXPECTED_MESSAGE)"];
	s10 -> s1 [label="Alert(WARNING,CLOSE_NOTIFY) / TIMEOUT"];
	s10 -> s1 [label="Alert(FATAL,UNEXPECTED_MESSAGE) / TIMEOUT"];
	s11 -> s1 [label="HELLO_VERIFY_REQUEST / Alert(FATAL,UNEXPECTED_MESSAGE)"];
	s11 -> s1 [label="ECDH_SERVER_HELLO / TIMEOUT"];
	s11 -> s1 [label="ECDH_SERVER_KEY_EXCHANGE / Alert(FATAL,UNEXPECTED_MESSAGE)"];
	s11 -> s1 [label="DH_SERVER_HELLO / Alert(FATAL,UNEXPECTED_MESSAGE)"];
	s11 -> s1 [label="DH_SERVER_KEY_EXCHANGE / Alert(FATAL,UNEXPECTED_MESSAGE)"];
	s11 -> s1 [label="RSA_SERVER_HELLO / Alert(FATAL,UNEXPECTED_MESSAGE)"];
	s11 -> s1 [label="RSA_SIGN_CERTIFICATE_REQUEST / Alert(FATAL,UNEXPECTED_MESSAGE)"];
	s11 -> s1 [label="RSA_FIXED_ECDH_CERTIFICATE_REQUEST / Alert(FATAL,UNEXPECTED_MESSAGE)"];
	s11 -> s1 [label="RSA_FIXED_DH_CERTIFICATE_REQUEST / Alert(FATAL,UNEXPECTED_MESSAGE)"];
	s11 -> s1 [label="DSS_SIGN_CERTIFICATE_REQUEST / Alert(FATAL,UNEXPECTED_MESSAGE)"];
	s11 -> s1 [label="DSS_FIXED_DH_CERTIFICATE_REQUEST / Alert(FATAL,UNEXPECTED_MESSAGE)"];
	s11 -> s1 [label="SERVER_HELLO_DONE / Alert(FATAL,UNEXPECTED_MESSAGE)"];
	s11 -> s1 [label="CHANGE_CIPHER_SPEC / TIMEOUT"];
	s11 -> s1 [label="FINISHED / Alert(FATAL,DECRYPT_ERROR)"];
	s11 -> s11 [label="APPLICATION / TIMEOUT"];
	s11 -> s1 [label="CERTIFICATE / Alert(FATAL,UNEXPECTED_MESSAGE)"];
	s11 -> s1 [label="EMPTY_CERTIFICATE / Alert(FATAL,UNEXPECTED_MESSAGE)"];
	s11 -> s11 [label="Alert(WARNING,CLOSE_NOTIFY) / TIMEOUT"];
	s11 -> s11 [label="Alert(FATAL,UNEXPECTED_MESSAGE) / TIMEOUT"];
	s12 -> s1 [label="HELLO_VERIFY_REQUEST / Alert(FATAL,UNEXPECTED_MESSAGE)"];
	s12 -> s1 [label="ECDH_SERVER_HELLO / Alert(FATAL,UNEXPECTED_MESSAGE)"];
	s12 -> s1 [label="ECDH_SERVER_KEY_EXCHANGE / Alert(FATAL,UNEXPECTED_MESSAGE)"];
	s12 -> s1 [label="DH_SERVER_HELLO / Alert(FATAL,UNEXPECTED_MESSAGE)"];
	s12 -> s1 [label="DH_SERVER_KEY_EXCHANGE / Alert(FATAL,UNEXPECTED_MESSAGE)"];
	s12 -> s1 [label="RSA_SERVER_HELLO / Alert(FATAL,UNEXPECTED_MESSAGE)"];
	s12 -> s9 [label="RSA_SIGN_CERTIFICATE_REQUEST / TIMEOUT"];
	s12 -> s9 [label="RSA_FIXED_ECDH_CERTIFICATE_REQUEST / TIMEOUT"];
	s12 -> s9 [label="RSA_FIXED_DH_CERTIFICATE_REQUEST / TIMEOUT"];
	s12 -> s9 [label="DSS_SIGN_CERTIFICATE_REQUEST / TIMEOUT"];
	s12 -> s9 [label="DSS_FIXED_DH_CERTIFICATE_REQUEST / TIMEOUT"];
	s12 -> s10 [label="SERVER_HELLO_DONE / DH_CLIENT_KEY_EXCHANGE,CHANGE_CIPHER_SPEC,FINISHED"];
	s12 -> s1 [label="CHANGE_CIPHER_SPEC / TIMEOUT"];
	s12 -> s1 [label="FINISHED / Alert(FATAL,INTERNAL_ERROR)"];
	s12 -> s1 [label="APPLICATION / Alert(FATAL,UNEXPECTED_MESSAGE)"];
	s12 -> s1 [label="CERTIFICATE / Alert(FATAL,UNEXPECTED_MESSAGE)"];
	s12 -> s1 [label="EMPTY_CERTIFICATE / Alert(FATAL,UNEXPECTED_MESSAGE)"];
	s12 -> s1 [label="Alert(WARNING,CLOSE_NOTIFY) / TIMEOUT"];
	s12 -> s1 [label="Alert(FATAL,UNEXPECTED_MESSAGE) / TIMEOUT"];
	s13 -> s1 [label="HELLO_VERIFY_REQUEST / Alert(FATAL,UNEXPECTED_MESSAGE)"];
	s13 -> s1 [label="ECDH_SERVER_HELLO / Alert(FATAL,UNEXPECTED_MESSAGE)"];
	s13 -> s1 [label="ECDH_SERVER_KEY_EXCHANGE / Alert(FATAL,UNEXPECTED_MESSAGE)"];
	s13 -> s1 [label="DH_SERVER_HELLO / Alert(FATAL,UNEXPECTED_MESSAGE)"];
	s13 -> s1 [label="DH_SERVER_KEY_EXCHANGE / Alert(FATAL,UNEXPECTED_MESSAGE)"];
	s13 -> s1 [label="RSA_SERVER_HELLO / Alert(FATAL,UNEXPECTED_MESSAGE)"];
	s13 -> s9 [label="RSA_SIGN_CERTIFICATE_REQUEST / TIMEOUT"];
	s13 -> s9 [label="RSA_FIXED_ECDH_CERTIFICATE_REQUEST / TIMEOUT"];
	s13 -> s9 [label="RSA_FIXED_DH_CERTIFICATE_REQUEST / TIMEOUT"];
	s13 -> s9 [label="DSS_SIGN_CERTIFICATE_REQUEST / TIMEOUT"];
	s13 -> s9 [label="DSS_FIXED_DH_CERTIFICATE_REQUEST / TIMEOUT"];
	s13 -> s9 [label="SERVER_HELLO_DONE / ECDH_CLIENT_KEY_EXCHANGE,CHANGE_CIPHER_SPEC,FINISHED"];
	s13 -> s1 [label="CHANGE_CIPHER_SPEC / TIMEOUT"];
	s13 -> s1 [label="FINISHED / Alert(FATAL,INTERNAL_ERROR)"];
	s13 -> s1 [label="APPLICATION / Alert(FATAL,UNEXPECTED_MESSAGE)"];
	s13 -> s1 [label="CERTIFICATE / Alert(FATAL,UNEXPECTED_MESSAGE)"];
	s13 -> s1 [label="EMPTY_CERTIFICATE / Alert(FATAL,UNEXPECTED_MESSAGE)"];
	s13 -> s1 [label="Alert(WARNING,CLOSE_NOTIFY) / TIMEOUT"];
	s13 -> s1 [label="Alert(FATAL,UNEXPECTED_MESSAGE) / TIMEOUT"];

__start0 [label="" shape="none" width="0" height="0"];
__start0 -> s0;

}
