digraph G {
label=""
init [color="red"] 
bug [shape="doublecircle"]

init -> should_abort [label="{fatalAlert}"]
init -> init [label="other"]

should_abort -> bug [label="O_CHANGE_CIPHER_SPEC"]
should_abort -> init [label="O_SERVER_HELLO"]
should_abort -> should_abort [label="other"]

bug -> bug [label="other"]
}
