digraph g {

	s0 [shape="circle" label="s0"];
	s1 [shape="circle" label="s1"];
	s2 [shape="circle" label="s2"];
	s3 [shape="circle" label="s3"];
	s4 [shape="circle" label="s4"];
	s5 [shape="circle" label="s5"];
	s6 [shape="circle" label="s6"];
	s7 [shape="circle" label="s7"];
	s8 [shape="circle" label="s8"];
	s9 [shape="circle" label="s9"];
	s10 [shape="circle" label="s10"];
	s11 [shape="circle" label="s11"];
	s12 [shape="circle" label="s12"];
	s13 [shape="circle" label="s13"];
	s14 [shape="circle" label="s14"];
	s15 [shape="circle" label="s15"];
	s16 [shape="circle" label="s16"];
	s17 [shape="circle" label="s17"];
	s18 [shape="circle" label="s18"];
	s19 [shape="circle" label="s19"];
	s20 [shape="circle" label="s20"];
	s21 [shape="circle" label="s21"];
	s22 [shape="circle" label="s22"];
	s23 [shape="circle" label="s23"];
	s24 [shape="circle" label="s24"];
	s25 [shape="circle" label="s25"];
	s26 [shape="circle" label="s26"];
	s27 [shape="circle" label="s27"];
	s28 [shape="circle" label="s28"];
	s29 [shape="circle" label="s29"];
	s30 [shape="circle" label="s30"];
	s31 [shape="circle" label="s31"];
	s32 [shape="circle" label="s32"];
	s33 [shape="circle" label="s33"];
	s34 [shape="circle" label="s34"];
	s35 [shape="circle" label="s35"];
	s36 [shape="circle" label="s36"];
	s37 [shape="circle" label="s37"];
	s38 [shape="circle" label="s38"];
	s39 [shape="circle" label="s39"];
	s40 [shape="circle" label="s40"];
	s41 [shape="circle" label="s41"];
	s42 [shape="circle" label="s42"];
	s43 [shape="circle" label="s43"];
	s44 [shape="circle" label="s44"];
	s45 [shape="circle" label="s45"];
	s46 [shape="circle" label="s46"];
	s0 -> s15 [label="HELLO_VERIFY_REQUEST / CLIENT_HELLO+"];
	s0 -> s1 [label="PSK_SERVER_HELLO / CLIENT_HELLO"];
	s0 -> s3 [label="PSK_SERVER_HELLO_EPOCH_1 / CLIENT_HELLO"];
	s0 -> s3 [label="SERVER_HELLO_DONE / CLIENT_HELLO,Alert(FATAL,DECODE_ERROR)"];
	s0 -> s3 [label="CHANGE_CIPHER_SPEC / CLIENT_HELLO"];
	s0 -> s3 [label="FINISHED / CLIENT_HELLO,Alert(FATAL,DECODE_ERROR)"];
	s0 -> s3 [label="FINISHED_EPOCH_0 / CLIENT_HELLO,Alert(FATAL,DECODE_ERROR)"];
	s0 -> s4 [label="APPLICATION_EPOCH_0 / CLIENT_HELLO"];
	s0 -> s4 [label="APPLICATION / CLIENT_HELLO"];
	s0 -> s3 [label="Alert(WARNING,CLOSE_NOTIFY) / CLIENT_HELLO"];
	s0 -> s3 [label="Alert(FATAL,UNEXPECTED_MESSAGE) / CLIENT_HELLO"];
	s1 -> s3 [label="HELLO_VERIFY_REQUEST / Alert(FATAL,DECODE_ERROR)"];
	s1 -> s3 [label="PSK_SERVER_HELLO / Alert(FATAL,DECODE_ERROR)"];
	s1 -> s3 [label="PSK_SERVER_HELLO_EPOCH_1 / TIMEOUT"];
	s1 -> s2 [label="SERVER_HELLO_DONE / PSK_CLIENT_KEY_EXCHANGE,CHANGE_CIPHER_SPEC,FINISHED"];
	s1 -> s3 [label="CHANGE_CIPHER_SPEC / TIMEOUT"];
	s1 -> s3 [label="FINISHED / Alert(FATAL,DECODE_ERROR)"];
	s1 -> s3 [label="FINISHED_EPOCH_0 / Alert(FATAL,DECODE_ERROR)"];
	s1 -> s1 [label="APPLICATION_EPOCH_0 / TIMEOUT"];
	s1 -> s1 [label="APPLICATION / TIMEOUT"];
	s1 -> s3 [label="Alert(WARNING,CLOSE_NOTIFY) / TIMEOUT"];
	s1 -> s3 [label="Alert(FATAL,UNEXPECTED_MESSAGE) / TIMEOUT"];
	s2 -> s3 [label="HELLO_VERIFY_REQUEST / Alert(FATAL,UNEXPECTED_MESSAGE)"];
	s2 -> s3 [label="PSK_SERVER_HELLO / Alert(FATAL,UNEXPECTED_MESSAGE)"];
	s2 -> s40 [label="PSK_SERVER_HELLO_EPOCH_1 / TIMEOUT"];
	s2 -> s3 [label="SERVER_HELLO_DONE / Alert(FATAL,UNEXPECTED_MESSAGE)"];
	s2 -> s5 [label="CHANGE_CIPHER_SPEC / TIMEOUT"];
	s2 -> s3 [label="FINISHED / Alert(FATAL,UNEXPECTED_MESSAGE)"];
	s2 -> s3 [label="FINISHED_EPOCH_0 / Alert(FATAL,UNEXPECTED_MESSAGE)"];
	s2 -> s2 [label="APPLICATION_EPOCH_0 / TIMEOUT"];
	s2 -> s2 [label="APPLICATION / TIMEOUT"];
	s2 -> s3 [label="Alert(WARNING,CLOSE_NOTIFY) / TIMEOUT"];
	s2 -> s3 [label="Alert(FATAL,UNEXPECTED_MESSAGE) / TIMEOUT"];
	s3 -> s3 [label="HELLO_VERIFY_REQUEST / TIMEOUT"];
	s3 -> s3 [label="PSK_SERVER_HELLO / TIMEOUT"];
	s3 -> s3 [label="PSK_SERVER_HELLO_EPOCH_1 / TIMEOUT"];
	s3 -> s3 [label="SERVER_HELLO_DONE / TIMEOUT"];
	s3 -> s3 [label="CHANGE_CIPHER_SPEC / TIMEOUT"];
	s3 -> s3 [label="FINISHED / TIMEOUT"];
	s3 -> s3 [label="FINISHED_EPOCH_0 / TIMEOUT"];
	s3 -> s3 [label="APPLICATION_EPOCH_0 / TIMEOUT"];
	s3 -> s3 [label="APPLICATION / TIMEOUT"];
	s3 -> s3 [label="Alert(WARNING,CLOSE_NOTIFY) / TIMEOUT"];
	s3 -> s3 [label="Alert(FATAL,UNEXPECTED_MESSAGE) / TIMEOUT"];
	s4 -> s15 [label="HELLO_VERIFY_REQUEST / CLIENT_HELLO"];
	s4 -> s12 [label="PSK_SERVER_HELLO / TIMEOUT"];
	s4 -> s3 [label="PSK_SERVER_HELLO_EPOCH_1 / TIMEOUT"];
	s4 -> s3 [label="SERVER_HELLO_DONE / Alert(FATAL,DECODE_ERROR)"];
	s4 -> s23 [label="CHANGE_CIPHER_SPEC / TIMEOUT"];
	s4 -> s3 [label="FINISHED / Alert(FATAL,DECODE_ERROR)"];
	s4 -> s3 [label="FINISHED_EPOCH_0 / Alert(FATAL,DECODE_ERROR)"];
	s4 -> s4 [label="APPLICATION_EPOCH_0 / TIMEOUT"];
	s4 -> s4 [label="APPLICATION / TIMEOUT"];
	s4 -> s3 [label="Alert(WARNING,CLOSE_NOTIFY) / TIMEOUT"];
	s4 -> s3 [label="Alert(FATAL,UNEXPECTED_MESSAGE) / TIMEOUT"];
	s5 -> s3 [label="HELLO_VERIFY_REQUEST / Alert(FATAL,DECODE_ERROR)"];
	s5 -> s3 [label="PSK_SERVER_HELLO / Alert(FATAL,DECODE_ERROR)"];
	s5 -> s3 [label="PSK_SERVER_HELLO_EPOCH_1 / Alert(FATAL,DECODE_ERROR)"];
	s5 -> s3 [label="SERVER_HELLO_DONE / Alert(FATAL,DECODE_ERROR)"];
	s5 -> s38 [label="CHANGE_CIPHER_SPEC / TIMEOUT"];
	s5 -> s6 [label="FINISHED / APPLICATION"];
	s5 -> s16 [label="FINISHED_EPOCH_0 / TIMEOUT"];
	s5 -> s5 [label="APPLICATION_EPOCH_0 / TIMEOUT"];
	s5 -> s5 [label="APPLICATION / TIMEOUT"];
	s5 -> s3 [label="Alert(WARNING,CLOSE_NOTIFY) / TIMEOUT"];
	s5 -> s3 [label="Alert(FATAL,UNEXPECTED_MESSAGE) / TIMEOUT"];
	s6 -> s9 [label="HELLO_VERIFY_REQUEST / TIMEOUT"];
	s6 -> s8 [label="PSK_SERVER_HELLO / TIMEOUT"];
	s6 -> s8 [label="PSK_SERVER_HELLO_EPOCH_1 / TIMEOUT"];
	s6 -> s9 [label="SERVER_HELLO_DONE / TIMEOUT"];
	s6 -> s3 [label="CHANGE_CIPHER_SPEC / TIMEOUT"];
	s6 -> s9 [label="FINISHED / TIMEOUT"];
	s6 -> s7 [label="FINISHED_EPOCH_0 / TIMEOUT"];
	s6 -> s7 [label="APPLICATION_EPOCH_0 / TIMEOUT"];
	s6 -> s9 [label="APPLICATION / APPLICATION"];
	s6 -> s3 [label="Alert(WARNING,CLOSE_NOTIFY) / Alert(WARNING,CLOSE_NOTIFY)"];
	s6 -> s3 [label="Alert(FATAL,UNEXPECTED_MESSAGE) / TIMEOUT"];
	s7 -> s6 [label="HELLO_VERIFY_REQUEST / TIMEOUT"];
	s7 -> s8 [label="PSK_SERVER_HELLO / TIMEOUT"];
	s7 -> s8 [label="PSK_SERVER_HELLO_EPOCH_1 / TIMEOUT"];
	s7 -> s6 [label="SERVER_HELLO_DONE / TIMEOUT"];
	s7 -> s3 [label="CHANGE_CIPHER_SPEC / TIMEOUT"];
	s7 -> s6 [label="FINISHED / TIMEOUT"];
	s7 -> s7 [label="FINISHED_EPOCH_0 / TIMEOUT"];
	s7 -> s7 [label="APPLICATION_EPOCH_0 / TIMEOUT"];
	s7 -> s6 [label="APPLICATION / TIMEOUT"];
	s7 -> s6 [label="Alert(WARNING,CLOSE_NOTIFY) / TIMEOUT"];
	s7 -> s6 [label="Alert(FATAL,UNEXPECTED_MESSAGE) / TIMEOUT"];
	s8 -> s8 [label="HELLO_VERIFY_REQUEST / TIMEOUT"];
	s8 -> s8 [label="PSK_SERVER_HELLO / TIMEOUT"];
	s8 -> s8 [label="PSK_SERVER_HELLO_EPOCH_1 / TIMEOUT"];
	s8 -> s8 [label="SERVER_HELLO_DONE / TIMEOUT"];
	s8 -> s3 [label="CHANGE_CIPHER_SPEC / TIMEOUT"];
	s8 -> s8 [label="FINISHED / TIMEOUT"];
	s8 -> s3 [label="FINISHED_EPOCH_0 / TIMEOUT"];
	s8 -> s3 [label="APPLICATION_EPOCH_0 / TIMEOUT"];
	s8 -> s8 [label="APPLICATION / APPLICATION"];
	s8 -> s3 [label="Alert(WARNING,CLOSE_NOTIFY) / Alert(WARNING,CLOSE_NOTIFY)"];
	s8 -> s3 [label="Alert(FATAL,UNEXPECTED_MESSAGE) / TIMEOUT"];
	s9 -> s8 [label="HELLO_VERIFY_REQUEST / TIMEOUT"];
	s9 -> s8 [label="PSK_SERVER_HELLO / TIMEOUT"];
	s9 -> s8 [label="PSK_SERVER_HELLO_EPOCH_1 / TIMEOUT"];
	s9 -> s8 [label="SERVER_HELLO_DONE / TIMEOUT"];
	s9 -> s3 [label="CHANGE_CIPHER_SPEC / TIMEOUT"];
	s9 -> s8 [label="FINISHED / TIMEOUT"];
	s9 -> s10 [label="FINISHED_EPOCH_0 / TIMEOUT"];
	s9 -> s10 [label="APPLICATION_EPOCH_0 / TIMEOUT"];
	s9 -> s8 [label="APPLICATION / APPLICATION"];
	s9 -> s3 [label="Alert(WARNING,CLOSE_NOTIFY) / Alert(WARNING,CLOSE_NOTIFY)"];
	s9 -> s3 [label="Alert(FATAL,UNEXPECTED_MESSAGE) / TIMEOUT"];
	s10 -> s11 [label="HELLO_VERIFY_REQUEST / TIMEOUT"];
	s10 -> s11 [label="PSK_SERVER_HELLO / TIMEOUT"];
	s10 -> s11 [label="PSK_SERVER_HELLO_EPOCH_1 / TIMEOUT"];
	s10 -> s11 [label="SERVER_HELLO_DONE / TIMEOUT"];
	s10 -> s3 [label="CHANGE_CIPHER_SPEC / TIMEOUT"];
	s10 -> s11 [label="FINISHED / TIMEOUT"];
	s10 -> s10 [label="FINISHED_EPOCH_0 / TIMEOUT"];
	s10 -> s10 [label="APPLICATION_EPOCH_0 / TIMEOUT"];
	s10 -> s11 [label="APPLICATION / TIMEOUT"];
	s10 -> s11 [label="Alert(WARNING,CLOSE_NOTIFY) / TIMEOUT"];
	s10 -> s11 [label="Alert(FATAL,UNEXPECTED_MESSAGE) / TIMEOUT"];
	s11 -> s9 [label="HELLO_VERIFY_REQUEST / TIMEOUT"];
	s11 -> s8 [label="PSK_SERVER_HELLO / TIMEOUT"];
	s11 -> s8 [label="PSK_SERVER_HELLO_EPOCH_1 / TIMEOUT"];
	s11 -> s9 [label="SERVER_HELLO_DONE / TIMEOUT"];
	s11 -> s3 [label="CHANGE_CIPHER_SPEC / TIMEOUT"];
	s11 -> s9 [label="FINISHED / TIMEOUT"];
	s11 -> s10 [label="FINISHED_EPOCH_0 / TIMEOUT"];
	s11 -> s10 [label="APPLICATION_EPOCH_0 / TIMEOUT"];
	s11 -> s9 [label="APPLICATION / TIMEOUT"];
	s11 -> s9 [label="Alert(WARNING,CLOSE_NOTIFY) / TIMEOUT"];
	s11 -> s9 [label="Alert(FATAL,UNEXPECTED_MESSAGE) / TIMEOUT"];
	s12 -> s3 [label="HELLO_VERIFY_REQUEST / Alert(FATAL,DECODE_ERROR)"];
	s12 -> s3 [label="PSK_SERVER_HELLO / Alert(FATAL,DECODE_ERROR)"];
	s12 -> s3 [label="PSK_SERVER_HELLO_EPOCH_1 / TIMEOUT"];
	s12 -> s13 [label="SERVER_HELLO_DONE / PSK_CLIENT_KEY_EXCHANGE,CHANGE_CIPHER_SPEC,FINISHED"];
	s12 -> s23 [label="CHANGE_CIPHER_SPEC / TIMEOUT"];
	s12 -> s3 [label="FINISHED / Alert(FATAL,DECODE_ERROR)"];
	s12 -> s3 [label="FINISHED_EPOCH_0 / Alert(FATAL,DECODE_ERROR)"];
	s12 -> s12 [label="APPLICATION_EPOCH_0 / TIMEOUT"];
	s12 -> s12 [label="APPLICATION / TIMEOUT"];
	s12 -> s3 [label="Alert(WARNING,CLOSE_NOTIFY) / TIMEOUT"];
	s12 -> s3 [label="Alert(FATAL,UNEXPECTED_MESSAGE) / TIMEOUT"];
	s13 -> s3 [label="HELLO_VERIFY_REQUEST / Alert(FATAL,UNEXPECTED_MESSAGE)"];
	s13 -> s3 [label="PSK_SERVER_HELLO / Alert(FATAL,UNEXPECTED_MESSAGE)"];
	s13 -> s40 [label="PSK_SERVER_HELLO_EPOCH_1 / TIMEOUT"];
	s13 -> s3 [label="SERVER_HELLO_DONE / Alert(FATAL,UNEXPECTED_MESSAGE)"];
	s13 -> s14 [label="CHANGE_CIPHER_SPEC / TIMEOUT"];
	s13 -> s3 [label="FINISHED / Alert(FATAL,UNEXPECTED_MESSAGE)"];
	s13 -> s3 [label="FINISHED_EPOCH_0 / Alert(FATAL,UNEXPECTED_MESSAGE)"];
	s13 -> s13 [label="APPLICATION_EPOCH_0 / TIMEOUT"];
	s13 -> s13 [label="APPLICATION / TIMEOUT"];
	s13 -> s3 [label="Alert(WARNING,CLOSE_NOTIFY) / TIMEOUT"];
	s13 -> s3 [label="Alert(FATAL,UNEXPECTED_MESSAGE) / TIMEOUT"];
	s14 -> s3 [label="HELLO_VERIFY_REQUEST / Alert(FATAL,DECODE_ERROR)"];
	s14 -> s3 [label="PSK_SERVER_HELLO / Alert(FATAL,DECODE_ERROR)"];
	s14 -> s3 [label="PSK_SERVER_HELLO_EPOCH_1 / Alert(FATAL,DECODE_ERROR)"];
	s14 -> s3 [label="SERVER_HELLO_DONE / Alert(FATAL,DECODE_ERROR)"];
	s14 -> s38 [label="CHANGE_CIPHER_SPEC / TIMEOUT"];
	s14 -> s3 [label="FINISHED / Alert(FATAL,DECODE_ERROR)"];
	s14 -> s16 [label="FINISHED_EPOCH_0 / TIMEOUT"];
	s14 -> s14 [label="APPLICATION_EPOCH_0 / TIMEOUT"];
	s14 -> s14 [label="APPLICATION / TIMEOUT"];
	s14 -> s3 [label="Alert(WARNING,CLOSE_NOTIFY) / TIMEOUT"];
	s14 -> s3 [label="Alert(FATAL,UNEXPECTED_MESSAGE) / TIMEOUT"];
	s15 -> s15 [label="HELLO_VERIFY_REQUEST / CLIENT_HELLO"];
	s15 -> s1 [label="PSK_SERVER_HELLO / TIMEOUT"];
	s15 -> s3 [label="PSK_SERVER_HELLO_EPOCH_1 / TIMEOUT"];
	s15 -> s3 [label="SERVER_HELLO_DONE / Alert(FATAL,DECODE_ERROR)"];
	s15 -> s3 [label="CHANGE_CIPHER_SPEC / TIMEOUT"];
	s15 -> s3 [label="FINISHED / Alert(FATAL,DECODE_ERROR)"];
	s15 -> s3 [label="FINISHED_EPOCH_0 / Alert(FATAL,DECODE_ERROR)"];
	s15 -> s15 [label="APPLICATION_EPOCH_0 / TIMEOUT"];
	s15 -> s15 [label="APPLICATION / TIMEOUT"];
	s15 -> s3 [label="Alert(WARNING,CLOSE_NOTIFY) / TIMEOUT"];
	s15 -> s3 [label="Alert(FATAL,UNEXPECTED_MESSAGE) / TIMEOUT"];
	s16 -> s17 [label="HELLO_VERIFY_REQUEST / TIMEOUT"];
	s16 -> s22 [label="PSK_SERVER_HELLO / TIMEOUT"];
	s16 -> s22 [label="PSK_SERVER_HELLO_EPOCH_1 / TIMEOUT"];
	s16 -> s17 [label="SERVER_HELLO_DONE / TIMEOUT"];
	s16 -> s38 [label="CHANGE_CIPHER_SPEC / TIMEOUT"];
	s16 -> s17 [label="FINISHED / TIMEOUT"];
	s16 -> s16 [label="FINISHED_EPOCH_0 / TIMEOUT"];
	s16 -> s16 [label="APPLICATION_EPOCH_0 / TIMEOUT"];
	s16 -> s24 [label="APPLICATION / TIMEOUT"];
	s16 -> s3 [label="Alert(WARNING,CLOSE_NOTIFY) / TIMEOUT"];
	s16 -> s3 [label="Alert(FATAL,UNEXPECTED_MESSAGE) / TIMEOUT"];
	s17 -> s3 [label="HELLO_VERIFY_REQUEST / TIMEOUT"];
	s17 -> s18 [label="PSK_SERVER_HELLO / TIMEOUT"];
	s17 -> s18 [label="PSK_SERVER_HELLO_EPOCH_1 / TIMEOUT"];
	s17 -> s3 [label="SERVER_HELLO_DONE / TIMEOUT"];
	s17 -> s3 [label="CHANGE_CIPHER_SPEC / TIMEOUT"];
	s17 -> s3 [label="FINISHED / TIMEOUT"];
	s17 -> s16 [label="FINISHED_EPOCH_0 / TIMEOUT"];
	s17 -> s16 [label="APPLICATION_EPOCH_0 / TIMEOUT"];
	s17 -> s16 [label="APPLICATION / TIMEOUT"];
	s17 -> s3 [label="Alert(WARNING,CLOSE_NOTIFY) / TIMEOUT"];
	s17 -> s3 [label="Alert(FATAL,UNEXPECTED_MESSAGE) / TIMEOUT"];
	s18 -> s3 [label="HELLO_VERIFY_REQUEST / TIMEOUT"];
	s18 -> s3 [label="PSK_SERVER_HELLO / TIMEOUT"];
	s18 -> s3 [label="PSK_SERVER_HELLO_EPOCH_1 / TIMEOUT"];
	s18 -> s3 [label="SERVER_HELLO_DONE / TIMEOUT"];
	s18 -> s3 [label="CHANGE_CIPHER_SPEC / TIMEOUT"];
	s18 -> s3 [label="FINISHED / TIMEOUT"];
	s18 -> s19 [label="FINISHED_EPOCH_0 / TIMEOUT"];
	s18 -> s19 [label="APPLICATION_EPOCH_0 / TIMEOUT"];
	s18 -> s18 [label="APPLICATION / TIMEOUT"];
	s18 -> s3 [label="Alert(WARNING,CLOSE_NOTIFY) / TIMEOUT"];
	s18 -> s3 [label="Alert(FATAL,UNEXPECTED_MESSAGE) / TIMEOUT"];
	s19 -> s20 [label="HELLO_VERIFY_REQUEST / TIMEOUT"];
	s19 -> s20 [label="PSK_SERVER_HELLO / TIMEOUT"];
	s19 -> s20 [label="PSK_SERVER_HELLO_EPOCH_1 / TIMEOUT"];
	s19 -> s20 [label="SERVER_HELLO_DONE / TIMEOUT"];
	s19 -> s27 [label="CHANGE_CIPHER_SPEC / TIMEOUT"];
	s19 -> s20 [label="FINISHED / TIMEOUT"];
	s19 -> s19 [label="FINISHED_EPOCH_0 / TIMEOUT"];
	s19 -> s19 [label="APPLICATION_EPOCH_0 / TIMEOUT"];
	s19 -> s20 [label="APPLICATION / TIMEOUT"];
	s19 -> s20 [label="Alert(WARNING,CLOSE_NOTIFY) / TIMEOUT"];
	s19 -> s20 [label="Alert(FATAL,UNEXPECTED_MESSAGE) / TIMEOUT"];
	s20 -> s21 [label="HELLO_VERIFY_REQUEST / TIMEOUT"];
	s20 -> s21 [label="PSK_SERVER_HELLO / TIMEOUT"];
	s20 -> s21 [label="PSK_SERVER_HELLO_EPOCH_1 / TIMEOUT"];
	s20 -> s21 [label="SERVER_HELLO_DONE / TIMEOUT"];
	s20 -> s27 [label="CHANGE_CIPHER_SPEC / TIMEOUT"];
	s20 -> s21 [label="FINISHED / TIMEOUT"];
	s20 -> s19 [label="FINISHED_EPOCH_0 / TIMEOUT"];
	s20 -> s19 [label="APPLICATION_EPOCH_0 / TIMEOUT"];
	s20 -> s21 [label="APPLICATION / TIMEOUT"];
	s20 -> s21 [label="Alert(WARNING,CLOSE_NOTIFY) / TIMEOUT"];
	s20 -> s21 [label="Alert(FATAL,UNEXPECTED_MESSAGE) / TIMEOUT"];
	s21 -> s3 [label="HELLO_VERIFY_REQUEST / UNKNOWN_MESSAGE"];
	s21 -> s3 [label="PSK_SERVER_HELLO / UNKNOWN_MESSAGE"];
	s21 -> s3 [label="PSK_SERVER_HELLO_EPOCH_1 / UNKNOWN_MESSAGE"];
	s21 -> s3 [label="SERVER_HELLO_DONE / UNKNOWN_MESSAGE"];
	s21 -> s3 [label="CHANGE_CIPHER_SPEC / UNKNOWN_MESSAGE"];
	s21 -> s3 [label="FINISHED / UNKNOWN_MESSAGE"];
	s21 -> s19 [label="FINISHED_EPOCH_0 / TIMEOUT"];
	s21 -> s19 [label="APPLICATION_EPOCH_0 / TIMEOUT"];
	s21 -> s21 [label="APPLICATION / TIMEOUT"];
	s21 -> s3 [label="Alert(WARNING,CLOSE_NOTIFY) / UNKNOWN_MESSAGE"];
	s21 -> s3 [label="Alert(FATAL,UNEXPECTED_MESSAGE) / UNKNOWN_MESSAGE"];
	s22 -> s18 [label="HELLO_VERIFY_REQUEST / TIMEOUT"];
	s22 -> s18 [label="PSK_SERVER_HELLO / TIMEOUT"];
	s22 -> s18 [label="PSK_SERVER_HELLO_EPOCH_1 / TIMEOUT"];
	s22 -> s18 [label="SERVER_HELLO_DONE / TIMEOUT"];
	s22 -> s37 [label="CHANGE_CIPHER_SPEC / TIMEOUT"];
	s22 -> s18 [label="FINISHED / TIMEOUT"];
	s22 -> s26 [label="FINISHED_EPOCH_0 / TIMEOUT"];
	s22 -> s26 [label="APPLICATION_EPOCH_0 / TIMEOUT"];
	s22 -> s22 [label="APPLICATION / TIMEOUT"];
	s22 -> s3 [label="Alert(WARNING,CLOSE_NOTIFY) / TIMEOUT"];
	s22 -> s3 [label="Alert(FATAL,UNEXPECTED_MESSAGE) / TIMEOUT"];
	s23 -> s3 [label="HELLO_VERIFY_REQUEST / TIMEOUT"];
	s23 -> s3 [label="PSK_SERVER_HELLO / TIMEOUT"];
	s23 -> s3 [label="PSK_SERVER_HELLO_EPOCH_1 / TIMEOUT"];
	s23 -> s3 [label="SERVER_HELLO_DONE / TIMEOUT"];
	s23 -> s23 [label="CHANGE_CIPHER_SPEC / TIMEOUT"];
	s23 -> s3 [label="FINISHED / TIMEOUT"];
	s23 -> s3 [label="FINISHED_EPOCH_0 / Alert(FATAL,DECODE_ERROR)"];
	s23 -> s23 [label="APPLICATION_EPOCH_0 / TIMEOUT"];
	s23 -> s3 [label="APPLICATION / TIMEOUT"];
	s23 -> s3 [label="Alert(WARNING,CLOSE_NOTIFY) / TIMEOUT"];
	s23 -> s3 [label="Alert(FATAL,UNEXPECTED_MESSAGE) / TIMEOUT"];
	s24 -> s24 [label="HELLO_VERIFY_REQUEST / TIMEOUT"];
	s24 -> s25 [label="PSK_SERVER_HELLO / TIMEOUT"];
	s24 -> s25 [label="PSK_SERVER_HELLO_EPOCH_1 / TIMEOUT"];
	s24 -> s24 [label="SERVER_HELLO_DONE / TIMEOUT"];
	s24 -> s3 [label="CHANGE_CIPHER_SPEC / TIMEOUT"];
	s24 -> s24 [label="FINISHED / TIMEOUT"];
	s24 -> s16 [label="FINISHED_EPOCH_0 / TIMEOUT"];
	s24 -> s16 [label="APPLICATION_EPOCH_0 / TIMEOUT"];
	s24 -> s24 [label="APPLICATION / TIMEOUT"];
	s24 -> s3 [label="Alert(WARNING,CLOSE_NOTIFY) / TIMEOUT"];
	s24 -> s3 [label="Alert(FATAL,UNEXPECTED_MESSAGE) / TIMEOUT"];
	s25 -> s25 [label="HELLO_VERIFY_REQUEST / TIMEOUT"];
	s25 -> s25 [label="PSK_SERVER_HELLO / TIMEOUT"];
	s25 -> s25 [label="PSK_SERVER_HELLO_EPOCH_1 / TIMEOUT"];
	s25 -> s25 [label="SERVER_HELLO_DONE / TIMEOUT"];
	s25 -> s30 [label="CHANGE_CIPHER_SPEC / TIMEOUT"];
	s25 -> s25 [label="FINISHED / TIMEOUT"];
	s25 -> s34 [label="FINISHED_EPOCH_0 / TIMEOUT"];
	s25 -> s34 [label="APPLICATION_EPOCH_0 / TIMEOUT"];
	s25 -> s25 [label="APPLICATION / TIMEOUT"];
	s25 -> s3 [label="Alert(WARNING,CLOSE_NOTIFY) / TIMEOUT"];
	s25 -> s3 [label="Alert(FATAL,UNEXPECTED_MESSAGE) / TIMEOUT"];
	s26 -> s33 [label="HELLO_VERIFY_REQUEST / TIMEOUT"];
	s26 -> s33 [label="PSK_SERVER_HELLO / TIMEOUT"];
	s26 -> s33 [label="PSK_SERVER_HELLO_EPOCH_1 / TIMEOUT"];
	s26 -> s33 [label="SERVER_HELLO_DONE / TIMEOUT"];
	s26 -> s43 [label="CHANGE_CIPHER_SPEC / TIMEOUT"];
	s26 -> s33 [label="FINISHED / TIMEOUT"];
	s26 -> s26 [label="FINISHED_EPOCH_0 / TIMEOUT"];
	s26 -> s26 [label="APPLICATION_EPOCH_0 / TIMEOUT"];
	s26 -> s33 [label="APPLICATION / TIMEOUT"];
	s26 -> s33 [label="Alert(WARNING,CLOSE_NOTIFY) / TIMEOUT"];
	s26 -> s33 [label="Alert(FATAL,UNEXPECTED_MESSAGE) / TIMEOUT"];
	s27 -> s28 [label="HELLO_VERIFY_REQUEST / TIMEOUT"];
	s27 -> s28 [label="PSK_SERVER_HELLO / TIMEOUT"];
	s27 -> s28 [label="PSK_SERVER_HELLO_EPOCH_1 / TIMEOUT"];
	s27 -> s28 [label="SERVER_HELLO_DONE / TIMEOUT"];
	s27 -> s27 [label="CHANGE_CIPHER_SPEC / TIMEOUT"];
	s27 -> s28 [label="FINISHED / TIMEOUT"];
	s27 -> s27 [label="FINISHED_EPOCH_0 / TIMEOUT"];
	s27 -> s27 [label="APPLICATION_EPOCH_0 / TIMEOUT"];
	s27 -> s28 [label="APPLICATION / TIMEOUT"];
	s27 -> s28 [label="Alert(WARNING,CLOSE_NOTIFY) / TIMEOUT"];
	s27 -> s28 [label="Alert(FATAL,UNEXPECTED_MESSAGE) / TIMEOUT"];
	s28 -> s29 [label="HELLO_VERIFY_REQUEST / TIMEOUT"];
	s28 -> s29 [label="PSK_SERVER_HELLO / TIMEOUT"];
	s28 -> s29 [label="PSK_SERVER_HELLO_EPOCH_1 / TIMEOUT"];
	s28 -> s29 [label="SERVER_HELLO_DONE / TIMEOUT"];
	s28 -> s27 [label="CHANGE_CIPHER_SPEC / TIMEOUT"];
	s28 -> s29 [label="FINISHED / TIMEOUT"];
	s28 -> s27 [label="FINISHED_EPOCH_0 / TIMEOUT"];
	s28 -> s27 [label="APPLICATION_EPOCH_0 / TIMEOUT"];
	s28 -> s29 [label="APPLICATION / TIMEOUT"];
	s28 -> s29 [label="Alert(WARNING,CLOSE_NOTIFY) / TIMEOUT"];
	s28 -> s29 [label="Alert(FATAL,UNEXPECTED_MESSAGE) / TIMEOUT"];
	s29 -> s29 [label="HELLO_VERIFY_REQUEST / TIMEOUT"];
	s29 -> s29 [label="PSK_SERVER_HELLO / TIMEOUT"];
	s29 -> s3 [label="PSK_SERVER_HELLO_EPOCH_1 / UNKNOWN_MESSAGE"];
	s29 -> s29 [label="SERVER_HELLO_DONE / TIMEOUT"];
	s29 -> s27 [label="CHANGE_CIPHER_SPEC / TIMEOUT"];
	s29 -> s29 [label="FINISHED / TIMEOUT"];
	s29 -> s27 [label="FINISHED_EPOCH_0 / TIMEOUT"];
	s29 -> s27 [label="APPLICATION_EPOCH_0 / TIMEOUT"];
	s29 -> s29 [label="APPLICATION / TIMEOUT"];
	s29 -> s29 [label="Alert(WARNING,CLOSE_NOTIFY) / TIMEOUT"];
	s29 -> s29 [label="Alert(FATAL,UNEXPECTED_MESSAGE) / TIMEOUT"];
	s30 -> s31 [label="HELLO_VERIFY_REQUEST / TIMEOUT"];
	s30 -> s31 [label="PSK_SERVER_HELLO / TIMEOUT"];
	s30 -> s3 [label="PSK_SERVER_HELLO_EPOCH_1 / Alert(FATAL,BAD_RECORD_MAC)"];
	s30 -> s31 [label="SERVER_HELLO_DONE / TIMEOUT"];
	s30 -> s30 [label="CHANGE_CIPHER_SPEC / TIMEOUT"];
	s30 -> s31 [label="FINISHED / TIMEOUT"];
	s30 -> s36 [label="FINISHED_EPOCH_0 / TIMEOUT"];
	s30 -> s36 [label="APPLICATION_EPOCH_0 / TIMEOUT"];
	s30 -> s31 [label="APPLICATION / TIMEOUT"];
	s30 -> s31 [label="Alert(WARNING,CLOSE_NOTIFY) / TIMEOUT"];
	s30 -> s31 [label="Alert(FATAL,UNEXPECTED_MESSAGE) / TIMEOUT"];
	s31 -> s32 [label="HELLO_VERIFY_REQUEST / TIMEOUT"];
	s31 -> s32 [label="PSK_SERVER_HELLO / TIMEOUT"];
	s31 -> s32 [label="PSK_SERVER_HELLO_EPOCH_1 / TIMEOUT"];
	s31 -> s32 [label="SERVER_HELLO_DONE / TIMEOUT"];
	s31 -> s30 [label="CHANGE_CIPHER_SPEC / TIMEOUT"];
	s31 -> s32 [label="FINISHED / TIMEOUT"];
	s31 -> s36 [label="FINISHED_EPOCH_0 / TIMEOUT"];
	s31 -> s36 [label="APPLICATION_EPOCH_0 / TIMEOUT"];
	s31 -> s32 [label="APPLICATION / TIMEOUT"];
	s31 -> s32 [label="Alert(WARNING,CLOSE_NOTIFY) / TIMEOUT"];
	s31 -> s32 [label="Alert(FATAL,UNEXPECTED_MESSAGE) / TIMEOUT"];
	s32 -> s42 [label="HELLO_VERIFY_REQUEST / TIMEOUT"];
	s32 -> s42 [label="PSK_SERVER_HELLO / TIMEOUT"];
	s32 -> s42 [label="PSK_SERVER_HELLO_EPOCH_1 / TIMEOUT"];
	s32 -> s42 [label="SERVER_HELLO_DONE / TIMEOUT"];
	s32 -> s30 [label="CHANGE_CIPHER_SPEC / TIMEOUT"];
	s32 -> s42 [label="FINISHED / TIMEOUT"];
	s32 -> s36 [label="FINISHED_EPOCH_0 / TIMEOUT"];
	s32 -> s36 [label="APPLICATION_EPOCH_0 / TIMEOUT"];
	s32 -> s42 [label="APPLICATION / TIMEOUT"];
	s32 -> s42 [label="Alert(WARNING,CLOSE_NOTIFY) / TIMEOUT"];
	s32 -> s42 [label="Alert(FATAL,UNEXPECTED_MESSAGE) / TIMEOUT"];
	s33 -> s3 [label="HELLO_VERIFY_REQUEST / UNKNOWN_MESSAGE"];
	s33 -> s3 [label="PSK_SERVER_HELLO / UNKNOWN_MESSAGE"];
	s33 -> s3 [label="PSK_SERVER_HELLO_EPOCH_1 / UNKNOWN_MESSAGE"];
	s33 -> s3 [label="SERVER_HELLO_DONE / UNKNOWN_MESSAGE"];
	s33 -> s3 [label="CHANGE_CIPHER_SPEC / UNKNOWN_MESSAGE"];
	s33 -> s3 [label="FINISHED / UNKNOWN_MESSAGE"];
	s33 -> s26 [label="FINISHED_EPOCH_0 / TIMEOUT"];
	s33 -> s26 [label="APPLICATION_EPOCH_0 / TIMEOUT"];
	s33 -> s33 [label="APPLICATION / TIMEOUT"];
	s33 -> s3 [label="Alert(WARNING,CLOSE_NOTIFY) / UNKNOWN_MESSAGE"];
	s33 -> s3 [label="Alert(FATAL,UNEXPECTED_MESSAGE) / UNKNOWN_MESSAGE"];
	s34 -> s3 [label="HELLO_VERIFY_REQUEST / UNKNOWN_MESSAGE"];
	s34 -> s3 [label="PSK_SERVER_HELLO / UNKNOWN_MESSAGE"];
	s34 -> s3 [label="PSK_SERVER_HELLO_EPOCH_1 / UNKNOWN_MESSAGE"];
	s34 -> s3 [label="SERVER_HELLO_DONE / UNKNOWN_MESSAGE"];
	s34 -> s3 [label="CHANGE_CIPHER_SPEC / UNKNOWN_MESSAGE"];
	s34 -> s3 [label="FINISHED / UNKNOWN_MESSAGE"];
	s34 -> s34 [label="FINISHED_EPOCH_0 / TIMEOUT"];
	s34 -> s34 [label="APPLICATION_EPOCH_0 / TIMEOUT"];
	s34 -> s35 [label="APPLICATION / TIMEOUT"];
	s34 -> s3 [label="Alert(WARNING,CLOSE_NOTIFY) / UNKNOWN_MESSAGE"];
	s34 -> s3 [label="Alert(FATAL,UNEXPECTED_MESSAGE) / UNKNOWN_MESSAGE"];
	s35 -> s44 [label="HELLO_VERIFY_REQUEST / TIMEOUT"];
	s35 -> s44 [label="PSK_SERVER_HELLO / TIMEOUT"];
	s35 -> s44 [label="PSK_SERVER_HELLO_EPOCH_1 / TIMEOUT"];
	s35 -> s44 [label="SERVER_HELLO_DONE / TIMEOUT"];
	s35 -> s36 [label="CHANGE_CIPHER_SPEC / TIMEOUT"];
	s35 -> s44 [label="FINISHED / TIMEOUT"];
	s35 -> s34 [label="FINISHED_EPOCH_0 / TIMEOUT"];
	s35 -> s34 [label="APPLICATION_EPOCH_0 / TIMEOUT"];
	s35 -> s44 [label="APPLICATION / TIMEOUT"];
	s35 -> s44 [label="Alert(WARNING,CLOSE_NOTIFY) / TIMEOUT"];
	s35 -> s44 [label="Alert(FATAL,UNEXPECTED_MESSAGE) / TIMEOUT"];
	s36 -> s27 [label="HELLO_VERIFY_REQUEST / TIMEOUT"];
	s36 -> s27 [label="PSK_SERVER_HELLO / TIMEOUT"];
	s36 -> s3 [label="PSK_SERVER_HELLO_EPOCH_1 / UNKNOWN_MESSAGE"];
	s36 -> s27 [label="SERVER_HELLO_DONE / TIMEOUT"];
	s36 -> s36 [label="CHANGE_CIPHER_SPEC / TIMEOUT"];
	s36 -> s27 [label="FINISHED / TIMEOUT"];
	s36 -> s36 [label="FINISHED_EPOCH_0 / TIMEOUT"];
	s36 -> s36 [label="APPLICATION_EPOCH_0 / TIMEOUT"];
	s36 -> s27 [label="APPLICATION / TIMEOUT"];
	s36 -> s27 [label="Alert(WARNING,CLOSE_NOTIFY) / TIMEOUT"];
	s36 -> s27 [label="Alert(FATAL,UNEXPECTED_MESSAGE) / TIMEOUT"];
	s37 -> s32 [label="HELLO_VERIFY_REQUEST / TIMEOUT"];
	s37 -> s32 [label="PSK_SERVER_HELLO / TIMEOUT"];
	s37 -> s32 [label="PSK_SERVER_HELLO_EPOCH_1 / TIMEOUT"];
	s37 -> s32 [label="SERVER_HELLO_DONE / TIMEOUT"];
	s37 -> s37 [label="CHANGE_CIPHER_SPEC / TIMEOUT"];
	s37 -> s32 [label="FINISHED / TIMEOUT"];
	s37 -> s27 [label="FINISHED_EPOCH_0 / TIMEOUT"];
	s37 -> s27 [label="APPLICATION_EPOCH_0 / TIMEOUT"];
	s37 -> s32 [label="APPLICATION / TIMEOUT"];
	s37 -> s32 [label="Alert(WARNING,CLOSE_NOTIFY) / TIMEOUT"];
	s37 -> s32 [label="Alert(FATAL,UNEXPECTED_MESSAGE) / TIMEOUT"];
	s38 -> s45 [label="HELLO_VERIFY_REQUEST / TIMEOUT"];
	s38 -> s39 [label="PSK_SERVER_HELLO / TIMEOUT"];
	s38 -> s39 [label="PSK_SERVER_HELLO_EPOCH_1 / TIMEOUT"];
	s38 -> s45 [label="SERVER_HELLO_DONE / TIMEOUT"];
	s38 -> s38 [label="CHANGE_CIPHER_SPEC / TIMEOUT"];
	s38 -> s45 [label="FINISHED / TIMEOUT"];
	s38 -> s38 [label="FINISHED_EPOCH_0 / TIMEOUT"];
	s38 -> s38 [label="APPLICATION_EPOCH_0 / TIMEOUT"];
	s38 -> s45 [label="APPLICATION / TIMEOUT"];
	s38 -> s45 [label="Alert(WARNING,CLOSE_NOTIFY) / TIMEOUT"];
	s38 -> s45 [label="Alert(FATAL,UNEXPECTED_MESSAGE) / TIMEOUT"];
	s39 -> s46 [label="HELLO_VERIFY_REQUEST / TIMEOUT"];
	s39 -> s46 [label="PSK_SERVER_HELLO / TIMEOUT"];
	s39 -> s3 [label="PSK_SERVER_HELLO_EPOCH_1 / TIMEOUT"];
	s39 -> s46 [label="SERVER_HELLO_DONE / TIMEOUT"];
	s39 -> s32 [label="CHANGE_CIPHER_SPEC / TIMEOUT"];
	s39 -> s46 [label="FINISHED / TIMEOUT"];
	s39 -> s43 [label="FINISHED_EPOCH_0 / TIMEOUT"];
	s39 -> s43 [label="APPLICATION_EPOCH_0 / TIMEOUT"];
	s39 -> s46 [label="APPLICATION / TIMEOUT"];
	s39 -> s46 [label="Alert(WARNING,CLOSE_NOTIFY) / TIMEOUT"];
	s39 -> s46 [label="Alert(FATAL,UNEXPECTED_MESSAGE) / TIMEOUT"];
	s40 -> s40 [label="HELLO_VERIFY_REQUEST / TIMEOUT"];
	s40 -> s40 [label="PSK_SERVER_HELLO / TIMEOUT"];
	s40 -> s40 [label="PSK_SERVER_HELLO_EPOCH_1 / TIMEOUT"];
	s40 -> s40 [label="SERVER_HELLO_DONE / TIMEOUT"];
	s40 -> s41 [label="CHANGE_CIPHER_SPEC / TIMEOUT"];
	s40 -> s40 [label="FINISHED / TIMEOUT"];
	s40 -> s40 [label="FINISHED_EPOCH_0 / TIMEOUT"];
	s40 -> s40 [label="APPLICATION_EPOCH_0 / TIMEOUT"];
	s40 -> s40 [label="APPLICATION / TIMEOUT"];
	s40 -> s3 [label="Alert(WARNING,CLOSE_NOTIFY) / TIMEOUT"];
	s40 -> s3 [label="Alert(FATAL,UNEXPECTED_MESSAGE) / TIMEOUT"];
	s41 -> s3 [label="HELLO_VERIFY_REQUEST / Alert(FATAL,BAD_RECORD_MAC)"];
	s41 -> s3 [label="PSK_SERVER_HELLO / Alert(FATAL,BAD_RECORD_MAC)"];
	s41 -> s3 [label="PSK_SERVER_HELLO_EPOCH_1 / Alert(FATAL,BAD_RECORD_MAC)"];
	s41 -> s3 [label="SERVER_HELLO_DONE / Alert(FATAL,BAD_RECORD_MAC)"];
	s41 -> s3 [label="CHANGE_CIPHER_SPEC / Alert(FATAL,BAD_RECORD_MAC)"];
	s41 -> s3 [label="FINISHED / Alert(FATAL,BAD_RECORD_MAC)"];
	s41 -> s44 [label="FINISHED_EPOCH_0 / TIMEOUT"];
	s41 -> s44 [label="APPLICATION_EPOCH_0 / TIMEOUT"];
	s41 -> s41 [label="APPLICATION / TIMEOUT"];
	s41 -> s3 [label="Alert(WARNING,CLOSE_NOTIFY) / Alert(FATAL,BAD_RECORD_MAC)"];
	s41 -> s3 [label="Alert(FATAL,UNEXPECTED_MESSAGE) / Alert(FATAL,BAD_RECORD_MAC)"];
	s42 -> s42 [label="HELLO_VERIFY_REQUEST / TIMEOUT"];
	s42 -> s42 [label="PSK_SERVER_HELLO / TIMEOUT"];
	s42 -> s3 [label="PSK_SERVER_HELLO_EPOCH_1 / Alert(FATAL,BAD_RECORD_MAC)"];
	s42 -> s42 [label="SERVER_HELLO_DONE / TIMEOUT"];
	s42 -> s30 [label="CHANGE_CIPHER_SPEC / TIMEOUT"];
	s42 -> s42 [label="FINISHED / TIMEOUT"];
	s42 -> s36 [label="FINISHED_EPOCH_0 / TIMEOUT"];
	s42 -> s36 [label="APPLICATION_EPOCH_0 / TIMEOUT"];
	s42 -> s42 [label="APPLICATION / TIMEOUT"];
	s42 -> s42 [label="Alert(WARNING,CLOSE_NOTIFY) / TIMEOUT"];
	s42 -> s42 [label="Alert(FATAL,UNEXPECTED_MESSAGE) / TIMEOUT"];
	s43 -> s29 [label="HELLO_VERIFY_REQUEST / TIMEOUT"];
	s43 -> s29 [label="PSK_SERVER_HELLO / TIMEOUT"];
	s43 -> s29 [label="PSK_SERVER_HELLO_EPOCH_1 / TIMEOUT"];
	s43 -> s29 [label="SERVER_HELLO_DONE / TIMEOUT"];
	s43 -> s43 [label="CHANGE_CIPHER_SPEC / TIMEOUT"];
	s43 -> s29 [label="FINISHED / TIMEOUT"];
	s43 -> s43 [label="FINISHED_EPOCH_0 / TIMEOUT"];
	s43 -> s43 [label="APPLICATION_EPOCH_0 / TIMEOUT"];
	s43 -> s29 [label="APPLICATION / TIMEOUT"];
	s43 -> s29 [label="Alert(WARNING,CLOSE_NOTIFY) / TIMEOUT"];
	s43 -> s29 [label="Alert(FATAL,UNEXPECTED_MESSAGE) / TIMEOUT"];
	s44 -> s3 [label="HELLO_VERIFY_REQUEST / UNKNOWN_MESSAGE"];
	s44 -> s3 [label="PSK_SERVER_HELLO / UNKNOWN_MESSAGE"];
	s44 -> s3 [label="PSK_SERVER_HELLO_EPOCH_1 / UNKNOWN_MESSAGE"];
	s44 -> s3 [label="SERVER_HELLO_DONE / UNKNOWN_MESSAGE"];
	s44 -> s3 [label="CHANGE_CIPHER_SPEC / UNKNOWN_MESSAGE"];
	s44 -> s3 [label="FINISHED / UNKNOWN_MESSAGE"];
	s44 -> s44 [label="FINISHED_EPOCH_0 / TIMEOUT"];
	s44 -> s44 [label="APPLICATION_EPOCH_0 / TIMEOUT"];
	s44 -> s44 [label="APPLICATION / TIMEOUT"];
	s44 -> s3 [label="Alert(WARNING,CLOSE_NOTIFY) / UNKNOWN_MESSAGE"];
	s44 -> s3 [label="Alert(FATAL,UNEXPECTED_MESSAGE) / UNKNOWN_MESSAGE"];
	s45 -> s38 [label="HELLO_VERIFY_REQUEST / TIMEOUT"];
	s45 -> s46 [label="PSK_SERVER_HELLO / TIMEOUT"];
	s45 -> s3 [label="PSK_SERVER_HELLO_EPOCH_1 / TIMEOUT"];
	s45 -> s38 [label="SERVER_HELLO_DONE / TIMEOUT"];
	s45 -> s38 [label="CHANGE_CIPHER_SPEC / TIMEOUT"];
	s45 -> s38 [label="FINISHED / TIMEOUT"];
	s45 -> s38 [label="FINISHED_EPOCH_0 / TIMEOUT"];
	s45 -> s38 [label="APPLICATION_EPOCH_0 / TIMEOUT"];
	s45 -> s38 [label="APPLICATION / TIMEOUT"];
	s45 -> s38 [label="Alert(WARNING,CLOSE_NOTIFY) / TIMEOUT"];
	s45 -> s38 [label="Alert(FATAL,UNEXPECTED_MESSAGE) / TIMEOUT"];
	s46 -> s46 [label="HELLO_VERIFY_REQUEST / TIMEOUT"];
	s46 -> s46 [label="PSK_SERVER_HELLO / TIMEOUT"];
	s46 -> s46 [label="PSK_SERVER_HELLO_EPOCH_1 / TIMEOUT"];
	s46 -> s46 [label="SERVER_HELLO_DONE / TIMEOUT"];
	s46 -> s32 [label="CHANGE_CIPHER_SPEC / TIMEOUT"];
	s46 -> s46 [label="FINISHED / TIMEOUT"];
	s46 -> s43 [label="FINISHED_EPOCH_0 / TIMEOUT"];
	s46 -> s43 [label="APPLICATION_EPOCH_0 / TIMEOUT"];
	s46 -> s46 [label="APPLICATION / TIMEOUT"];
	s46 -> s46 [label="Alert(WARNING,CLOSE_NOTIFY) / TIMEOUT"];
	s46 -> s46 [label="Alert(FATAL,UNEXPECTED_MESSAGE) / TIMEOUT"];

__start0 [label="" shape="none" width="0" height="0"];
__start0 -> s0;

}
