digraph g {

	s0 [shape="circle" label="s0"];
	s1 [shape="circle" label="s1"];
	s2 [shape="circle" label="s2"];
	s3 [shape="circle" label="s3"];
	s4 [shape="circle" label="s4"];
	s5 [shape="circle" label="s5"];
	s6 [shape="circle" label="s6"];
	s7 [shape="circle" label="s7"];
	s8 [shape="circle" label="s8"];
	s9 [shape="circle" label="s9"];
	s10 [shape="circle" label="s10"];
	s11 [shape="circle" label="s11"];
	s12 [shape="circle" label="s12"];
	s13 [shape="circle" label="s13"];
	s14 [shape="circle" label="s14"];
	s15 [shape="circle" label="s15"];
	s0 -> s2 [label="PSK_CLIENT_HELLO / HELLO_VERIFY_REQUEST+"];
	s0 -> s5 [label="PSK_CLIENT_KEY_EXCHANGE / TIMEOUT"];
	s0 -> s1 [label="CHANGE_CIPHER_SPEC / TIMEOUT"];
	s0 -> s5 [label="FINISHED / TIMEOUT"];
	s0 -> s0 [label="APPLICATION / TIMEOUT"];
	s0 -> s0 [label="Alert(WARNING,CLOSE_NOTIFY) / TIMEOUT"];
	s0 -> s0 [label="Alert(FATAL,UNEXPECTED_MESSAGE) / TIMEOUT"];
	s1 -> s1 [label="PSK_CLIENT_HELLO / TIMEOUT"];
	s1 -> s1 [label="PSK_CLIENT_KEY_EXCHANGE / TIMEOUT"];
	s1 -> s1 [label="CHANGE_CIPHER_SPEC / TIMEOUT"];
	s1 -> s1 [label="FINISHED / TIMEOUT"];
	s1 -> s1 [label="APPLICATION / TIMEOUT"];
	s1 -> s1 [label="Alert(WARNING,CLOSE_NOTIFY) / TIMEOUT"];
	s1 -> s1 [label="Alert(FATAL,UNEXPECTED_MESSAGE) / TIMEOUT"];
	s2 -> s6 [label="PSK_CLIENT_HELLO / SERVER_HELLO,PSK_SERVER_KEY_EXCHANGE,SERVER_HELLO_DONE"];
	s2 -> s4 [label="PSK_CLIENT_KEY_EXCHANGE / HELLO_VERIFY_REQUEST+"];
	s2 -> s1 [label="CHANGE_CIPHER_SPEC / TIMEOUT"];
	s2 -> s4 [label="FINISHED / HELLO_VERIFY_REQUEST+"];
	s2 -> s3 [label="APPLICATION / Alert(FATAL,UNEXPECTED_MESSAGE)"];
	s2 -> s3 [label="Alert(WARNING,CLOSE_NOTIFY) / Alert(WARNING,CLOSE_NOTIFY)"];
	s2 -> s3 [label="Alert(FATAL,UNEXPECTED_MESSAGE) / TIMEOUT"];
	s3 -> s3 [label="PSK_CLIENT_HELLO / SOCKET_CLOSED"];
	s3 -> s3 [label="PSK_CLIENT_KEY_EXCHANGE / SOCKET_CLOSED"];
	s3 -> s3 [label="CHANGE_CIPHER_SPEC / SOCKET_CLOSED"];
	s3 -> s3 [label="FINISHED / SOCKET_CLOSED"];
	s3 -> s3 [label="APPLICATION / SOCKET_CLOSED"];
	s3 -> s3 [label="Alert(WARNING,CLOSE_NOTIFY) / SOCKET_CLOSED"];
	s3 -> s3 [label="Alert(FATAL,UNEXPECTED_MESSAGE) / SOCKET_CLOSED"];
	s4 -> s5 [label="PSK_CLIENT_HELLO / TIMEOUT"];
	s4 -> s4 [label="PSK_CLIENT_KEY_EXCHANGE / HELLO_VERIFY_REQUEST+"];
	s4 -> s1 [label="CHANGE_CIPHER_SPEC / TIMEOUT"];
	s4 -> s4 [label="FINISHED / HELLO_VERIFY_REQUEST+"];
	s4 -> s3 [label="APPLICATION / Alert(FATAL,UNEXPECTED_MESSAGE)"];
	s4 -> s3 [label="Alert(WARNING,CLOSE_NOTIFY) / Alert(WARNING,CLOSE_NOTIFY)"];
	s4 -> s3 [label="Alert(FATAL,UNEXPECTED_MESSAGE) / TIMEOUT"];
	s5 -> s5 [label="PSK_CLIENT_HELLO / TIMEOUT"];
	s5 -> s5 [label="PSK_CLIENT_KEY_EXCHANGE / TIMEOUT"];
	s5 -> s1 [label="CHANGE_CIPHER_SPEC / TIMEOUT"];
	s5 -> s5 [label="FINISHED / TIMEOUT"];
	s5 -> s3 [label="APPLICATION / Alert(FATAL,UNEXPECTED_MESSAGE)"];
	s5 -> s3 [label="Alert(WARNING,CLOSE_NOTIFY) / Alert(WARNING,CLOSE_NOTIFY)"];
	s5 -> s3 [label="Alert(FATAL,UNEXPECTED_MESSAGE) / TIMEOUT"];
	s6 -> s5 [label="PSK_CLIENT_HELLO / TIMEOUT"];
	s6 -> s7 [label="PSK_CLIENT_KEY_EXCHANGE / TIMEOUT"];
	s6 -> s1 [label="CHANGE_CIPHER_SPEC / TIMEOUT"];
	s6 -> s5 [label="FINISHED / TIMEOUT"];
	s6 -> s3 [label="APPLICATION / Alert(FATAL,UNEXPECTED_MESSAGE)"];
	s6 -> s3 [label="Alert(WARNING,CLOSE_NOTIFY) / Alert(WARNING,CLOSE_NOTIFY)"];
	s6 -> s3 [label="Alert(FATAL,UNEXPECTED_MESSAGE) / TIMEOUT"];
	s7 -> s15 [label="PSK_CLIENT_HELLO / TIMEOUT"];
	s7 -> s15 [label="PSK_CLIENT_KEY_EXCHANGE / TIMEOUT"];
	s7 -> s8 [label="CHANGE_CIPHER_SPEC / TIMEOUT"];
	s7 -> s15 [label="FINISHED / TIMEOUT"];
	s7 -> s3 [label="APPLICATION / Alert(FATAL,UNEXPECTED_MESSAGE)"];
	s7 -> s3 [label="Alert(WARNING,CLOSE_NOTIFY) / Alert(WARNING,CLOSE_NOTIFY)"];
	s7 -> s3 [label="Alert(FATAL,UNEXPECTED_MESSAGE) / TIMEOUT"];
	s8 -> s10 [label="PSK_CLIENT_HELLO / TIMEOUT"];
	s8 -> s10 [label="PSK_CLIENT_KEY_EXCHANGE / TIMEOUT"];
	s8 -> s3 [label="CHANGE_CIPHER_SPEC / Alert(FATAL,DECODE_ERROR)"];
	s8 -> s9 [label="FINISHED / CHANGE_CIPHER_SPEC,FINISHED"];
	s8 -> s11 [label="APPLICATION / TIMEOUT"];
	s8 -> s3 [label="Alert(WARNING,CLOSE_NOTIFY) / Alert(WARNING,CLOSE_NOTIFY)"];
	s8 -> s3 [label="Alert(FATAL,UNEXPECTED_MESSAGE) / TIMEOUT"];
	s9 -> s13 [label="PSK_CLIENT_HELLO / TIMEOUT"];
	s9 -> s13 [label="PSK_CLIENT_KEY_EXCHANGE / TIMEOUT"];
	s9 -> s3 [label="CHANGE_CIPHER_SPEC / Alert(FATAL,DECODE_ERROR)"];
	s9 -> s14 [label="FINISHED / TIMEOUT"];
	s9 -> s3 [label="APPLICATION / APPLICATION"];
	s9 -> s3 [label="Alert(WARNING,CLOSE_NOTIFY) / Alert(WARNING,CLOSE_NOTIFY)"];
	s9 -> s3 [label="Alert(FATAL,UNEXPECTED_MESSAGE) / TIMEOUT"];
	s10 -> s10 [label="PSK_CLIENT_HELLO / TIMEOUT"];
	s10 -> s10 [label="PSK_CLIENT_KEY_EXCHANGE / TIMEOUT"];
	s10 -> s3 [label="CHANGE_CIPHER_SPEC / Alert(FATAL,DECODE_ERROR)"];
	s10 -> s10 [label="FINISHED / TIMEOUT"];
	s10 -> s12 [label="APPLICATION / TIMEOUT"];
	s10 -> s3 [label="Alert(WARNING,CLOSE_NOTIFY) / Alert(WARNING,CLOSE_NOTIFY)"];
	s10 -> s3 [label="Alert(FATAL,UNEXPECTED_MESSAGE) / TIMEOUT"];
	s11 -> s12 [label="PSK_CLIENT_HELLO / TIMEOUT"];
	s11 -> s12 [label="PSK_CLIENT_KEY_EXCHANGE / TIMEOUT"];
	s11 -> s3 [label="CHANGE_CIPHER_SPEC / Alert(FATAL,DECODE_ERROR)"];
	s11 -> s3 [label="FINISHED / CHANGE_CIPHER_SPEC,FINISHED,APPLICATION"];
	s11 -> s1 [label="APPLICATION / TIMEOUT"];
	s11 -> s3 [label="Alert(WARNING,CLOSE_NOTIFY) / Alert(WARNING,CLOSE_NOTIFY)"];
	s11 -> s3 [label="Alert(FATAL,UNEXPECTED_MESSAGE) / TIMEOUT"];
	s12 -> s12 [label="PSK_CLIENT_HELLO / TIMEOUT"];
	s12 -> s12 [label="PSK_CLIENT_KEY_EXCHANGE / TIMEOUT"];
	s12 -> s3 [label="CHANGE_CIPHER_SPEC / Alert(FATAL,DECODE_ERROR)"];
	s12 -> s12 [label="FINISHED / TIMEOUT"];
	s12 -> s1 [label="APPLICATION / TIMEOUT"];
	s12 -> s3 [label="Alert(WARNING,CLOSE_NOTIFY) / Alert(WARNING,CLOSE_NOTIFY)"];
	s12 -> s3 [label="Alert(FATAL,UNEXPECTED_MESSAGE) / TIMEOUT"];
	s13 -> s1 [label="PSK_CLIENT_HELLO / TIMEOUT"];
	s13 -> s1 [label="PSK_CLIENT_KEY_EXCHANGE / TIMEOUT"];
	s13 -> s3 [label="CHANGE_CIPHER_SPEC / Alert(FATAL,DECODE_ERROR)"];
	s13 -> s1 [label="FINISHED / TIMEOUT"];
	s13 -> s3 [label="APPLICATION / APPLICATION"];
	s13 -> s3 [label="Alert(WARNING,CLOSE_NOTIFY) / Alert(WARNING,CLOSE_NOTIFY)"];
	s13 -> s3 [label="Alert(FATAL,UNEXPECTED_MESSAGE) / TIMEOUT"];
	s14 -> s14 [label="PSK_CLIENT_HELLO / TIMEOUT"];
	s14 -> s14 [label="PSK_CLIENT_KEY_EXCHANGE / TIMEOUT"];
	s14 -> s3 [label="CHANGE_CIPHER_SPEC / Alert(FATAL,DECODE_ERROR)"];
	s14 -> s14 [label="FINISHED / TIMEOUT"];
	s14 -> s3 [label="APPLICATION / APPLICATION"];
	s14 -> s3 [label="Alert(WARNING,CLOSE_NOTIFY) / Alert(WARNING,CLOSE_NOTIFY)"];
	s14 -> s3 [label="Alert(FATAL,UNEXPECTED_MESSAGE) / TIMEOUT"];
	s15 -> s15 [label="PSK_CLIENT_HELLO / TIMEOUT"];
	s15 -> s15 [label="PSK_CLIENT_KEY_EXCHANGE / TIMEOUT"];
	s15 -> s10 [label="CHANGE_CIPHER_SPEC / TIMEOUT"];
	s15 -> s15 [label="FINISHED / TIMEOUT"];
	s15 -> s3 [label="APPLICATION / Alert(FATAL,UNEXPECTED_MESSAGE)"];
	s15 -> s3 [label="Alert(WARNING,CLOSE_NOTIFY) / Alert(WARNING,CLOSE_NOTIFY)"];
	s15 -> s3 [label="Alert(FATAL,UNEXPECTED_MESSAGE) / TIMEOUT"];

__start0 [label="" shape="none" width="0" height="0"];
__start0 -> s0;

}
