digraph g {

	s0 [shape="circle" label="s0"];
	s1 [shape="circle" label="s1"];
	s2 [shape="circle" label="s2"];
	s3 [shape="circle" label="s3"];
	s4 [shape="circle" label="s4"];
	s5 [shape="circle" label="s5"];
	s6 [shape="circle" label="s6"];
	s7 [shape="circle" label="s7"];
	s8 [shape="circle" label="s8"];
	s9 [shape="circle" label="s9"];
	s10 [shape="circle" label="s10"];
	s11 [shape="circle" label="s11"];
	s12 [shape="circle" label="s12"];
	s13 [shape="circle" label="s13"];
	s14 [shape="circle" label="s14"];
	s15 [shape="circle" label="s15"];
	s16 [shape="circle" label="s16"];
	s17 [shape="circle" label="s17"];
	s18 [shape="circle" label="s18"];
	s19 [shape="circle" label="s19"];
	s20 [shape="circle" label="s20"];
	s21 [shape="circle" label="s21"];
	s22 [shape="circle" label="s22"];
	s23 [shape="circle" label="s23"];
	s0 -> s17 [label="HELLO_VERIFY_REQUEST / CLIENT_HELLO+"];
	s0 -> s12 [label="ECDH_SERVER_HELLO / CLIENT_HELLO"];
	s0 -> s1 [label="ECDH_SERVER_KEY_EXCHANGE / CLIENT_HELLO,Alert(FATAL,DECODE_ERROR)"];
	s0 -> s4 [label="DH_SERVER_HELLO / CLIENT_HELLO"];
	s0 -> s1 [label="DH_SERVER_KEY_EXCHANGE / CLIENT_HELLO,Alert(FATAL,DECODE_ERROR)"];
	s0 -> s2 [label="RSA_SERVER_HELLO / CLIENT_HELLO"];
	s0 -> s1 [label="RSA_SIGN_CERTIFICATE_REQUEST / CLIENT_HELLO,Alert(FATAL,DECODE_ERROR)"];
	s0 -> s1 [label="RSA_FIXED_ECDH_CERTIFICATE_REQUEST / CLIENT_HELLO,Alert(FATAL,DECODE_ERROR)"];
	s0 -> s1 [label="RSA_FIXED_DH_CERTIFICATE_REQUEST / CLIENT_HELLO,Alert(FATAL,DECODE_ERROR)"];
	s0 -> s1 [label="DSS_SIGN_CERTIFICATE_REQUEST / CLIENT_HELLO,Alert(FATAL,DECODE_ERROR)"];
	s0 -> s1 [label="DSS_FIXED_DH_CERTIFICATE_REQUEST / CLIENT_HELLO,Alert(FATAL,DECODE_ERROR)"];
	s0 -> s1 [label="SERVER_HELLO_DONE / CLIENT_HELLO,Alert(FATAL,DECODE_ERROR)"];
	s0 -> s1 [label="CHANGE_CIPHER_SPEC / CLIENT_HELLO"];
	s0 -> s1 [label="FINISHED / CLIENT_HELLO,Alert(FATAL,DECODE_ERROR)"];
	s0 -> s3 [label="APPLICATION / CLIENT_HELLO"];
	s0 -> s1 [label="CERTIFICATE / CLIENT_HELLO,Alert(FATAL,DECODE_ERROR)"];
	s0 -> s1 [label="EMPTY_CERTIFICATE / CLIENT_HELLO,Alert(FATAL,DECODE_ERROR)"];
	s0 -> s1 [label="Alert(WARNING,CLOSE_NOTIFY) / CLIENT_HELLO"];
	s0 -> s1 [label="Alert(FATAL,UNEXPECTED_MESSAGE) / CLIENT_HELLO"];
	s1 -> s1 [label="HELLO_VERIFY_REQUEST / TIMEOUT"];
	s1 -> s1 [label="ECDH_SERVER_HELLO / TIMEOUT"];
	s1 -> s1 [label="ECDH_SERVER_KEY_EXCHANGE / TIMEOUT"];
	s1 -> s1 [label="DH_SERVER_HELLO / TIMEOUT"];
	s1 -> s1 [label="DH_SERVER_KEY_EXCHANGE / TIMEOUT"];
	s1 -> s1 [label="RSA_SERVER_HELLO / TIMEOUT"];
	s1 -> s1 [label="RSA_SIGN_CERTIFICATE_REQUEST / TIMEOUT"];
	s1 -> s1 [label="RSA_FIXED_ECDH_CERTIFICATE_REQUEST / TIMEOUT"];
	s1 -> s1 [label="RSA_FIXED_DH_CERTIFICATE_REQUEST / TIMEOUT"];
	s1 -> s1 [label="DSS_SIGN_CERTIFICATE_REQUEST / TIMEOUT"];
	s1 -> s1 [label="DSS_FIXED_DH_CERTIFICATE_REQUEST / TIMEOUT"];
	s1 -> s1 [label="SERVER_HELLO_DONE / TIMEOUT"];
	s1 -> s1 [label="CHANGE_CIPHER_SPEC / TIMEOUT"];
	s1 -> s1 [label="FINISHED / TIMEOUT"];
	s1 -> s1 [label="APPLICATION / TIMEOUT"];
	s1 -> s1 [label="CERTIFICATE / TIMEOUT"];
	s1 -> s1 [label="EMPTY_CERTIFICATE / TIMEOUT"];
	s1 -> s1 [label="Alert(WARNING,CLOSE_NOTIFY) / TIMEOUT"];
	s1 -> s1 [label="Alert(FATAL,UNEXPECTED_MESSAGE) / TIMEOUT"];
	s2 -> s1 [label="HELLO_VERIFY_REQUEST / Alert(FATAL,DECODE_ERROR)"];
	s2 -> s1 [label="ECDH_SERVER_HELLO / Alert(FATAL,DECODE_ERROR)"];
	s2 -> s1 [label="ECDH_SERVER_KEY_EXCHANGE / Alert(FATAL,DECODE_ERROR)"];
	s2 -> s1 [label="DH_SERVER_HELLO / Alert(FATAL,DECODE_ERROR)"];
	s2 -> s1 [label="DH_SERVER_KEY_EXCHANGE / Alert(FATAL,DECODE_ERROR)"];
	s2 -> s1 [label="RSA_SERVER_HELLO / Alert(FATAL,DECODE_ERROR)"];
	s2 -> s1 [label="RSA_SIGN_CERTIFICATE_REQUEST / Alert(FATAL,DECODE_ERROR)"];
	s2 -> s1 [label="RSA_FIXED_ECDH_CERTIFICATE_REQUEST / Alert(FATAL,DECODE_ERROR)"];
	s2 -> s1 [label="RSA_FIXED_DH_CERTIFICATE_REQUEST / Alert(FATAL,DECODE_ERROR)"];
	s2 -> s1 [label="DSS_SIGN_CERTIFICATE_REQUEST / Alert(FATAL,DECODE_ERROR)"];
	s2 -> s1 [label="DSS_FIXED_DH_CERTIFICATE_REQUEST / Alert(FATAL,DECODE_ERROR)"];
	s2 -> s1 [label="SERVER_HELLO_DONE / Alert(FATAL,DECODE_ERROR)"];
	s2 -> s1 [label="CHANGE_CIPHER_SPEC / TIMEOUT"];
	s2 -> s1 [label="FINISHED / Alert(FATAL,DECODE_ERROR)"];
	s2 -> s2 [label="APPLICATION / TIMEOUT"];
	s2 -> s6 [label="CERTIFICATE / TIMEOUT"];
	s2 -> s1 [label="EMPTY_CERTIFICATE / Alert(FATAL,DECODE_ERROR)"];
	s2 -> s1 [label="Alert(WARNING,CLOSE_NOTIFY) / TIMEOUT"];
	s2 -> s1 [label="Alert(FATAL,UNEXPECTED_MESSAGE) / TIMEOUT"];
	s3 -> s17 [label="HELLO_VERIFY_REQUEST / CLIENT_HELLO"];
	s3 -> s12 [label="ECDH_SERVER_HELLO / TIMEOUT"];
	s3 -> s1 [label="ECDH_SERVER_KEY_EXCHANGE / Alert(FATAL,DECODE_ERROR)"];
	s3 -> s4 [label="DH_SERVER_HELLO / TIMEOUT"];
	s3 -> s1 [label="DH_SERVER_KEY_EXCHANGE / Alert(FATAL,DECODE_ERROR)"];
	s3 -> s2 [label="RSA_SERVER_HELLO / TIMEOUT"];
	s3 -> s1 [label="RSA_SIGN_CERTIFICATE_REQUEST / Alert(FATAL,DECODE_ERROR)"];
	s3 -> s1 [label="RSA_FIXED_ECDH_CERTIFICATE_REQUEST / Alert(FATAL,DECODE_ERROR)"];
	s3 -> s1 [label="RSA_FIXED_DH_CERTIFICATE_REQUEST / Alert(FATAL,DECODE_ERROR)"];
	s3 -> s1 [label="DSS_SIGN_CERTIFICATE_REQUEST / Alert(FATAL,DECODE_ERROR)"];
	s3 -> s1 [label="DSS_FIXED_DH_CERTIFICATE_REQUEST / Alert(FATAL,DECODE_ERROR)"];
	s3 -> s1 [label="SERVER_HELLO_DONE / Alert(FATAL,DECODE_ERROR)"];
	s3 -> s1 [label="CHANGE_CIPHER_SPEC / TIMEOUT"];
	s3 -> s1 [label="FINISHED / Alert(FATAL,DECODE_ERROR)"];
	s3 -> s3 [label="APPLICATION / TIMEOUT"];
	s3 -> s1 [label="CERTIFICATE / Alert(FATAL,DECODE_ERROR)"];
	s3 -> s1 [label="EMPTY_CERTIFICATE / Alert(FATAL,DECODE_ERROR)"];
	s3 -> s1 [label="Alert(WARNING,CLOSE_NOTIFY) / TIMEOUT"];
	s3 -> s1 [label="Alert(FATAL,UNEXPECTED_MESSAGE) / TIMEOUT"];
	s4 -> s1 [label="HELLO_VERIFY_REQUEST / Alert(FATAL,DECODE_ERROR)"];
	s4 -> s1 [label="ECDH_SERVER_HELLO / Alert(FATAL,DECODE_ERROR)"];
	s4 -> s1 [label="ECDH_SERVER_KEY_EXCHANGE / Alert(FATAL,DECODE_ERROR)"];
	s4 -> s1 [label="DH_SERVER_HELLO / Alert(FATAL,DECODE_ERROR)"];
	s4 -> s1 [label="DH_SERVER_KEY_EXCHANGE / Alert(FATAL,DECODE_ERROR)"];
	s4 -> s1 [label="RSA_SERVER_HELLO / Alert(FATAL,DECODE_ERROR)"];
	s4 -> s1 [label="RSA_SIGN_CERTIFICATE_REQUEST / Alert(FATAL,DECODE_ERROR)"];
	s4 -> s1 [label="RSA_FIXED_ECDH_CERTIFICATE_REQUEST / Alert(FATAL,DECODE_ERROR)"];
	s4 -> s1 [label="RSA_FIXED_DH_CERTIFICATE_REQUEST / Alert(FATAL,DECODE_ERROR)"];
	s4 -> s1 [label="DSS_SIGN_CERTIFICATE_REQUEST / Alert(FATAL,DECODE_ERROR)"];
	s4 -> s1 [label="DSS_FIXED_DH_CERTIFICATE_REQUEST / Alert(FATAL,DECODE_ERROR)"];
	s4 -> s1 [label="SERVER_HELLO_DONE / Alert(FATAL,DECODE_ERROR)"];
	s4 -> s1 [label="CHANGE_CIPHER_SPEC / TIMEOUT"];
	s4 -> s1 [label="FINISHED / Alert(FATAL,DECODE_ERROR)"];
	s4 -> s4 [label="APPLICATION / TIMEOUT"];
	s4 -> s5 [label="CERTIFICATE / TIMEOUT"];
	s4 -> s1 [label="EMPTY_CERTIFICATE / Alert(FATAL,DECODE_ERROR)"];
	s4 -> s1 [label="Alert(WARNING,CLOSE_NOTIFY) / TIMEOUT"];
	s4 -> s1 [label="Alert(FATAL,UNEXPECTED_MESSAGE) / TIMEOUT"];
	s5 -> s1 [label="HELLO_VERIFY_REQUEST / Alert(FATAL,UNEXPECTED_MESSAGE)"];
	s5 -> s1 [label="ECDH_SERVER_HELLO / Alert(FATAL,UNEXPECTED_MESSAGE)"];
	s5 -> s1 [label="ECDH_SERVER_KEY_EXCHANGE / Alert(FATAL,ILLEGAL_PARAMETER)"];
	s5 -> s1 [label="DH_SERVER_HELLO / Alert(FATAL,UNEXPECTED_MESSAGE)"];
	s5 -> s7 [label="DH_SERVER_KEY_EXCHANGE / TIMEOUT"];
	s5 -> s1 [label="RSA_SERVER_HELLO / Alert(FATAL,UNEXPECTED_MESSAGE)"];
	s5 -> s1 [label="RSA_SIGN_CERTIFICATE_REQUEST / Alert(FATAL,UNEXPECTED_MESSAGE)"];
	s5 -> s1 [label="RSA_FIXED_ECDH_CERTIFICATE_REQUEST / Alert(FATAL,UNEXPECTED_MESSAGE)"];
	s5 -> s1 [label="RSA_FIXED_DH_CERTIFICATE_REQUEST / Alert(FATAL,UNEXPECTED_MESSAGE)"];
	s5 -> s1 [label="DSS_SIGN_CERTIFICATE_REQUEST / Alert(FATAL,UNEXPECTED_MESSAGE)"];
	s5 -> s1 [label="DSS_FIXED_DH_CERTIFICATE_REQUEST / Alert(FATAL,UNEXPECTED_MESSAGE)"];
	s5 -> s1 [label="SERVER_HELLO_DONE / Alert(FATAL,UNEXPECTED_MESSAGE)"];
	s5 -> s1 [label="CHANGE_CIPHER_SPEC / TIMEOUT"];
	s5 -> s1 [label="FINISHED / Alert(FATAL,UNEXPECTED_MESSAGE)"];
	s5 -> s5 [label="APPLICATION / TIMEOUT"];
	s5 -> s1 [label="CERTIFICATE / Alert(FATAL,UNEXPECTED_MESSAGE)"];
	s5 -> s1 [label="EMPTY_CERTIFICATE / Alert(FATAL,UNEXPECTED_MESSAGE)"];
	s5 -> s1 [label="Alert(WARNING,CLOSE_NOTIFY) / TIMEOUT"];
	s5 -> s1 [label="Alert(FATAL,UNEXPECTED_MESSAGE) / TIMEOUT"];
	s6 -> s1 [label="HELLO_VERIFY_REQUEST / Alert(FATAL,DECODE_ERROR)"];
	s6 -> s1 [label="ECDH_SERVER_HELLO / Alert(FATAL,DECODE_ERROR)"];
	s6 -> s1 [label="ECDH_SERVER_KEY_EXCHANGE / Alert(FATAL,DECODE_ERROR)"];
	s6 -> s1 [label="DH_SERVER_HELLO / Alert(FATAL,DECODE_ERROR)"];
	s6 -> s1 [label="DH_SERVER_KEY_EXCHANGE / Alert(FATAL,DECODE_ERROR)"];
	s6 -> s1 [label="RSA_SERVER_HELLO / Alert(FATAL,DECODE_ERROR)"];
	s6 -> s8 [label="RSA_SIGN_CERTIFICATE_REQUEST / TIMEOUT"];
	s6 -> s8 [label="RSA_FIXED_ECDH_CERTIFICATE_REQUEST / TIMEOUT"];
	s6 -> s8 [label="RSA_FIXED_DH_CERTIFICATE_REQUEST / TIMEOUT"];
	s6 -> s8 [label="DSS_SIGN_CERTIFICATE_REQUEST / TIMEOUT"];
	s6 -> s8 [label="DSS_FIXED_DH_CERTIFICATE_REQUEST / TIMEOUT"];
	s6 -> s10 [label="SERVER_HELLO_DONE / RSA_CLIENT_KEY_EXCHANGE,CHANGE_CIPHER_SPEC,FINISHED"];
	s6 -> s1 [label="CHANGE_CIPHER_SPEC / TIMEOUT"];
	s6 -> s1 [label="FINISHED / Alert(FATAL,DECODE_ERROR)"];
	s6 -> s6 [label="APPLICATION / TIMEOUT"];
	s6 -> s1 [label="CERTIFICATE / Alert(FATAL,DECODE_ERROR)"];
	s6 -> s1 [label="EMPTY_CERTIFICATE / Alert(FATAL,DECODE_ERROR)"];
	s6 -> s1 [label="Alert(WARNING,CLOSE_NOTIFY) / TIMEOUT"];
	s6 -> s1 [label="Alert(FATAL,UNEXPECTED_MESSAGE) / TIMEOUT"];
	s7 -> s1 [label="HELLO_VERIFY_REQUEST / Alert(FATAL,DECODE_ERROR)"];
	s7 -> s1 [label="ECDH_SERVER_HELLO / Alert(FATAL,DECODE_ERROR)"];
	s7 -> s1 [label="ECDH_SERVER_KEY_EXCHANGE / Alert(FATAL,DECODE_ERROR)"];
	s7 -> s1 [label="DH_SERVER_HELLO / Alert(FATAL,DECODE_ERROR)"];
	s7 -> s1 [label="DH_SERVER_KEY_EXCHANGE / Alert(FATAL,DECODE_ERROR)"];
	s7 -> s1 [label="RSA_SERVER_HELLO / Alert(FATAL,DECODE_ERROR)"];
	s7 -> s9 [label="RSA_SIGN_CERTIFICATE_REQUEST / TIMEOUT"];
	s7 -> s9 [label="RSA_FIXED_ECDH_CERTIFICATE_REQUEST / TIMEOUT"];
	s7 -> s9 [label="RSA_FIXED_DH_CERTIFICATE_REQUEST / TIMEOUT"];
	s7 -> s9 [label="DSS_SIGN_CERTIFICATE_REQUEST / TIMEOUT"];
	s7 -> s9 [label="DSS_FIXED_DH_CERTIFICATE_REQUEST / TIMEOUT"];
	s7 -> s10 [label="SERVER_HELLO_DONE / DH_CLIENT_KEY_EXCHANGE,CHANGE_CIPHER_SPEC,FINISHED"];
	s7 -> s1 [label="CHANGE_CIPHER_SPEC / TIMEOUT"];
	s7 -> s1 [label="FINISHED / Alert(FATAL,DECODE_ERROR)"];
	s7 -> s7 [label="APPLICATION / TIMEOUT"];
	s7 -> s1 [label="CERTIFICATE / Alert(FATAL,DECODE_ERROR)"];
	s7 -> s1 [label="EMPTY_CERTIFICATE / Alert(FATAL,DECODE_ERROR)"];
	s7 -> s1 [label="Alert(WARNING,CLOSE_NOTIFY) / TIMEOUT"];
	s7 -> s1 [label="Alert(FATAL,UNEXPECTED_MESSAGE) / TIMEOUT"];
	s8 -> s1 [label="HELLO_VERIFY_REQUEST / Alert(FATAL,DECODE_ERROR)"];
	s8 -> s1 [label="ECDH_SERVER_HELLO / Alert(FATAL,DECODE_ERROR)"];
	s8 -> s1 [label="ECDH_SERVER_KEY_EXCHANGE / Alert(FATAL,DECODE_ERROR)"];
	s8 -> s1 [label="DH_SERVER_HELLO / Alert(FATAL,DECODE_ERROR)"];
	s8 -> s1 [label="DH_SERVER_KEY_EXCHANGE / Alert(FATAL,DECODE_ERROR)"];
	s8 -> s1 [label="RSA_SERVER_HELLO / Alert(FATAL,DECODE_ERROR)"];
	s8 -> s1 [label="RSA_SIGN_CERTIFICATE_REQUEST / Alert(FATAL,DECODE_ERROR)"];
	s8 -> s1 [label="RSA_FIXED_ECDH_CERTIFICATE_REQUEST / Alert(FATAL,DECODE_ERROR)"];
	s8 -> s1 [label="RSA_FIXED_DH_CERTIFICATE_REQUEST / Alert(FATAL,DECODE_ERROR)"];
	s8 -> s1 [label="DSS_SIGN_CERTIFICATE_REQUEST / Alert(FATAL,DECODE_ERROR)"];
	s8 -> s1 [label="DSS_FIXED_DH_CERTIFICATE_REQUEST / Alert(FATAL,DECODE_ERROR)"];
	s8 -> s10 [label="SERVER_HELLO_DONE / CERTIFICATE,RSA_CLIENT_KEY_EXCHANGE,CERTIFICATE_VERIFY,CHANGE_CIPHER_SPEC,FINISHED"];
	s8 -> s1 [label="CHANGE_CIPHER_SPEC / TIMEOUT"];
	s8 -> s1 [label="FINISHED / Alert(FATAL,DECODE_ERROR)"];
	s8 -> s8 [label="APPLICATION / TIMEOUT"];
	s8 -> s1 [label="CERTIFICATE / Alert(FATAL,DECODE_ERROR)"];
	s8 -> s1 [label="EMPTY_CERTIFICATE / Alert(FATAL,DECODE_ERROR)"];
	s8 -> s1 [label="Alert(WARNING,CLOSE_NOTIFY) / TIMEOUT"];
	s8 -> s1 [label="Alert(FATAL,UNEXPECTED_MESSAGE) / TIMEOUT"];
	s9 -> s1 [label="HELLO_VERIFY_REQUEST / Alert(FATAL,DECODE_ERROR)"];
	s9 -> s1 [label="ECDH_SERVER_HELLO / Alert(FATAL,DECODE_ERROR)"];
	s9 -> s1 [label="ECDH_SERVER_KEY_EXCHANGE / Alert(FATAL,DECODE_ERROR)"];
	s9 -> s1 [label="DH_SERVER_HELLO / Alert(FATAL,DECODE_ERROR)"];
	s9 -> s1 [label="DH_SERVER_KEY_EXCHANGE / Alert(FATAL,DECODE_ERROR)"];
	s9 -> s1 [label="RSA_SERVER_HELLO / Alert(FATAL,DECODE_ERROR)"];
	s9 -> s1 [label="RSA_SIGN_CERTIFICATE_REQUEST / Alert(FATAL,DECODE_ERROR)"];
	s9 -> s1 [label="RSA_FIXED_ECDH_CERTIFICATE_REQUEST / Alert(FATAL,DECODE_ERROR)"];
	s9 -> s1 [label="RSA_FIXED_DH_CERTIFICATE_REQUEST / Alert(FATAL,DECODE_ERROR)"];
	s9 -> s1 [label="DSS_SIGN_CERTIFICATE_REQUEST / Alert(FATAL,DECODE_ERROR)"];
	s9 -> s1 [label="DSS_FIXED_DH_CERTIFICATE_REQUEST / Alert(FATAL,DECODE_ERROR)"];
	s9 -> s10 [label="SERVER_HELLO_DONE / CERTIFICATE,DH_CLIENT_KEY_EXCHANGE,CERTIFICATE_VERIFY,CHANGE_CIPHER_SPEC,FINISHED"];
	s9 -> s1 [label="CHANGE_CIPHER_SPEC / TIMEOUT"];
	s9 -> s1 [label="FINISHED / Alert(FATAL,DECODE_ERROR)"];
	s9 -> s9 [label="APPLICATION / TIMEOUT"];
	s9 -> s1 [label="CERTIFICATE / Alert(FATAL,DECODE_ERROR)"];
	s9 -> s1 [label="EMPTY_CERTIFICATE / Alert(FATAL,DECODE_ERROR)"];
	s9 -> s1 [label="Alert(WARNING,CLOSE_NOTIFY) / TIMEOUT"];
	s9 -> s1 [label="Alert(FATAL,UNEXPECTED_MESSAGE) / TIMEOUT"];
	s10 -> s1 [label="HELLO_VERIFY_REQUEST / Alert(FATAL,UNEXPECTED_MESSAGE)"];
	s10 -> s1 [label="ECDH_SERVER_HELLO / UNKNOWN_MESSAGE"];
	s10 -> s1 [label="ECDH_SERVER_KEY_EXCHANGE / Alert(FATAL,UNEXPECTED_MESSAGE)"];
	s10 -> s1 [label="DH_SERVER_HELLO / Alert(FATAL,UNEXPECTED_MESSAGE)"];
	s10 -> s1 [label="DH_SERVER_KEY_EXCHANGE / Alert(FATAL,UNEXPECTED_MESSAGE)"];
	s10 -> s1 [label="RSA_SERVER_HELLO / Alert(FATAL,UNEXPECTED_MESSAGE)"];
	s10 -> s1 [label="RSA_SIGN_CERTIFICATE_REQUEST / Alert(FATAL,UNEXPECTED_MESSAGE)"];
	s10 -> s1 [label="RSA_FIXED_ECDH_CERTIFICATE_REQUEST / Alert(FATAL,UNEXPECTED_MESSAGE)"];
	s10 -> s1 [label="RSA_FIXED_DH_CERTIFICATE_REQUEST / Alert(FATAL,UNEXPECTED_MESSAGE)"];
	s10 -> s1 [label="DSS_SIGN_CERTIFICATE_REQUEST / Alert(FATAL,UNEXPECTED_MESSAGE)"];
	s10 -> s1 [label="DSS_FIXED_DH_CERTIFICATE_REQUEST / Alert(FATAL,UNEXPECTED_MESSAGE)"];
	s10 -> s1 [label="SERVER_HELLO_DONE / Alert(FATAL,UNEXPECTED_MESSAGE)"];
	s10 -> s11 [label="CHANGE_CIPHER_SPEC / TIMEOUT"];
	s10 -> s1 [label="FINISHED / Alert(FATAL,UNEXPECTED_MESSAGE)"];
	s10 -> s10 [label="APPLICATION / TIMEOUT"];
	s10 -> s1 [label="CERTIFICATE / Alert(FATAL,UNEXPECTED_MESSAGE)"];
	s10 -> s1 [label="EMPTY_CERTIFICATE / Alert(FATAL,UNEXPECTED_MESSAGE)"];
	s10 -> s1 [label="Alert(WARNING,CLOSE_NOTIFY) / TIMEOUT"];
	s10 -> s1 [label="Alert(FATAL,UNEXPECTED_MESSAGE) / TIMEOUT"];
	s11 -> s1 [label="HELLO_VERIFY_REQUEST / Alert(FATAL,DECODE_ERROR)"];
	s11 -> s1 [label="ECDH_SERVER_HELLO / UNKNOWN_MESSAGE"];
	s11 -> s1 [label="ECDH_SERVER_KEY_EXCHANGE / Alert(FATAL,DECODE_ERROR)"];
	s11 -> s1 [label="DH_SERVER_HELLO / Alert(FATAL,DECODE_ERROR)"];
	s11 -> s1 [label="DH_SERVER_KEY_EXCHANGE / Alert(FATAL,DECODE_ERROR)"];
	s11 -> s1 [label="RSA_SERVER_HELLO / Alert(FATAL,DECODE_ERROR)"];
	s11 -> s1 [label="RSA_SIGN_CERTIFICATE_REQUEST / Alert(FATAL,DECODE_ERROR)"];
	s11 -> s1 [label="RSA_FIXED_ECDH_CERTIFICATE_REQUEST / Alert(FATAL,DECODE_ERROR)"];
	s11 -> s1 [label="RSA_FIXED_DH_CERTIFICATE_REQUEST / Alert(FATAL,DECODE_ERROR)"];
	s11 -> s1 [label="DSS_SIGN_CERTIFICATE_REQUEST / Alert(FATAL,DECODE_ERROR)"];
	s11 -> s1 [label="DSS_FIXED_DH_CERTIFICATE_REQUEST / Alert(FATAL,DECODE_ERROR)"];
	s11 -> s1 [label="SERVER_HELLO_DONE / Alert(FATAL,DECODE_ERROR)"];
	s11 -> s1 [label="CHANGE_CIPHER_SPEC / TIMEOUT"];
	s11 -> s1 [label="FINISHED / Alert(FATAL,DECODE_ERROR)"];
	s11 -> s11 [label="APPLICATION / TIMEOUT"];
	s11 -> s1 [label="CERTIFICATE / Alert(FATAL,DECODE_ERROR)"];
	s11 -> s1 [label="EMPTY_CERTIFICATE / Alert(FATAL,DECODE_ERROR)"];
	s11 -> s1 [label="Alert(WARNING,CLOSE_NOTIFY) / TIMEOUT"];
	s11 -> s1 [label="Alert(FATAL,UNEXPECTED_MESSAGE) / TIMEOUT"];
	s12 -> s1 [label="HELLO_VERIFY_REQUEST / Alert(FATAL,DECODE_ERROR)"];
	s12 -> s1 [label="ECDH_SERVER_HELLO / Alert(FATAL,DECODE_ERROR)"];
	s12 -> s1 [label="ECDH_SERVER_KEY_EXCHANGE / Alert(FATAL,DECODE_ERROR)"];
	s12 -> s1 [label="DH_SERVER_HELLO / Alert(FATAL,DECODE_ERROR)"];
	s12 -> s1 [label="DH_SERVER_KEY_EXCHANGE / Alert(FATAL,DECODE_ERROR)"];
	s12 -> s1 [label="RSA_SERVER_HELLO / Alert(FATAL,DECODE_ERROR)"];
	s12 -> s1 [label="RSA_SIGN_CERTIFICATE_REQUEST / Alert(FATAL,DECODE_ERROR)"];
	s12 -> s1 [label="RSA_FIXED_ECDH_CERTIFICATE_REQUEST / Alert(FATAL,DECODE_ERROR)"];
	s12 -> s1 [label="RSA_FIXED_DH_CERTIFICATE_REQUEST / Alert(FATAL,DECODE_ERROR)"];
	s12 -> s1 [label="DSS_SIGN_CERTIFICATE_REQUEST / Alert(FATAL,DECODE_ERROR)"];
	s12 -> s1 [label="DSS_FIXED_DH_CERTIFICATE_REQUEST / Alert(FATAL,DECODE_ERROR)"];
	s12 -> s1 [label="SERVER_HELLO_DONE / Alert(FATAL,DECODE_ERROR)"];
	s12 -> s1 [label="CHANGE_CIPHER_SPEC / TIMEOUT"];
	s12 -> s1 [label="FINISHED / Alert(FATAL,DECODE_ERROR)"];
	s12 -> s12 [label="APPLICATION / TIMEOUT"];
	s12 -> s13 [label="CERTIFICATE / TIMEOUT"];
	s12 -> s1 [label="EMPTY_CERTIFICATE / Alert(FATAL,DECODE_ERROR)"];
	s12 -> s1 [label="Alert(WARNING,CLOSE_NOTIFY) / TIMEOUT"];
	s12 -> s1 [label="Alert(FATAL,UNEXPECTED_MESSAGE) / TIMEOUT"];
	s13 -> s1 [label="HELLO_VERIFY_REQUEST / Alert(FATAL,UNEXPECTED_MESSAGE)"];
	s13 -> s1 [label="ECDH_SERVER_HELLO / Alert(FATAL,UNEXPECTED_MESSAGE)"];
	s13 -> s14 [label="ECDH_SERVER_KEY_EXCHANGE / TIMEOUT"];
	s13 -> s1 [label="DH_SERVER_HELLO / Alert(FATAL,UNEXPECTED_MESSAGE)"];
	s13 -> s1 [label="DH_SERVER_KEY_EXCHANGE / Alert(FATAL,ILLEGAL_PARAMETER)"];
	s13 -> s1 [label="RSA_SERVER_HELLO / Alert(FATAL,UNEXPECTED_MESSAGE)"];
	s13 -> s1 [label="RSA_SIGN_CERTIFICATE_REQUEST / Alert(FATAL,UNEXPECTED_MESSAGE)"];
	s13 -> s1 [label="RSA_FIXED_ECDH_CERTIFICATE_REQUEST / Alert(FATAL,UNEXPECTED_MESSAGE)"];
	s13 -> s1 [label="RSA_FIXED_DH_CERTIFICATE_REQUEST / Alert(FATAL,UNEXPECTED_MESSAGE)"];
	s13 -> s1 [label="DSS_SIGN_CERTIFICATE_REQUEST / Alert(FATAL,UNEXPECTED_MESSAGE)"];
	s13 -> s1 [label="DSS_FIXED_DH_CERTIFICATE_REQUEST / Alert(FATAL,UNEXPECTED_MESSAGE)"];
	s13 -> s1 [label="SERVER_HELLO_DONE / Alert(FATAL,UNEXPECTED_MESSAGE)"];
	s13 -> s1 [label="CHANGE_CIPHER_SPEC / TIMEOUT"];
	s13 -> s1 [label="FINISHED / Alert(FATAL,UNEXPECTED_MESSAGE)"];
	s13 -> s13 [label="APPLICATION / TIMEOUT"];
	s13 -> s1 [label="CERTIFICATE / Alert(FATAL,UNEXPECTED_MESSAGE)"];
	s13 -> s1 [label="EMPTY_CERTIFICATE / Alert(FATAL,UNEXPECTED_MESSAGE)"];
	s13 -> s1 [label="Alert(WARNING,CLOSE_NOTIFY) / TIMEOUT"];
	s13 -> s1 [label="Alert(FATAL,UNEXPECTED_MESSAGE) / TIMEOUT"];
	s14 -> s1 [label="HELLO_VERIFY_REQUEST / Alert(FATAL,DECODE_ERROR)"];
	s14 -> s1 [label="ECDH_SERVER_HELLO / Alert(FATAL,DECODE_ERROR)"];
	s14 -> s1 [label="ECDH_SERVER_KEY_EXCHANGE / Alert(FATAL,DECODE_ERROR)"];
	s14 -> s1 [label="DH_SERVER_HELLO / Alert(FATAL,DECODE_ERROR)"];
	s14 -> s1 [label="DH_SERVER_KEY_EXCHANGE / Alert(FATAL,DECODE_ERROR)"];
	s14 -> s1 [label="RSA_SERVER_HELLO / Alert(FATAL,DECODE_ERROR)"];
	s14 -> s15 [label="RSA_SIGN_CERTIFICATE_REQUEST / TIMEOUT"];
	s14 -> s15 [label="RSA_FIXED_ECDH_CERTIFICATE_REQUEST / TIMEOUT"];
	s14 -> s15 [label="RSA_FIXED_DH_CERTIFICATE_REQUEST / TIMEOUT"];
	s14 -> s15 [label="DSS_SIGN_CERTIFICATE_REQUEST / TIMEOUT"];
	s14 -> s15 [label="DSS_FIXED_DH_CERTIFICATE_REQUEST / TIMEOUT"];
	s14 -> s16 [label="SERVER_HELLO_DONE / ECDH_CLIENT_KEY_EXCHANGE,CHANGE_CIPHER_SPEC,FINISHED"];
	s14 -> s1 [label="CHANGE_CIPHER_SPEC / TIMEOUT"];
	s14 -> s1 [label="FINISHED / Alert(FATAL,DECODE_ERROR)"];
	s14 -> s14 [label="APPLICATION / TIMEOUT"];
	s14 -> s1 [label="CERTIFICATE / Alert(FATAL,DECODE_ERROR)"];
	s14 -> s1 [label="EMPTY_CERTIFICATE / Alert(FATAL,DECODE_ERROR)"];
	s14 -> s1 [label="Alert(WARNING,CLOSE_NOTIFY) / TIMEOUT"];
	s14 -> s1 [label="Alert(FATAL,UNEXPECTED_MESSAGE) / TIMEOUT"];
	s15 -> s1 [label="HELLO_VERIFY_REQUEST / Alert(FATAL,DECODE_ERROR)"];
	s15 -> s1 [label="ECDH_SERVER_HELLO / Alert(FATAL,DECODE_ERROR)"];
	s15 -> s1 [label="ECDH_SERVER_KEY_EXCHANGE / Alert(FATAL,DECODE_ERROR)"];
	s15 -> s1 [label="DH_SERVER_HELLO / Alert(FATAL,DECODE_ERROR)"];
	s15 -> s1 [label="DH_SERVER_KEY_EXCHANGE / Alert(FATAL,DECODE_ERROR)"];
	s15 -> s1 [label="RSA_SERVER_HELLO / Alert(FATAL,DECODE_ERROR)"];
	s15 -> s1 [label="RSA_SIGN_CERTIFICATE_REQUEST / Alert(FATAL,DECODE_ERROR)"];
	s15 -> s1 [label="RSA_FIXED_ECDH_CERTIFICATE_REQUEST / Alert(FATAL,DECODE_ERROR)"];
	s15 -> s1 [label="RSA_FIXED_DH_CERTIFICATE_REQUEST / Alert(FATAL,DECODE_ERROR)"];
	s15 -> s1 [label="DSS_SIGN_CERTIFICATE_REQUEST / Alert(FATAL,DECODE_ERROR)"];
	s15 -> s1 [label="DSS_FIXED_DH_CERTIFICATE_REQUEST / Alert(FATAL,DECODE_ERROR)"];
	s15 -> s16 [label="SERVER_HELLO_DONE / CERTIFICATE,ECDH_CLIENT_KEY_EXCHANGE,CERTIFICATE_VERIFY,CHANGE_CIPHER_SPEC,FINISHED"];
	s15 -> s1 [label="CHANGE_CIPHER_SPEC / TIMEOUT"];
	s15 -> s1 [label="FINISHED / Alert(FATAL,DECODE_ERROR)"];
	s15 -> s15 [label="APPLICATION / TIMEOUT"];
	s15 -> s1 [label="CERTIFICATE / Alert(FATAL,DECODE_ERROR)"];
	s15 -> s1 [label="EMPTY_CERTIFICATE / Alert(FATAL,DECODE_ERROR)"];
	s15 -> s1 [label="Alert(WARNING,CLOSE_NOTIFY) / TIMEOUT"];
	s15 -> s1 [label="Alert(FATAL,UNEXPECTED_MESSAGE) / TIMEOUT"];
	s16 -> s1 [label="HELLO_VERIFY_REQUEST / Alert(FATAL,UNEXPECTED_MESSAGE)"];
	s16 -> s1 [label="ECDH_SERVER_HELLO / Alert(FATAL,UNEXPECTED_MESSAGE)"];
	s16 -> s1 [label="ECDH_SERVER_KEY_EXCHANGE / Alert(FATAL,UNEXPECTED_MESSAGE)"];
	s16 -> s1 [label="DH_SERVER_HELLO / Alert(FATAL,UNEXPECTED_MESSAGE)"];
	s16 -> s1 [label="DH_SERVER_KEY_EXCHANGE / Alert(FATAL,UNEXPECTED_MESSAGE)"];
	s16 -> s1 [label="RSA_SERVER_HELLO / Alert(FATAL,UNEXPECTED_MESSAGE)"];
	s16 -> s1 [label="RSA_SIGN_CERTIFICATE_REQUEST / Alert(FATAL,UNEXPECTED_MESSAGE)"];
	s16 -> s1 [label="RSA_FIXED_ECDH_CERTIFICATE_REQUEST / Alert(FATAL,UNEXPECTED_MESSAGE)"];
	s16 -> s1 [label="RSA_FIXED_DH_CERTIFICATE_REQUEST / Alert(FATAL,UNEXPECTED_MESSAGE)"];
	s16 -> s1 [label="DSS_SIGN_CERTIFICATE_REQUEST / Alert(FATAL,UNEXPECTED_MESSAGE)"];
	s16 -> s1 [label="DSS_FIXED_DH_CERTIFICATE_REQUEST / Alert(FATAL,UNEXPECTED_MESSAGE)"];
	s16 -> s1 [label="SERVER_HELLO_DONE / Alert(FATAL,UNEXPECTED_MESSAGE)"];
	s16 -> s11 [label="CHANGE_CIPHER_SPEC / TIMEOUT"];
	s16 -> s1 [label="FINISHED / Alert(FATAL,UNEXPECTED_MESSAGE)"];
	s16 -> s16 [label="APPLICATION / TIMEOUT"];
	s16 -> s1 [label="CERTIFICATE / Alert(FATAL,UNEXPECTED_MESSAGE)"];
	s16 -> s1 [label="EMPTY_CERTIFICATE / Alert(FATAL,UNEXPECTED_MESSAGE)"];
	s16 -> s1 [label="Alert(WARNING,CLOSE_NOTIFY) / TIMEOUT"];
	s16 -> s1 [label="Alert(FATAL,UNEXPECTED_MESSAGE) / TIMEOUT"];
	s17 -> s3 [label="HELLO_VERIFY_REQUEST / CLIENT_HELLO"];
	s17 -> s12 [label="ECDH_SERVER_HELLO / TIMEOUT"];
	s17 -> s1 [label="ECDH_SERVER_KEY_EXCHANGE / Alert(FATAL,DECODE_ERROR)"];
	s17 -> s4 [label="DH_SERVER_HELLO / TIMEOUT"];
	s17 -> s1 [label="DH_SERVER_KEY_EXCHANGE / Alert(FATAL,DECODE_ERROR)"];
	s17 -> s18 [label="RSA_SERVER_HELLO / TIMEOUT"];
	s17 -> s1 [label="RSA_SIGN_CERTIFICATE_REQUEST / Alert(FATAL,DECODE_ERROR)"];
	s17 -> s1 [label="RSA_FIXED_ECDH_CERTIFICATE_REQUEST / Alert(FATAL,DECODE_ERROR)"];
	s17 -> s1 [label="RSA_FIXED_DH_CERTIFICATE_REQUEST / Alert(FATAL,DECODE_ERROR)"];
	s17 -> s1 [label="DSS_SIGN_CERTIFICATE_REQUEST / Alert(FATAL,DECODE_ERROR)"];
	s17 -> s1 [label="DSS_FIXED_DH_CERTIFICATE_REQUEST / Alert(FATAL,DECODE_ERROR)"];
	s17 -> s1 [label="SERVER_HELLO_DONE / Alert(FATAL,DECODE_ERROR)"];
	s17 -> s1 [label="CHANGE_CIPHER_SPEC / TIMEOUT"];
	s17 -> s1 [label="FINISHED / Alert(FATAL,DECODE_ERROR)"];
	s17 -> s17 [label="APPLICATION / TIMEOUT"];
	s17 -> s1 [label="CERTIFICATE / Alert(FATAL,DECODE_ERROR)"];
	s17 -> s1 [label="EMPTY_CERTIFICATE / Alert(FATAL,DECODE_ERROR)"];
	s17 -> s1 [label="Alert(WARNING,CLOSE_NOTIFY) / TIMEOUT"];
	s17 -> s1 [label="Alert(FATAL,UNEXPECTED_MESSAGE) / TIMEOUT"];
	s18 -> s1 [label="HELLO_VERIFY_REQUEST / Alert(FATAL,DECODE_ERROR)"];
	s18 -> s1 [label="ECDH_SERVER_HELLO / Alert(FATAL,DECODE_ERROR)"];
	s18 -> s1 [label="ECDH_SERVER_KEY_EXCHANGE / Alert(FATAL,DECODE_ERROR)"];
	s18 -> s1 [label="DH_SERVER_HELLO / Alert(FATAL,DECODE_ERROR)"];
	s18 -> s1 [label="DH_SERVER_KEY_EXCHANGE / Alert(FATAL,DECODE_ERROR)"];
	s18 -> s1 [label="RSA_SERVER_HELLO / Alert(FATAL,DECODE_ERROR)"];
	s18 -> s1 [label="RSA_SIGN_CERTIFICATE_REQUEST / Alert(FATAL,DECODE_ERROR)"];
	s18 -> s1 [label="RSA_FIXED_ECDH_CERTIFICATE_REQUEST / Alert(FATAL,DECODE_ERROR)"];
	s18 -> s1 [label="RSA_FIXED_DH_CERTIFICATE_REQUEST / Alert(FATAL,DECODE_ERROR)"];
	s18 -> s1 [label="DSS_SIGN_CERTIFICATE_REQUEST / Alert(FATAL,DECODE_ERROR)"];
	s18 -> s1 [label="DSS_FIXED_DH_CERTIFICATE_REQUEST / Alert(FATAL,DECODE_ERROR)"];
	s18 -> s1 [label="SERVER_HELLO_DONE / Alert(FATAL,DECODE_ERROR)"];
	s18 -> s1 [label="CHANGE_CIPHER_SPEC / TIMEOUT"];
	s18 -> s1 [label="FINISHED / Alert(FATAL,DECODE_ERROR)"];
	s18 -> s18 [label="APPLICATION / TIMEOUT"];
	s18 -> s19 [label="CERTIFICATE / TIMEOUT"];
	s18 -> s1 [label="EMPTY_CERTIFICATE / Alert(FATAL,DECODE_ERROR)"];
	s18 -> s1 [label="Alert(WARNING,CLOSE_NOTIFY) / TIMEOUT"];
	s18 -> s1 [label="Alert(FATAL,UNEXPECTED_MESSAGE) / TIMEOUT"];
	s19 -> s1 [label="HELLO_VERIFY_REQUEST / Alert(FATAL,DECODE_ERROR)"];
	s19 -> s1 [label="ECDH_SERVER_HELLO / Alert(FATAL,DECODE_ERROR)"];
	s19 -> s1 [label="ECDH_SERVER_KEY_EXCHANGE / Alert(FATAL,DECODE_ERROR)"];
	s19 -> s1 [label="DH_SERVER_HELLO / Alert(FATAL,DECODE_ERROR)"];
	s19 -> s1 [label="DH_SERVER_KEY_EXCHANGE / Alert(FATAL,DECODE_ERROR)"];
	s19 -> s1 [label="RSA_SERVER_HELLO / Alert(FATAL,DECODE_ERROR)"];
	s19 -> s8 [label="RSA_SIGN_CERTIFICATE_REQUEST / TIMEOUT"];
	s19 -> s8 [label="RSA_FIXED_ECDH_CERTIFICATE_REQUEST / TIMEOUT"];
	s19 -> s8 [label="RSA_FIXED_DH_CERTIFICATE_REQUEST / TIMEOUT"];
	s19 -> s8 [label="DSS_SIGN_CERTIFICATE_REQUEST / TIMEOUT"];
	s19 -> s8 [label="DSS_FIXED_DH_CERTIFICATE_REQUEST / TIMEOUT"];
	s19 -> s20 [label="SERVER_HELLO_DONE / RSA_CLIENT_KEY_EXCHANGE,CHANGE_CIPHER_SPEC,FINISHED"];
	s19 -> s1 [label="CHANGE_CIPHER_SPEC / TIMEOUT"];
	s19 -> s1 [label="FINISHED / Alert(FATAL,DECODE_ERROR)"];
	s19 -> s19 [label="APPLICATION / TIMEOUT"];
	s19 -> s1 [label="CERTIFICATE / Alert(FATAL,DECODE_ERROR)"];
	s19 -> s1 [label="EMPTY_CERTIFICATE / Alert(FATAL,DECODE_ERROR)"];
	s19 -> s1 [label="Alert(WARNING,CLOSE_NOTIFY) / TIMEOUT"];
	s19 -> s1 [label="Alert(FATAL,UNEXPECTED_MESSAGE) / TIMEOUT"];
	s20 -> s1 [label="HELLO_VERIFY_REQUEST / Alert(FATAL,UNEXPECTED_MESSAGE)"];
	s20 -> s1 [label="ECDH_SERVER_HELLO / UNKNOWN_MESSAGE"];
	s20 -> s1 [label="ECDH_SERVER_KEY_EXCHANGE / Alert(FATAL,UNEXPECTED_MESSAGE)"];
	s20 -> s1 [label="DH_SERVER_HELLO / Alert(FATAL,UNEXPECTED_MESSAGE)"];
	s20 -> s1 [label="DH_SERVER_KEY_EXCHANGE / Alert(FATAL,UNEXPECTED_MESSAGE)"];
	s20 -> s1 [label="RSA_SERVER_HELLO / Alert(FATAL,UNEXPECTED_MESSAGE)"];
	s20 -> s1 [label="RSA_SIGN_CERTIFICATE_REQUEST / Alert(FATAL,UNEXPECTED_MESSAGE)"];
	s20 -> s1 [label="RSA_FIXED_ECDH_CERTIFICATE_REQUEST / Alert(FATAL,UNEXPECTED_MESSAGE)"];
	s20 -> s1 [label="RSA_FIXED_DH_CERTIFICATE_REQUEST / Alert(FATAL,UNEXPECTED_MESSAGE)"];
	s20 -> s1 [label="DSS_SIGN_CERTIFICATE_REQUEST / Alert(FATAL,UNEXPECTED_MESSAGE)"];
	s20 -> s1 [label="DSS_FIXED_DH_CERTIFICATE_REQUEST / Alert(FATAL,UNEXPECTED_MESSAGE)"];
	s20 -> s1 [label="SERVER_HELLO_DONE / Alert(FATAL,UNEXPECTED_MESSAGE)"];
	s20 -> s21 [label="CHANGE_CIPHER_SPEC / TIMEOUT"];
	s20 -> s1 [label="FINISHED / Alert(FATAL,UNEXPECTED_MESSAGE)"];
	s20 -> s20 [label="APPLICATION / TIMEOUT"];
	s20 -> s1 [label="CERTIFICATE / Alert(FATAL,UNEXPECTED_MESSAGE)"];
	s20 -> s1 [label="EMPTY_CERTIFICATE / Alert(FATAL,UNEXPECTED_MESSAGE)"];
	s20 -> s1 [label="Alert(WARNING,CLOSE_NOTIFY) / TIMEOUT"];
	s20 -> s1 [label="Alert(FATAL,UNEXPECTED_MESSAGE) / TIMEOUT"];
	s21 -> s1 [label="HELLO_VERIFY_REQUEST / Alert(FATAL,DECODE_ERROR)"];
	s21 -> s1 [label="ECDH_SERVER_HELLO / UNKNOWN_MESSAGE"];
	s21 -> s1 [label="ECDH_SERVER_KEY_EXCHANGE / Alert(FATAL,DECODE_ERROR)"];
	s21 -> s1 [label="DH_SERVER_HELLO / Alert(FATAL,DECODE_ERROR)"];
	s21 -> s1 [label="DH_SERVER_KEY_EXCHANGE / Alert(FATAL,DECODE_ERROR)"];
	s21 -> s1 [label="RSA_SERVER_HELLO / Alert(FATAL,DECODE_ERROR)"];
	s21 -> s1 [label="RSA_SIGN_CERTIFICATE_REQUEST / Alert(FATAL,DECODE_ERROR)"];
	s21 -> s1 [label="RSA_FIXED_ECDH_CERTIFICATE_REQUEST / Alert(FATAL,DECODE_ERROR)"];
	s21 -> s1 [label="RSA_FIXED_DH_CERTIFICATE_REQUEST / Alert(FATAL,DECODE_ERROR)"];
	s21 -> s1 [label="DSS_SIGN_CERTIFICATE_REQUEST / Alert(FATAL,DECODE_ERROR)"];
	s21 -> s1 [label="DSS_FIXED_DH_CERTIFICATE_REQUEST / Alert(FATAL,DECODE_ERROR)"];
	s21 -> s1 [label="SERVER_HELLO_DONE / Alert(FATAL,DECODE_ERROR)"];
	s21 -> s1 [label="CHANGE_CIPHER_SPEC / TIMEOUT"];
	s21 -> s22 [label="FINISHED / APPLICATION"];
	s21 -> s21 [label="APPLICATION / TIMEOUT"];
	s21 -> s1 [label="CERTIFICATE / Alert(FATAL,DECODE_ERROR)"];
	s21 -> s1 [label="EMPTY_CERTIFICATE / Alert(FATAL,DECODE_ERROR)"];
	s21 -> s1 [label="Alert(WARNING,CLOSE_NOTIFY) / TIMEOUT"];
	s21 -> s1 [label="Alert(FATAL,UNEXPECTED_MESSAGE) / TIMEOUT"];
	s22 -> s22 [label="HELLO_VERIFY_REQUEST / TIMEOUT"];
	s22 -> s23 [label="ECDH_SERVER_HELLO / TIMEOUT"];
	s22 -> s22 [label="ECDH_SERVER_KEY_EXCHANGE / TIMEOUT"];
	s22 -> s22 [label="DH_SERVER_HELLO / TIMEOUT"];
	s22 -> s22 [label="DH_SERVER_KEY_EXCHANGE / TIMEOUT"];
	s22 -> s22 [label="RSA_SERVER_HELLO / TIMEOUT"];
	s22 -> s22 [label="RSA_SIGN_CERTIFICATE_REQUEST / TIMEOUT"];
	s22 -> s22 [label="RSA_FIXED_ECDH_CERTIFICATE_REQUEST / TIMEOUT"];
	s22 -> s22 [label="RSA_FIXED_DH_CERTIFICATE_REQUEST / TIMEOUT"];
	s22 -> s22 [label="DSS_SIGN_CERTIFICATE_REQUEST / TIMEOUT"];
	s22 -> s22 [label="DSS_FIXED_DH_CERTIFICATE_REQUEST / TIMEOUT"];
	s22 -> s22 [label="SERVER_HELLO_DONE / TIMEOUT"];
	s22 -> s1 [label="CHANGE_CIPHER_SPEC / TIMEOUT"];
	s22 -> s22 [label="FINISHED / TIMEOUT"];
	s22 -> s22 [label="APPLICATION / APPLICATION"];
	s22 -> s22 [label="CERTIFICATE / TIMEOUT"];
	s22 -> s22 [label="EMPTY_CERTIFICATE / TIMEOUT"];
	s22 -> s1 [label="Alert(WARNING,CLOSE_NOTIFY) / Alert(WARNING,CLOSE_NOTIFY)"];
	s22 -> s1 [label="Alert(FATAL,UNEXPECTED_MESSAGE) / TIMEOUT"];
	s23 -> s23 [label="HELLO_VERIFY_REQUEST / TIMEOUT"];
	s23 -> s23 [label="ECDH_SERVER_HELLO / TIMEOUT"];
	s23 -> s23 [label="ECDH_SERVER_KEY_EXCHANGE / TIMEOUT"];
	s23 -> s22 [label="DH_SERVER_HELLO / TIMEOUT"];
	s23 -> s23 [label="DH_SERVER_KEY_EXCHANGE / TIMEOUT"];
	s23 -> s22 [label="RSA_SERVER_HELLO / TIMEOUT"];
	s23 -> s23 [label="RSA_SIGN_CERTIFICATE_REQUEST / TIMEOUT"];
	s23 -> s23 [label="RSA_FIXED_ECDH_CERTIFICATE_REQUEST / TIMEOUT"];
	s23 -> s23 [label="RSA_FIXED_DH_CERTIFICATE_REQUEST / TIMEOUT"];
	s23 -> s23 [label="DSS_SIGN_CERTIFICATE_REQUEST / TIMEOUT"];
	s23 -> s23 [label="DSS_FIXED_DH_CERTIFICATE_REQUEST / TIMEOUT"];
	s23 -> s23 [label="SERVER_HELLO_DONE / TIMEOUT"];
	s23 -> s1 [label="CHANGE_CIPHER_SPEC / TIMEOUT"];
	s23 -> s23 [label="FINISHED / TIMEOUT"];
	s23 -> s23 [label="APPLICATION / TIMEOUT"];
	s23 -> s23 [label="CERTIFICATE / TIMEOUT"];
	s23 -> s23 [label="EMPTY_CERTIFICATE / TIMEOUT"];
	s23 -> s23 [label="Alert(WARNING,CLOSE_NOTIFY) / TIMEOUT"];
	s23 -> s23 [label="Alert(FATAL,UNEXPECTED_MESSAGE) / TIMEOUT"];

__start0 [label="" shape="none" width="0" height="0"];
__start0 -> s0;

}
