digraph g {

	s0 [shape="circle" label="s0"];
	s1 [shape="circle" label="s1"];
	s2 [shape="circle" label="s2"];
	s3 [shape="circle" label="s3"];
	s4 [shape="circle" label="s4"];
	s5 [shape="circle" label="s5"];
	s6 [shape="circle" label="s6"];
	s7 [shape="circle" label="s7"];
	s8 [shape="circle" label="s8"];
	s9 [shape="circle" label="s9"];
	s10 [shape="circle" label="s10"];
	s11 [shape="circle" label="s11"];
	s12 [shape="circle" label="s12"];
	s13 [shape="circle" label="s13"];
	s14 [shape="circle" label="s14"];
	s15 [shape="circle" label="s15"];
	s16 [shape="circle" label="s16"];
	s17 [shape="circle" label="s17"];
	s18 [shape="circle" label="s18"];
	s19 [shape="circle" label="s19"];
	s20 [shape="circle" label="s20"];
	s21 [shape="circle" label="s21"];
	s22 [shape="circle" label="s22"];
	s23 [shape="circle" label="s23"];
	s24 [shape="circle" label="s24"];
	s25 [shape="circle" label="s25"];
	s26 [shape="circle" label="s26"];
	s0 -> s2 [label="ECDH_CLIENT_HELLO / HELLO_VERIFY_REQUEST"];
	s0 -> s0 [label="ECDH_CLIENT_KEY_EXCHANGE / TIMEOUT"];
	s0 -> s1 [label="CHANGE_CIPHER_SPEC / TIMEOUT"];
	s0 -> s0 [label="FINISHED / TIMEOUT"];
	s0 -> s0 [label="APPLICATION / TIMEOUT"];
	s0 -> s0 [label="CERTIFICATE / TIMEOUT"];
	s0 -> s0 [label="EMPTY_CERTIFICATE / TIMEOUT"];
	s0 -> s0 [label="CERTIFICATE_VERIFY / TIMEOUT"];
	s0 -> s0 [label="Alert(WARNING,CLOSE_NOTIFY) / TIMEOUT"];
	s0 -> s0 [label="Alert(FATAL,UNEXPECTED_MESSAGE) / TIMEOUT"];
	s1 -> s1 [label="ECDH_CLIENT_HELLO / TIMEOUT"];
	s1 -> s1 [label="ECDH_CLIENT_KEY_EXCHANGE / TIMEOUT"];
	s1 -> s1 [label="CHANGE_CIPHER_SPEC / TIMEOUT"];
	s1 -> s1 [label="FINISHED / TIMEOUT"];
	s1 -> s1 [label="APPLICATION / TIMEOUT"];
	s1 -> s1 [label="CERTIFICATE / TIMEOUT"];
	s1 -> s1 [label="EMPTY_CERTIFICATE / TIMEOUT"];
	s1 -> s1 [label="CERTIFICATE_VERIFY / TIMEOUT"];
	s1 -> s1 [label="Alert(WARNING,CLOSE_NOTIFY) / TIMEOUT"];
	s1 -> s1 [label="Alert(FATAL,UNEXPECTED_MESSAGE) / TIMEOUT"];
	s2 -> s3 [label="ECDH_CLIENT_HELLO / SERVER_HELLO|ECDSA_CERTIFICATE|ECDHE_SERVER_KEY_EXCHANGE|CERTIFICATE_REQUEST|SERVER_HELLO_DONE"];
	s2 -> s2 [label="ECDH_CLIENT_KEY_EXCHANGE / TIMEOUT"];
	s2 -> s1 [label="CHANGE_CIPHER_SPEC / TIMEOUT"];
	s2 -> s2 [label="FINISHED / TIMEOUT"];
	s2 -> s2 [label="APPLICATION / TIMEOUT"];
	s2 -> s2 [label="CERTIFICATE / TIMEOUT"];
	s2 -> s2 [label="EMPTY_CERTIFICATE / TIMEOUT"];
	s2 -> s2 [label="CERTIFICATE_VERIFY / TIMEOUT"];
	s2 -> s2 [label="Alert(WARNING,CLOSE_NOTIFY) / TIMEOUT"];
	s2 -> s2 [label="Alert(FATAL,UNEXPECTED_MESSAGE) / TIMEOUT"];
	s3 -> s3 [label="ECDH_CLIENT_HELLO / SERVER_HELLO|ECDSA_CERTIFICATE|ECDHE_SERVER_KEY_EXCHANGE|CERTIFICATE_REQUEST|SERVER_HELLO_DONE"];
	s3 -> s4 [label="ECDH_CLIENT_KEY_EXCHANGE / TIMEOUT"];
	s3 -> s1 [label="CHANGE_CIPHER_SPEC / TIMEOUT"];
	s3 -> s2 [label="FINISHED / Alert(FATAL,HANDSHAKE_FAILURE)"];
	s3 -> s3 [label="APPLICATION / TIMEOUT"];
	s3 -> s9 [label="CERTIFICATE / TIMEOUT"];
	s3 -> s2 [label="EMPTY_CERTIFICATE / Alert(FATAL,HANDSHAKE_FAILURE)"];
	s3 -> s2 [label="CERTIFICATE_VERIFY / Alert(FATAL,HANDSHAKE_FAILURE)"];
	s3 -> s2 [label="Alert(WARNING,CLOSE_NOTIFY) / Alert(WARNING,CLOSE_NOTIFY)"];
	s3 -> s2 [label="Alert(FATAL,UNEXPECTED_MESSAGE) / TIMEOUT"];
	s4 -> s3 [label="ECDH_CLIENT_HELLO / SERVER_HELLO|ECDSA_CERTIFICATE|ECDHE_SERVER_KEY_EXCHANGE|CERTIFICATE_REQUEST|SERVER_HELLO_DONE"];
	s4 -> s2 [label="ECDH_CLIENT_KEY_EXCHANGE / Alert(FATAL,INTERNAL_ERROR)"];
	s4 -> s1 [label="CHANGE_CIPHER_SPEC / TIMEOUT"];
	s4 -> s2 [label="FINISHED / Alert(FATAL,HANDSHAKE_FAILURE)"];
	s4 -> s4 [label="APPLICATION / TIMEOUT"];
	s4 -> s5 [label="CERTIFICATE / TIMEOUT"];
	s4 -> s2 [label="EMPTY_CERTIFICATE / Alert(FATAL,HANDSHAKE_FAILURE)"];
	s4 -> s2 [label="CERTIFICATE_VERIFY / Alert(FATAL,HANDSHAKE_FAILURE)"];
	s4 -> s2 [label="Alert(WARNING,CLOSE_NOTIFY) / Alert(WARNING,CLOSE_NOTIFY)"];
	s4 -> s2 [label="Alert(FATAL,UNEXPECTED_MESSAGE) / TIMEOUT"];
	s5 -> s6 [label="ECDH_CLIENT_HELLO / SERVER_HELLO|ECDSA_CERTIFICATE|ECDHE_SERVER_KEY_EXCHANGE|CERTIFICATE_REQUEST|SERVER_HELLO_DONE"];
	s5 -> s2 [label="ECDH_CLIENT_KEY_EXCHANGE / Alert(FATAL,INTERNAL_ERROR)"];
	s5 -> s1 [label="CHANGE_CIPHER_SPEC / TIMEOUT"];
	s5 -> s2 [label="FINISHED / Alert(FATAL,HANDSHAKE_FAILURE)"];
	s5 -> s5 [label="APPLICATION / TIMEOUT"];
	s5 -> s5 [label="CERTIFICATE / TIMEOUT"];
	s5 -> s2 [label="EMPTY_CERTIFICATE / Alert(FATAL,HANDSHAKE_FAILURE)"];
	s5 -> s12 [label="CERTIFICATE_VERIFY / TIMEOUT"];
	s5 -> s2 [label="Alert(WARNING,CLOSE_NOTIFY) / Alert(WARNING,CLOSE_NOTIFY)"];
	s5 -> s2 [label="Alert(FATAL,UNEXPECTED_MESSAGE) / TIMEOUT"];
	s6 -> s6 [label="ECDH_CLIENT_HELLO / SERVER_HELLO|ECDSA_CERTIFICATE|ECDHE_SERVER_KEY_EXCHANGE|CERTIFICATE_REQUEST|SERVER_HELLO_DONE"];
	s6 -> s5 [label="ECDH_CLIENT_KEY_EXCHANGE / TIMEOUT"];
	s6 -> s1 [label="CHANGE_CIPHER_SPEC / TIMEOUT"];
	s6 -> s2 [label="FINISHED / Alert(FATAL,HANDSHAKE_FAILURE)"];
	s6 -> s6 [label="APPLICATION / TIMEOUT"];
	s6 -> s6 [label="CERTIFICATE / TIMEOUT"];
	s6 -> s2 [label="EMPTY_CERTIFICATE / Alert(FATAL,HANDSHAKE_FAILURE)"];
	s6 -> s7 [label="CERTIFICATE_VERIFY / TIMEOUT"];
	s6 -> s2 [label="Alert(WARNING,CLOSE_NOTIFY) / Alert(WARNING,CLOSE_NOTIFY)"];
	s6 -> s2 [label="Alert(FATAL,UNEXPECTED_MESSAGE) / TIMEOUT"];
	s7 -> s13 [label="ECDH_CLIENT_HELLO / SERVER_HELLO|ECDSA_CERTIFICATE|ECDHE_SERVER_KEY_EXCHANGE|CERTIFICATE_REQUEST|SERVER_HELLO_DONE"];
	s7 -> s12 [label="ECDH_CLIENT_KEY_EXCHANGE / TIMEOUT"];
	s7 -> s8 [label="CHANGE_CIPHER_SPEC / TIMEOUT"];
	s7 -> s2 [label="FINISHED / Alert(FATAL,INTERNAL_ERROR)"];
	s7 -> s7 [label="APPLICATION / TIMEOUT"];
	s7 -> s7 [label="CERTIFICATE / TIMEOUT"];
	s7 -> s2 [label="EMPTY_CERTIFICATE / Alert(FATAL,HANDSHAKE_FAILURE)"];
	s7 -> s2 [label="CERTIFICATE_VERIFY / Alert(FATAL,HANDSHAKE_FAILURE)"];
	s7 -> s2 [label="Alert(WARNING,CLOSE_NOTIFY) / Alert(WARNING,CLOSE_NOTIFY)"];
	s7 -> s2 [label="Alert(FATAL,UNEXPECTED_MESSAGE) / TIMEOUT"];
	s8 -> s1 [label="ECDH_CLIENT_HELLO / Alert(FATAL,INTERNAL_ERROR)"];
	s8 -> s14 [label="ECDH_CLIENT_KEY_EXCHANGE / TIMEOUT"];
	s8 -> s8 [label="CHANGE_CIPHER_SPEC / TIMEOUT"];
	s8 -> s1 [label="FINISHED / Alert(FATAL,INTERNAL_ERROR)"];
	s8 -> s8 [label="APPLICATION / TIMEOUT"];
	s8 -> s8 [label="CERTIFICATE / TIMEOUT"];
	s8 -> s1 [label="EMPTY_CERTIFICATE / Alert(FATAL,HANDSHAKE_FAILURE)"];
	s8 -> s1 [label="CERTIFICATE_VERIFY / Alert(FATAL,HANDSHAKE_FAILURE)"];
	s8 -> s1 [label="Alert(WARNING,CLOSE_NOTIFY) / Alert(WARNING,CLOSE_NOTIFY)"];
	s8 -> s1 [label="Alert(FATAL,UNEXPECTED_MESSAGE) / TIMEOUT"];
	s9 -> s9 [label="ECDH_CLIENT_HELLO / SERVER_HELLO|ECDSA_CERTIFICATE|ECDHE_SERVER_KEY_EXCHANGE|CERTIFICATE_REQUEST|SERVER_HELLO_DONE"];
	s9 -> s17 [label="ECDH_CLIENT_KEY_EXCHANGE / TIMEOUT"];
	s9 -> s1 [label="CHANGE_CIPHER_SPEC / TIMEOUT"];
	s9 -> s2 [label="FINISHED / Alert(FATAL,HANDSHAKE_FAILURE)"];
	s9 -> s9 [label="APPLICATION / TIMEOUT"];
	s9 -> s9 [label="CERTIFICATE / TIMEOUT"];
	s9 -> s2 [label="EMPTY_CERTIFICATE / Alert(FATAL,HANDSHAKE_FAILURE)"];
	s9 -> s10 [label="CERTIFICATE_VERIFY / TIMEOUT"];
	s9 -> s2 [label="Alert(WARNING,CLOSE_NOTIFY) / Alert(WARNING,CLOSE_NOTIFY)"];
	s9 -> s2 [label="Alert(FATAL,UNEXPECTED_MESSAGE) / TIMEOUT"];
	s10 -> s25 [label="ECDH_CLIENT_HELLO / SERVER_HELLO|ECDSA_CERTIFICATE|ECDHE_SERVER_KEY_EXCHANGE|CERTIFICATE_REQUEST|SERVER_HELLO_DONE"];
	s10 -> s12 [label="ECDH_CLIENT_KEY_EXCHANGE / TIMEOUT"];
	s10 -> s11 [label="CHANGE_CIPHER_SPEC / TIMEOUT"];
	s10 -> s2 [label="FINISHED / Alert(FATAL,INTERNAL_ERROR)"];
	s10 -> s10 [label="APPLICATION / TIMEOUT"];
	s10 -> s10 [label="CERTIFICATE / TIMEOUT"];
	s10 -> s2 [label="EMPTY_CERTIFICATE / Alert(FATAL,HANDSHAKE_FAILURE)"];
	s10 -> s2 [label="CERTIFICATE_VERIFY / Alert(FATAL,HANDSHAKE_FAILURE)"];
	s10 -> s2 [label="Alert(WARNING,CLOSE_NOTIFY) / Alert(WARNING,CLOSE_NOTIFY)"];
	s10 -> s2 [label="Alert(FATAL,UNEXPECTED_MESSAGE) / TIMEOUT"];
	s11 -> s11 [label="ECDH_CLIENT_HELLO / TIMEOUT"];
	s11 -> s11 [label="ECDH_CLIENT_KEY_EXCHANGE / TIMEOUT"];
	s11 -> s1 [label="CHANGE_CIPHER_SPEC / Alert(FATAL,INTERNAL_ERROR)"];
	s11 -> s11 [label="FINISHED / TIMEOUT"];
	s11 -> s11 [label="APPLICATION / TIMEOUT"];
	s11 -> s11 [label="CERTIFICATE / TIMEOUT"];
	s11 -> s11 [label="EMPTY_CERTIFICATE / TIMEOUT"];
	s11 -> s11 [label="CERTIFICATE_VERIFY / TIMEOUT"];
	s11 -> s11 [label="Alert(WARNING,CLOSE_NOTIFY) / TIMEOUT"];
	s11 -> s11 [label="Alert(FATAL,UNEXPECTED_MESSAGE) / TIMEOUT"];
	s12 -> s13 [label="ECDH_CLIENT_HELLO / SERVER_HELLO|ECDSA_CERTIFICATE|ECDHE_SERVER_KEY_EXCHANGE|CERTIFICATE_REQUEST|SERVER_HELLO_DONE"];
	s12 -> s2 [label="ECDH_CLIENT_KEY_EXCHANGE / Alert(FATAL,INTERNAL_ERROR)"];
	s12 -> s14 [label="CHANGE_CIPHER_SPEC / TIMEOUT"];
	s12 -> s2 [label="FINISHED / Alert(FATAL,HANDSHAKE_FAILURE)"];
	s12 -> s12 [label="APPLICATION / TIMEOUT"];
	s12 -> s12 [label="CERTIFICATE / TIMEOUT"];
	s12 -> s2 [label="EMPTY_CERTIFICATE / Alert(FATAL,HANDSHAKE_FAILURE)"];
	s12 -> s2 [label="CERTIFICATE_VERIFY / Alert(FATAL,HANDSHAKE_FAILURE)"];
	s12 -> s2 [label="Alert(WARNING,CLOSE_NOTIFY) / Alert(WARNING,CLOSE_NOTIFY)"];
	s12 -> s2 [label="Alert(FATAL,UNEXPECTED_MESSAGE) / TIMEOUT"];
	s13 -> s13 [label="ECDH_CLIENT_HELLO / SERVER_HELLO|ECDSA_CERTIFICATE|ECDHE_SERVER_KEY_EXCHANGE|CERTIFICATE_REQUEST|SERVER_HELLO_DONE"];
	s13 -> s5 [label="ECDH_CLIENT_KEY_EXCHANGE / TIMEOUT"];
	s13 -> s15 [label="CHANGE_CIPHER_SPEC / TIMEOUT"];
	s13 -> s2 [label="FINISHED / Alert(FATAL,INTERNAL_ERROR)"];
	s13 -> s13 [label="APPLICATION / TIMEOUT"];
	s13 -> s13 [label="CERTIFICATE / TIMEOUT"];
	s13 -> s2 [label="EMPTY_CERTIFICATE / Alert(FATAL,HANDSHAKE_FAILURE)"];
	s13 -> s7 [label="CERTIFICATE_VERIFY / TIMEOUT"];
	s13 -> s2 [label="Alert(WARNING,CLOSE_NOTIFY) / Alert(WARNING,CLOSE_NOTIFY)"];
	s13 -> s2 [label="Alert(FATAL,UNEXPECTED_MESSAGE) / TIMEOUT"];
	s14 -> s1 [label="ECDH_CLIENT_HELLO / Alert(FATAL,INTERNAL_ERROR)"];
	s14 -> s1 [label="ECDH_CLIENT_KEY_EXCHANGE / Alert(FATAL,INTERNAL_ERROR)"];
	s14 -> s14 [label="CHANGE_CIPHER_SPEC / TIMEOUT"];
	s14 -> s1 [label="FINISHED / Alert(FATAL,HANDSHAKE_FAILURE)"];
	s14 -> s14 [label="APPLICATION / TIMEOUT"];
	s14 -> s14 [label="CERTIFICATE / TIMEOUT"];
	s14 -> s1 [label="EMPTY_CERTIFICATE / Alert(FATAL,HANDSHAKE_FAILURE)"];
	s14 -> s1 [label="CERTIFICATE_VERIFY / Alert(FATAL,HANDSHAKE_FAILURE)"];
	s14 -> s1 [label="Alert(WARNING,CLOSE_NOTIFY) / Alert(WARNING,CLOSE_NOTIFY)"];
	s14 -> s1 [label="Alert(FATAL,UNEXPECTED_MESSAGE) / TIMEOUT"];
	s15 -> s1 [label="ECDH_CLIENT_HELLO / Alert(FATAL,INTERNAL_ERROR)"];
	s15 -> s16 [label="ECDH_CLIENT_KEY_EXCHANGE / TIMEOUT"];
	s15 -> s15 [label="CHANGE_CIPHER_SPEC / TIMEOUT"];
	s15 -> s1 [label="FINISHED / Alert(FATAL,INTERNAL_ERROR)"];
	s15 -> s15 [label="APPLICATION / TIMEOUT"];
	s15 -> s15 [label="CERTIFICATE / TIMEOUT"];
	s15 -> s1 [label="EMPTY_CERTIFICATE / Alert(FATAL,HANDSHAKE_FAILURE)"];
	s15 -> s8 [label="CERTIFICATE_VERIFY / TIMEOUT"];
	s15 -> s1 [label="Alert(WARNING,CLOSE_NOTIFY) / Alert(WARNING,CLOSE_NOTIFY)"];
	s15 -> s1 [label="Alert(FATAL,UNEXPECTED_MESSAGE) / TIMEOUT"];
	s16 -> s1 [label="ECDH_CLIENT_HELLO / Alert(FATAL,INTERNAL_ERROR)"];
	s16 -> s1 [label="ECDH_CLIENT_KEY_EXCHANGE / Alert(FATAL,INTERNAL_ERROR)"];
	s16 -> s16 [label="CHANGE_CIPHER_SPEC / TIMEOUT"];
	s16 -> s1 [label="FINISHED / Alert(FATAL,HANDSHAKE_FAILURE)"];
	s16 -> s16 [label="APPLICATION / TIMEOUT"];
	s16 -> s16 [label="CERTIFICATE / TIMEOUT"];
	s16 -> s1 [label="EMPTY_CERTIFICATE / Alert(FATAL,HANDSHAKE_FAILURE)"];
	s16 -> s14 [label="CERTIFICATE_VERIFY / TIMEOUT"];
	s16 -> s1 [label="Alert(WARNING,CLOSE_NOTIFY) / Alert(WARNING,CLOSE_NOTIFY)"];
	s16 -> s1 [label="Alert(FATAL,UNEXPECTED_MESSAGE) / TIMEOUT"];
	s17 -> s6 [label="ECDH_CLIENT_HELLO / SERVER_HELLO|ECDSA_CERTIFICATE|ECDHE_SERVER_KEY_EXCHANGE|CERTIFICATE_REQUEST|SERVER_HELLO_DONE"];
	s17 -> s2 [label="ECDH_CLIENT_KEY_EXCHANGE / Alert(FATAL,INTERNAL_ERROR)"];
	s17 -> s1 [label="CHANGE_CIPHER_SPEC / TIMEOUT"];
	s17 -> s2 [label="FINISHED / Alert(FATAL,HANDSHAKE_FAILURE)"];
	s17 -> s17 [label="APPLICATION / TIMEOUT"];
	s17 -> s5 [label="CERTIFICATE / TIMEOUT"];
	s17 -> s2 [label="EMPTY_CERTIFICATE / Alert(FATAL,HANDSHAKE_FAILURE)"];
	s17 -> s18 [label="CERTIFICATE_VERIFY / TIMEOUT"];
	s17 -> s2 [label="Alert(WARNING,CLOSE_NOTIFY) / Alert(WARNING,CLOSE_NOTIFY)"];
	s17 -> s2 [label="Alert(FATAL,UNEXPECTED_MESSAGE) / TIMEOUT"];
	s18 -> s13 [label="ECDH_CLIENT_HELLO / SERVER_HELLO|ECDSA_CERTIFICATE|ECDHE_SERVER_KEY_EXCHANGE|CERTIFICATE_REQUEST|SERVER_HELLO_DONE"];
	s18 -> s2 [label="ECDH_CLIENT_KEY_EXCHANGE / Alert(FATAL,INTERNAL_ERROR)"];
	s18 -> s21 [label="CHANGE_CIPHER_SPEC / TIMEOUT"];
	s18 -> s20 [label="FINISHED / CHANGE_CIPHER_SPEC|FINISHED"];
	s18 -> s19 [label="APPLICATION / TIMEOUT"];
	s18 -> s12 [label="CERTIFICATE / TIMEOUT"];
	s18 -> s2 [label="EMPTY_CERTIFICATE / Alert(FATAL,HANDSHAKE_FAILURE)"];
	s18 -> s2 [label="CERTIFICATE_VERIFY / Alert(FATAL,HANDSHAKE_FAILURE)"];
	s18 -> s2 [label="Alert(WARNING,CLOSE_NOTIFY) / Alert(WARNING,CLOSE_NOTIFY)"];
	s18 -> s2 [label="Alert(FATAL,UNEXPECTED_MESSAGE) / TIMEOUT"];
	s19 -> s13 [label="ECDH_CLIENT_HELLO / SERVER_HELLO|ECDSA_CERTIFICATE|ECDHE_SERVER_KEY_EXCHANGE|CERTIFICATE_REQUEST|SERVER_HELLO_DONE"];
	s19 -> s2 [label="ECDH_CLIENT_KEY_EXCHANGE / Alert(FATAL,INTERNAL_ERROR)"];
	s19 -> s21 [label="CHANGE_CIPHER_SPEC / TIMEOUT"];
	s19 -> s24 [label="FINISHED / CHANGE_CIPHER_SPEC|FINISHED|APPLICATION"];
	s19 -> s19 [label="APPLICATION / TIMEOUT"];
	s19 -> s12 [label="CERTIFICATE / TIMEOUT"];
	s19 -> s2 [label="EMPTY_CERTIFICATE / Alert(FATAL,HANDSHAKE_FAILURE)"];
	s19 -> s2 [label="CERTIFICATE_VERIFY / Alert(FATAL,HANDSHAKE_FAILURE)"];
	s19 -> s2 [label="Alert(WARNING,CLOSE_NOTIFY) / Alert(WARNING,CLOSE_NOTIFY)"];
	s19 -> s2 [label="Alert(FATAL,UNEXPECTED_MESSAGE) / TIMEOUT"];
	s20 -> s20 [label="ECDH_CLIENT_HELLO / TIMEOUT"];
	s20 -> s20 [label="ECDH_CLIENT_KEY_EXCHANGE / TIMEOUT"];
	s20 -> s1 [label="CHANGE_CIPHER_SPEC / CHANGE_CIPHER_SPEC|FINISHED"];
	s20 -> s20 [label="FINISHED / TIMEOUT"];
	s20 -> s24 [label="APPLICATION / APPLICATION"];
	s20 -> s20 [label="CERTIFICATE / TIMEOUT"];
	s20 -> s20 [label="EMPTY_CERTIFICATE / TIMEOUT"];
	s20 -> s20 [label="CERTIFICATE_VERIFY / TIMEOUT"];
	s20 -> s2 [label="Alert(WARNING,CLOSE_NOTIFY) / Alert(WARNING,CLOSE_NOTIFY)"];
	s20 -> s2 [label="Alert(FATAL,UNEXPECTED_MESSAGE) / TIMEOUT"];
	s21 -> s1 [label="ECDH_CLIENT_HELLO / Alert(FATAL,INTERNAL_ERROR)"];
	s21 -> s1 [label="ECDH_CLIENT_KEY_EXCHANGE / Alert(FATAL,INTERNAL_ERROR)"];
	s21 -> s21 [label="CHANGE_CIPHER_SPEC / TIMEOUT"];
	s21 -> s22 [label="FINISHED / CHANGE_CIPHER_SPEC|FINISHED"];
	s21 -> s23 [label="APPLICATION / TIMEOUT"];
	s21 -> s14 [label="CERTIFICATE / TIMEOUT"];
	s21 -> s1 [label="EMPTY_CERTIFICATE / Alert(FATAL,HANDSHAKE_FAILURE)"];
	s21 -> s1 [label="CERTIFICATE_VERIFY / Alert(FATAL,HANDSHAKE_FAILURE)"];
	s21 -> s1 [label="Alert(WARNING,CLOSE_NOTIFY) / Alert(WARNING,CLOSE_NOTIFY)"];
	s21 -> s1 [label="Alert(FATAL,UNEXPECTED_MESSAGE) / TIMEOUT"];
	s22 -> s22 [label="ECDH_CLIENT_HELLO / Alert(WARNING,NO_RENEGOTIATION)"];
	s22 -> s22 [label="ECDH_CLIENT_KEY_EXCHANGE / TIMEOUT"];
	s22 -> s1 [label="CHANGE_CIPHER_SPEC / CHANGE_CIPHER_SPEC|FINISHED"];
	s22 -> s22 [label="FINISHED / TIMEOUT"];
	s22 -> s26 [label="APPLICATION / APPLICATION"];
	s22 -> s22 [label="CERTIFICATE / TIMEOUT"];
	s22 -> s22 [label="EMPTY_CERTIFICATE / TIMEOUT"];
	s22 -> s22 [label="CERTIFICATE_VERIFY / TIMEOUT"];
	s22 -> s1 [label="Alert(WARNING,CLOSE_NOTIFY) / Alert(WARNING,CLOSE_NOTIFY)"];
	s22 -> s1 [label="Alert(FATAL,UNEXPECTED_MESSAGE) / TIMEOUT"];
	s23 -> s1 [label="ECDH_CLIENT_HELLO / Alert(FATAL,INTERNAL_ERROR)"];
	s23 -> s1 [label="ECDH_CLIENT_KEY_EXCHANGE / Alert(FATAL,INTERNAL_ERROR)"];
	s23 -> s21 [label="CHANGE_CIPHER_SPEC / TIMEOUT"];
	s23 -> s26 [label="FINISHED / CHANGE_CIPHER_SPEC|FINISHED|APPLICATION"];
	s23 -> s23 [label="APPLICATION / TIMEOUT"];
	s23 -> s14 [label="CERTIFICATE / TIMEOUT"];
	s23 -> s1 [label="EMPTY_CERTIFICATE / Alert(FATAL,HANDSHAKE_FAILURE)"];
	s23 -> s1 [label="CERTIFICATE_VERIFY / Alert(FATAL,HANDSHAKE_FAILURE)"];
	s23 -> s1 [label="Alert(WARNING,CLOSE_NOTIFY) / Alert(WARNING,CLOSE_NOTIFY)"];
	s23 -> s1 [label="Alert(FATAL,UNEXPECTED_MESSAGE) / TIMEOUT"];
	s24 -> s24 [label="ECDH_CLIENT_HELLO / TIMEOUT"];
	s24 -> s24 [label="ECDH_CLIENT_KEY_EXCHANGE / TIMEOUT"];
	s24 -> s1 [label="CHANGE_CIPHER_SPEC / TIMEOUT"];
	s24 -> s24 [label="FINISHED / TIMEOUT"];
	s24 -> s24 [label="APPLICATION / APPLICATION"];
	s24 -> s24 [label="CERTIFICATE / TIMEOUT"];
	s24 -> s24 [label="EMPTY_CERTIFICATE / TIMEOUT"];
	s24 -> s24 [label="CERTIFICATE_VERIFY / TIMEOUT"];
	s24 -> s2 [label="Alert(WARNING,CLOSE_NOTIFY) / Alert(WARNING,CLOSE_NOTIFY)"];
	s24 -> s2 [label="Alert(FATAL,UNEXPECTED_MESSAGE) / TIMEOUT"];
	s25 -> s25 [label="ECDH_CLIENT_HELLO / SERVER_HELLO|ECDSA_CERTIFICATE|ECDHE_SERVER_KEY_EXCHANGE|CERTIFICATE_REQUEST|SERVER_HELLO_DONE"];
	s25 -> s5 [label="ECDH_CLIENT_KEY_EXCHANGE / TIMEOUT"];
	s25 -> s11 [label="CHANGE_CIPHER_SPEC / TIMEOUT"];
	s25 -> s2 [label="FINISHED / Alert(FATAL,INTERNAL_ERROR)"];
	s25 -> s25 [label="APPLICATION / TIMEOUT"];
	s25 -> s25 [label="CERTIFICATE / TIMEOUT"];
	s25 -> s2 [label="EMPTY_CERTIFICATE / Alert(FATAL,HANDSHAKE_FAILURE)"];
	s25 -> s10 [label="CERTIFICATE_VERIFY / TIMEOUT"];
	s25 -> s2 [label="Alert(WARNING,CLOSE_NOTIFY) / Alert(WARNING,CLOSE_NOTIFY)"];
	s25 -> s2 [label="Alert(FATAL,UNEXPECTED_MESSAGE) / TIMEOUT"];
	s26 -> s26 [label="ECDH_CLIENT_HELLO / Alert(WARNING,NO_RENEGOTIATION)"];
	s26 -> s26 [label="ECDH_CLIENT_KEY_EXCHANGE / TIMEOUT"];
	s26 -> s1 [label="CHANGE_CIPHER_SPEC / TIMEOUT"];
	s26 -> s26 [label="FINISHED / TIMEOUT"];
	s26 -> s26 [label="APPLICATION / APPLICATION"];
	s26 -> s26 [label="CERTIFICATE / TIMEOUT"];
	s26 -> s26 [label="EMPTY_CERTIFICATE / TIMEOUT"];
	s26 -> s26 [label="CERTIFICATE_VERIFY / TIMEOUT"];
	s26 -> s1 [label="Alert(WARNING,CLOSE_NOTIFY) / Alert(WARNING,CLOSE_NOTIFY)"];
	s26 -> s1 [label="Alert(FATAL,UNEXPECTED_MESSAGE) / TIMEOUT"];

__start0 [label="" shape="none" width="0" height="0"];
__start0 -> s0;

}
