digraph g {

	s0 [shape="doublecircle" label="s0"];
	s1 [shape="circle" label="s1"];
	s2 [shape="doublecircle" label="s2"];
	s3 [shape="doublecircle" label="s3"];
	s4 [shape="doublecircle" label="s4"];
	s5 [shape="doublecircle" label="s5"];
	s6 [shape="doublecircle" label="s6"];
	s7 [shape="doublecircle" label="s7"];
	s8 [shape="doublecircle" label="s8"];
	s9 [shape="doublecircle" label="s9"];
	s10 [shape="doublecircle" label="s10"];
	s11 [shape="doublecircle" label="s11"];
	s12 [shape="doublecircle" label="s12"];
	s13 [shape="doublecircle" label="s13"];
	s14 [shape="doublecircle" label="s14"];
	s15 [shape="doublecircle" label="s15"];
	s16 [shape="doublecircle" label="s16"];
	s17 [shape="doublecircle" label="s17"];
	s18 [shape="doublecircle" label="s18"];
	s19 [shape="doublecircle" label="s19"];
	s20 [shape="doublecircle" label="s20"];
	s21 [shape="doublecircle" label="s21"];
	s22 [shape="doublecircle" label="s22"];
	s23 [shape="doublecircle" label="s23"];
	s24 [shape="doublecircle" label="s24"];
	s25 [shape="doublecircle" label="s25"];
	s26 [shape="doublecircle" label="s26"];
	s27 [shape="doublecircle" label="s27"];
	s28 [shape="doublecircle" label="s28"];
	s29 [shape="doublecircle" label="s29"];
	s30 [shape="doublecircle" label="s30"];
	s31 [shape="doublecircle" label="s31"];
	s0 -> s1 [label="I_HELLO_VERIFY_REQUEST"];
	s0 -> s1 [label="I_PSK_SERVER_HELLO"];
	s0 -> s1 [label="I_SERVER_HELLO_DONE"];
	s0 -> s1 [label="I_CHANGE_CIPHER_SPEC"];
	s0 -> s1 [label="I_FINISHED"];
	s0 -> s1 [label="I_APPLICATION"];
	s0 -> s1 [label="I_Alert(WARNING,CLOSE_NOTIFY)"];
	s0 -> s1 [label="I_Alert(FATAL,UNEXPECTED_MESSAGE)"];
	s0 -> s1 [label="O_PSK_CLIENT_KEY_EXCHANGE"];
	s0 -> s1 [label="O_CHANGE_CIPHER_SPEC"];
	s0 -> s1 [label="O_FINISHED"];
	s0 -> s2 [label="O_CLIENT_HELLO"];
	s0 -> s1 [label="O_Alert(FATAL,UNEXPECTED_MESSAGE)"];
	s0 -> s1 [label="O_SOCKET_CLOSED"];
	s0 -> s1 [label="O_UNKNOWN_MESSAGE"];
	s0 -> s1 [label="O_APPLICATION"];
	s1 -> s1 [label="I_HELLO_VERIFY_REQUEST"];
	s1 -> s1 [label="I_PSK_SERVER_HELLO"];
	s1 -> s1 [label="I_SERVER_HELLO_DONE"];
	s1 -> s1 [label="I_CHANGE_CIPHER_SPEC"];
	s1 -> s1 [label="I_FINISHED"];
	s1 -> s1 [label="I_APPLICATION"];
	s1 -> s1 [label="I_Alert(WARNING,CLOSE_NOTIFY)"];
	s1 -> s1 [label="I_Alert(FATAL,UNEXPECTED_MESSAGE)"];
	s1 -> s1 [label="O_PSK_CLIENT_KEY_EXCHANGE"];
	s1 -> s1 [label="O_CHANGE_CIPHER_SPEC"];
	s1 -> s1 [label="O_FINISHED"];
	s1 -> s1 [label="O_CLIENT_HELLO"];
	s1 -> s1 [label="O_Alert(FATAL,UNEXPECTED_MESSAGE)"];
	s1 -> s1 [label="O_SOCKET_CLOSED"];
	s1 -> s1 [label="O_UNKNOWN_MESSAGE"];
	s1 -> s1 [label="O_APPLICATION"];
	s2 -> s3 [label="I_HELLO_VERIFY_REQUEST"];
	s2 -> s21 [label="I_PSK_SERVER_HELLO"];
	s2 -> s5 [label="I_SERVER_HELLO_DONE"];
	s2 -> s20 [label="I_CHANGE_CIPHER_SPEC"];
	s2 -> s5 [label="I_FINISHED"];
	s2 -> s18 [label="I_APPLICATION"];
	s2 -> s5 [label="I_Alert(WARNING,CLOSE_NOTIFY)"];
	s2 -> s5 [label="I_Alert(FATAL,UNEXPECTED_MESSAGE)"];
	s2 -> s1 [label="O_PSK_CLIENT_KEY_EXCHANGE"];
	s2 -> s1 [label="O_CHANGE_CIPHER_SPEC"];
	s2 -> s1 [label="O_FINISHED"];
	s2 -> s1 [label="O_CLIENT_HELLO"];
	s2 -> s1 [label="O_Alert(FATAL,UNEXPECTED_MESSAGE)"];
	s2 -> s1 [label="O_SOCKET_CLOSED"];
	s2 -> s1 [label="O_UNKNOWN_MESSAGE"];
	s2 -> s1 [label="O_APPLICATION"];
	s3 -> s1 [label="I_HELLO_VERIFY_REQUEST"];
	s3 -> s1 [label="I_PSK_SERVER_HELLO"];
	s3 -> s1 [label="I_SERVER_HELLO_DONE"];
	s3 -> s1 [label="I_CHANGE_CIPHER_SPEC"];
	s3 -> s1 [label="I_FINISHED"];
	s3 -> s1 [label="I_APPLICATION"];
	s3 -> s1 [label="I_Alert(WARNING,CLOSE_NOTIFY)"];
	s3 -> s1 [label="I_Alert(FATAL,UNEXPECTED_MESSAGE)"];
	s3 -> s1 [label="O_PSK_CLIENT_KEY_EXCHANGE"];
	s3 -> s1 [label="O_CHANGE_CIPHER_SPEC"];
	s3 -> s1 [label="O_FINISHED"];
	s3 -> s4 [label="O_CLIENT_HELLO"];
	s3 -> s1 [label="O_Alert(FATAL,UNEXPECTED_MESSAGE)"];
	s3 -> s1 [label="O_SOCKET_CLOSED"];
	s3 -> s1 [label="O_UNKNOWN_MESSAGE"];
	s3 -> s1 [label="O_APPLICATION"];
	s4 -> s5 [label="I_HELLO_VERIFY_REQUEST"];
	s4 -> s7 [label="I_PSK_SERVER_HELLO"];
	s4 -> s5 [label="I_SERVER_HELLO_DONE"];
	s4 -> s20 [label="I_CHANGE_CIPHER_SPEC"];
	s4 -> s5 [label="I_FINISHED"];
	s4 -> s18 [label="I_APPLICATION"];
	s4 -> s5 [label="I_Alert(WARNING,CLOSE_NOTIFY)"];
	s4 -> s5 [label="I_Alert(FATAL,UNEXPECTED_MESSAGE)"];
	s4 -> s1 [label="O_PSK_CLIENT_KEY_EXCHANGE"];
	s4 -> s1 [label="O_CHANGE_CIPHER_SPEC"];
	s4 -> s1 [label="O_FINISHED"];
	s4 -> s1 [label="O_CLIENT_HELLO"];
	s4 -> s1 [label="O_Alert(FATAL,UNEXPECTED_MESSAGE)"];
	s4 -> s1 [label="O_SOCKET_CLOSED"];
	s4 -> s1 [label="O_UNKNOWN_MESSAGE"];
	s4 -> s1 [label="O_APPLICATION"];
	s5 -> s6 [label="I_HELLO_VERIFY_REQUEST"];
	s5 -> s6 [label="I_PSK_SERVER_HELLO"];
	s5 -> s6 [label="I_SERVER_HELLO_DONE"];
	s5 -> s6 [label="I_CHANGE_CIPHER_SPEC"];
	s5 -> s6 [label="I_FINISHED"];
	s5 -> s6 [label="I_APPLICATION"];
	s5 -> s6 [label="I_Alert(WARNING,CLOSE_NOTIFY)"];
	s5 -> s6 [label="I_Alert(FATAL,UNEXPECTED_MESSAGE)"];
	s5 -> s1 [label="O_PSK_CLIENT_KEY_EXCHANGE"];
	s5 -> s1 [label="O_CHANGE_CIPHER_SPEC"];
	s5 -> s1 [label="O_FINISHED"];
	s5 -> s1 [label="O_CLIENT_HELLO"];
	s5 -> s1 [label="O_Alert(FATAL,UNEXPECTED_MESSAGE)"];
	s5 -> s1 [label="O_SOCKET_CLOSED"];
	s5 -> s1 [label="O_UNKNOWN_MESSAGE"];
	s5 -> s1 [label="O_APPLICATION"];
	s6 -> s1 [label="I_HELLO_VERIFY_REQUEST"];
	s6 -> s1 [label="I_PSK_SERVER_HELLO"];
	s6 -> s1 [label="I_SERVER_HELLO_DONE"];
	s6 -> s1 [label="I_CHANGE_CIPHER_SPEC"];
	s6 -> s1 [label="I_FINISHED"];
	s6 -> s1 [label="I_APPLICATION"];
	s6 -> s1 [label="I_Alert(WARNING,CLOSE_NOTIFY)"];
	s6 -> s1 [label="I_Alert(FATAL,UNEXPECTED_MESSAGE)"];
	s6 -> s1 [label="O_PSK_CLIENT_KEY_EXCHANGE"];
	s6 -> s1 [label="O_CHANGE_CIPHER_SPEC"];
	s6 -> s1 [label="O_FINISHED"];
	s6 -> s1 [label="O_CLIENT_HELLO"];
	s6 -> s1 [label="O_Alert(FATAL,UNEXPECTED_MESSAGE)"];
	s6 -> s5 [label="O_SOCKET_CLOSED"];
	s6 -> s1 [label="O_UNKNOWN_MESSAGE"];
	s6 -> s1 [label="O_APPLICATION"];
	s7 -> s5 [label="I_HELLO_VERIFY_REQUEST"];
	s7 -> s5 [label="I_PSK_SERVER_HELLO"];
	s7 -> s8 [label="I_SERVER_HELLO_DONE"];
	s7 -> s19 [label="I_CHANGE_CIPHER_SPEC"];
	s7 -> s5 [label="I_FINISHED"];
	s7 -> s18 [label="I_APPLICATION"];
	s7 -> s5 [label="I_Alert(WARNING,CLOSE_NOTIFY)"];
	s7 -> s5 [label="I_Alert(FATAL,UNEXPECTED_MESSAGE)"];
	s7 -> s1 [label="O_PSK_CLIENT_KEY_EXCHANGE"];
	s7 -> s1 [label="O_CHANGE_CIPHER_SPEC"];
	s7 -> s1 [label="O_FINISHED"];
	s7 -> s1 [label="O_CLIENT_HELLO"];
	s7 -> s1 [label="O_Alert(FATAL,UNEXPECTED_MESSAGE)"];
	s7 -> s1 [label="O_SOCKET_CLOSED"];
	s7 -> s1 [label="O_UNKNOWN_MESSAGE"];
	s7 -> s1 [label="O_APPLICATION"];
	s8 -> s1 [label="I_HELLO_VERIFY_REQUEST"];
	s8 -> s1 [label="I_PSK_SERVER_HELLO"];
	s8 -> s1 [label="I_SERVER_HELLO_DONE"];
	s8 -> s1 [label="I_CHANGE_CIPHER_SPEC"];
	s8 -> s1 [label="I_FINISHED"];
	s8 -> s1 [label="I_APPLICATION"];
	s8 -> s1 [label="I_Alert(WARNING,CLOSE_NOTIFY)"];
	s8 -> s1 [label="I_Alert(FATAL,UNEXPECTED_MESSAGE)"];
	s8 -> s9 [label="O_PSK_CLIENT_KEY_EXCHANGE"];
	s8 -> s1 [label="O_CHANGE_CIPHER_SPEC"];
	s8 -> s1 [label="O_FINISHED"];
	s8 -> s1 [label="O_CLIENT_HELLO"];
	s8 -> s1 [label="O_Alert(FATAL,UNEXPECTED_MESSAGE)"];
	s8 -> s1 [label="O_SOCKET_CLOSED"];
	s8 -> s1 [label="O_UNKNOWN_MESSAGE"];
	s8 -> s1 [label="O_APPLICATION"];
	s9 -> s1 [label="I_HELLO_VERIFY_REQUEST"];
	s9 -> s1 [label="I_PSK_SERVER_HELLO"];
	s9 -> s1 [label="I_SERVER_HELLO_DONE"];
	s9 -> s1 [label="I_CHANGE_CIPHER_SPEC"];
	s9 -> s1 [label="I_FINISHED"];
	s9 -> s1 [label="I_APPLICATION"];
	s9 -> s1 [label="I_Alert(WARNING,CLOSE_NOTIFY)"];
	s9 -> s1 [label="I_Alert(FATAL,UNEXPECTED_MESSAGE)"];
	s9 -> s1 [label="O_PSK_CLIENT_KEY_EXCHANGE"];
	s9 -> s10 [label="O_CHANGE_CIPHER_SPEC"];
	s9 -> s1 [label="O_FINISHED"];
	s9 -> s1 [label="O_CLIENT_HELLO"];
	s9 -> s1 [label="O_Alert(FATAL,UNEXPECTED_MESSAGE)"];
	s9 -> s1 [label="O_SOCKET_CLOSED"];
	s9 -> s1 [label="O_UNKNOWN_MESSAGE"];
	s9 -> s1 [label="O_APPLICATION"];
	s10 -> s1 [label="I_HELLO_VERIFY_REQUEST"];
	s10 -> s1 [label="I_PSK_SERVER_HELLO"];
	s10 -> s1 [label="I_SERVER_HELLO_DONE"];
	s10 -> s1 [label="I_CHANGE_CIPHER_SPEC"];
	s10 -> s1 [label="I_FINISHED"];
	s10 -> s1 [label="I_APPLICATION"];
	s10 -> s1 [label="I_Alert(WARNING,CLOSE_NOTIFY)"];
	s10 -> s1 [label="I_Alert(FATAL,UNEXPECTED_MESSAGE)"];
	s10 -> s1 [label="O_PSK_CLIENT_KEY_EXCHANGE"];
	s10 -> s1 [label="O_CHANGE_CIPHER_SPEC"];
	s10 -> s11 [label="O_FINISHED"];
	s10 -> s1 [label="O_CLIENT_HELLO"];
	s10 -> s1 [label="O_Alert(FATAL,UNEXPECTED_MESSAGE)"];
	s10 -> s1 [label="O_SOCKET_CLOSED"];
	s10 -> s1 [label="O_UNKNOWN_MESSAGE"];
	s10 -> s1 [label="O_APPLICATION"];
	s11 -> s5 [label="I_HELLO_VERIFY_REQUEST"];
	s11 -> s5 [label="I_PSK_SERVER_HELLO"];
	s11 -> s5 [label="I_SERVER_HELLO_DONE"];
	s11 -> s12 [label="I_CHANGE_CIPHER_SPEC"];
	s11 -> s5 [label="I_FINISHED"];
	s11 -> s18 [label="I_APPLICATION"];
	s11 -> s5 [label="I_Alert(WARNING,CLOSE_NOTIFY)"];
	s11 -> s5 [label="I_Alert(FATAL,UNEXPECTED_MESSAGE)"];
	s11 -> s1 [label="O_PSK_CLIENT_KEY_EXCHANGE"];
	s11 -> s1 [label="O_CHANGE_CIPHER_SPEC"];
	s11 -> s1 [label="O_FINISHED"];
	s11 -> s1 [label="O_CLIENT_HELLO"];
	s11 -> s1 [label="O_Alert(FATAL,UNEXPECTED_MESSAGE)"];
	s11 -> s1 [label="O_SOCKET_CLOSED"];
	s11 -> s1 [label="O_UNKNOWN_MESSAGE"];
	s11 -> s1 [label="O_APPLICATION"];
	s12 -> s5 [label="I_HELLO_VERIFY_REQUEST"];
	s12 -> s5 [label="I_PSK_SERVER_HELLO"];
	s12 -> s5 [label="I_SERVER_HELLO_DONE"];
	s12 -> s13 [label="I_CHANGE_CIPHER_SPEC"];
	s12 -> s16 [label="I_FINISHED"];
	s12 -> s18 [label="I_APPLICATION"];
	s12 -> s5 [label="I_Alert(WARNING,CLOSE_NOTIFY)"];
	s12 -> s5 [label="I_Alert(FATAL,UNEXPECTED_MESSAGE)"];
	s12 -> s1 [label="O_PSK_CLIENT_KEY_EXCHANGE"];
	s12 -> s1 [label="O_CHANGE_CIPHER_SPEC"];
	s12 -> s1 [label="O_FINISHED"];
	s12 -> s1 [label="O_CLIENT_HELLO"];
	s12 -> s1 [label="O_Alert(FATAL,UNEXPECTED_MESSAGE)"];
	s12 -> s1 [label="O_SOCKET_CLOSED"];
	s12 -> s1 [label="O_UNKNOWN_MESSAGE"];
	s12 -> s1 [label="O_APPLICATION"];
	s13 -> s1 [label="I_HELLO_VERIFY_REQUEST"];
	s13 -> s1 [label="I_PSK_SERVER_HELLO"];
	s13 -> s1 [label="I_SERVER_HELLO_DONE"];
	s13 -> s1 [label="I_CHANGE_CIPHER_SPEC"];
	s13 -> s1 [label="I_FINISHED"];
	s13 -> s1 [label="I_APPLICATION"];
	s13 -> s1 [label="I_Alert(WARNING,CLOSE_NOTIFY)"];
	s13 -> s1 [label="I_Alert(FATAL,UNEXPECTED_MESSAGE)"];
	s13 -> s14 [label="O_PSK_CLIENT_KEY_EXCHANGE"];
	s13 -> s1 [label="O_CHANGE_CIPHER_SPEC"];
	s13 -> s1 [label="O_FINISHED"];
	s13 -> s1 [label="O_CLIENT_HELLO"];
	s13 -> s1 [label="O_Alert(FATAL,UNEXPECTED_MESSAGE)"];
	s13 -> s1 [label="O_SOCKET_CLOSED"];
	s13 -> s1 [label="O_UNKNOWN_MESSAGE"];
	s13 -> s1 [label="O_APPLICATION"];
	s14 -> s1 [label="I_HELLO_VERIFY_REQUEST"];
	s14 -> s1 [label="I_PSK_SERVER_HELLO"];
	s14 -> s1 [label="I_SERVER_HELLO_DONE"];
	s14 -> s1 [label="I_CHANGE_CIPHER_SPEC"];
	s14 -> s1 [label="I_FINISHED"];
	s14 -> s1 [label="I_APPLICATION"];
	s14 -> s1 [label="I_Alert(WARNING,CLOSE_NOTIFY)"];
	s14 -> s1 [label="I_Alert(FATAL,UNEXPECTED_MESSAGE)"];
	s14 -> s1 [label="O_PSK_CLIENT_KEY_EXCHANGE"];
	s14 -> s15 [label="O_CHANGE_CIPHER_SPEC"];
	s14 -> s1 [label="O_FINISHED"];
	s14 -> s1 [label="O_CLIENT_HELLO"];
	s14 -> s1 [label="O_Alert(FATAL,UNEXPECTED_MESSAGE)"];
	s14 -> s1 [label="O_SOCKET_CLOSED"];
	s14 -> s1 [label="O_UNKNOWN_MESSAGE"];
	s14 -> s1 [label="O_APPLICATION"];
	s15 -> s1 [label="I_HELLO_VERIFY_REQUEST"];
	s15 -> s1 [label="I_PSK_SERVER_HELLO"];
	s15 -> s1 [label="I_SERVER_HELLO_DONE"];
	s15 -> s1 [label="I_CHANGE_CIPHER_SPEC"];
	s15 -> s1 [label="I_FINISHED"];
	s15 -> s1 [label="I_APPLICATION"];
	s15 -> s1 [label="I_Alert(WARNING,CLOSE_NOTIFY)"];
	s15 -> s1 [label="I_Alert(FATAL,UNEXPECTED_MESSAGE)"];
	s15 -> s1 [label="O_PSK_CLIENT_KEY_EXCHANGE"];
	s15 -> s1 [label="O_CHANGE_CIPHER_SPEC"];
	s15 -> s1 [label="O_FINISHED"];
	s15 -> s1 [label="O_CLIENT_HELLO"];
	s15 -> s1 [label="O_Alert(FATAL,UNEXPECTED_MESSAGE)"];
	s15 -> s1 [label="O_SOCKET_CLOSED"];
	s15 -> s5 [label="O_UNKNOWN_MESSAGE"];
	s15 -> s1 [label="O_APPLICATION"];
	s16 -> s5 [label="I_HELLO_VERIFY_REQUEST"];
	s16 -> s5 [label="I_PSK_SERVER_HELLO"];
	s16 -> s5 [label="I_SERVER_HELLO_DONE"];
	s16 -> s5 [label="I_CHANGE_CIPHER_SPEC"];
	s16 -> s5 [label="I_FINISHED"];
	s16 -> s17 [label="I_APPLICATION"];
	s16 -> s5 [label="I_Alert(WARNING,CLOSE_NOTIFY)"];
	s16 -> s5 [label="I_Alert(FATAL,UNEXPECTED_MESSAGE)"];
	s16 -> s1 [label="O_PSK_CLIENT_KEY_EXCHANGE"];
	s16 -> s1 [label="O_CHANGE_CIPHER_SPEC"];
	s16 -> s1 [label="O_FINISHED"];
	s16 -> s1 [label="O_CLIENT_HELLO"];
	s16 -> s1 [label="O_Alert(FATAL,UNEXPECTED_MESSAGE)"];
	s16 -> s1 [label="O_SOCKET_CLOSED"];
	s16 -> s1 [label="O_UNKNOWN_MESSAGE"];
	s16 -> s1 [label="O_APPLICATION"];
	s17 -> s1 [label="I_HELLO_VERIFY_REQUEST"];
	s17 -> s1 [label="I_PSK_SERVER_HELLO"];
	s17 -> s1 [label="I_SERVER_HELLO_DONE"];
	s17 -> s1 [label="I_CHANGE_CIPHER_SPEC"];
	s17 -> s1 [label="I_FINISHED"];
	s17 -> s1 [label="I_APPLICATION"];
	s17 -> s1 [label="I_Alert(WARNING,CLOSE_NOTIFY)"];
	s17 -> s1 [label="I_Alert(FATAL,UNEXPECTED_MESSAGE)"];
	s17 -> s1 [label="O_PSK_CLIENT_KEY_EXCHANGE"];
	s17 -> s1 [label="O_CHANGE_CIPHER_SPEC"];
	s17 -> s1 [label="O_FINISHED"];
	s17 -> s1 [label="O_CLIENT_HELLO"];
	s17 -> s1 [label="O_Alert(FATAL,UNEXPECTED_MESSAGE)"];
	s17 -> s1 [label="O_SOCKET_CLOSED"];
	s17 -> s1 [label="O_UNKNOWN_MESSAGE"];
	s17 -> s16 [label="O_APPLICATION"];
	s18 -> s1 [label="I_HELLO_VERIFY_REQUEST"];
	s18 -> s1 [label="I_PSK_SERVER_HELLO"];
	s18 -> s1 [label="I_SERVER_HELLO_DONE"];
	s18 -> s1 [label="I_CHANGE_CIPHER_SPEC"];
	s18 -> s1 [label="I_FINISHED"];
	s18 -> s1 [label="I_APPLICATION"];
	s18 -> s1 [label="I_Alert(WARNING,CLOSE_NOTIFY)"];
	s18 -> s1 [label="I_Alert(FATAL,UNEXPECTED_MESSAGE)"];
	s18 -> s1 [label="O_PSK_CLIENT_KEY_EXCHANGE"];
	s18 -> s1 [label="O_CHANGE_CIPHER_SPEC"];
	s18 -> s1 [label="O_FINISHED"];
	s18 -> s1 [label="O_CLIENT_HELLO"];
	s18 -> s5 [label="O_Alert(FATAL,UNEXPECTED_MESSAGE)"];
	s18 -> s1 [label="O_SOCKET_CLOSED"];
	s18 -> s1 [label="O_UNKNOWN_MESSAGE"];
	s18 -> s1 [label="O_APPLICATION"];
	s19 -> s19 [label="I_HELLO_VERIFY_REQUEST"];
	s19 -> s19 [label="I_PSK_SERVER_HELLO"];
	s19 -> s19 [label="I_SERVER_HELLO_DONE"];
	s19 -> s19 [label="I_CHANGE_CIPHER_SPEC"];
	s19 -> s19 [label="I_FINISHED"];
	s19 -> s19 [label="I_APPLICATION"];
	s19 -> s19 [label="I_Alert(WARNING,CLOSE_NOTIFY)"];
	s19 -> s19 [label="I_Alert(FATAL,UNEXPECTED_MESSAGE)"];
	s19 -> s1 [label="O_PSK_CLIENT_KEY_EXCHANGE"];
	s19 -> s1 [label="O_CHANGE_CIPHER_SPEC"];
	s19 -> s1 [label="O_FINISHED"];
	s19 -> s1 [label="O_CLIENT_HELLO"];
	s19 -> s1 [label="O_Alert(FATAL,UNEXPECTED_MESSAGE)"];
	s19 -> s1 [label="O_SOCKET_CLOSED"];
	s19 -> s1 [label="O_UNKNOWN_MESSAGE"];
	s19 -> s1 [label="O_APPLICATION"];
	s20 -> s1 [label="I_HELLO_VERIFY_REQUEST"];
	s20 -> s1 [label="I_PSK_SERVER_HELLO"];
	s20 -> s1 [label="I_SERVER_HELLO_DONE"];
	s20 -> s1 [label="I_CHANGE_CIPHER_SPEC"];
	s20 -> s1 [label="I_FINISHED"];
	s20 -> s1 [label="I_APPLICATION"];
	s20 -> s1 [label="I_Alert(WARNING,CLOSE_NOTIFY)"];
	s20 -> s1 [label="I_Alert(FATAL,UNEXPECTED_MESSAGE)"];
	s20 -> s1 [label="O_PSK_CLIENT_KEY_EXCHANGE"];
	s20 -> s1 [label="O_CHANGE_CIPHER_SPEC"];
	s20 -> s1 [label="O_FINISHED"];
	s20 -> s19 [label="O_CLIENT_HELLO"];
	s20 -> s1 [label="O_Alert(FATAL,UNEXPECTED_MESSAGE)"];
	s20 -> s1 [label="O_SOCKET_CLOSED"];
	s20 -> s1 [label="O_UNKNOWN_MESSAGE"];
	s20 -> s1 [label="O_APPLICATION"];
	s21 -> s22 [label="I_HELLO_VERIFY_REQUEST"];
	s21 -> s5 [label="I_PSK_SERVER_HELLO"];
	s21 -> s23 [label="I_SERVER_HELLO_DONE"];
	s21 -> s19 [label="I_CHANGE_CIPHER_SPEC"];
	s21 -> s5 [label="I_FINISHED"];
	s21 -> s18 [label="I_APPLICATION"];
	s21 -> s5 [label="I_Alert(WARNING,CLOSE_NOTIFY)"];
	s21 -> s5 [label="I_Alert(FATAL,UNEXPECTED_MESSAGE)"];
	s21 -> s1 [label="O_PSK_CLIENT_KEY_EXCHANGE"];
	s21 -> s1 [label="O_CHANGE_CIPHER_SPEC"];
	s21 -> s1 [label="O_FINISHED"];
	s21 -> s1 [label="O_CLIENT_HELLO"];
	s21 -> s1 [label="O_Alert(FATAL,UNEXPECTED_MESSAGE)"];
	s21 -> s1 [label="O_SOCKET_CLOSED"];
	s21 -> s1 [label="O_UNKNOWN_MESSAGE"];
	s21 -> s1 [label="O_APPLICATION"];
	s22 -> s5 [label="I_HELLO_VERIFY_REQUEST"];
	s22 -> s5 [label="I_PSK_SERVER_HELLO"];
	s22 -> s18 [label="I_SERVER_HELLO_DONE"];
	s22 -> s19 [label="I_CHANGE_CIPHER_SPEC"];
	s22 -> s5 [label="I_FINISHED"];
	s22 -> s18 [label="I_APPLICATION"];
	s22 -> s5 [label="I_Alert(WARNING,CLOSE_NOTIFY)"];
	s22 -> s5 [label="I_Alert(FATAL,UNEXPECTED_MESSAGE)"];
	s22 -> s1 [label="O_PSK_CLIENT_KEY_EXCHANGE"];
	s22 -> s1 [label="O_CHANGE_CIPHER_SPEC"];
	s22 -> s1 [label="O_FINISHED"];
	s22 -> s1 [label="O_CLIENT_HELLO"];
	s22 -> s1 [label="O_Alert(FATAL,UNEXPECTED_MESSAGE)"];
	s22 -> s1 [label="O_SOCKET_CLOSED"];
	s22 -> s1 [label="O_UNKNOWN_MESSAGE"];
	s22 -> s1 [label="O_APPLICATION"];
	s23 -> s1 [label="I_HELLO_VERIFY_REQUEST"];
	s23 -> s1 [label="I_PSK_SERVER_HELLO"];
	s23 -> s1 [label="I_SERVER_HELLO_DONE"];
	s23 -> s1 [label="I_CHANGE_CIPHER_SPEC"];
	s23 -> s1 [label="I_FINISHED"];
	s23 -> s1 [label="I_APPLICATION"];
	s23 -> s1 [label="I_Alert(WARNING,CLOSE_NOTIFY)"];
	s23 -> s1 [label="I_Alert(FATAL,UNEXPECTED_MESSAGE)"];
	s23 -> s24 [label="O_PSK_CLIENT_KEY_EXCHANGE"];
	s23 -> s1 [label="O_CHANGE_CIPHER_SPEC"];
	s23 -> s1 [label="O_FINISHED"];
	s23 -> s1 [label="O_CLIENT_HELLO"];
	s23 -> s1 [label="O_Alert(FATAL,UNEXPECTED_MESSAGE)"];
	s23 -> s1 [label="O_SOCKET_CLOSED"];
	s23 -> s1 [label="O_UNKNOWN_MESSAGE"];
	s23 -> s1 [label="O_APPLICATION"];
	s24 -> s1 [label="I_HELLO_VERIFY_REQUEST"];
	s24 -> s1 [label="I_PSK_SERVER_HELLO"];
	s24 -> s1 [label="I_SERVER_HELLO_DONE"];
	s24 -> s1 [label="I_CHANGE_CIPHER_SPEC"];
	s24 -> s1 [label="I_FINISHED"];
	s24 -> s1 [label="I_APPLICATION"];
	s24 -> s1 [label="I_Alert(WARNING,CLOSE_NOTIFY)"];
	s24 -> s1 [label="I_Alert(FATAL,UNEXPECTED_MESSAGE)"];
	s24 -> s1 [label="O_PSK_CLIENT_KEY_EXCHANGE"];
	s24 -> s25 [label="O_CHANGE_CIPHER_SPEC"];
	s24 -> s1 [label="O_FINISHED"];
	s24 -> s1 [label="O_CLIENT_HELLO"];
	s24 -> s1 [label="O_Alert(FATAL,UNEXPECTED_MESSAGE)"];
	s24 -> s1 [label="O_SOCKET_CLOSED"];
	s24 -> s1 [label="O_UNKNOWN_MESSAGE"];
	s24 -> s1 [label="O_APPLICATION"];
	s25 -> s1 [label="I_HELLO_VERIFY_REQUEST"];
	s25 -> s1 [label="I_PSK_SERVER_HELLO"];
	s25 -> s1 [label="I_SERVER_HELLO_DONE"];
	s25 -> s1 [label="I_CHANGE_CIPHER_SPEC"];
	s25 -> s1 [label="I_FINISHED"];
	s25 -> s1 [label="I_APPLICATION"];
	s25 -> s1 [label="I_Alert(WARNING,CLOSE_NOTIFY)"];
	s25 -> s1 [label="I_Alert(FATAL,UNEXPECTED_MESSAGE)"];
	s25 -> s1 [label="O_PSK_CLIENT_KEY_EXCHANGE"];
	s25 -> s1 [label="O_CHANGE_CIPHER_SPEC"];
	s25 -> s26 [label="O_FINISHED"];
	s25 -> s1 [label="O_CLIENT_HELLO"];
	s25 -> s1 [label="O_Alert(FATAL,UNEXPECTED_MESSAGE)"];
	s25 -> s1 [label="O_SOCKET_CLOSED"];
	s25 -> s1 [label="O_UNKNOWN_MESSAGE"];
	s25 -> s1 [label="O_APPLICATION"];
	s26 -> s27 [label="I_HELLO_VERIFY_REQUEST"];
	s26 -> s5 [label="I_PSK_SERVER_HELLO"];
	s26 -> s5 [label="I_SERVER_HELLO_DONE"];
	s26 -> s29 [label="I_CHANGE_CIPHER_SPEC"];
	s26 -> s5 [label="I_FINISHED"];
	s26 -> s18 [label="I_APPLICATION"];
	s26 -> s5 [label="I_Alert(WARNING,CLOSE_NOTIFY)"];
	s26 -> s5 [label="I_Alert(FATAL,UNEXPECTED_MESSAGE)"];
	s26 -> s1 [label="O_PSK_CLIENT_KEY_EXCHANGE"];
	s26 -> s1 [label="O_CHANGE_CIPHER_SPEC"];
	s26 -> s1 [label="O_FINISHED"];
	s26 -> s1 [label="O_CLIENT_HELLO"];
	s26 -> s1 [label="O_Alert(FATAL,UNEXPECTED_MESSAGE)"];
	s26 -> s1 [label="O_SOCKET_CLOSED"];
	s26 -> s1 [label="O_UNKNOWN_MESSAGE"];
	s26 -> s1 [label="O_APPLICATION"];
	s27 -> s5 [label="I_HELLO_VERIFY_REQUEST"];
	s27 -> s5 [label="I_PSK_SERVER_HELLO"];
	s27 -> s5 [label="I_SERVER_HELLO_DONE"];
	s27 -> s28 [label="I_CHANGE_CIPHER_SPEC"];
	s27 -> s5 [label="I_FINISHED"];
	s27 -> s18 [label="I_APPLICATION"];
	s27 -> s5 [label="I_Alert(WARNING,CLOSE_NOTIFY)"];
	s27 -> s5 [label="I_Alert(FATAL,UNEXPECTED_MESSAGE)"];
	s27 -> s1 [label="O_PSK_CLIENT_KEY_EXCHANGE"];
	s27 -> s1 [label="O_CHANGE_CIPHER_SPEC"];
	s27 -> s1 [label="O_FINISHED"];
	s27 -> s1 [label="O_CLIENT_HELLO"];
	s27 -> s1 [label="O_Alert(FATAL,UNEXPECTED_MESSAGE)"];
	s27 -> s1 [label="O_SOCKET_CLOSED"];
	s27 -> s1 [label="O_UNKNOWN_MESSAGE"];
	s27 -> s1 [label="O_APPLICATION"];
	s28 -> s5 [label="I_HELLO_VERIFY_REQUEST"];
	s28 -> s5 [label="I_PSK_SERVER_HELLO"];
	s28 -> s5 [label="I_SERVER_HELLO_DONE"];
	s28 -> s5 [label="I_CHANGE_CIPHER_SPEC"];
	s28 -> s5 [label="I_FINISHED"];
	s28 -> s18 [label="I_APPLICATION"];
	s28 -> s5 [label="I_Alert(WARNING,CLOSE_NOTIFY)"];
	s28 -> s5 [label="I_Alert(FATAL,UNEXPECTED_MESSAGE)"];
	s28 -> s1 [label="O_PSK_CLIENT_KEY_EXCHANGE"];
	s28 -> s1 [label="O_CHANGE_CIPHER_SPEC"];
	s28 -> s1 [label="O_FINISHED"];
	s28 -> s1 [label="O_CLIENT_HELLO"];
	s28 -> s1 [label="O_Alert(FATAL,UNEXPECTED_MESSAGE)"];
	s28 -> s1 [label="O_SOCKET_CLOSED"];
	s28 -> s1 [label="O_UNKNOWN_MESSAGE"];
	s28 -> s1 [label="O_APPLICATION"];
	s29 -> s5 [label="I_HELLO_VERIFY_REQUEST"];
	s29 -> s5 [label="I_PSK_SERVER_HELLO"];
	s29 -> s5 [label="I_SERVER_HELLO_DONE"];
	s29 -> s13 [label="I_CHANGE_CIPHER_SPEC"];
	s29 -> s30 [label="I_FINISHED"];
	s29 -> s18 [label="I_APPLICATION"];
	s29 -> s5 [label="I_Alert(WARNING,CLOSE_NOTIFY)"];
	s29 -> s5 [label="I_Alert(FATAL,UNEXPECTED_MESSAGE)"];
	s29 -> s1 [label="O_PSK_CLIENT_KEY_EXCHANGE"];
	s29 -> s1 [label="O_CHANGE_CIPHER_SPEC"];
	s29 -> s1 [label="O_FINISHED"];
	s29 -> s1 [label="O_CLIENT_HELLO"];
	s29 -> s1 [label="O_Alert(FATAL,UNEXPECTED_MESSAGE)"];
	s29 -> s1 [label="O_SOCKET_CLOSED"];
	s29 -> s1 [label="O_UNKNOWN_MESSAGE"];
	s29 -> s1 [label="O_APPLICATION"];
	s30 -> s18 [label="I_HELLO_VERIFY_REQUEST"];
	s30 -> s5 [label="I_PSK_SERVER_HELLO"];
	s30 -> s5 [label="I_SERVER_HELLO_DONE"];
	s30 -> s5 [label="I_CHANGE_CIPHER_SPEC"];
	s30 -> s5 [label="I_FINISHED"];
	s30 -> s31 [label="I_APPLICATION"];
	s30 -> s5 [label="I_Alert(WARNING,CLOSE_NOTIFY)"];
	s30 -> s5 [label="I_Alert(FATAL,UNEXPECTED_MESSAGE)"];
	s30 -> s1 [label="O_PSK_CLIENT_KEY_EXCHANGE"];
	s30 -> s1 [label="O_CHANGE_CIPHER_SPEC"];
	s30 -> s1 [label="O_FINISHED"];
	s30 -> s1 [label="O_CLIENT_HELLO"];
	s30 -> s1 [label="O_Alert(FATAL,UNEXPECTED_MESSAGE)"];
	s30 -> s1 [label="O_SOCKET_CLOSED"];
	s30 -> s1 [label="O_UNKNOWN_MESSAGE"];
	s30 -> s1 [label="O_APPLICATION"];
	s31 -> s1 [label="I_HELLO_VERIFY_REQUEST"];
	s31 -> s1 [label="I_PSK_SERVER_HELLO"];
	s31 -> s1 [label="I_SERVER_HELLO_DONE"];
	s31 -> s1 [label="I_CHANGE_CIPHER_SPEC"];
	s31 -> s1 [label="I_FINISHED"];
	s31 -> s1 [label="I_APPLICATION"];
	s31 -> s1 [label="I_Alert(WARNING,CLOSE_NOTIFY)"];
	s31 -> s1 [label="I_Alert(FATAL,UNEXPECTED_MESSAGE)"];
	s31 -> s1 [label="O_PSK_CLIENT_KEY_EXCHANGE"];
	s31 -> s1 [label="O_CHANGE_CIPHER_SPEC"];
	s31 -> s1 [label="O_FINISHED"];
	s31 -> s1 [label="O_CLIENT_HELLO"];
	s31 -> s1 [label="O_Alert(FATAL,UNEXPECTED_MESSAGE)"];
	s31 -> s1 [label="O_SOCKET_CLOSED"];
	s31 -> s1 [label="O_UNKNOWN_MESSAGE"];
	s31 -> s30 [label="O_APPLICATION"];

__start0 [label="" shape="none" width="0" height="0"];
__start0 -> s0;

}
