digraph g {

	s0 [shape="circle" label="s0"];
	s1 [shape="circle" label="s1"];
	s2 [shape="circle" label="s2"];
	s3 [shape="circle" label="s3"];
	s4 [shape="circle" label="s4"];
	s5 [shape="doublecircle" label="s5"];
	s0 -> s0 [label="I_PSK_CLIENT_HELLO"];
	s0 -> s0 [label="I_PSK_CLIENT_KEY_EXCHANGE"];
	s0 -> s0 [label="I_CHANGE_CIPHER_SPEC"];
	s0 -> s1 [label="I_FINISHED"];
	s0 -> s0 [label="I_APPLICATION"];
	s0 -> s0 [label="I_Alert(WARNING,CLOSE_NOTIFY)"];
	s0 -> s0 [label="I_Alert(FATAL,UNEXPECTED_MESSAGE)"];
	s0 -> s0 [label="O_CHANGE_CIPHER_SPEC"];
	s0 -> s0 [label="O_FINISHED"];
	s0 -> s0 [label="O_APPLICATION"];
	s0 -> s0 [label="O_Alert(WARNING,NO_RENEGOTIATION)"];
	s0 -> s0 [label="O_HELLO_VERIFY_REQUEST"];
	s0 -> s0 [label="O_SERVER_HELLO"];
	s0 -> s0 [label="O_SERVER_HELLO_DONE"];
	s0 -> s0 [label="O_Alert(FATAL,INTERNAL_ERROR)"];
	s0 -> s0 [label="O_Alert(WARNING,CLOSE_NOTIFY)"];
	s1 -> s2 [label="I_PSK_CLIENT_HELLO"];
	s1 -> s2 [label="I_PSK_CLIENT_KEY_EXCHANGE"];
	s1 -> s2 [label="I_CHANGE_CIPHER_SPEC"];
	s1 -> s2 [label="I_FINISHED"];
	s1 -> s2 [label="I_APPLICATION"];
	s1 -> s2 [label="I_Alert(WARNING,CLOSE_NOTIFY)"];
	s1 -> s2 [label="I_Alert(FATAL,UNEXPECTED_MESSAGE)"];
	s1 -> s3 [label="O_CHANGE_CIPHER_SPEC"];
	s1 -> s2 [label="O_FINISHED"];
	s1 -> s2 [label="O_APPLICATION"];
	s1 -> s2 [label="O_Alert(WARNING,NO_RENEGOTIATION)"];
	s1 -> s2 [label="O_HELLO_VERIFY_REQUEST"];
	s1 -> s0 [label="O_SERVER_HELLO"];
	s1 -> s2 [label="O_SERVER_HELLO_DONE"];
	s1 -> s2 [label="O_Alert(FATAL,INTERNAL_ERROR)"];
	s1 -> s2 [label="O_Alert(WARNING,CLOSE_NOTIFY)"];
	s2 -> s2 [label="I_PSK_CLIENT_HELLO"];
	s2 -> s2 [label="I_PSK_CLIENT_KEY_EXCHANGE"];
	s2 -> s2 [label="I_CHANGE_CIPHER_SPEC"];
	s2 -> s2 [label="I_FINISHED"];
	s2 -> s2 [label="I_APPLICATION"];
	s2 -> s2 [label="I_Alert(WARNING,CLOSE_NOTIFY)"];
	s2 -> s2 [label="I_Alert(FATAL,UNEXPECTED_MESSAGE)"];
	s2 -> s2 [label="O_CHANGE_CIPHER_SPEC"];
	s2 -> s2 [label="O_FINISHED"];
	s2 -> s2 [label="O_APPLICATION"];
	s2 -> s2 [label="O_Alert(WARNING,NO_RENEGOTIATION)"];
	s2 -> s2 [label="O_HELLO_VERIFY_REQUEST"];
	s2 -> s2 [label="O_SERVER_HELLO"];
	s2 -> s2 [label="O_SERVER_HELLO_DONE"];
	s2 -> s2 [label="O_Alert(FATAL,INTERNAL_ERROR)"];
	s2 -> s2 [label="O_Alert(WARNING,CLOSE_NOTIFY)"];
	s3 -> s3 [label="I_PSK_CLIENT_HELLO"];
	s3 -> s3 [label="I_PSK_CLIENT_KEY_EXCHANGE"];
	s3 -> s3 [label="I_CHANGE_CIPHER_SPEC"];
	s3 -> s4 [label="I_FINISHED"];
	s3 -> s3 [label="I_APPLICATION"];
	s3 -> s3 [label="I_Alert(WARNING,CLOSE_NOTIFY)"];
	s3 -> s3 [label="I_Alert(FATAL,UNEXPECTED_MESSAGE)"];
	s3 -> s3 [label="O_CHANGE_CIPHER_SPEC"];
	s3 -> s3 [label="O_FINISHED"];
	s3 -> s3 [label="O_APPLICATION"];
	s3 -> s3 [label="O_Alert(WARNING,NO_RENEGOTIATION)"];
	s3 -> s3 [label="O_HELLO_VERIFY_REQUEST"];
	s3 -> s0 [label="O_SERVER_HELLO"];
	s3 -> s3 [label="O_SERVER_HELLO_DONE"];
	s3 -> s3 [label="O_Alert(FATAL,INTERNAL_ERROR)"];
	s3 -> s3 [label="O_Alert(WARNING,CLOSE_NOTIFY)"];
	s4 -> s2 [label="I_PSK_CLIENT_HELLO"];
	s4 -> s2 [label="I_PSK_CLIENT_KEY_EXCHANGE"];
	s4 -> s2 [label="I_CHANGE_CIPHER_SPEC"];
	s4 -> s2 [label="I_FINISHED"];
	s4 -> s2 [label="I_APPLICATION"];
	s4 -> s2 [label="I_Alert(WARNING,CLOSE_NOTIFY)"];
	s4 -> s2 [label="I_Alert(FATAL,UNEXPECTED_MESSAGE)"];
	s4 -> s5 [label="O_CHANGE_CIPHER_SPEC"];
	s4 -> s2 [label="O_FINISHED"];
	s4 -> s2 [label="O_APPLICATION"];
	s4 -> s2 [label="O_Alert(WARNING,NO_RENEGOTIATION)"];
	s4 -> s2 [label="O_HELLO_VERIFY_REQUEST"];
	s4 -> s2 [label="O_SERVER_HELLO"];
	s4 -> s2 [label="O_SERVER_HELLO_DONE"];
	s4 -> s2 [label="O_Alert(FATAL,INTERNAL_ERROR)"];
	s4 -> s2 [label="O_Alert(WARNING,CLOSE_NOTIFY)"];
	s5 -> s5 [label="I_PSK_CLIENT_HELLO"];
	s5 -> s5 [label="I_PSK_CLIENT_KEY_EXCHANGE"];
	s5 -> s5 [label="I_CHANGE_CIPHER_SPEC"];
	s5 -> s5 [label="I_FINISHED"];
	s5 -> s5 [label="I_APPLICATION"];
	s5 -> s5 [label="I_Alert(WARNING,CLOSE_NOTIFY)"];
	s5 -> s5 [label="I_Alert(FATAL,UNEXPECTED_MESSAGE)"];
	s5 -> s5 [label="O_CHANGE_CIPHER_SPEC"];
	s5 -> s5 [label="O_FINISHED"];
	s5 -> s5 [label="O_APPLICATION"];
	s5 -> s5 [label="O_Alert(WARNING,NO_RENEGOTIATION)"];
	s5 -> s5 [label="O_HELLO_VERIFY_REQUEST"];
	s5 -> s5 [label="O_SERVER_HELLO"];
	s5 -> s5 [label="O_SERVER_HELLO_DONE"];
	s5 -> s5 [label="O_Alert(FATAL,INTERNAL_ERROR)"];
	s5 -> s5 [label="O_Alert(WARNING,CLOSE_NOTIFY)"];

__start0 [label="" shape="none" width="0" height="0"];
__start0 -> s0;

}
