digraph g {

	s0 [shape="circle" label="s0"];
	s1 [shape="circle" label="s1"];
	s2 [shape="circle" label="s2"];
	s3 [shape="circle" label="s3"];
	s4 [shape="circle" label="s4"];
	s5 [shape="circle" label="s5"];
	s6 [shape="circle" label="s6"];
	s7 [shape="circle" label="s7"];
	s8 [shape="circle" label="s8"];
	s9 [shape="circle" label="s9"];
	s10 [shape="circle" label="s10"];
	s11 [shape="circle" label="s11"];
	s12 [shape="circle" label="s12"];
	s13 [shape="circle" label="s13"];
	s14 [shape="circle" label="s14"];
	s15 [shape="circle" label="s15"];
	s16 [shape="circle" label="s16"];
	s17 [shape="circle" label="s17"];
	s18 [shape="circle" label="s18"];
	s19 [shape="circle" label="s19"];
	s20 [shape="circle" label="s20"];
	s21 [shape="circle" label="s21"];
	s22 [shape="circle" label="s22"];
	s23 [shape="circle" label="s23"];
	s24 [shape="circle" label="s24"];
	s25 [shape="circle" label="s25"];
	s26 [shape="circle" label="s26"];
	s27 [shape="circle" label="s27"];
	s28 [shape="circle" label="s28"];
	s29 [shape="circle" label="s29"];
	s30 [shape="circle" label="s30"];
	s31 [shape="circle" label="s31"];
	s32 [shape="circle" label="s32"];
	s33 [shape="circle" label="s33"];
	s34 [shape="circle" label="s34"];
	s0 -> s23 [label="HELLO_VERIFY_REQUEST / CLIENT_HELLO+"];
	s0 -> s1 [label="PSK_SERVER_HELLO / CLIENT_HELLO"];
	s0 -> s6 [label="PSK_SERVER_HELLO_EPOCH_1 / CLIENT_HELLO"];
	s0 -> s4 [label="SERVER_HELLO_DONE / CLIENT_HELLO,Alert(FATAL,UNEXPECTED_MESSAGE)"];
	s0 -> s2 [label="CHANGE_CIPHER_SPEC / CLIENT_HELLO"];
	s0 -> s4 [label="FINISHED / CLIENT_HELLO,Alert(FATAL,UNEXPECTED_MESSAGE)"];
	s0 -> s4 [label="FINISHED_EPOCH_0 / CLIENT_HELLO,Alert(FATAL,UNEXPECTED_MESSAGE)"];
	s0 -> s3 [label="APPLICATION_EPOCH_0 / CLIENT_HELLO"];
	s0 -> s3 [label="APPLICATION / CLIENT_HELLO"];
	s0 -> s3 [label="Alert(WARNING,CLOSE_NOTIFY) / CLIENT_HELLO"];
	s0 -> s3 [label="Alert(FATAL,UNEXPECTED_MESSAGE) / CLIENT_HELLO"];
	s1 -> s4 [label="HELLO_VERIFY_REQUEST / Alert(FATAL,UNEXPECTED_MESSAGE)"];
	s1 -> s4 [label="PSK_SERVER_HELLO / Alert(FATAL,UNEXPECTED_MESSAGE)"];
	s1 -> s6 [label="PSK_SERVER_HELLO_EPOCH_1 / TIMEOUT"];
	s1 -> s5 [label="SERVER_HELLO_DONE / PSK_CLIENT_KEY_EXCHANGE,CHANGE_CIPHER_SPEC,FINISHED"];
	s1 -> s31 [label="CHANGE_CIPHER_SPEC / TIMEOUT"];
	s1 -> s4 [label="FINISHED / Alert(FATAL,UNEXPECTED_MESSAGE)"];
	s1 -> s4 [label="FINISHED_EPOCH_0 / Alert(FATAL,UNEXPECTED_MESSAGE)"];
	s1 -> s28 [label="APPLICATION_EPOCH_0 / TIMEOUT"];
	s1 -> s28 [label="APPLICATION / TIMEOUT"];
	s1 -> s4 [label="Alert(WARNING,CLOSE_NOTIFY) / Alert(FATAL,INTERNAL_ERROR)"];
	s1 -> s4 [label="Alert(FATAL,UNEXPECTED_MESSAGE) / TIMEOUT"];
	s2 -> s7 [label="HELLO_VERIFY_REQUEST / TIMEOUT"];
	s2 -> s7 [label="PSK_SERVER_HELLO / TIMEOUT"];
	s2 -> s7 [label="PSK_SERVER_HELLO_EPOCH_1 / TIMEOUT"];
	s2 -> s7 [label="SERVER_HELLO_DONE / TIMEOUT"];
	s2 -> s2 [label="CHANGE_CIPHER_SPEC / TIMEOUT"];
	s2 -> s7 [label="FINISHED / TIMEOUT"];
	s2 -> s4 [label="FINISHED_EPOCH_0 / Alert(FATAL,UNEXPECTED_MESSAGE)"];
	s2 -> s22 [label="APPLICATION_EPOCH_0 / TIMEOUT"];
	s2 -> s2 [label="APPLICATION / TIMEOUT"];
	s2 -> s2 [label="Alert(WARNING,CLOSE_NOTIFY) / TIMEOUT"];
	s2 -> s2 [label="Alert(FATAL,UNEXPECTED_MESSAGE) / TIMEOUT"];
	s3 -> s12 [label="HELLO_VERIFY_REQUEST / CLIENT_HELLO"];
	s3 -> s13 [label="PSK_SERVER_HELLO / TIMEOUT"];
	s3 -> s6 [label="PSK_SERVER_HELLO_EPOCH_1 / TIMEOUT"];
	s3 -> s4 [label="SERVER_HELLO_DONE / Alert(FATAL,UNEXPECTED_MESSAGE)"];
	s3 -> s22 [label="CHANGE_CIPHER_SPEC / TIMEOUT"];
	s3 -> s4 [label="FINISHED / Alert(FATAL,UNEXPECTED_MESSAGE)"];
	s3 -> s4 [label="FINISHED_EPOCH_0 / Alert(FATAL,UNEXPECTED_MESSAGE)"];
	s3 -> s20 [label="APPLICATION_EPOCH_0 / TIMEOUT"];
	s3 -> s20 [label="APPLICATION / TIMEOUT"];
	s3 -> s4 [label="Alert(WARNING,CLOSE_NOTIFY) / Alert(FATAL,INTERNAL_ERROR)"];
	s3 -> s4 [label="Alert(FATAL,UNEXPECTED_MESSAGE) / TIMEOUT"];
	s4 -> s4 [label="HELLO_VERIFY_REQUEST / SOCKET_CLOSED"];
	s4 -> s4 [label="PSK_SERVER_HELLO / SOCKET_CLOSED"];
	s4 -> s4 [label="PSK_SERVER_HELLO_EPOCH_1 / SOCKET_CLOSED"];
	s4 -> s4 [label="SERVER_HELLO_DONE / SOCKET_CLOSED"];
	s4 -> s4 [label="CHANGE_CIPHER_SPEC / SOCKET_CLOSED"];
	s4 -> s4 [label="FINISHED / SOCKET_CLOSED"];
	s4 -> s4 [label="FINISHED_EPOCH_0 / SOCKET_CLOSED"];
	s4 -> s4 [label="APPLICATION_EPOCH_0 / SOCKET_CLOSED"];
	s4 -> s4 [label="APPLICATION / SOCKET_CLOSED"];
	s4 -> s4 [label="Alert(WARNING,CLOSE_NOTIFY) / SOCKET_CLOSED"];
	s4 -> s4 [label="Alert(FATAL,UNEXPECTED_MESSAGE) / SOCKET_CLOSED"];
	s5 -> s9 [label="HELLO_VERIFY_REQUEST / TIMEOUT"];
	s5 -> s16 [label="PSK_SERVER_HELLO / TIMEOUT"];
	s5 -> s16 [label="PSK_SERVER_HELLO_EPOCH_1 / TIMEOUT"];
	s5 -> s9 [label="SERVER_HELLO_DONE / TIMEOUT"];
	s5 -> s8 [label="CHANGE_CIPHER_SPEC / TIMEOUT"];
	s5 -> s9 [label="FINISHED / TIMEOUT"];
	s5 -> s9 [label="FINISHED_EPOCH_0 / TIMEOUT"];
	s5 -> s5 [label="APPLICATION_EPOCH_0 / TIMEOUT"];
	s5 -> s5 [label="APPLICATION / TIMEOUT"];
	s5 -> s4 [label="Alert(WARNING,CLOSE_NOTIFY) / Alert(FATAL,UNEXPECTED_MESSAGE)"];
	s5 -> s4 [label="Alert(FATAL,UNEXPECTED_MESSAGE) / TIMEOUT"];
	s6 -> s6 [label="HELLO_VERIFY_REQUEST / TIMEOUT"];
	s6 -> s6 [label="PSK_SERVER_HELLO / TIMEOUT"];
	s6 -> s6 [label="PSK_SERVER_HELLO_EPOCH_1 / TIMEOUT"];
	s6 -> s6 [label="SERVER_HELLO_DONE / TIMEOUT"];
	s6 -> s7 [label="CHANGE_CIPHER_SPEC / TIMEOUT"];
	s6 -> s6 [label="FINISHED / TIMEOUT"];
	s6 -> s6 [label="FINISHED_EPOCH_0 / TIMEOUT"];
	s6 -> s6 [label="APPLICATION_EPOCH_0 / TIMEOUT"];
	s6 -> s6 [label="APPLICATION / TIMEOUT"];
	s6 -> s4 [label="Alert(WARNING,CLOSE_NOTIFY) / Alert(FATAL,INTERNAL_ERROR)"];
	s6 -> s4 [label="Alert(FATAL,UNEXPECTED_MESSAGE) / TIMEOUT"];
	s7 -> s7 [label="HELLO_VERIFY_REQUEST / TIMEOUT"];
	s7 -> s7 [label="PSK_SERVER_HELLO / TIMEOUT"];
	s7 -> s7 [label="PSK_SERVER_HELLO_EPOCH_1 / TIMEOUT"];
	s7 -> s7 [label="SERVER_HELLO_DONE / TIMEOUT"];
	s7 -> s7 [label="CHANGE_CIPHER_SPEC / TIMEOUT"];
	s7 -> s7 [label="FINISHED / TIMEOUT"];
	s7 -> s7 [label="FINISHED_EPOCH_0 / TIMEOUT"];
	s7 -> s7 [label="APPLICATION_EPOCH_0 / TIMEOUT"];
	s7 -> s7 [label="APPLICATION / TIMEOUT"];
	s7 -> s7 [label="Alert(WARNING,CLOSE_NOTIFY) / TIMEOUT"];
	s7 -> s7 [label="Alert(FATAL,UNEXPECTED_MESSAGE) / TIMEOUT"];
	s8 -> s4 [label="HELLO_VERIFY_REQUEST / Alert(FATAL,UNEXPECTED_MESSAGE)"];
	s8 -> s4 [label="PSK_SERVER_HELLO / Alert(FATAL,UNEXPECTED_MESSAGE)"];
	s8 -> s4 [label="PSK_SERVER_HELLO_EPOCH_1 / Alert(FATAL,UNEXPECTED_MESSAGE)"];
	s8 -> s4 [label="SERVER_HELLO_DONE / Alert(FATAL,UNEXPECTED_MESSAGE)"];
	s8 -> s18 [label="CHANGE_CIPHER_SPEC / TIMEOUT"];
	s8 -> s17 [label="FINISHED / TIMEOUT"];
	s8 -> s10 [label="FINISHED_EPOCH_0 / TIMEOUT"];
	s8 -> s8 [label="APPLICATION_EPOCH_0 / TIMEOUT"];
	s8 -> s8 [label="APPLICATION / TIMEOUT"];
	s8 -> s4 [label="Alert(WARNING,CLOSE_NOTIFY) / Alert(FATAL,INTERNAL_ERROR)"];
	s8 -> s4 [label="Alert(FATAL,UNEXPECTED_MESSAGE) / TIMEOUT"];
	s9 -> s9 [label="HELLO_VERIFY_REQUEST / TIMEOUT"];
	s9 -> s16 [label="PSK_SERVER_HELLO / TIMEOUT"];
	s9 -> s16 [label="PSK_SERVER_HELLO_EPOCH_1 / TIMEOUT"];
	s9 -> s9 [label="SERVER_HELLO_DONE / TIMEOUT"];
	s9 -> s10 [label="CHANGE_CIPHER_SPEC / TIMEOUT"];
	s9 -> s9 [label="FINISHED / TIMEOUT"];
	s9 -> s9 [label="FINISHED_EPOCH_0 / TIMEOUT"];
	s9 -> s9 [label="APPLICATION_EPOCH_0 / TIMEOUT"];
	s9 -> s9 [label="APPLICATION / TIMEOUT"];
	s9 -> s4 [label="Alert(WARNING,CLOSE_NOTIFY) / Alert(FATAL,UNEXPECTED_MESSAGE)"];
	s9 -> s4 [label="Alert(FATAL,UNEXPECTED_MESSAGE) / TIMEOUT"];
	s10 -> s10 [label="HELLO_VERIFY_REQUEST / TIMEOUT"];
	s10 -> s11 [label="PSK_SERVER_HELLO / TIMEOUT"];
	s10 -> s11 [label="PSK_SERVER_HELLO_EPOCH_1 / TIMEOUT"];
	s10 -> s10 [label="SERVER_HELLO_DONE / TIMEOUT"];
	s10 -> s7 [label="CHANGE_CIPHER_SPEC / TIMEOUT"];
	s10 -> s10 [label="FINISHED / TIMEOUT"];
	s10 -> s10 [label="FINISHED_EPOCH_0 / TIMEOUT"];
	s10 -> s10 [label="APPLICATION_EPOCH_0 / TIMEOUT"];
	s10 -> s10 [label="APPLICATION / TIMEOUT"];
	s10 -> s4 [label="Alert(WARNING,CLOSE_NOTIFY) / Alert(FATAL,INTERNAL_ERROR)"];
	s10 -> s4 [label="Alert(FATAL,UNEXPECTED_MESSAGE) / TIMEOUT"];
	s11 -> s11 [label="HELLO_VERIFY_REQUEST / TIMEOUT"];
	s11 -> s11 [label="PSK_SERVER_HELLO / TIMEOUT"];
	s11 -> s11 [label="PSK_SERVER_HELLO_EPOCH_1 / TIMEOUT"];
	s11 -> s11 [label="SERVER_HELLO_DONE / TIMEOUT"];
	s11 -> s7 [label="CHANGE_CIPHER_SPEC / TIMEOUT"];
	s11 -> s11 [label="FINISHED / TIMEOUT"];
	s11 -> s7 [label="FINISHED_EPOCH_0 / TIMEOUT"];
	s11 -> s7 [label="APPLICATION_EPOCH_0 / TIMEOUT"];
	s11 -> s11 [label="APPLICATION / TIMEOUT"];
	s11 -> s4 [label="Alert(WARNING,CLOSE_NOTIFY) / Alert(FATAL,INTERNAL_ERROR)"];
	s11 -> s4 [label="Alert(FATAL,UNEXPECTED_MESSAGE) / TIMEOUT"];
	s12 -> s12 [label="HELLO_VERIFY_REQUEST / CLIENT_HELLO"];
	s12 -> s28 [label="PSK_SERVER_HELLO / TIMEOUT"];
	s12 -> s6 [label="PSK_SERVER_HELLO_EPOCH_1 / TIMEOUT"];
	s12 -> s4 [label="SERVER_HELLO_DONE / Alert(FATAL,UNEXPECTED_MESSAGE)"];
	s12 -> s21 [label="CHANGE_CIPHER_SPEC / TIMEOUT"];
	s12 -> s4 [label="FINISHED / Alert(FATAL,UNEXPECTED_MESSAGE)"];
	s12 -> s4 [label="FINISHED_EPOCH_0 / Alert(FATAL,UNEXPECTED_MESSAGE)"];
	s12 -> s25 [label="APPLICATION_EPOCH_0 / TIMEOUT"];
	s12 -> s25 [label="APPLICATION / TIMEOUT"];
	s12 -> s25 [label="Alert(WARNING,CLOSE_NOTIFY) / TIMEOUT"];
	s12 -> s25 [label="Alert(FATAL,UNEXPECTED_MESSAGE) / TIMEOUT"];
	s13 -> s4 [label="HELLO_VERIFY_REQUEST / Alert(FATAL,UNEXPECTED_MESSAGE)"];
	s13 -> s4 [label="PSK_SERVER_HELLO / Alert(FATAL,UNEXPECTED_MESSAGE)"];
	s13 -> s6 [label="PSK_SERVER_HELLO_EPOCH_1 / TIMEOUT"];
	s13 -> s14 [label="SERVER_HELLO_DONE / PSK_CLIENT_KEY_EXCHANGE,CHANGE_CIPHER_SPEC,FINISHED"];
	s13 -> s21 [label="CHANGE_CIPHER_SPEC / TIMEOUT"];
	s13 -> s4 [label="FINISHED / Alert(FATAL,UNEXPECTED_MESSAGE)"];
	s13 -> s4 [label="FINISHED_EPOCH_0 / Alert(FATAL,UNEXPECTED_MESSAGE)"];
	s13 -> s13 [label="APPLICATION_EPOCH_0 / TIMEOUT"];
	s13 -> s13 [label="APPLICATION / TIMEOUT"];
	s13 -> s4 [label="Alert(WARNING,CLOSE_NOTIFY) / Alert(FATAL,INTERNAL_ERROR)"];
	s13 -> s4 [label="Alert(FATAL,UNEXPECTED_MESSAGE) / TIMEOUT"];
	s14 -> s9 [label="HELLO_VERIFY_REQUEST / TIMEOUT"];
	s14 -> s16 [label="PSK_SERVER_HELLO / TIMEOUT"];
	s14 -> s16 [label="PSK_SERVER_HELLO_EPOCH_1 / TIMEOUT"];
	s14 -> s9 [label="SERVER_HELLO_DONE / TIMEOUT"];
	s14 -> s15 [label="CHANGE_CIPHER_SPEC / TIMEOUT"];
	s14 -> s9 [label="FINISHED / TIMEOUT"];
	s14 -> s9 [label="FINISHED_EPOCH_0 / TIMEOUT"];
	s14 -> s14 [label="APPLICATION_EPOCH_0 / TIMEOUT"];
	s14 -> s14 [label="APPLICATION / TIMEOUT"];
	s14 -> s4 [label="Alert(WARNING,CLOSE_NOTIFY) / Alert(FATAL,UNEXPECTED_MESSAGE)"];
	s14 -> s4 [label="Alert(FATAL,UNEXPECTED_MESSAGE) / TIMEOUT"];
	s15 -> s4 [label="HELLO_VERIFY_REQUEST / Alert(FATAL,UNEXPECTED_MESSAGE)"];
	s15 -> s4 [label="PSK_SERVER_HELLO / Alert(FATAL,UNEXPECTED_MESSAGE)"];
	s15 -> s4 [label="PSK_SERVER_HELLO_EPOCH_1 / Alert(FATAL,UNEXPECTED_MESSAGE)"];
	s15 -> s4 [label="SERVER_HELLO_DONE / Alert(FATAL,UNEXPECTED_MESSAGE)"];
	s15 -> s18 [label="CHANGE_CIPHER_SPEC / TIMEOUT"];
	s15 -> s4 [label="FINISHED / Alert(FATAL,DECRYPT_ERROR)"];
	s15 -> s10 [label="FINISHED_EPOCH_0 / TIMEOUT"];
	s15 -> s15 [label="APPLICATION_EPOCH_0 / TIMEOUT"];
	s15 -> s15 [label="APPLICATION / TIMEOUT"];
	s15 -> s4 [label="Alert(WARNING,CLOSE_NOTIFY) / Alert(FATAL,INTERNAL_ERROR)"];
	s15 -> s4 [label="Alert(FATAL,UNEXPECTED_MESSAGE) / TIMEOUT"];
	s16 -> s16 [label="HELLO_VERIFY_REQUEST / TIMEOUT"];
	s16 -> s16 [label="PSK_SERVER_HELLO / TIMEOUT"];
	s16 -> s16 [label="PSK_SERVER_HELLO_EPOCH_1 / TIMEOUT"];
	s16 -> s16 [label="SERVER_HELLO_DONE / TIMEOUT"];
	s16 -> s7 [label="CHANGE_CIPHER_SPEC / TIMEOUT"];
	s16 -> s16 [label="FINISHED / TIMEOUT"];
	s16 -> s16 [label="FINISHED_EPOCH_0 / TIMEOUT"];
	s16 -> s16 [label="APPLICATION_EPOCH_0 / TIMEOUT"];
	s16 -> s16 [label="APPLICATION / TIMEOUT"];
	s16 -> s4 [label="Alert(WARNING,CLOSE_NOTIFY) / Alert(FATAL,UNEXPECTED_MESSAGE)"];
	s16 -> s4 [label="Alert(FATAL,UNEXPECTED_MESSAGE) / TIMEOUT"];
	s17 -> s17 [label="HELLO_VERIFY_REQUEST / TIMEOUT"];
	s17 -> s24 [label="PSK_SERVER_HELLO / TIMEOUT"];
	s17 -> s24 [label="PSK_SERVER_HELLO_EPOCH_1 / TIMEOUT"];
	s17 -> s17 [label="SERVER_HELLO_DONE / TIMEOUT"];
	s17 -> s7 [label="CHANGE_CIPHER_SPEC / TIMEOUT"];
	s17 -> s17 [label="FINISHED / TIMEOUT"];
	s17 -> s17 [label="FINISHED_EPOCH_0 / TIMEOUT"];
	s17 -> s17 [label="APPLICATION_EPOCH_0 / TIMEOUT"];
	s17 -> s17 [label="APPLICATION / TIMEOUT"];
	s17 -> s4 [label="Alert(WARNING,CLOSE_NOTIFY) / TIMEOUT"];
	s17 -> s4 [label="Alert(FATAL,UNEXPECTED_MESSAGE) / TIMEOUT"];
	s18 -> s7 [label="HELLO_VERIFY_REQUEST / TIMEOUT"];
	s18 -> s7 [label="PSK_SERVER_HELLO / TIMEOUT"];
	s18 -> s7 [label="PSK_SERVER_HELLO_EPOCH_1 / TIMEOUT"];
	s18 -> s7 [label="SERVER_HELLO_DONE / TIMEOUT"];
	s18 -> s18 [label="CHANGE_CIPHER_SPEC / TIMEOUT"];
	s18 -> s7 [label="FINISHED / TIMEOUT"];
	s18 -> s7 [label="FINISHED_EPOCH_0 / TIMEOUT"];
	s18 -> s18 [label="APPLICATION_EPOCH_0 / TIMEOUT"];
	s18 -> s19 [label="APPLICATION / TIMEOUT"];
	s18 -> s19 [label="Alert(WARNING,CLOSE_NOTIFY) / TIMEOUT"];
	s18 -> s19 [label="Alert(FATAL,UNEXPECTED_MESSAGE) / TIMEOUT"];
	s19 -> s7 [label="HELLO_VERIFY_REQUEST / TIMEOUT"];
	s19 -> s7 [label="PSK_SERVER_HELLO / TIMEOUT"];
	s19 -> s4 [label="PSK_SERVER_HELLO_EPOCH_1 / Alert(FATAL,UNEXPECTED_MESSAGE)"];
	s19 -> s7 [label="SERVER_HELLO_DONE / TIMEOUT"];
	s19 -> s18 [label="CHANGE_CIPHER_SPEC / TIMEOUT"];
	s19 -> s7 [label="FINISHED / TIMEOUT"];
	s19 -> s7 [label="FINISHED_EPOCH_0 / TIMEOUT"];
	s19 -> s19 [label="APPLICATION_EPOCH_0 / TIMEOUT"];
	s19 -> s19 [label="APPLICATION / TIMEOUT"];
	s19 -> s19 [label="Alert(WARNING,CLOSE_NOTIFY) / TIMEOUT"];
	s19 -> s19 [label="Alert(FATAL,UNEXPECTED_MESSAGE) / TIMEOUT"];
	s20 -> s12 [label="HELLO_VERIFY_REQUEST / CLIENT_HELLO"];
	s20 -> s13 [label="PSK_SERVER_HELLO / TIMEOUT"];
	s20 -> s6 [label="PSK_SERVER_HELLO_EPOCH_1 / TIMEOUT"];
	s20 -> s4 [label="SERVER_HELLO_DONE / Alert(FATAL,UNEXPECTED_MESSAGE)"];
	s20 -> s21 [label="CHANGE_CIPHER_SPEC / TIMEOUT"];
	s20 -> s4 [label="FINISHED / Alert(FATAL,UNEXPECTED_MESSAGE)"];
	s20 -> s4 [label="FINISHED_EPOCH_0 / Alert(FATAL,UNEXPECTED_MESSAGE)"];
	s20 -> s20 [label="APPLICATION_EPOCH_0 / TIMEOUT"];
	s20 -> s20 [label="APPLICATION / TIMEOUT"];
	s20 -> s4 [label="Alert(WARNING,CLOSE_NOTIFY) / Alert(FATAL,INTERNAL_ERROR)"];
	s20 -> s4 [label="Alert(FATAL,UNEXPECTED_MESSAGE) / TIMEOUT"];
	s21 -> s7 [label="HELLO_VERIFY_REQUEST / TIMEOUT"];
	s21 -> s7 [label="PSK_SERVER_HELLO / TIMEOUT"];
	s21 -> s7 [label="PSK_SERVER_HELLO_EPOCH_1 / TIMEOUT"];
	s21 -> s7 [label="SERVER_HELLO_DONE / TIMEOUT"];
	s21 -> s7 [label="CHANGE_CIPHER_SPEC / TIMEOUT"];
	s21 -> s7 [label="FINISHED / TIMEOUT"];
	s21 -> s4 [label="FINISHED_EPOCH_0 / Alert(FATAL,UNEXPECTED_MESSAGE)"];
	s21 -> s21 [label="APPLICATION_EPOCH_0 / TIMEOUT"];
	s21 -> s29 [label="APPLICATION / TIMEOUT"];
	s21 -> s29 [label="Alert(WARNING,CLOSE_NOTIFY) / TIMEOUT"];
	s21 -> s29 [label="Alert(FATAL,UNEXPECTED_MESSAGE) / TIMEOUT"];
	s22 -> s7 [label="HELLO_VERIFY_REQUEST / TIMEOUT"];
	s22 -> s7 [label="PSK_SERVER_HELLO / TIMEOUT"];
	s22 -> s7 [label="PSK_SERVER_HELLO_EPOCH_1 / TIMEOUT"];
	s22 -> s7 [label="SERVER_HELLO_DONE / TIMEOUT"];
	s22 -> s26 [label="CHANGE_CIPHER_SPEC / TIMEOUT"];
	s22 -> s7 [label="FINISHED / TIMEOUT"];
	s22 -> s4 [label="FINISHED_EPOCH_0 / Alert(FATAL,UNEXPECTED_MESSAGE)"];
	s22 -> s21 [label="APPLICATION_EPOCH_0 / TIMEOUT"];
	s22 -> s2 [label="APPLICATION / TIMEOUT"];
	s22 -> s2 [label="Alert(WARNING,CLOSE_NOTIFY) / TIMEOUT"];
	s22 -> s2 [label="Alert(FATAL,UNEXPECTED_MESSAGE) / TIMEOUT"];
	s23 -> s12 [label="HELLO_VERIFY_REQUEST / CLIENT_HELLO"];
	s23 -> s28 [label="PSK_SERVER_HELLO / TIMEOUT"];
	s23 -> s6 [label="PSK_SERVER_HELLO_EPOCH_1 / TIMEOUT"];
	s23 -> s4 [label="SERVER_HELLO_DONE / Alert(FATAL,UNEXPECTED_MESSAGE)"];
	s23 -> s22 [label="CHANGE_CIPHER_SPEC / TIMEOUT"];
	s23 -> s4 [label="FINISHED / Alert(FATAL,UNEXPECTED_MESSAGE)"];
	s23 -> s4 [label="FINISHED_EPOCH_0 / Alert(FATAL,UNEXPECTED_MESSAGE)"];
	s23 -> s25 [label="APPLICATION_EPOCH_0 / TIMEOUT"];
	s23 -> s25 [label="APPLICATION / TIMEOUT"];
	s23 -> s25 [label="Alert(WARNING,CLOSE_NOTIFY) / TIMEOUT"];
	s23 -> s25 [label="Alert(FATAL,UNEXPECTED_MESSAGE) / TIMEOUT"];
	s24 -> s24 [label="HELLO_VERIFY_REQUEST / TIMEOUT"];
	s24 -> s24 [label="PSK_SERVER_HELLO / TIMEOUT"];
	s24 -> s24 [label="PSK_SERVER_HELLO_EPOCH_1 / TIMEOUT"];
	s24 -> s24 [label="SERVER_HELLO_DONE / TIMEOUT"];
	s24 -> s7 [label="CHANGE_CIPHER_SPEC / TIMEOUT"];
	s24 -> s24 [label="FINISHED / TIMEOUT"];
	s24 -> s7 [label="FINISHED_EPOCH_0 / TIMEOUT"];
	s24 -> s7 [label="APPLICATION_EPOCH_0 / TIMEOUT"];
	s24 -> s24 [label="APPLICATION / TIMEOUT"];
	s24 -> s4 [label="Alert(WARNING,CLOSE_NOTIFY) / TIMEOUT"];
	s24 -> s4 [label="Alert(FATAL,UNEXPECTED_MESSAGE) / TIMEOUT"];
	s25 -> s12 [label="HELLO_VERIFY_REQUEST / CLIENT_HELLO"];
	s25 -> s28 [label="PSK_SERVER_HELLO / TIMEOUT"];
	s25 -> s6 [label="PSK_SERVER_HELLO_EPOCH_1 / TIMEOUT"];
	s25 -> s4 [label="SERVER_HELLO_DONE / Alert(FATAL,UNEXPECTED_MESSAGE)"];
	s25 -> s21 [label="CHANGE_CIPHER_SPEC / TIMEOUT"];
	s25 -> s4 [label="FINISHED / Alert(FATAL,UNEXPECTED_MESSAGE)"];
	s25 -> s4 [label="FINISHED_EPOCH_0 / Alert(FATAL,UNEXPECTED_MESSAGE)"];
	s25 -> s25 [label="APPLICATION_EPOCH_0 / TIMEOUT"];
	s25 -> s25 [label="APPLICATION / TIMEOUT"];
	s25 -> s4 [label="Alert(WARNING,CLOSE_NOTIFY) / Alert(FATAL,INTERNAL_ERROR)"];
	s25 -> s4 [label="Alert(FATAL,UNEXPECTED_MESSAGE) / TIMEOUT"];
	s26 -> s7 [label="HELLO_VERIFY_REQUEST / TIMEOUT"];
	s26 -> s7 [label="PSK_SERVER_HELLO / TIMEOUT"];
	s26 -> s7 [label="PSK_SERVER_HELLO_EPOCH_1 / TIMEOUT"];
	s26 -> s7 [label="SERVER_HELLO_DONE / TIMEOUT"];
	s26 -> s26 [label="CHANGE_CIPHER_SPEC / TIMEOUT"];
	s26 -> s7 [label="FINISHED / TIMEOUT"];
	s26 -> s7 [label="FINISHED_EPOCH_0 / TIMEOUT"];
	s26 -> s22 [label="APPLICATION_EPOCH_0 / TIMEOUT"];
	s26 -> s27 [label="APPLICATION / TIMEOUT"];
	s26 -> s27 [label="Alert(WARNING,CLOSE_NOTIFY) / TIMEOUT"];
	s26 -> s27 [label="Alert(FATAL,UNEXPECTED_MESSAGE) / TIMEOUT"];
	s27 -> s7 [label="HELLO_VERIFY_REQUEST / TIMEOUT"];
	s27 -> s7 [label="PSK_SERVER_HELLO / TIMEOUT"];
	s27 -> s7 [label="PSK_SERVER_HELLO_EPOCH_1 / TIMEOUT"];
	s27 -> s7 [label="SERVER_HELLO_DONE / TIMEOUT"];
	s27 -> s22 [label="CHANGE_CIPHER_SPEC / TIMEOUT"];
	s27 -> s7 [label="FINISHED / TIMEOUT"];
	s27 -> s7 [label="FINISHED_EPOCH_0 / TIMEOUT"];
	s27 -> s2 [label="APPLICATION_EPOCH_0 / TIMEOUT"];
	s27 -> s27 [label="APPLICATION / TIMEOUT"];
	s27 -> s27 [label="Alert(WARNING,CLOSE_NOTIFY) / TIMEOUT"];
	s27 -> s27 [label="Alert(FATAL,UNEXPECTED_MESSAGE) / TIMEOUT"];
	s28 -> s4 [label="HELLO_VERIFY_REQUEST / Alert(FATAL,UNEXPECTED_MESSAGE)"];
	s28 -> s4 [label="PSK_SERVER_HELLO / Alert(FATAL,UNEXPECTED_MESSAGE)"];
	s28 -> s6 [label="PSK_SERVER_HELLO_EPOCH_1 / TIMEOUT"];
	s28 -> s5 [label="SERVER_HELLO_DONE / PSK_CLIENT_KEY_EXCHANGE,CHANGE_CIPHER_SPEC,FINISHED"];
	s28 -> s21 [label="CHANGE_CIPHER_SPEC / TIMEOUT"];
	s28 -> s4 [label="FINISHED / Alert(FATAL,UNEXPECTED_MESSAGE)"];
	s28 -> s4 [label="FINISHED_EPOCH_0 / Alert(FATAL,UNEXPECTED_MESSAGE)"];
	s28 -> s28 [label="APPLICATION_EPOCH_0 / TIMEOUT"];
	s28 -> s28 [label="APPLICATION / TIMEOUT"];
	s28 -> s4 [label="Alert(WARNING,CLOSE_NOTIFY) / Alert(FATAL,INTERNAL_ERROR)"];
	s28 -> s4 [label="Alert(FATAL,UNEXPECTED_MESSAGE) / TIMEOUT"];
	s29 -> s7 [label="HELLO_VERIFY_REQUEST / TIMEOUT"];
	s29 -> s7 [label="PSK_SERVER_HELLO / TIMEOUT"];
	s29 -> s7 [label="PSK_SERVER_HELLO_EPOCH_1 / TIMEOUT"];
	s29 -> s7 [label="SERVER_HELLO_DONE / TIMEOUT"];
	s29 -> s30 [label="CHANGE_CIPHER_SPEC / TIMEOUT"];
	s29 -> s7 [label="FINISHED / TIMEOUT"];
	s29 -> s4 [label="FINISHED_EPOCH_0 / Alert(FATAL,UNEXPECTED_MESSAGE)"];
	s29 -> s21 [label="APPLICATION_EPOCH_0 / TIMEOUT"];
	s29 -> s2 [label="APPLICATION / TIMEOUT"];
	s29 -> s2 [label="Alert(WARNING,CLOSE_NOTIFY) / TIMEOUT"];
	s29 -> s2 [label="Alert(FATAL,UNEXPECTED_MESSAGE) / TIMEOUT"];
	s30 -> s7 [label="HELLO_VERIFY_REQUEST / TIMEOUT"];
	s30 -> s7 [label="PSK_SERVER_HELLO / TIMEOUT"];
	s30 -> s7 [label="PSK_SERVER_HELLO_EPOCH_1 / TIMEOUT"];
	s30 -> s7 [label="SERVER_HELLO_DONE / TIMEOUT"];
	s30 -> s7 [label="CHANGE_CIPHER_SPEC / TIMEOUT"];
	s30 -> s7 [label="FINISHED / TIMEOUT"];
	s30 -> s7 [label="FINISHED_EPOCH_0 / TIMEOUT"];
	s30 -> s21 [label="APPLICATION_EPOCH_0 / TIMEOUT"];
	s30 -> s26 [label="APPLICATION / TIMEOUT"];
	s30 -> s26 [label="Alert(WARNING,CLOSE_NOTIFY) / TIMEOUT"];
	s30 -> s26 [label="Alert(FATAL,UNEXPECTED_MESSAGE) / TIMEOUT"];
	s31 -> s7 [label="HELLO_VERIFY_REQUEST / TIMEOUT"];
	s31 -> s7 [label="PSK_SERVER_HELLO / TIMEOUT"];
	s31 -> s7 [label="PSK_SERVER_HELLO_EPOCH_1 / TIMEOUT"];
	s31 -> s7 [label="SERVER_HELLO_DONE / TIMEOUT"];
	s31 -> s26 [label="CHANGE_CIPHER_SPEC / TIMEOUT"];
	s31 -> s7 [label="FINISHED / TIMEOUT"];
	s31 -> s4 [label="FINISHED_EPOCH_0 / Alert(FATAL,UNEXPECTED_MESSAGE)"];
	s31 -> s32 [label="APPLICATION_EPOCH_0 / TIMEOUT"];
	s31 -> s2 [label="APPLICATION / TIMEOUT"];
	s31 -> s2 [label="Alert(WARNING,CLOSE_NOTIFY) / TIMEOUT"];
	s31 -> s2 [label="Alert(FATAL,UNEXPECTED_MESSAGE) / TIMEOUT"];
	s32 -> s7 [label="HELLO_VERIFY_REQUEST / TIMEOUT"];
	s32 -> s7 [label="PSK_SERVER_HELLO / TIMEOUT"];
	s32 -> s7 [label="PSK_SERVER_HELLO_EPOCH_1 / TIMEOUT"];
	s32 -> s7 [label="SERVER_HELLO_DONE / TIMEOUT"];
	s32 -> s7 [label="CHANGE_CIPHER_SPEC / TIMEOUT"];
	s32 -> s7 [label="FINISHED / TIMEOUT"];
	s32 -> s4 [label="FINISHED_EPOCH_0 / Alert(FATAL,UNEXPECTED_MESSAGE)"];
	s32 -> s7 [label="APPLICATION_EPOCH_0 / TIMEOUT"];
	s32 -> s33 [label="APPLICATION / TIMEOUT"];
	s32 -> s33 [label="Alert(WARNING,CLOSE_NOTIFY) / TIMEOUT"];
	s32 -> s33 [label="Alert(FATAL,UNEXPECTED_MESSAGE) / TIMEOUT"];
	s33 -> s7 [label="HELLO_VERIFY_REQUEST / TIMEOUT"];
	s33 -> s7 [label="PSK_SERVER_HELLO / TIMEOUT"];
	s33 -> s7 [label="PSK_SERVER_HELLO_EPOCH_1 / TIMEOUT"];
	s33 -> s7 [label="SERVER_HELLO_DONE / TIMEOUT"];
	s33 -> s30 [label="CHANGE_CIPHER_SPEC / TIMEOUT"];
	s33 -> s7 [label="FINISHED / TIMEOUT"];
	s33 -> s4 [label="FINISHED_EPOCH_0 / Alert(FATAL,UNEXPECTED_MESSAGE)"];
	s33 -> s7 [label="APPLICATION_EPOCH_0 / TIMEOUT"];
	s33 -> s34 [label="APPLICATION / TIMEOUT"];
	s33 -> s34 [label="Alert(WARNING,CLOSE_NOTIFY) / TIMEOUT"];
	s33 -> s34 [label="Alert(FATAL,UNEXPECTED_MESSAGE) / TIMEOUT"];
	s34 -> s7 [label="HELLO_VERIFY_REQUEST / TIMEOUT"];
	s34 -> s7 [label="PSK_SERVER_HELLO / TIMEOUT"];
	s34 -> s7 [label="PSK_SERVER_HELLO_EPOCH_1 / TIMEOUT"];
	s34 -> s7 [label="SERVER_HELLO_DONE / TIMEOUT"];
	s34 -> s32 [label="CHANGE_CIPHER_SPEC / TIMEOUT"];
	s34 -> s7 [label="FINISHED / TIMEOUT"];
	s34 -> s4 [label="FINISHED_EPOCH_0 / Alert(FATAL,UNEXPECTED_MESSAGE)"];
	s34 -> s7 [label="APPLICATION_EPOCH_0 / TIMEOUT"];
	s34 -> s34 [label="APPLICATION / TIMEOUT"];
	s34 -> s34 [label="Alert(WARNING,CLOSE_NOTIFY) / TIMEOUT"];
	s34 -> s34 [label="Alert(FATAL,UNEXPECTED_MESSAGE) / TIMEOUT"];

__start0 [label="" shape="none" width="0" height="0"];
__start0 -> s0;

}
