digraph g {

	s0 [shape="circle" label="s0"];
	s1 [shape="circle" label="s1"];
	s2 [shape="circle" label="s2"];
	s3 [shape="circle" label="s3"];
	s4 [shape="circle" label="s4"];
	s5 [shape="circle" label="s5"];
	s6 [shape="circle" label="s6"];
	s7 [shape="circle" label="s7"];
	s8 [shape="circle" label="s8"];
	s9 [shape="circle" label="s9"];
	s10 [shape="circle" label="s10"];
	s11 [shape="circle" label="s11"];
	s12 [shape="circle" label="s12"];
	s13 [shape="circle" label="s13"];
	s14 [shape="circle" label="s14"];
	s15 [shape="circle" label="s15"];
	s0 -> s12 [label="HELLO_VERIFY_REQUEST / CLIENT_HELLO+"];
	s0 -> s1 [label="PSK_SERVER_HELLO / CLIENT_HELLO"];
	s0 -> s6 [label="PSK_SERVER_HELLO_EPOCH_1 / CLIENT_HELLO"];
	s0 -> s4 [label="SERVER_HELLO_DONE / CLIENT_HELLO,Alert(FATAL,UNEXPECTED_MESSAGE)"];
	s0 -> s2 [label="CHANGE_CIPHER_SPEC / CLIENT_HELLO"];
	s0 -> s4 [label="FINISHED / CLIENT_HELLO,Alert(FATAL,UNEXPECTED_MESSAGE)"];
	s0 -> s4 [label="FINISHED_EPOCH_0 / CLIENT_HELLO,Alert(FATAL,UNEXPECTED_MESSAGE)"];
	s0 -> s3 [label="APPLICATION_EPOCH_0 / CLIENT_HELLO"];
	s0 -> s3 [label="APPLICATION / CLIENT_HELLO"];
	s0 -> s3 [label="Alert(WARNING,CLOSE_NOTIFY) / CLIENT_HELLO"];
	s0 -> s3 [label="Alert(FATAL,UNEXPECTED_MESSAGE) / CLIENT_HELLO"];
	s1 -> s4 [label="HELLO_VERIFY_REQUEST / Alert(FATAL,UNEXPECTED_MESSAGE)"];
	s1 -> s4 [label="PSK_SERVER_HELLO / Alert(FATAL,UNEXPECTED_MESSAGE)"];
	s1 -> s6 [label="PSK_SERVER_HELLO_EPOCH_1 / TIMEOUT"];
	s1 -> s5 [label="SERVER_HELLO_DONE / PSK_CLIENT_KEY_EXCHANGE,CHANGE_CIPHER_SPEC,FINISHED"];
	s1 -> s2 [label="CHANGE_CIPHER_SPEC / TIMEOUT"];
	s1 -> s4 [label="FINISHED / Alert(FATAL,UNEXPECTED_MESSAGE)"];
	s1 -> s4 [label="FINISHED_EPOCH_0 / Alert(FATAL,UNEXPECTED_MESSAGE)"];
	s1 -> s1 [label="APPLICATION_EPOCH_0 / TIMEOUT"];
	s1 -> s1 [label="APPLICATION / TIMEOUT"];
	s1 -> s4 [label="Alert(WARNING,CLOSE_NOTIFY) / Alert(FATAL,INTERNAL_ERROR)"];
	s1 -> s4 [label="Alert(FATAL,UNEXPECTED_MESSAGE) / TIMEOUT"];
	s2 -> s7 [label="HELLO_VERIFY_REQUEST / TIMEOUT"];
	s2 -> s7 [label="PSK_SERVER_HELLO / TIMEOUT"];
	s2 -> s7 [label="PSK_SERVER_HELLO_EPOCH_1 / TIMEOUT"];
	s2 -> s7 [label="SERVER_HELLO_DONE / TIMEOUT"];
	s2 -> s2 [label="CHANGE_CIPHER_SPEC / TIMEOUT"];
	s2 -> s7 [label="FINISHED / TIMEOUT"];
	s2 -> s4 [label="FINISHED_EPOCH_0 / Alert(FATAL,UNEXPECTED_MESSAGE)"];
	s2 -> s2 [label="APPLICATION_EPOCH_0 / TIMEOUT"];
	s2 -> s2 [label="APPLICATION / TIMEOUT"];
	s2 -> s2 [label="Alert(WARNING,CLOSE_NOTIFY) / TIMEOUT"];
	s2 -> s2 [label="Alert(FATAL,UNEXPECTED_MESSAGE) / TIMEOUT"];
	s3 -> s12 [label="HELLO_VERIFY_REQUEST / CLIENT_HELLO"];
	s3 -> s13 [label="PSK_SERVER_HELLO / TIMEOUT"];
	s3 -> s6 [label="PSK_SERVER_HELLO_EPOCH_1 / TIMEOUT"];
	s3 -> s4 [label="SERVER_HELLO_DONE / Alert(FATAL,UNEXPECTED_MESSAGE)"];
	s3 -> s2 [label="CHANGE_CIPHER_SPEC / TIMEOUT"];
	s3 -> s4 [label="FINISHED / Alert(FATAL,UNEXPECTED_MESSAGE)"];
	s3 -> s4 [label="FINISHED_EPOCH_0 / Alert(FATAL,UNEXPECTED_MESSAGE)"];
	s3 -> s3 [label="APPLICATION_EPOCH_0 / TIMEOUT"];
	s3 -> s3 [label="APPLICATION / TIMEOUT"];
	s3 -> s4 [label="Alert(WARNING,CLOSE_NOTIFY) / Alert(FATAL,INTERNAL_ERROR)"];
	s3 -> s4 [label="Alert(FATAL,UNEXPECTED_MESSAGE) / TIMEOUT"];
	s4 -> s4 [label="HELLO_VERIFY_REQUEST / SOCKET_CLOSED"];
	s4 -> s4 [label="PSK_SERVER_HELLO / SOCKET_CLOSED"];
	s4 -> s4 [label="PSK_SERVER_HELLO_EPOCH_1 / SOCKET_CLOSED"];
	s4 -> s4 [label="SERVER_HELLO_DONE / SOCKET_CLOSED"];
	s4 -> s4 [label="CHANGE_CIPHER_SPEC / SOCKET_CLOSED"];
	s4 -> s4 [label="FINISHED / SOCKET_CLOSED"];
	s4 -> s4 [label="FINISHED_EPOCH_0 / SOCKET_CLOSED"];
	s4 -> s4 [label="APPLICATION_EPOCH_0 / SOCKET_CLOSED"];
	s4 -> s4 [label="APPLICATION / SOCKET_CLOSED"];
	s4 -> s4 [label="Alert(WARNING,CLOSE_NOTIFY) / SOCKET_CLOSED"];
	s4 -> s4 [label="Alert(FATAL,UNEXPECTED_MESSAGE) / SOCKET_CLOSED"];
	s5 -> s9 [label="HELLO_VERIFY_REQUEST / TIMEOUT"];
	s5 -> s9 [label="PSK_SERVER_HELLO / TIMEOUT"];
	s5 -> s9 [label="PSK_SERVER_HELLO_EPOCH_1 / TIMEOUT"];
	s5 -> s9 [label="SERVER_HELLO_DONE / TIMEOUT"];
	s5 -> s8 [label="CHANGE_CIPHER_SPEC / TIMEOUT"];
	s5 -> s9 [label="FINISHED / TIMEOUT"];
	s5 -> s9 [label="FINISHED_EPOCH_0 / TIMEOUT"];
	s5 -> s5 [label="APPLICATION_EPOCH_0 / TIMEOUT"];
	s5 -> s5 [label="APPLICATION / TIMEOUT"];
	s5 -> s4 [label="Alert(WARNING,CLOSE_NOTIFY) / Alert(FATAL,UNEXPECTED_MESSAGE)"];
	s5 -> s4 [label="Alert(FATAL,UNEXPECTED_MESSAGE) / TIMEOUT"];
	s6 -> s6 [label="HELLO_VERIFY_REQUEST / TIMEOUT"];
	s6 -> s6 [label="PSK_SERVER_HELLO / TIMEOUT"];
	s6 -> s6 [label="PSK_SERVER_HELLO_EPOCH_1 / TIMEOUT"];
	s6 -> s6 [label="SERVER_HELLO_DONE / TIMEOUT"];
	s6 -> s7 [label="CHANGE_CIPHER_SPEC / TIMEOUT"];
	s6 -> s6 [label="FINISHED / TIMEOUT"];
	s6 -> s6 [label="FINISHED_EPOCH_0 / TIMEOUT"];
	s6 -> s6 [label="APPLICATION_EPOCH_0 / TIMEOUT"];
	s6 -> s6 [label="APPLICATION / TIMEOUT"];
	s6 -> s4 [label="Alert(WARNING,CLOSE_NOTIFY) / Alert(FATAL,INTERNAL_ERROR)"];
	s6 -> s4 [label="Alert(FATAL,UNEXPECTED_MESSAGE) / TIMEOUT"];
	s7 -> s7 [label="HELLO_VERIFY_REQUEST / TIMEOUT"];
	s7 -> s7 [label="PSK_SERVER_HELLO / TIMEOUT"];
	s7 -> s7 [label="PSK_SERVER_HELLO_EPOCH_1 / TIMEOUT"];
	s7 -> s7 [label="SERVER_HELLO_DONE / TIMEOUT"];
	s7 -> s7 [label="CHANGE_CIPHER_SPEC / TIMEOUT"];
	s7 -> s7 [label="FINISHED / TIMEOUT"];
	s7 -> s7 [label="FINISHED_EPOCH_0 / TIMEOUT"];
	s7 -> s7 [label="APPLICATION_EPOCH_0 / TIMEOUT"];
	s7 -> s7 [label="APPLICATION / TIMEOUT"];
	s7 -> s7 [label="Alert(WARNING,CLOSE_NOTIFY) / TIMEOUT"];
	s7 -> s7 [label="Alert(FATAL,UNEXPECTED_MESSAGE) / TIMEOUT"];
	s8 -> s4 [label="HELLO_VERIFY_REQUEST / Alert(FATAL,UNEXPECTED_MESSAGE)"];
	s8 -> s4 [label="PSK_SERVER_HELLO / Alert(FATAL,UNEXPECTED_MESSAGE)"];
	s8 -> s4 [label="PSK_SERVER_HELLO_EPOCH_1 / Alert(FATAL,UNEXPECTED_MESSAGE)"];
	s8 -> s4 [label="SERVER_HELLO_DONE / Alert(FATAL,UNEXPECTED_MESSAGE)"];
	s8 -> s7 [label="CHANGE_CIPHER_SPEC / TIMEOUT"];
	s8 -> s7 [label="FINISHED / TIMEOUT"];
	s8 -> s10 [label="FINISHED_EPOCH_0 / TIMEOUT"];
	s8 -> s8 [label="APPLICATION_EPOCH_0 / TIMEOUT"];
	s8 -> s8 [label="APPLICATION / TIMEOUT"];
	s8 -> s4 [label="Alert(WARNING,CLOSE_NOTIFY) / Alert(FATAL,INTERNAL_ERROR)"];
	s8 -> s4 [label="Alert(FATAL,UNEXPECTED_MESSAGE) / TIMEOUT"];
	s9 -> s9 [label="HELLO_VERIFY_REQUEST / TIMEOUT"];
	s9 -> s9 [label="PSK_SERVER_HELLO / TIMEOUT"];
	s9 -> s9 [label="PSK_SERVER_HELLO_EPOCH_1 / TIMEOUT"];
	s9 -> s9 [label="SERVER_HELLO_DONE / TIMEOUT"];
	s9 -> s10 [label="CHANGE_CIPHER_SPEC / TIMEOUT"];
	s9 -> s9 [label="FINISHED / TIMEOUT"];
	s9 -> s9 [label="FINISHED_EPOCH_0 / TIMEOUT"];
	s9 -> s9 [label="APPLICATION_EPOCH_0 / TIMEOUT"];
	s9 -> s9 [label="APPLICATION / TIMEOUT"];
	s9 -> s4 [label="Alert(WARNING,CLOSE_NOTIFY) / Alert(FATAL,UNEXPECTED_MESSAGE)"];
	s9 -> s4 [label="Alert(FATAL,UNEXPECTED_MESSAGE) / TIMEOUT"];
	s10 -> s10 [label="HELLO_VERIFY_REQUEST / TIMEOUT"];
	s10 -> s11 [label="PSK_SERVER_HELLO / TIMEOUT"];
	s10 -> s11 [label="PSK_SERVER_HELLO_EPOCH_1 / TIMEOUT"];
	s10 -> s10 [label="SERVER_HELLO_DONE / TIMEOUT"];
	s10 -> s7 [label="CHANGE_CIPHER_SPEC / TIMEOUT"];
	s10 -> s10 [label="FINISHED / TIMEOUT"];
	s10 -> s10 [label="FINISHED_EPOCH_0 / TIMEOUT"];
	s10 -> s10 [label="APPLICATION_EPOCH_0 / TIMEOUT"];
	s10 -> s10 [label="APPLICATION / TIMEOUT"];
	s10 -> s4 [label="Alert(WARNING,CLOSE_NOTIFY) / Alert(FATAL,INTERNAL_ERROR)"];
	s10 -> s4 [label="Alert(FATAL,UNEXPECTED_MESSAGE) / TIMEOUT"];
	s11 -> s11 [label="HELLO_VERIFY_REQUEST / TIMEOUT"];
	s11 -> s11 [label="PSK_SERVER_HELLO / TIMEOUT"];
	s11 -> s11 [label="PSK_SERVER_HELLO_EPOCH_1 / TIMEOUT"];
	s11 -> s11 [label="SERVER_HELLO_DONE / TIMEOUT"];
	s11 -> s7 [label="CHANGE_CIPHER_SPEC / TIMEOUT"];
	s11 -> s11 [label="FINISHED / TIMEOUT"];
	s11 -> s7 [label="FINISHED_EPOCH_0 / TIMEOUT"];
	s11 -> s7 [label="APPLICATION_EPOCH_0 / TIMEOUT"];
	s11 -> s11 [label="APPLICATION / TIMEOUT"];
	s11 -> s4 [label="Alert(WARNING,CLOSE_NOTIFY) / Alert(FATAL,INTERNAL_ERROR)"];
	s11 -> s4 [label="Alert(FATAL,UNEXPECTED_MESSAGE) / TIMEOUT"];
	s12 -> s12 [label="HELLO_VERIFY_REQUEST / CLIENT_HELLO"];
	s12 -> s1 [label="PSK_SERVER_HELLO / TIMEOUT"];
	s12 -> s6 [label="PSK_SERVER_HELLO_EPOCH_1 / TIMEOUT"];
	s12 -> s4 [label="SERVER_HELLO_DONE / Alert(FATAL,UNEXPECTED_MESSAGE)"];
	s12 -> s2 [label="CHANGE_CIPHER_SPEC / TIMEOUT"];
	s12 -> s4 [label="FINISHED / Alert(FATAL,UNEXPECTED_MESSAGE)"];
	s12 -> s4 [label="FINISHED_EPOCH_0 / Alert(FATAL,UNEXPECTED_MESSAGE)"];
	s12 -> s3 [label="APPLICATION_EPOCH_0 / TIMEOUT"];
	s12 -> s3 [label="APPLICATION / TIMEOUT"];
	s12 -> s3 [label="Alert(WARNING,CLOSE_NOTIFY) / TIMEOUT"];
	s12 -> s3 [label="Alert(FATAL,UNEXPECTED_MESSAGE) / TIMEOUT"];
	s13 -> s4 [label="HELLO_VERIFY_REQUEST / Alert(FATAL,UNEXPECTED_MESSAGE)"];
	s13 -> s4 [label="PSK_SERVER_HELLO / Alert(FATAL,UNEXPECTED_MESSAGE)"];
	s13 -> s6 [label="PSK_SERVER_HELLO_EPOCH_1 / TIMEOUT"];
	s13 -> s14 [label="SERVER_HELLO_DONE / PSK_CLIENT_KEY_EXCHANGE,CHANGE_CIPHER_SPEC,FINISHED"];
	s13 -> s2 [label="CHANGE_CIPHER_SPEC / TIMEOUT"];
	s13 -> s4 [label="FINISHED / Alert(FATAL,UNEXPECTED_MESSAGE)"];
	s13 -> s4 [label="FINISHED_EPOCH_0 / Alert(FATAL,UNEXPECTED_MESSAGE)"];
	s13 -> s13 [label="APPLICATION_EPOCH_0 / TIMEOUT"];
	s13 -> s13 [label="APPLICATION / TIMEOUT"];
	s13 -> s4 [label="Alert(WARNING,CLOSE_NOTIFY) / Alert(FATAL,INTERNAL_ERROR)"];
	s13 -> s4 [label="Alert(FATAL,UNEXPECTED_MESSAGE) / TIMEOUT"];
	s14 -> s9 [label="HELLO_VERIFY_REQUEST / TIMEOUT"];
	s14 -> s9 [label="PSK_SERVER_HELLO / TIMEOUT"];
	s14 -> s9 [label="PSK_SERVER_HELLO_EPOCH_1 / TIMEOUT"];
	s14 -> s9 [label="SERVER_HELLO_DONE / TIMEOUT"];
	s14 -> s15 [label="CHANGE_CIPHER_SPEC / TIMEOUT"];
	s14 -> s9 [label="FINISHED / TIMEOUT"];
	s14 -> s9 [label="FINISHED_EPOCH_0 / TIMEOUT"];
	s14 -> s14 [label="APPLICATION_EPOCH_0 / TIMEOUT"];
	s14 -> s14 [label="APPLICATION / TIMEOUT"];
	s14 -> s4 [label="Alert(WARNING,CLOSE_NOTIFY) / Alert(FATAL,UNEXPECTED_MESSAGE)"];
	s14 -> s4 [label="Alert(FATAL,UNEXPECTED_MESSAGE) / TIMEOUT"];
	s15 -> s4 [label="HELLO_VERIFY_REQUEST / Alert(FATAL,UNEXPECTED_MESSAGE)"];
	s15 -> s4 [label="PSK_SERVER_HELLO / Alert(FATAL,UNEXPECTED_MESSAGE)"];
	s15 -> s4 [label="PSK_SERVER_HELLO_EPOCH_1 / Alert(FATAL,UNEXPECTED_MESSAGE)"];
	s15 -> s4 [label="SERVER_HELLO_DONE / Alert(FATAL,UNEXPECTED_MESSAGE)"];
	s15 -> s7 [label="CHANGE_CIPHER_SPEC / TIMEOUT"];
	s15 -> s4 [label="FINISHED / Alert(FATAL,DECRYPT_ERROR)"];
	s15 -> s10 [label="FINISHED_EPOCH_0 / TIMEOUT"];
	s15 -> s15 [label="APPLICATION_EPOCH_0 / TIMEOUT"];
	s15 -> s15 [label="APPLICATION / TIMEOUT"];
	s15 -> s4 [label="Alert(WARNING,CLOSE_NOTIFY) / Alert(FATAL,INTERNAL_ERROR)"];
	s15 -> s4 [label="Alert(FATAL,UNEXPECTED_MESSAGE) / TIMEOUT"];

__start0 [label="" shape="none" width="0" height="0"];
__start0 -> s0;

}
