digraph g {

	s0 [shape="circle" label="s0"];
	s1 [shape="circle" label="s1"];
	s2 [shape="doublecircle" label="s2"];
	s0 -> s0 [label="I_ECDH_CLIENT_HELLO"];
	s0 -> s0 [label="I_ECDH_CLIENT_KEY_EXCHANGE"];
	s0 -> s0 [label="I_DH_CLIENT_HELLO"];
	s0 -> s0 [label="I_DH_CLIENT_KEY_EXCHANGE"];
	s0 -> s0 [label="I_PSK_CLIENT_HELLO"];
	s0 -> s0 [label="I_PSK_CLIENT_KEY_EXCHANGE"];
	s0 -> s0 [label="I_RSA_CLIENT_HELLO"];
	s0 -> s0 [label="I_RSA_CLIENT_KEY_EXCHANGE"];
	s0 -> s0 [label="I_CHANGE_CIPHER_SPEC"];
	s0 -> s0 [label="I_FINISHED"];
	s0 -> s0 [label="I_APPLICATION"];
	s0 -> s0 [label="I_CERTIFICATE"];
	s0 -> s0 [label="I_EMPTY_CERTIFICATE"];
	s0 -> s0 [label="I_CERTIFICATE_VERIFY"];
	s0 -> s0 [label="I_Alert(WARNING,CLOSE_NOTIFY)"];
	s0 -> s1 [label="I_Alert(FATAL,UNEXPECTED_MESSAGE)"];
	s0 -> s0 [label="O_HELLO_VERIFY_REQUEST"];
	s0 -> s0 [label="O_SERVER_HELLO"];
	s0 -> s0 [label="O_RSA_CERTIFICATE"];
	s0 -> s0 [label="O_CERTIFICATE_REQUEST"];
	s0 -> s0 [label="O_SERVER_HELLO_DONE"];
	s0 -> s0 [label="O_ECDHE_SERVER_KEY_EXCHANGE"];
	s0 -> s0 [label="O_CHANGE_CIPHER_SPEC"];
	s0 -> s0 [label="O_FINISHED"];
	s0 -> s0 [label="O_Alert(WARNING,CLOSE_NOTIFY)"];
	s0 -> s1 [label="O_Alert(FATAL,UNKNOWN_PSK_IDENTITY)"];
	s0 -> s0 [label="O_APPLICATION"];
	s0 -> s0 [label="O_Alert(WARNING,NO_RENEGOTIATION)"];
	s0 -> s1 [label="O_Alert(FATAL,DECODE_ERROR)"];
	s0 -> s0 [label="O_DHE_SERVER_KEY_EXCHANGE"];
	s0 -> s1 [label="O_Alert(FATAL,UNEXPECTED_MESSAGE)"];
	s0 -> s1 [label="O_Alert(FATAL,BAD_RECORD_MAC)"];
	s1 -> s1 [label="I_ECDH_CLIENT_HELLO"];
	s1 -> s1 [label="I_ECDH_CLIENT_KEY_EXCHANGE"];
	s1 -> s1 [label="I_DH_CLIENT_HELLO"];
	s1 -> s1 [label="I_DH_CLIENT_KEY_EXCHANGE"];
	s1 -> s1 [label="I_PSK_CLIENT_HELLO"];
	s1 -> s1 [label="I_PSK_CLIENT_KEY_EXCHANGE"];
	s1 -> s1 [label="I_RSA_CLIENT_HELLO"];
	s1 -> s1 [label="I_RSA_CLIENT_KEY_EXCHANGE"];
	s1 -> s1 [label="I_CHANGE_CIPHER_SPEC"];
	s1 -> s1 [label="I_FINISHED"];
	s1 -> s1 [label="I_APPLICATION"];
	s1 -> s1 [label="I_CERTIFICATE"];
	s1 -> s1 [label="I_EMPTY_CERTIFICATE"];
	s1 -> s1 [label="I_CERTIFICATE_VERIFY"];
	s1 -> s1 [label="I_Alert(WARNING,CLOSE_NOTIFY)"];
	s1 -> s1 [label="I_Alert(FATAL,UNEXPECTED_MESSAGE)"];
	s1 -> s1 [label="O_HELLO_VERIFY_REQUEST"];
	s1 -> s0 [label="O_SERVER_HELLO"];
	s1 -> s1 [label="O_RSA_CERTIFICATE"];
	s1 -> s1 [label="O_CERTIFICATE_REQUEST"];
	s1 -> s1 [label="O_SERVER_HELLO_DONE"];
	s1 -> s1 [label="O_ECDHE_SERVER_KEY_EXCHANGE"];
	s1 -> s2 [label="O_CHANGE_CIPHER_SPEC"];
	s1 -> s1 [label="O_FINISHED"];
	s1 -> s1 [label="O_Alert(WARNING,CLOSE_NOTIFY)"];
	s1 -> s1 [label="O_Alert(FATAL,UNKNOWN_PSK_IDENTITY)"];
	s1 -> s1 [label="O_APPLICATION"];
	s1 -> s1 [label="O_Alert(WARNING,NO_RENEGOTIATION)"];
	s1 -> s1 [label="O_Alert(FATAL,DECODE_ERROR)"];
	s1 -> s1 [label="O_DHE_SERVER_KEY_EXCHANGE"];
	s1 -> s1 [label="O_Alert(FATAL,UNEXPECTED_MESSAGE)"];
	s1 -> s1 [label="O_Alert(FATAL,BAD_RECORD_MAC)"];
	s2 -> s2 [label="I_ECDH_CLIENT_HELLO"];
	s2 -> s2 [label="I_ECDH_CLIENT_KEY_EXCHANGE"];
	s2 -> s2 [label="I_DH_CLIENT_HELLO"];
	s2 -> s2 [label="I_DH_CLIENT_KEY_EXCHANGE"];
	s2 -> s2 [label="I_PSK_CLIENT_HELLO"];
	s2 -> s2 [label="I_PSK_CLIENT_KEY_EXCHANGE"];
	s2 -> s2 [label="I_RSA_CLIENT_HELLO"];
	s2 -> s2 [label="I_RSA_CLIENT_KEY_EXCHANGE"];
	s2 -> s2 [label="I_CHANGE_CIPHER_SPEC"];
	s2 -> s2 [label="I_FINISHED"];
	s2 -> s2 [label="I_APPLICATION"];
	s2 -> s2 [label="I_CERTIFICATE"];
	s2 -> s2 [label="I_EMPTY_CERTIFICATE"];
	s2 -> s2 [label="I_CERTIFICATE_VERIFY"];
	s2 -> s2 [label="I_Alert(WARNING,CLOSE_NOTIFY)"];
	s2 -> s2 [label="I_Alert(FATAL,UNEXPECTED_MESSAGE)"];
	s2 -> s2 [label="O_HELLO_VERIFY_REQUEST"];
	s2 -> s2 [label="O_SERVER_HELLO"];
	s2 -> s2 [label="O_RSA_CERTIFICATE"];
	s2 -> s2 [label="O_CERTIFICATE_REQUEST"];
	s2 -> s2 [label="O_SERVER_HELLO_DONE"];
	s2 -> s2 [label="O_ECDHE_SERVER_KEY_EXCHANGE"];
	s2 -> s2 [label="O_CHANGE_CIPHER_SPEC"];
	s2 -> s2 [label="O_FINISHED"];
	s2 -> s2 [label="O_Alert(WARNING,CLOSE_NOTIFY)"];
	s2 -> s2 [label="O_Alert(FATAL,UNKNOWN_PSK_IDENTITY)"];
	s2 -> s2 [label="O_APPLICATION"];
	s2 -> s2 [label="O_Alert(WARNING,NO_RENEGOTIATION)"];
	s2 -> s2 [label="O_Alert(FATAL,DECODE_ERROR)"];
	s2 -> s2 [label="O_DHE_SERVER_KEY_EXCHANGE"];
	s2 -> s2 [label="O_Alert(FATAL,UNEXPECTED_MESSAGE)"];
	s2 -> s2 [label="O_Alert(FATAL,BAD_RECORD_MAC)"];

__start0 [label="" shape="none" width="0" height="0"];
__start0 -> s0;

}
