digraph G {
label=""
send_ch1 [shape="doublecircle", color="red"]
wait_hvr_sh [shape="doublecircle"]
send_ch2 [shape="doublecircle"]
wait_sh [shape="doublecircle"]
psk_wait_ske_shd [shape="doublecircle"]
psk_wait_shd [shape="doublecircle"]
psk_send_cke [shape="doublecircle"]
dh_wait_cert [shape="doublecircle"]
dh_wait_ske [shape="doublecircle"]
dh_wait_certreq_shd [shape="doublecircle"]
dh_dss_wait_shd [shape="doublecircle"]
dh_ecdsa_wait_shd [shape="doublecircle"]
dh_rsa_wait_shd [shape="doublecircle"]
dh_dss_send_cert [shape="doublecircle"]
dh_ecdsa_send_cert [shape="doublecircle"]
dh_rsa_send_cert [shape="doublecircle"]
dh_send_cke_certver [shape="doublecircle"]
dh_send_cke [shape="doublecircle"]

ecdh_wait_cert [shape="doublecircle"]
ecdh_wait_ske [shape="doublecircle"]
ecdh_wait_certreq_shd [shape="doublecircle"]
ecdh_dss_wait_shd [shape="doublecircle"]
ecdh_ecdsa_wait_shd [shape="doublecircle"]
ecdh_rsa_wait_shd [shape="doublecircle"]
ecdh_dss_send_cert [shape="doublecircle"]
ecdh_ecdsa_send_cert [shape="doublecircle"]
ecdh_rsa_send_cert [shape="doublecircle"]
ecdh_send_cke_certver [shape="doublecircle"]
ecdh_send_cke [shape="doublecircle"]

rsa_wait_cert [shape="doublecircle"]
rsa_wait_certreq_shd [shape="doublecircle"]
rsa_dss_wait_shd [shape="doublecircle"]
rsa_ecdsa_wait_shd [shape="doublecircle"]
rsa_rsa_wait_shd [shape="doublecircle"]
rsa_dss_send_cert [shape="doublecircle"]
rsa_ecdsa_send_cert [shape="doublecircle"]
rsa_rsa_send_cert [shape="doublecircle"]
rsa_send_cke_certver [shape="doublecircle"]
rsa_send_cke [shape="doublecircle"]

send_certver [shape="doublecircle"]
send_ccs [shape="doublecircle"]
send_fin [shape="doublecircle"] 
wait_ccs [shape="doublecircle"] 
wait_fin [shape="doublecircle"]  
connected [shape="doublecircle"]
terminated [shape="doublecircle"]

send_ch1 -> wait_hvr_sh[label="O_CLIENT_HELLO"]

wait_hvr_sh -> wait_hvr_sh[label="O_CLIENT_HELLO"]
wait_hvr_sh -> send_ch2[label="I_HELLO_VERIFY_REQUEST"]
wait_hvr_sh -> psk_wait_ske_shd[label="I_PSK_SERVER_HELLO"]
wait_hvr_sh -> wait_hvr_sh [label="I_APPLICATION"]

send_ch2 -> wait_sh[label="O_CLIENT_HELLO"]

wait_sh -> psk_wait_ske_shd[label="I_PSK_SERVER_HELLO"]
psk_wait_ske_shd -> psk_wait_shd[label="I_PSK_SERVER_KEY_EXCHANGE"]
psk_wait_ske_shd -> psk_wait_ske_shd[label="I_APPLICATION"]
psk_wait_ske_shd -> psk_send_cke[label="I_SERVER_HELLO_DONE"]
psk_wait_shd -> psk_send_cke[label="I_SERVER_HELLO_DONE"]
psk_wait_shd -> psk_wait_shd[label="I_APPLICATION"]

psk_send_cke -> send_ccs[label="O_PSK_CLIENT_KEY_EXCHANGE"]

wait_hvr_sh -> dh_wait_cert[label="I_DH_SERVER_HELLO"]
wait_sh -> dh_wait_cert[label="I_DH_SERVER_HELLO"]
wait_sh -> wait_sh[label="I_APPLICATION"]
dh_wait_cert -> dh_wait_ske[label="I_CERTIFICATE"]
dh_wait_cert -> dh_wait_cert[label="I_APPLICATION"]
dh_wait_ske -> dh_wait_certreq_shd[label="I_DH_SERVER_KEY_EXCHANGE"]
dh_wait_ske -> dh_wait_ske[label="I_APPLICATION"]
dh_wait_certreq_shd -> dh_dss_wait_shd[label="F_I_DSS.*_CERTIFICATE_REQUEST"]
dh_wait_certreq_shd -> dh_ecdsa_wait_shd[label="F_I_ECDSA.*_CERTIFICATE_REQUEST"]
dh_wait_certreq_shd -> dh_rsa_wait_shd[label="F_I_RSA.*_CERTIFICATE_REQUEST"]
dh_wait_certreq_shd -> dh_send_cke[label="I_SERVER_HELLO_DONE"]
dh_wait_certreq_shd -> dh_wait_certreq_shd[label="I_APPLICATION"]
dh_dss_wait_shd -> dh_dss_send_cert[label="I_SERVER_HELLO_DONE"]
dh_dss_wait_shd -> dh_dss_wait_shd[label="I_APPLICATION"]
dh_ecdsa_wait_shd -> dh_ecdsa_send_cert[label="I_SERVER_HELLO_DONE"]
dh_ecdsa_wait_shd -> dh_ecdsa_wait_shd[label="I_APPLICATION"]
dh_rsa_wait_shd -> dh_rsa_send_cert[label="I_SERVER_HELLO_DONE"]
dh_rsa_wait_shd -> dh_rsa_wait_shd[label="I_APPLICATION"]

dh_dss_send_cert -> dh_send_cke_certver[label="O_DSS_CERTIFICATE"]
dh_dss_send_cert -> dh_send_cke[label="O_EMPTY_CERTIFICATE"]
dh_ecdsa_send_cert -> dh_send_cke_certver[label="O_ECDSA_CERTIFICATE"]
dh_ecdsa_send_cert -> dh_send_cke[label="O_EMPTY_CERTIFICATE"]
dh_rsa_send_cert -> dh_send_cke_certver[label="O_RSA_CERTIFICATE"]
dh_rsa_send_cert -> dh_send_cke[label="O_EMPTY_CERTIFICATE"]
dh_send_cke_certver -> send_certver[label="O_DH_CLIENT_KEY_EXCHANGE"]
dh_send_cke -> send_ccs[label="O_DH_CLIENT_KEY_EXCHANGE"]

wait_hvr_sh -> ecdh_wait_cert[label="I_ECDH_SERVER_HELLO"]
wait_sh -> ecdh_wait_cert[label="I_ECDH_SERVER_HELLO"]
ecdh_wait_cert -> ecdh_wait_ske[label="I_CERTIFICATE"]
ecdh_wait_cert -> ecdh_wait_cert[label="I_APPLICATION"]
ecdh_wait_ske -> ecdh_wait_certreq_shd[label="I_ECDH_SERVER_KEY_EXCHANGE"]
ecdh_wait_ske -> ecdh_wait_ske[label="I_APPLICATION"]
ecdh_wait_certreq_shd -> ecdh_dss_wait_shd[label="F_I_DSS.*_CERTIFICATE_REQUEST"]
ecdh_wait_certreq_shd -> ecdh_ecdsa_wait_shd[label="F_I_ECDSA.*_CERTIFICATE_REQUEST"]
ecdh_wait_certreq_shd -> ecdh_rsa_wait_shd[label="F_I_RSA.*_CERTIFICATE_REQUEST"]
ecdh_wait_certreq_shd -> ecdh_send_cke[label="I_SERVER_HELLO_DONE"]
ecdh_wait_certreq_shd -> ecdh_wait_certreq_shd[label="I_APPLICATION"]
ecdh_dss_wait_shd -> ecdh_dss_send_cert[label="I_SERVER_HELLO_DONE"]
ecdh_dss_wait_shd -> ecdh_dss_wait_shd[label="I_APPLICATION"]
ecdh_ecdsa_wait_shd -> ecdh_ecdsa_send_cert[label="I_SERVER_HELLO_DONE"]
ecdh_ecdsa_wait_shd -> ecdh_ecdsa_wait_shd[label="I_APPLICATION"]
ecdh_rsa_wait_shd -> ecdh_rsa_send_cert[label="I_SERVER_HELLO_DONE"]
ecdh_rsa_wait_shd -> ecdh_rsa_wait_shd[label="I_APPLICATION"]

ecdh_dss_send_cert -> ecdh_send_cke_certver[label="O_DSS_CERTIFICATE"]
ecdh_dss_send_cert -> ecdh_send_cke[label="O_EMPTY_CERTIFICATE"]
ecdh_ecdsa_send_cert -> ecdh_send_cke_certver[label="O_ECDSA_CERTIFICATE"]
ecdh_ecdsa_send_cert -> ecdh_send_cke[label="O_EMPTY_CERTIFICATE"]
ecdh_rsa_send_cert -> ecdh_send_cke_certver[label="O_RSA_CERTIFICATE"]
ecdh_rsa_send_cert -> ecdh_send_cke[label="O_EMPTY_CERTIFICATE"]
ecdh_send_cke_certver -> send_certver[label="O_ECDH_CLIENT_KEY_EXCHANGE"]
ecdh_send_cke -> send_ccs[label="O_ECDH_CLIENT_KEY_EXCHANGE"]

wait_hvr_sh -> rsa_wait_cert[label="I_RSA_SERVER_HELLO"]
wait_sh -> rsa_wait_cert[label="I_RSA_SERVER_HELLO"]

rsa_wait_cert -> rsa_wait_certreq_shd[label="I_CERTIFICATE"]
rsa_wait_cert -> rsa_wait_cert[label="I_APPLICATION"]
rsa_wait_certreq_shd -> rsa_dss_wait_shd[label="F_I_DSS.*_CERTIFICATE_REQUEST"]
rsa_wait_certreq_shd -> rsa_ecdsa_wait_shd[label="F_I_ECDSA.*_CERTIFICATE_REQUEST"]
rsa_wait_certreq_shd -> rsa_rsa_wait_shd[label="F_I_RSA.*_CERTIFICATE_REQUEST"]
rsa_wait_certreq_shd -> rsa_send_cke[label="I_SERVER_HELLO_DONE"]
rsa_wait_certreq_shd -> rsa_wait_certreq_shd[label="I_APPLICATION"]
rsa_dss_wait_shd -> rsa_dss_send_cert[label="I_SERVER_HELLO_DONE"]
rsa_dss_wait_shd -> rsa_dss_wait_shd[label="I_APPLICATION"]
rsa_ecdsa_wait_shd -> rsa_ecdsa_send_cert[label="I_SERVER_HELLO_DONE"]
rsa_ecdsa_wait_shd -> rsa_ecdsa_wait_shd[label="I_APPLICATION"]
rsa_rsa_wait_shd -> rsa_rsa_send_cert[label="I_SERVER_HELLO_DONE"]
rsa_rsa_wait_shd -> rsa_rsa_wait_shd[label="I_APPLICATION"]

rsa_dss_send_cert -> rsa_send_cke_certver[label="O_DSS_CERTIFICATE"]
rsa_dss_send_cert -> rsa_send_cke[label="O_EMPTY_CERTIFICATE"]
rsa_ecdsa_send_cert -> rsa_send_cke_certver[label="O_ECDSA_CERTIFICATE"]
rsa_ecdsa_send_cert -> rsa_send_cke[label="O_EMPTY_CERTIFICATE"]
rsa_rsa_send_cert -> rsa_send_cke_certver[label="O_RSA_CERTIFICATE"]
rsa_rsa_send_cert -> rsa_send_cke[label="O_EMPTY_CERTIFICATE"]
rsa_send_cke_certver -> send_certver[label="O_RSA_CLIENT_KEY_EXCHANGE"]
rsa_send_cke -> send_ccs[label="O_RSA_CLIENT_KEY_EXCHANGE"]

send_certver -> send_ccs[label="O_CERTIFICATE_VERIFY"]
send_ccs -> send_fin[label="O_CHANGE_CIPHER_SPEC"]
send_fin -> wait_ccs[label="O_FINISHED"]
wait_ccs -> wait_fin[label="I_CHANGE_CIPHER_SPEC"]
wait_ccs -> wait_ccs[label="I_APPLICATION"]
wait_fin -> connected[label="I_FINISHED"]
wait_fin -> wait_fin[label="I_APPLICATION"]

connected -> connected[label="I_APPLICATION"]
connected -> connected[label="O_APPLICATION"]
connected -> connected[label="I_HELLO_VERIFY_REQUEST"]
connected -> connected[label="I_SERVER_HELLO_DONE"]
connected -> connected[label="F_I_.*_SERVER_HELLO"]
connected -> connected[label="F_I_.*_SERVER_KEY_EXCHANGE"]
connected -> connected[label="F_I_.*CERTIFICATE"]
connected -> connected[label="F_I_.*CERTIFICATE_REQUEST"]
connected -> connected[label="I_FINISHED"]
connected -> send_ch1[label="I_HELLO_REQUEST"]

terminated -> terminated [label="other - {O_APPLICATION, O_CHANGE_CIPHER_SPEC}"]

send_ch1 -> terminated [label="other"]
wait_hvr_sh -> terminated [label="other"]
send_ch2 -> terminated [label="other"]
wait_sh -> terminated [label="other"]
psk_wait_ske_shd -> terminated [label="other"]
psk_wait_shd -> terminated [label="other"]
psk_send_cke -> terminated [label="other"]
dh_wait_cert -> terminated [label="other"]
dh_wait_ske -> terminated [label="other"]
dh_wait_certreq_shd -> terminated [label="other"]
dh_dss_wait_shd -> terminated [label="other"]
dh_ecdsa_wait_shd -> terminated [label="other"]
dh_rsa_wait_shd -> terminated [label="other"]
dh_dss_send_cert -> terminated [label="other"]
dh_ecdsa_send_cert -> terminated [label="other"]
dh_rsa_send_cert -> terminated [label="other"]
dh_send_cke_certver -> terminated [label="other"]
dh_send_cke -> terminated [label="other"]
ecdh_wait_cert -> terminated [label="other"]
ecdh_wait_ske -> terminated [label="other"]
ecdh_wait_certreq_shd -> terminated [label="other"]
ecdh_dss_wait_shd -> terminated [label="other"]
ecdh_ecdsa_wait_shd -> terminated [label="other"]
ecdh_rsa_wait_shd -> terminated [label="other"]
ecdh_dss_send_cert -> terminated [label="other"]
ecdh_ecdsa_send_cert -> terminated [label="other"]
ecdh_rsa_send_cert -> terminated [label="other"]
ecdh_send_cke_certver -> terminated [label="other"]
ecdh_send_cke -> terminated [label="other"]
rsa_wait_cert -> terminated [label="other"]
rsa_wait_certreq_shd -> terminated [label="other"]
rsa_dss_wait_shd -> terminated [label="other"]
rsa_ecdsa_wait_shd -> terminated [label="other"]
rsa_rsa_wait_shd -> terminated [label="other"]
rsa_dss_send_cert -> terminated [label="other"]
rsa_ecdsa_send_cert -> terminated [label="other"]
rsa_rsa_send_cert -> terminated [label="other"]
rsa_send_cke_certver -> terminated [label="other"]
rsa_send_cke -> terminated [label="other"]
send_certver -> terminated [label="other"]
send_ccs -> terminated [label="other"]
send_fin -> terminated [label="other"] 
wait_ccs -> terminated [label="other"] 
wait_fin -> terminated [label="other"]  
connected -> terminated [label="other"]
}
