digraph G {
label=""
start [color="red"]
recvd_ch
valid_mseq_chhvr
valid_mseq_chhvrch
valid_mseq_hs_started
additional_hvr
finished
invalid_mseq
bug [shape="doublecircle"]

start -> recvd_ch [label="O_CLIENT_HELLO"]
recvd_ch -> recvd_ch [label="F_I_Alert.* U {I_APPLICATION, I_CHANGE_CIPHER_SPEC}"]
recvd_ch -> valid_mseq_hs_started [label="F_I_(.*)_SERVER_HELLO"]
recvd_ch -> valid_mseq_chhvr [label="I_HELLO_VERIFY_REQUEST"]
recvd_ch -> invalid_mseq [label="other"]

valid_mseq_chhvr -> valid_mseq_chhvrch [label="O_CLIENT_HELLO"]
valid_mseq_chhvrch -> valid_mseq_chhvrch [label="F_I_Alert.* U {I_APPLICATION, I_CHANGE_CIPHER_SPEC}"]
valid_mseq_chhvrch -> valid_mseq_hs_started [label="F_I_(.*)_SERVER_HELLO"]
valid_mseq_chhvrch -> invalid_mseq [label="I_HELLO_VERIFY_REQUEST"]

valid_mseq_hs_started -> invalid_mseq [label="F_I_((\1).*)_SERVER_HELLO"]
valid_mseq_hs_started -> additional_hvr [label="I_HELLO_VERIFY_REQUEST"]
valid_mseq_hs_started -> finished [label="I_FINISHED"]
valid_mseq_hs_started -> valid_mseq_hs_started [label="other"]

additional_hvr -> additional_hvrch [label="O_CLIENT_HELLO"]
additional_hvr -> additional_hvr [label="F_I_Alert.* U {I_APPLICATION, I_CHANGE_CIPHER_SPEC, I_HELLO_VERIFY_REQUEST}"]
additional_hvr -> invalid_mseq [label="F_I_((\1).*)_SERVER_HELLO"]
additional_hvrch -> additional_hvr [label="I_HELLO_VERIFY_REQUEST"]
additional_hvrch -> additional_hvrch [label="F_I_Alert.* U {I_APPLICATION, I_CHANGE_CIPHER_SPEC}"]
additional_hvrch -> invalid_mseq [label="F_I_((\1).*)_SERVER_HELLO"]

invalid_mseq -> bug [label="O_CHANGE_CIPHER_SPEC"]
invalid_mseq -> invalid_mseq [label="other"]
finished -> start [label="I_HELLO_REQUEST"]
finished -> finished [label="other"]

bug -> bug [label="other"]
}
