digraph G {
label=""
init [color="red"]
valid_cert
bug [shape="doublecircle"]
init -> fixedcertreq_sent [label="F_I_.*_FIXED_.*CERTIFICATE_REQUEST"]
init -> signcertreq_sent [label="F_I_(.*)_SIGN_CERTIFICATE_REQUEST"]
init -> init [label="other"]
signcertreq_sent -> valid_cert [label="F_O_((\1).*)_CERTIFICATE"]
signcertreq_sent -> valid_cert [label="O_EMPTY_CERTIFICATE"]
signcertreq_sent -> bug [label="F_O_((?!\1)(?!EMPTY).*)_CERTIFICATE"]
signcertreq_sent -> signcertreq_sent [label="other"]
fixedcertreq_sent -> valid_cert [label="O_EMPTY_CERTIFICATE"]
fixedcertreq_sent -> fixedcertreq_sent [label="other"]
fixedcertreq_sent -> bug [label="F_O_(?!EMPTY).*_CERTIFICATE"]
valid_cert -> init [label="I_HELLO_REQUEST"]
valid_cert -> valid_cert [label="other"]
bug -> bug [label="other"]
}
