digraph g {

	s0 [shape="doublecircle" label="s0"];
	s1 [shape="doublecircle" label="s1"];
	s2 [shape="circle" label="s2"];
	s3 [shape="doublecircle" label="s3"];
	s4 [shape="doublecircle" label="s4"];
	s5 [shape="doublecircle" label="s5"];
	s6 [shape="doublecircle" label="s6"];
	s7 [shape="doublecircle" label="s7"];
	s8 [shape="doublecircle" label="s8"];
	s9 [shape="doublecircle" label="s9"];
	s10 [shape="doublecircle" label="s10"];
	s11 [shape="doublecircle" label="s11"];
	s12 [shape="doublecircle" label="s12"];
	s0 -> s1 [label="I_HELLO_VERIFY_REQUEST"];
	s0 -> s1 [label="I_PSK_SERVER_HELLO"];
	s0 -> s1 [label="I_SERVER_HELLO_DONE"];
	s0 -> s1 [label="I_CHANGE_CIPHER_SPEC"];
	s0 -> s1 [label="I_FINISHED"];
	s0 -> s1 [label="I_APPLICATION"];
	s0 -> s1 [label="I_Alert(WARNING,CLOSE_NOTIFY)"];
	s0 -> s1 [label="I_Alert(FATAL,UNEXPECTED_MESSAGE)"];
	s0 -> s1 [label="O_PSK_CLIENT_KEY_EXCHANGE"];
	s0 -> s1 [label="O_CHANGE_CIPHER_SPEC"];
	s0 -> s1 [label="O_FINISHED"];
	s0 -> s3 [label="O_CLIENT_HELLO"];
	s0 -> s1 [label="O_Alert(FATAL,UNEXPECTED_MESSAGE)"];
	s0 -> s1 [label="O_SOCKET_CLOSED"];
	s0 -> s1 [label="O_UNKNOWN_MESSAGE"];
	s0 -> s1 [label="O_APPLICATION"];
	s1 -> s1 [label="I_HELLO_VERIFY_REQUEST"];
	s1 -> s1 [label="I_PSK_SERVER_HELLO"];
	s1 -> s1 [label="I_SERVER_HELLO_DONE"];
	s1 -> s1 [label="I_CHANGE_CIPHER_SPEC"];
	s1 -> s1 [label="I_FINISHED"];
	s1 -> s1 [label="I_APPLICATION"];
	s1 -> s1 [label="I_Alert(WARNING,CLOSE_NOTIFY)"];
	s1 -> s1 [label="I_Alert(FATAL,UNEXPECTED_MESSAGE)"];
	s1 -> s1 [label="O_PSK_CLIENT_KEY_EXCHANGE"];
	s1 -> s2 [label="O_CHANGE_CIPHER_SPEC"];
	s1 -> s1 [label="O_FINISHED"];
	s1 -> s1 [label="O_CLIENT_HELLO"];
	s1 -> s1 [label="O_Alert(FATAL,UNEXPECTED_MESSAGE)"];
	s1 -> s1 [label="O_SOCKET_CLOSED"];
	s1 -> s1 [label="O_UNKNOWN_MESSAGE"];
	s1 -> s2 [label="O_APPLICATION"];
	s2 -> s2 [label="I_HELLO_VERIFY_REQUEST"];
	s2 -> s2 [label="I_PSK_SERVER_HELLO"];
	s2 -> s2 [label="I_SERVER_HELLO_DONE"];
	s2 -> s2 [label="I_CHANGE_CIPHER_SPEC"];
	s2 -> s2 [label="I_FINISHED"];
	s2 -> s2 [label="I_APPLICATION"];
	s2 -> s2 [label="I_Alert(WARNING,CLOSE_NOTIFY)"];
	s2 -> s2 [label="I_Alert(FATAL,UNEXPECTED_MESSAGE)"];
	s2 -> s2 [label="O_PSK_CLIENT_KEY_EXCHANGE"];
	s2 -> s2 [label="O_CHANGE_CIPHER_SPEC"];
	s2 -> s2 [label="O_FINISHED"];
	s2 -> s2 [label="O_CLIENT_HELLO"];
	s2 -> s2 [label="O_Alert(FATAL,UNEXPECTED_MESSAGE)"];
	s2 -> s2 [label="O_SOCKET_CLOSED"];
	s2 -> s2 [label="O_UNKNOWN_MESSAGE"];
	s2 -> s2 [label="O_APPLICATION"];
	s3 -> s4 [label="I_HELLO_VERIFY_REQUEST"];
	s3 -> s6 [label="I_PSK_SERVER_HELLO"];
	s3 -> s1 [label="I_SERVER_HELLO_DONE"];
	s3 -> s1 [label="I_CHANGE_CIPHER_SPEC"];
	s3 -> s1 [label="I_FINISHED"];
	s3 -> s3 [label="I_APPLICATION"];
	s3 -> s1 [label="I_Alert(WARNING,CLOSE_NOTIFY)"];
	s3 -> s1 [label="I_Alert(FATAL,UNEXPECTED_MESSAGE)"];
	s3 -> s1 [label="O_PSK_CLIENT_KEY_EXCHANGE"];
	s3 -> s1 [label="O_CHANGE_CIPHER_SPEC"];
	s3 -> s1 [label="O_FINISHED"];
	s3 -> s3 [label="O_CLIENT_HELLO"];
	s3 -> s1 [label="O_Alert(FATAL,UNEXPECTED_MESSAGE)"];
	s3 -> s1 [label="O_SOCKET_CLOSED"];
	s3 -> s1 [label="O_UNKNOWN_MESSAGE"];
	s3 -> s1 [label="O_APPLICATION"];
	s4 -> s1 [label="I_HELLO_VERIFY_REQUEST"];
	s4 -> s1 [label="I_PSK_SERVER_HELLO"];
	s4 -> s1 [label="I_SERVER_HELLO_DONE"];
	s4 -> s1 [label="I_CHANGE_CIPHER_SPEC"];
	s4 -> s1 [label="I_FINISHED"];
	s4 -> s1 [label="I_APPLICATION"];
	s4 -> s1 [label="I_Alert(WARNING,CLOSE_NOTIFY)"];
	s4 -> s1 [label="I_Alert(FATAL,UNEXPECTED_MESSAGE)"];
	s4 -> s1 [label="O_PSK_CLIENT_KEY_EXCHANGE"];
	s4 -> s1 [label="O_CHANGE_CIPHER_SPEC"];
	s4 -> s1 [label="O_FINISHED"];
	s4 -> s5 [label="O_CLIENT_HELLO"];
	s4 -> s1 [label="O_Alert(FATAL,UNEXPECTED_MESSAGE)"];
	s4 -> s1 [label="O_SOCKET_CLOSED"];
	s4 -> s1 [label="O_UNKNOWN_MESSAGE"];
	s4 -> s1 [label="O_APPLICATION"];
	s5 -> s1 [label="I_HELLO_VERIFY_REQUEST"];
	s5 -> s6 [label="I_PSK_SERVER_HELLO"];
	s5 -> s1 [label="I_SERVER_HELLO_DONE"];
	s5 -> s1 [label="I_CHANGE_CIPHER_SPEC"];
	s5 -> s1 [label="I_FINISHED"];
	s5 -> s5 [label="I_APPLICATION"];
	s5 -> s1 [label="I_Alert(WARNING,CLOSE_NOTIFY)"];
	s5 -> s1 [label="I_Alert(FATAL,UNEXPECTED_MESSAGE)"];
	s5 -> s1 [label="O_PSK_CLIENT_KEY_EXCHANGE"];
	s5 -> s1 [label="O_CHANGE_CIPHER_SPEC"];
	s5 -> s1 [label="O_FINISHED"];
	s5 -> s1 [label="O_CLIENT_HELLO"];
	s5 -> s1 [label="O_Alert(FATAL,UNEXPECTED_MESSAGE)"];
	s5 -> s1 [label="O_SOCKET_CLOSED"];
	s5 -> s1 [label="O_UNKNOWN_MESSAGE"];
	s5 -> s1 [label="O_APPLICATION"];
	s6 -> s1 [label="I_HELLO_VERIFY_REQUEST"];
	s6 -> s1 [label="I_PSK_SERVER_HELLO"];
	s6 -> s7 [label="I_SERVER_HELLO_DONE"];
	s6 -> s1 [label="I_CHANGE_CIPHER_SPEC"];
	s6 -> s1 [label="I_FINISHED"];
	s6 -> s6 [label="I_APPLICATION"];
	s6 -> s1 [label="I_Alert(WARNING,CLOSE_NOTIFY)"];
	s6 -> s1 [label="I_Alert(FATAL,UNEXPECTED_MESSAGE)"];
	s6 -> s1 [label="O_PSK_CLIENT_KEY_EXCHANGE"];
	s6 -> s1 [label="O_CHANGE_CIPHER_SPEC"];
	s6 -> s1 [label="O_FINISHED"];
	s6 -> s1 [label="O_CLIENT_HELLO"];
	s6 -> s1 [label="O_Alert(FATAL,UNEXPECTED_MESSAGE)"];
	s6 -> s1 [label="O_SOCKET_CLOSED"];
	s6 -> s1 [label="O_UNKNOWN_MESSAGE"];
	s6 -> s1 [label="O_APPLICATION"];
	s7 -> s1 [label="I_HELLO_VERIFY_REQUEST"];
	s7 -> s1 [label="I_PSK_SERVER_HELLO"];
	s7 -> s1 [label="I_SERVER_HELLO_DONE"];
	s7 -> s1 [label="I_CHANGE_CIPHER_SPEC"];
	s7 -> s1 [label="I_FINISHED"];
	s7 -> s1 [label="I_APPLICATION"];
	s7 -> s1 [label="I_Alert(WARNING,CLOSE_NOTIFY)"];
	s7 -> s1 [label="I_Alert(FATAL,UNEXPECTED_MESSAGE)"];
	s7 -> s8 [label="O_PSK_CLIENT_KEY_EXCHANGE"];
	s7 -> s1 [label="O_CHANGE_CIPHER_SPEC"];
	s7 -> s1 [label="O_FINISHED"];
	s7 -> s1 [label="O_CLIENT_HELLO"];
	s7 -> s1 [label="O_Alert(FATAL,UNEXPECTED_MESSAGE)"];
	s7 -> s1 [label="O_SOCKET_CLOSED"];
	s7 -> s1 [label="O_UNKNOWN_MESSAGE"];
	s7 -> s1 [label="O_APPLICATION"];
	s8 -> s1 [label="I_HELLO_VERIFY_REQUEST"];
	s8 -> s1 [label="I_PSK_SERVER_HELLO"];
	s8 -> s1 [label="I_SERVER_HELLO_DONE"];
	s8 -> s1 [label="I_CHANGE_CIPHER_SPEC"];
	s8 -> s1 [label="I_FINISHED"];
	s8 -> s1 [label="I_APPLICATION"];
	s8 -> s1 [label="I_Alert(WARNING,CLOSE_NOTIFY)"];
	s8 -> s1 [label="I_Alert(FATAL,UNEXPECTED_MESSAGE)"];
	s8 -> s1 [label="O_PSK_CLIENT_KEY_EXCHANGE"];
	s8 -> s9 [label="O_CHANGE_CIPHER_SPEC"];
	s8 -> s1 [label="O_FINISHED"];
	s8 -> s1 [label="O_CLIENT_HELLO"];
	s8 -> s1 [label="O_Alert(FATAL,UNEXPECTED_MESSAGE)"];
	s8 -> s1 [label="O_SOCKET_CLOSED"];
	s8 -> s1 [label="O_UNKNOWN_MESSAGE"];
	s8 -> s1 [label="O_APPLICATION"];
	s9 -> s1 [label="I_HELLO_VERIFY_REQUEST"];
	s9 -> s1 [label="I_PSK_SERVER_HELLO"];
	s9 -> s1 [label="I_SERVER_HELLO_DONE"];
	s9 -> s1 [label="I_CHANGE_CIPHER_SPEC"];
	s9 -> s1 [label="I_FINISHED"];
	s9 -> s1 [label="I_APPLICATION"];
	s9 -> s1 [label="I_Alert(WARNING,CLOSE_NOTIFY)"];
	s9 -> s1 [label="I_Alert(FATAL,UNEXPECTED_MESSAGE)"];
	s9 -> s1 [label="O_PSK_CLIENT_KEY_EXCHANGE"];
	s9 -> s1 [label="O_CHANGE_CIPHER_SPEC"];
	s9 -> s10 [label="O_FINISHED"];
	s9 -> s1 [label="O_CLIENT_HELLO"];
	s9 -> s1 [label="O_Alert(FATAL,UNEXPECTED_MESSAGE)"];
	s9 -> s1 [label="O_SOCKET_CLOSED"];
	s9 -> s1 [label="O_UNKNOWN_MESSAGE"];
	s9 -> s1 [label="O_APPLICATION"];
	s10 -> s1 [label="I_HELLO_VERIFY_REQUEST"];
	s10 -> s1 [label="I_PSK_SERVER_HELLO"];
	s10 -> s1 [label="I_SERVER_HELLO_DONE"];
	s10 -> s11 [label="I_CHANGE_CIPHER_SPEC"];
	s10 -> s1 [label="I_FINISHED"];
	s10 -> s10 [label="I_APPLICATION"];
	s10 -> s1 [label="I_Alert(WARNING,CLOSE_NOTIFY)"];
	s10 -> s1 [label="I_Alert(FATAL,UNEXPECTED_MESSAGE)"];
	s10 -> s1 [label="O_PSK_CLIENT_KEY_EXCHANGE"];
	s10 -> s1 [label="O_CHANGE_CIPHER_SPEC"];
	s10 -> s1 [label="O_FINISHED"];
	s10 -> s1 [label="O_CLIENT_HELLO"];
	s10 -> s1 [label="O_Alert(FATAL,UNEXPECTED_MESSAGE)"];
	s10 -> s1 [label="O_SOCKET_CLOSED"];
	s10 -> s1 [label="O_UNKNOWN_MESSAGE"];
	s10 -> s1 [label="O_APPLICATION"];
	s11 -> s1 [label="I_HELLO_VERIFY_REQUEST"];
	s11 -> s1 [label="I_PSK_SERVER_HELLO"];
	s11 -> s1 [label="I_SERVER_HELLO_DONE"];
	s11 -> s1 [label="I_CHANGE_CIPHER_SPEC"];
	s11 -> s12 [label="I_FINISHED"];
	s11 -> s11 [label="I_APPLICATION"];
	s11 -> s1 [label="I_Alert(WARNING,CLOSE_NOTIFY)"];
	s11 -> s1 [label="I_Alert(FATAL,UNEXPECTED_MESSAGE)"];
	s11 -> s1 [label="O_PSK_CLIENT_KEY_EXCHANGE"];
	s11 -> s1 [label="O_CHANGE_CIPHER_SPEC"];
	s11 -> s1 [label="O_FINISHED"];
	s11 -> s1 [label="O_CLIENT_HELLO"];
	s11 -> s1 [label="O_Alert(FATAL,UNEXPECTED_MESSAGE)"];
	s11 -> s1 [label="O_SOCKET_CLOSED"];
	s11 -> s1 [label="O_UNKNOWN_MESSAGE"];
	s11 -> s1 [label="O_APPLICATION"];
	s12 -> s12 [label="I_HELLO_VERIFY_REQUEST"];
	s12 -> s12 [label="I_PSK_SERVER_HELLO"];
	s12 -> s12 [label="I_SERVER_HELLO_DONE"];
	s12 -> s1 [label="I_CHANGE_CIPHER_SPEC"];
	s12 -> s12 [label="I_FINISHED"];
	s12 -> s12 [label="I_APPLICATION"];
	s12 -> s1 [label="I_Alert(WARNING,CLOSE_NOTIFY)"];
	s12 -> s1 [label="I_Alert(FATAL,UNEXPECTED_MESSAGE)"];
	s12 -> s1 [label="O_PSK_CLIENT_KEY_EXCHANGE"];
	s12 -> s1 [label="O_CHANGE_CIPHER_SPEC"];
	s12 -> s1 [label="O_FINISHED"];
	s12 -> s1 [label="O_CLIENT_HELLO"];
	s12 -> s1 [label="O_Alert(FATAL,UNEXPECTED_MESSAGE)"];
	s12 -> s1 [label="O_SOCKET_CLOSED"];
	s12 -> s1 [label="O_UNKNOWN_MESSAGE"];
	s12 -> s12 [label="O_APPLICATION"];

__start0 [label="" shape="none" width="0" height="0"];
__start0 -> s0;

}
