digraph g {

	s0 [shape="circle" label="s0"];
	s1 [shape="circle" label="s1"];
	s2 [shape="circle" label="s2"];
	s3 [shape="circle" label="s3"];
	s4 [shape="circle" label="s4"];
	s5 [shape="circle" label="s5"];
	s6 [shape="circle" label="s6"];
	s7 [shape="circle" label="s7"];
	s8 [shape="circle" label="s8"];
	s9 [shape="circle" label="s9"];
	s0 -> s3 [label="HELLO_VERIFY_REQUEST / CLIENT_HELLO+"];
	s0 -> s6 [label="ECDH_SERVER_HELLO / CLIENT_HELLO"];
	s0 -> s2 [label="ECDH_SERVER_KEY_EXCHANGE / CLIENT_HELLO"];
	s0 -> s1 [label="RSA_SIGN_CERTIFICATE_REQUEST / CLIENT_HELLO,Alert(FATAL,UNEXPECTED_MESSAGE)"];
	s0 -> s1 [label="RSA_FIXED_ECDH_CERTIFICATE_REQUEST / CLIENT_HELLO,Alert(FATAL,UNEXPECTED_MESSAGE)"];
	s0 -> s1 [label="RSA_FIXED_DH_CERTIFICATE_REQUEST / CLIENT_HELLO,Alert(FATAL,UNEXPECTED_MESSAGE)"];
	s0 -> s1 [label="DSS_SIGN_CERTIFICATE_REQUEST / CLIENT_HELLO,Alert(FATAL,UNEXPECTED_MESSAGE)"];
	s0 -> s1 [label="DSS_FIXED_DH_CERTIFICATE_REQUEST / CLIENT_HELLO,Alert(FATAL,UNEXPECTED_MESSAGE)"];
	s0 -> s1 [label="ECDSA_SIGN_CERTIFICATE_REQUEST / CLIENT_HELLO,Alert(FATAL,UNEXPECTED_MESSAGE)"];
	s0 -> s1 [label="SERVER_HELLO_DONE / CLIENT_HELLO,Alert(FATAL,UNEXPECTED_MESSAGE)"];
	s0 -> s4 [label="CHANGE_CIPHER_SPEC / CLIENT_HELLO"];
	s0 -> s1 [label="FINISHED / CLIENT_HELLO,Alert(FATAL,UNEXPECTED_MESSAGE)"];
	s0 -> s3 [label="APPLICATION / CLIENT_HELLO"];
	s0 -> s1 [label="CERTIFICATE / CLIENT_HELLO,Alert(FATAL,UNEXPECTED_MESSAGE)"];
	s0 -> s1 [label="EMPTY_CERTIFICATE / CLIENT_HELLO,Alert(FATAL,UNEXPECTED_MESSAGE)"];
	s0 -> s1 [label="Alert(WARNING,CLOSE_NOTIFY) / CLIENT_HELLO,Alert(FATAL,CLOSE_NOTIFY)"];
	s0 -> s1 [label="Alert(FATAL,UNEXPECTED_MESSAGE) / CLIENT_HELLO"];
	s1 -> s1 [label="HELLO_VERIFY_REQUEST / TIMEOUT"];
	s1 -> s1 [label="ECDH_SERVER_HELLO / TIMEOUT"];
	s1 -> s1 [label="ECDH_SERVER_KEY_EXCHANGE / TIMEOUT"];
	s1 -> s1 [label="RSA_SIGN_CERTIFICATE_REQUEST / TIMEOUT"];
	s1 -> s1 [label="RSA_FIXED_ECDH_CERTIFICATE_REQUEST / TIMEOUT"];
	s1 -> s1 [label="RSA_FIXED_DH_CERTIFICATE_REQUEST / TIMEOUT"];
	s1 -> s1 [label="DSS_SIGN_CERTIFICATE_REQUEST / TIMEOUT"];
	s1 -> s1 [label="DSS_FIXED_DH_CERTIFICATE_REQUEST / TIMEOUT"];
	s1 -> s1 [label="ECDSA_SIGN_CERTIFICATE_REQUEST / TIMEOUT"];
	s1 -> s1 [label="SERVER_HELLO_DONE / TIMEOUT"];
	s1 -> s1 [label="CHANGE_CIPHER_SPEC / TIMEOUT"];
	s1 -> s1 [label="FINISHED / TIMEOUT"];
	s1 -> s1 [label="APPLICATION / TIMEOUT"];
	s1 -> s1 [label="CERTIFICATE / TIMEOUT"];
	s1 -> s1 [label="EMPTY_CERTIFICATE / TIMEOUT"];
	s1 -> s1 [label="Alert(WARNING,CLOSE_NOTIFY) / TIMEOUT"];
	s1 -> s1 [label="Alert(FATAL,UNEXPECTED_MESSAGE) / TIMEOUT"];
	s2 -> s1 [label="HELLO_VERIFY_REQUEST / Alert(FATAL,UNEXPECTED_MESSAGE)"];
	s2 -> s1 [label="ECDH_SERVER_HELLO / Alert(FATAL,UNEXPECTED_MESSAGE)"];
	s2 -> s2 [label="ECDH_SERVER_KEY_EXCHANGE / TIMEOUT"];
	s2 -> s5 [label="RSA_SIGN_CERTIFICATE_REQUEST / TIMEOUT"];
	s2 -> s5 [label="RSA_FIXED_ECDH_CERTIFICATE_REQUEST / TIMEOUT"];
	s2 -> s5 [label="RSA_FIXED_DH_CERTIFICATE_REQUEST / TIMEOUT"];
	s2 -> s5 [label="DSS_SIGN_CERTIFICATE_REQUEST / TIMEOUT"];
	s2 -> s5 [label="DSS_FIXED_DH_CERTIFICATE_REQUEST / TIMEOUT"];
	s2 -> s5 [label="ECDSA_SIGN_CERTIFICATE_REQUEST / TIMEOUT"];
	s2 -> s1 [label="SERVER_HELLO_DONE / Alert(FATAL,INTERNAL_ERROR)"];
	s2 -> s4 [label="CHANGE_CIPHER_SPEC / TIMEOUT"];
	s2 -> s1 [label="FINISHED / Alert(FATAL,UNEXPECTED_MESSAGE)"];
	s2 -> s2 [label="APPLICATION / TIMEOUT"];
	s2 -> s1 [label="CERTIFICATE / Alert(FATAL,UNEXPECTED_MESSAGE)"];
	s2 -> s1 [label="EMPTY_CERTIFICATE / Alert(FATAL,UNEXPECTED_MESSAGE)"];
	s2 -> s1 [label="Alert(WARNING,CLOSE_NOTIFY) / Alert(FATAL,CLOSE_NOTIFY)"];
	s2 -> s1 [label="Alert(FATAL,UNEXPECTED_MESSAGE) / TIMEOUT"];
	s3 -> s3 [label="HELLO_VERIFY_REQUEST / CLIENT_HELLO"];
	s3 -> s6 [label="ECDH_SERVER_HELLO / TIMEOUT"];
	s3 -> s2 [label="ECDH_SERVER_KEY_EXCHANGE / TIMEOUT"];
	s3 -> s1 [label="RSA_SIGN_CERTIFICATE_REQUEST / Alert(FATAL,UNEXPECTED_MESSAGE)"];
	s3 -> s1 [label="RSA_FIXED_ECDH_CERTIFICATE_REQUEST / Alert(FATAL,UNEXPECTED_MESSAGE)"];
	s3 -> s1 [label="RSA_FIXED_DH_CERTIFICATE_REQUEST / Alert(FATAL,UNEXPECTED_MESSAGE)"];
	s3 -> s1 [label="DSS_SIGN_CERTIFICATE_REQUEST / Alert(FATAL,UNEXPECTED_MESSAGE)"];
	s3 -> s1 [label="DSS_FIXED_DH_CERTIFICATE_REQUEST / Alert(FATAL,UNEXPECTED_MESSAGE)"];
	s3 -> s1 [label="ECDSA_SIGN_CERTIFICATE_REQUEST / Alert(FATAL,UNEXPECTED_MESSAGE)"];
	s3 -> s1 [label="SERVER_HELLO_DONE / Alert(FATAL,UNEXPECTED_MESSAGE)"];
	s3 -> s4 [label="CHANGE_CIPHER_SPEC / TIMEOUT"];
	s3 -> s1 [label="FINISHED / Alert(FATAL,UNEXPECTED_MESSAGE)"];
	s3 -> s3 [label="APPLICATION / TIMEOUT"];
	s3 -> s1 [label="CERTIFICATE / Alert(FATAL,UNEXPECTED_MESSAGE)"];
	s3 -> s1 [label="EMPTY_CERTIFICATE / Alert(FATAL,UNEXPECTED_MESSAGE)"];
	s3 -> s1 [label="Alert(WARNING,CLOSE_NOTIFY) / Alert(FATAL,CLOSE_NOTIFY)"];
	s3 -> s1 [label="Alert(FATAL,UNEXPECTED_MESSAGE) / TIMEOUT"];
	s4 -> s1 [label="HELLO_VERIFY_REQUEST / Alert(FATAL,DECRYPT_ERROR)"];
	s4 -> s1 [label="ECDH_SERVER_HELLO / Alert(FATAL,DECRYPT_ERROR)"];
	s4 -> s1 [label="ECDH_SERVER_KEY_EXCHANGE / Alert(FATAL,DECRYPT_ERROR)"];
	s4 -> s1 [label="RSA_SIGN_CERTIFICATE_REQUEST / Alert(FATAL,DECRYPT_ERROR)"];
	s4 -> s1 [label="RSA_FIXED_ECDH_CERTIFICATE_REQUEST / Alert(FATAL,DECRYPT_ERROR)"];
	s4 -> s1 [label="RSA_FIXED_DH_CERTIFICATE_REQUEST / Alert(FATAL,DECRYPT_ERROR)"];
	s4 -> s1 [label="DSS_SIGN_CERTIFICATE_REQUEST / Alert(FATAL,DECRYPT_ERROR)"];
	s4 -> s1 [label="DSS_FIXED_DH_CERTIFICATE_REQUEST / Alert(FATAL,DECRYPT_ERROR)"];
	s4 -> s1 [label="ECDSA_SIGN_CERTIFICATE_REQUEST / Alert(FATAL,DECRYPT_ERROR)"];
	s4 -> s1 [label="SERVER_HELLO_DONE / Alert(FATAL,DECRYPT_ERROR)"];
	s4 -> s1 [label="CHANGE_CIPHER_SPEC / Alert(FATAL,DECRYPT_ERROR)"];
	s4 -> s1 [label="FINISHED / Alert(FATAL,DECRYPT_ERROR)"];
	s4 -> s1 [label="APPLICATION / Alert(FATAL,DECRYPT_ERROR)"];
	s4 -> s1 [label="CERTIFICATE / Alert(FATAL,DECRYPT_ERROR)"];
	s4 -> s1 [label="EMPTY_CERTIFICATE / Alert(FATAL,DECRYPT_ERROR)"];
	s4 -> s1 [label="Alert(WARNING,CLOSE_NOTIFY) / Alert(FATAL,DECRYPT_ERROR)"];
	s4 -> s1 [label="Alert(FATAL,UNEXPECTED_MESSAGE) / Alert(FATAL,DECRYPT_ERROR)"];
	s5 -> s5 [label="HELLO_VERIFY_REQUEST / SOCKET_CLOSED"];
	s5 -> s5 [label="ECDH_SERVER_HELLO / SOCKET_CLOSED"];
	s5 -> s5 [label="ECDH_SERVER_KEY_EXCHANGE / SOCKET_CLOSED"];
	s5 -> s5 [label="RSA_SIGN_CERTIFICATE_REQUEST / SOCKET_CLOSED"];
	s5 -> s5 [label="RSA_FIXED_ECDH_CERTIFICATE_REQUEST / SOCKET_CLOSED"];
	s5 -> s5 [label="RSA_FIXED_DH_CERTIFICATE_REQUEST / SOCKET_CLOSED"];
	s5 -> s5 [label="DSS_SIGN_CERTIFICATE_REQUEST / SOCKET_CLOSED"];
	s5 -> s5 [label="DSS_FIXED_DH_CERTIFICATE_REQUEST / SOCKET_CLOSED"];
	s5 -> s5 [label="ECDSA_SIGN_CERTIFICATE_REQUEST / SOCKET_CLOSED"];
	s5 -> s5 [label="SERVER_HELLO_DONE / SOCKET_CLOSED"];
	s5 -> s5 [label="CHANGE_CIPHER_SPEC / SOCKET_CLOSED"];
	s5 -> s5 [label="FINISHED / SOCKET_CLOSED"];
	s5 -> s5 [label="APPLICATION / SOCKET_CLOSED"];
	s5 -> s5 [label="CERTIFICATE / SOCKET_CLOSED"];
	s5 -> s5 [label="EMPTY_CERTIFICATE / SOCKET_CLOSED"];
	s5 -> s5 [label="Alert(WARNING,CLOSE_NOTIFY) / SOCKET_CLOSED"];
	s5 -> s5 [label="Alert(FATAL,UNEXPECTED_MESSAGE) / SOCKET_CLOSED"];
	s6 -> s1 [label="HELLO_VERIFY_REQUEST / Alert(FATAL,UNEXPECTED_MESSAGE)"];
	s6 -> s1 [label="ECDH_SERVER_HELLO / Alert(FATAL,UNEXPECTED_MESSAGE)"];
	s6 -> s1 [label="ECDH_SERVER_KEY_EXCHANGE / Alert(FATAL,UNEXPECTED_MESSAGE)"];
	s6 -> s1 [label="RSA_SIGN_CERTIFICATE_REQUEST / Alert(FATAL,UNEXPECTED_MESSAGE)"];
	s6 -> s1 [label="RSA_FIXED_ECDH_CERTIFICATE_REQUEST / Alert(FATAL,UNEXPECTED_MESSAGE)"];
	s6 -> s1 [label="RSA_FIXED_DH_CERTIFICATE_REQUEST / Alert(FATAL,UNEXPECTED_MESSAGE)"];
	s6 -> s1 [label="DSS_SIGN_CERTIFICATE_REQUEST / Alert(FATAL,UNEXPECTED_MESSAGE)"];
	s6 -> s1 [label="DSS_FIXED_DH_CERTIFICATE_REQUEST / Alert(FATAL,UNEXPECTED_MESSAGE)"];
	s6 -> s1 [label="ECDSA_SIGN_CERTIFICATE_REQUEST / Alert(FATAL,UNEXPECTED_MESSAGE)"];
	s6 -> s1 [label="SERVER_HELLO_DONE / Alert(FATAL,UNEXPECTED_MESSAGE)"];
	s6 -> s4 [label="CHANGE_CIPHER_SPEC / TIMEOUT"];
	s6 -> s1 [label="FINISHED / Alert(FATAL,UNEXPECTED_MESSAGE)"];
	s6 -> s6 [label="APPLICATION / TIMEOUT"];
	s6 -> s7 [label="CERTIFICATE / TIMEOUT"];
	s6 -> s7 [label="EMPTY_CERTIFICATE / TIMEOUT"];
	s6 -> s1 [label="Alert(WARNING,CLOSE_NOTIFY) / Alert(FATAL,CLOSE_NOTIFY)"];
	s6 -> s1 [label="Alert(FATAL,UNEXPECTED_MESSAGE) / TIMEOUT"];
	s7 -> s1 [label="HELLO_VERIFY_REQUEST / Alert(FATAL,UNEXPECTED_MESSAGE)"];
	s7 -> s1 [label="ECDH_SERVER_HELLO / Alert(FATAL,UNEXPECTED_MESSAGE)"];
	s7 -> s8 [label="ECDH_SERVER_KEY_EXCHANGE / TIMEOUT"];
	s7 -> s1 [label="RSA_SIGN_CERTIFICATE_REQUEST / Alert(FATAL,UNEXPECTED_MESSAGE)"];
	s7 -> s1 [label="RSA_FIXED_ECDH_CERTIFICATE_REQUEST / Alert(FATAL,UNEXPECTED_MESSAGE)"];
	s7 -> s1 [label="RSA_FIXED_DH_CERTIFICATE_REQUEST / Alert(FATAL,UNEXPECTED_MESSAGE)"];
	s7 -> s1 [label="DSS_SIGN_CERTIFICATE_REQUEST / Alert(FATAL,UNEXPECTED_MESSAGE)"];
	s7 -> s1 [label="DSS_FIXED_DH_CERTIFICATE_REQUEST / Alert(FATAL,UNEXPECTED_MESSAGE)"];
	s7 -> s1 [label="ECDSA_SIGN_CERTIFICATE_REQUEST / Alert(FATAL,UNEXPECTED_MESSAGE)"];
	s7 -> s1 [label="SERVER_HELLO_DONE / Alert(FATAL,UNEXPECTED_MESSAGE)"];
	s7 -> s4 [label="CHANGE_CIPHER_SPEC / TIMEOUT"];
	s7 -> s1 [label="FINISHED / Alert(FATAL,UNEXPECTED_MESSAGE)"];
	s7 -> s7 [label="APPLICATION / TIMEOUT"];
	s7 -> s1 [label="CERTIFICATE / Alert(FATAL,UNEXPECTED_MESSAGE)"];
	s7 -> s1 [label="EMPTY_CERTIFICATE / Alert(FATAL,UNEXPECTED_MESSAGE)"];
	s7 -> s1 [label="Alert(WARNING,CLOSE_NOTIFY) / Alert(FATAL,CLOSE_NOTIFY)"];
	s7 -> s1 [label="Alert(FATAL,UNEXPECTED_MESSAGE) / TIMEOUT"];
	s8 -> s1 [label="HELLO_VERIFY_REQUEST / Alert(FATAL,UNEXPECTED_MESSAGE)"];
	s8 -> s1 [label="ECDH_SERVER_HELLO / Alert(FATAL,UNEXPECTED_MESSAGE)"];
	s8 -> s1 [label="ECDH_SERVER_KEY_EXCHANGE / Alert(FATAL,UNEXPECTED_MESSAGE)"];
	s8 -> s1 [label="RSA_SIGN_CERTIFICATE_REQUEST / Alert(FATAL,HANDSHAKE_FAILURE)"];
	s8 -> s1 [label="RSA_FIXED_ECDH_CERTIFICATE_REQUEST / Alert(FATAL,HANDSHAKE_FAILURE)"];
	s8 -> s1 [label="RSA_FIXED_DH_CERTIFICATE_REQUEST / Alert(FATAL,HANDSHAKE_FAILURE)"];
	s8 -> s1 [label="DSS_SIGN_CERTIFICATE_REQUEST / Alert(FATAL,HANDSHAKE_FAILURE)"];
	s8 -> s1 [label="DSS_FIXED_DH_CERTIFICATE_REQUEST / Alert(FATAL,HANDSHAKE_FAILURE)"];
	s8 -> s8 [label="ECDSA_SIGN_CERTIFICATE_REQUEST / TIMEOUT"];
	s8 -> s9 [label="SERVER_HELLO_DONE / ECDH_CLIENT_KEY_EXCHANGE,CHANGE_CIPHER_SPEC,FINISHED"];
	s8 -> s4 [label="CHANGE_CIPHER_SPEC / TIMEOUT"];
	s8 -> s1 [label="FINISHED / Alert(FATAL,UNEXPECTED_MESSAGE)"];
	s8 -> s8 [label="APPLICATION / TIMEOUT"];
	s8 -> s1 [label="CERTIFICATE / Alert(FATAL,UNEXPECTED_MESSAGE)"];
	s8 -> s1 [label="EMPTY_CERTIFICATE / Alert(FATAL,UNEXPECTED_MESSAGE)"];
	s8 -> s1 [label="Alert(WARNING,CLOSE_NOTIFY) / Alert(FATAL,CLOSE_NOTIFY)"];
	s8 -> s1 [label="Alert(FATAL,UNEXPECTED_MESSAGE) / TIMEOUT"];
	s9 -> s9 [label="HELLO_VERIFY_REQUEST / TIMEOUT"];
	s9 -> s9 [label="ECDH_SERVER_HELLO / TIMEOUT"];
	s9 -> s9 [label="ECDH_SERVER_KEY_EXCHANGE / TIMEOUT"];
	s9 -> s9 [label="RSA_SIGN_CERTIFICATE_REQUEST / TIMEOUT"];
	s9 -> s9 [label="RSA_FIXED_ECDH_CERTIFICATE_REQUEST / TIMEOUT"];
	s9 -> s9 [label="RSA_FIXED_DH_CERTIFICATE_REQUEST / TIMEOUT"];
	s9 -> s9 [label="DSS_SIGN_CERTIFICATE_REQUEST / TIMEOUT"];
	s9 -> s9 [label="DSS_FIXED_DH_CERTIFICATE_REQUEST / TIMEOUT"];
	s9 -> s9 [label="ECDSA_SIGN_CERTIFICATE_REQUEST / TIMEOUT"];
	s9 -> s9 [label="SERVER_HELLO_DONE / TIMEOUT"];
	s9 -> s6 [label="CHANGE_CIPHER_SPEC / TIMEOUT"];
	s9 -> s9 [label="FINISHED / TIMEOUT"];
	s9 -> s9 [label="APPLICATION / TIMEOUT"];
	s9 -> s9 [label="CERTIFICATE / TIMEOUT"];
	s9 -> s9 [label="EMPTY_CERTIFICATE / TIMEOUT"];
	s9 -> s1 [label="Alert(WARNING,CLOSE_NOTIFY) / Alert(FATAL,CLOSE_NOTIFY)"];
	s9 -> s1 [label="Alert(FATAL,UNEXPECTED_MESSAGE) / TIMEOUT"];

__start0 [label="" shape="none" width="0" height="0"];
__start0 -> s0;

}
