digraph g {

	s0 [shape="circle" label="s0"];
	s1 [shape="circle" label="s1"];
	s2 [shape="circle" label="s2"];
	s3 [shape="circle" label="s3"];
	s4 [shape="doublecircle" label="s4"];
	s0 -> s0 [label="I_ECDH_CLIENT_HELLO"];
	s0 -> s0 [label="I_ECDH_CLIENT_KEY_EXCHANGE"];
	s0 -> s1 [label="I_CHANGE_CIPHER_SPEC"];
	s0 -> s2 [label="I_FINISHED"];
	s0 -> s0 [label="I_APPLICATION"];
	s0 -> s0 [label="I_CERTIFICATE"];
	s0 -> s0 [label="I_EMPTY_CERTIFICATE"];
	s0 -> s0 [label="I_CERTIFICATE_VERIFY"];
	s0 -> s0 [label="I_Alert(WARNING,CLOSE_NOTIFY)"];
	s0 -> s0 [label="I_Alert(FATAL,UNEXPECTED_MESSAGE)"];
	s0 -> s0 [label="O_HELLO_VERIFY_REQUEST"];
	s0 -> s0 [label="O_SOCKET_CLOSED"];
	s0 -> s0 [label="O_Alert(FATAL,BAD_CERTIFICATE)"];
	s0 -> s0 [label="O_SERVER_HELLO"];
	s0 -> s0 [label="O_RSA_CERTIFICATE"];
	s0 -> s0 [label="O_ECDHE_SERVER_KEY_EXCHANGE"];
	s0 -> s0 [label="O_CERTIFICATE_REQUEST"];
	s0 -> s0 [label="O_SERVER_HELLO_DONE"];
	s0 -> s0 [label="O_CHANGE_CIPHER_SPEC"];
	s0 -> s0 [label="O_FINISHED"];
	s0 -> s0 [label="O_Alert(WARNING,CLOSE_NOTIFY)"];
	s0 -> s0 [label="O_Alert(FATAL,UNEXPECTED_MESSAGE)"];
	s0 -> s0 [label="O_APPLICATION"];
	s0 -> s0 [label="O_Alert(FATAL,HANDSHAKE_FAILURE)"];
	s1 -> s1 [label="I_ECDH_CLIENT_HELLO"];
	s1 -> s1 [label="I_ECDH_CLIENT_KEY_EXCHANGE"];
	s1 -> s1 [label="I_CHANGE_CIPHER_SPEC"];
	s1 -> s1 [label="I_FINISHED"];
	s1 -> s1 [label="I_APPLICATION"];
	s1 -> s1 [label="I_CERTIFICATE"];
	s1 -> s1 [label="I_EMPTY_CERTIFICATE"];
	s1 -> s1 [label="I_CERTIFICATE_VERIFY"];
	s1 -> s1 [label="I_Alert(WARNING,CLOSE_NOTIFY)"];
	s1 -> s1 [label="I_Alert(FATAL,UNEXPECTED_MESSAGE)"];
	s1 -> s1 [label="O_HELLO_VERIFY_REQUEST"];
	s1 -> s1 [label="O_SOCKET_CLOSED"];
	s1 -> s1 [label="O_Alert(FATAL,BAD_CERTIFICATE)"];
	s1 -> s1 [label="O_SERVER_HELLO"];
	s1 -> s1 [label="O_RSA_CERTIFICATE"];
	s1 -> s1 [label="O_ECDHE_SERVER_KEY_EXCHANGE"];
	s1 -> s1 [label="O_CERTIFICATE_REQUEST"];
	s1 -> s1 [label="O_SERVER_HELLO_DONE"];
	s1 -> s1 [label="O_CHANGE_CIPHER_SPEC"];
	s1 -> s1 [label="O_FINISHED"];
	s1 -> s1 [label="O_Alert(WARNING,CLOSE_NOTIFY)"];
	s1 -> s1 [label="O_Alert(FATAL,UNEXPECTED_MESSAGE)"];
	s1 -> s1 [label="O_APPLICATION"];
	s1 -> s1 [label="O_Alert(FATAL,HANDSHAKE_FAILURE)"];
	s2 -> s2 [label="I_ECDH_CLIENT_HELLO"];
	s2 -> s2 [label="I_ECDH_CLIENT_KEY_EXCHANGE"];
	s2 -> s3 [label="I_CHANGE_CIPHER_SPEC"];
	s2 -> s2 [label="I_FINISHED"];
	s2 -> s2 [label="I_APPLICATION"];
	s2 -> s2 [label="I_CERTIFICATE"];
	s2 -> s2 [label="I_EMPTY_CERTIFICATE"];
	s2 -> s2 [label="I_CERTIFICATE_VERIFY"];
	s2 -> s2 [label="I_Alert(WARNING,CLOSE_NOTIFY)"];
	s2 -> s2 [label="I_Alert(FATAL,UNEXPECTED_MESSAGE)"];
	s2 -> s2 [label="O_HELLO_VERIFY_REQUEST"];
	s2 -> s2 [label="O_SOCKET_CLOSED"];
	s2 -> s2 [label="O_Alert(FATAL,BAD_CERTIFICATE)"];
	s2 -> s0 [label="O_SERVER_HELLO"];
	s2 -> s2 [label="O_RSA_CERTIFICATE"];
	s2 -> s2 [label="O_ECDHE_SERVER_KEY_EXCHANGE"];
	s2 -> s2 [label="O_CERTIFICATE_REQUEST"];
	s2 -> s2 [label="O_SERVER_HELLO_DONE"];
	s2 -> s2 [label="O_CHANGE_CIPHER_SPEC"];
	s2 -> s2 [label="O_FINISHED"];
	s2 -> s2 [label="O_Alert(WARNING,CLOSE_NOTIFY)"];
	s2 -> s2 [label="O_Alert(FATAL,UNEXPECTED_MESSAGE)"];
	s2 -> s2 [label="O_APPLICATION"];
	s2 -> s2 [label="O_Alert(FATAL,HANDSHAKE_FAILURE)"];
	s3 -> s3 [label="I_ECDH_CLIENT_HELLO"];
	s3 -> s3 [label="I_ECDH_CLIENT_KEY_EXCHANGE"];
	s3 -> s3 [label="I_CHANGE_CIPHER_SPEC"];
	s3 -> s3 [label="I_FINISHED"];
	s3 -> s3 [label="I_APPLICATION"];
	s3 -> s3 [label="I_CERTIFICATE"];
	s3 -> s3 [label="I_EMPTY_CERTIFICATE"];
	s3 -> s3 [label="I_CERTIFICATE_VERIFY"];
	s3 -> s3 [label="I_Alert(WARNING,CLOSE_NOTIFY)"];
	s3 -> s3 [label="I_Alert(FATAL,UNEXPECTED_MESSAGE)"];
	s3 -> s3 [label="O_HELLO_VERIFY_REQUEST"];
	s3 -> s3 [label="O_SOCKET_CLOSED"];
	s3 -> s3 [label="O_Alert(FATAL,BAD_CERTIFICATE)"];
	s3 -> s0 [label="O_SERVER_HELLO"];
	s3 -> s3 [label="O_RSA_CERTIFICATE"];
	s3 -> s3 [label="O_ECDHE_SERVER_KEY_EXCHANGE"];
	s3 -> s3 [label="O_CERTIFICATE_REQUEST"];
	s3 -> s3 [label="O_SERVER_HELLO_DONE"];
	s3 -> s3 [label="O_CHANGE_CIPHER_SPEC"];
	s3 -> s3 [label="O_FINISHED"];
	s3 -> s3 [label="O_Alert(WARNING,CLOSE_NOTIFY)"];
	s3 -> s3 [label="O_Alert(FATAL,UNEXPECTED_MESSAGE)"];
	s3 -> s4 [label="O_APPLICATION"];
	s3 -> s3 [label="O_Alert(FATAL,HANDSHAKE_FAILURE)"];
	s4 -> s4 [label="I_ECDH_CLIENT_HELLO"];
	s4 -> s4 [label="I_ECDH_CLIENT_KEY_EXCHANGE"];
	s4 -> s4 [label="I_CHANGE_CIPHER_SPEC"];
	s4 -> s4 [label="I_FINISHED"];
	s4 -> s4 [label="I_APPLICATION"];
	s4 -> s4 [label="I_CERTIFICATE"];
	s4 -> s4 [label="I_EMPTY_CERTIFICATE"];
	s4 -> s4 [label="I_CERTIFICATE_VERIFY"];
	s4 -> s4 [label="I_Alert(WARNING,CLOSE_NOTIFY)"];
	s4 -> s4 [label="I_Alert(FATAL,UNEXPECTED_MESSAGE)"];
	s4 -> s4 [label="O_HELLO_VERIFY_REQUEST"];
	s4 -> s4 [label="O_SOCKET_CLOSED"];
	s4 -> s4 [label="O_Alert(FATAL,BAD_CERTIFICATE)"];
	s4 -> s4 [label="O_SERVER_HELLO"];
	s4 -> s4 [label="O_RSA_CERTIFICATE"];
	s4 -> s4 [label="O_ECDHE_SERVER_KEY_EXCHANGE"];
	s4 -> s4 [label="O_CERTIFICATE_REQUEST"];
	s4 -> s4 [label="O_SERVER_HELLO_DONE"];
	s4 -> s4 [label="O_CHANGE_CIPHER_SPEC"];
	s4 -> s4 [label="O_FINISHED"];
	s4 -> s4 [label="O_Alert(WARNING,CLOSE_NOTIFY)"];
	s4 -> s4 [label="O_Alert(FATAL,UNEXPECTED_MESSAGE)"];
	s4 -> s4 [label="O_APPLICATION"];
	s4 -> s4 [label="O_Alert(FATAL,HANDSHAKE_FAILURE)"];

__start0 [label="" shape="none" width="0" height="0"];
__start0 -> s0;

}
