digraph g {

	s0 [shape="circle" label="s0"];
	s1 [shape="circle" label="s1"];
	s2 [shape="circle" label="s2"];
	s3 [shape="circle" label="s3"];
	s4 [shape="circle" label="s4"];
	s5 [shape="circle" label="s5"];
	s6 [shape="circle" label="s6"];
	s7 [shape="circle" label="s7"];
	s8 [shape="circle" label="s8"];
	s9 [shape="circle" label="s9"];
	s10 [shape="circle" label="s10"];
	s11 [shape="circle" label="s11"];
	s12 [shape="circle" label="s12"];
	s13 [shape="circle" label="s13"];
	s14 [shape="circle" label="s14"];
	s15 [shape="circle" label="s15"];
	s16 [shape="circle" label="s16"];
	s17 [shape="circle" label="s17"];
	s18 [shape="circle" label="s18"];
	s19 [shape="circle" label="s19"];
	s20 [shape="circle" label="s20"];
	s21 [shape="circle" label="s21"];
	s22 [shape="circle" label="s22"];
	s23 [shape="circle" label="s23"];
	s24 [shape="circle" label="s24"];
	s25 [shape="circle" label="s25"];
	s26 [shape="circle" label="s26"];
	s27 [shape="circle" label="s27"];
	s28 [shape="circle" label="s28"];
	s29 [shape="circle" label="s29"];
	s30 [shape="circle" label="s30"];
	s31 [shape="circle" label="s31"];
	s32 [shape="circle" label="s32"];
	s33 [shape="circle" label="s33"];
	s34 [shape="circle" label="s34"];
	s35 [shape="circle" label="s35"];
	s36 [shape="circle" label="s36"];
	s37 [shape="circle" label="s37"];
	s38 [shape="circle" label="s38"];
	s39 [shape="circle" label="s39"];
	s40 [shape="circle" label="s40"];
	s41 [shape="circle" label="s41"];
	s42 [shape="circle" label="s42"];
	s43 [shape="circle" label="s43"];
	s44 [shape="circle" label="s44"];
	s45 [shape="circle" label="s45"];
	s46 [shape="circle" label="s46"];
	s47 [shape="circle" label="s47"];
	s48 [shape="circle" label="s48"];
	s49 [shape="circle" label="s49"];
	s50 [shape="circle" label="s50"];
	s51 [shape="circle" label="s51"];
	s52 [shape="circle" label="s52"];
	s53 [shape="circle" label="s53"];
	s54 [shape="circle" label="s54"];
	s55 [shape="circle" label="s55"];
	s56 [shape="circle" label="s56"];
	s57 [shape="circle" label="s57"];
	s58 [shape="circle" label="s58"];
	s59 [shape="circle" label="s59"];
	s60 [shape="circle" label="s60"];
	s61 [shape="circle" label="s61"];
	s62 [shape="circle" label="s62"];
	s63 [shape="circle" label="s63"];
	s64 [shape="circle" label="s64"];
	s65 [shape="circle" label="s65"];
	s66 [shape="circle" label="s66"];
	s67 [shape="circle" label="s67"];
	s68 [shape="circle" label="s68"];
	s69 [shape="circle" label="s69"];
	s70 [shape="circle" label="s70"];
	s71 [shape="circle" label="s71"];
	s72 [shape="circle" label="s72"];
	s73 [shape="circle" label="s73"];
	s74 [shape="circle" label="s74"];
	s75 [shape="circle" label="s75"];
	s76 [shape="circle" label="s76"];
	s0 -> s5 [label="HELLO_VERIFY_REQUEST / CLIENT_HELLO+"];
	s0 -> s10 [label="ECDH_SERVER_HELLO / CLIENT_HELLO"];
	s0 -> s1 [label="ECDH_SERVER_KEY_EXCHANGE / CLIENT_HELLO|Alert(FATAL,UNEXPECTED_MESSAGE)"];
	s0 -> s19 [label="DH_SERVER_HELLO / CLIENT_HELLO"];
	s0 -> s1 [label="DH_SERVER_KEY_EXCHANGE / CLIENT_HELLO|Alert(FATAL,UNEXPECTED_MESSAGE)"];
	s0 -> s2 [label="RSA_SERVER_HELLO / CLIENT_HELLO"];
	s0 -> s1 [label="RSA_SIGN_CERTIFICATE_REQUEST / CLIENT_HELLO|Alert(FATAL,UNEXPECTED_MESSAGE)"];
	s0 -> s1 [label="RSA_FIXED_ECDH_CERTIFICATE_REQUEST / CLIENT_HELLO|Alert(FATAL,UNEXPECTED_MESSAGE)"];
	s0 -> s1 [label="RSA_FIXED_DH_CERTIFICATE_REQUEST / CLIENT_HELLO|Alert(FATAL,UNEXPECTED_MESSAGE)"];
	s0 -> s1 [label="DSS_SIGN_CERTIFICATE_REQUEST / CLIENT_HELLO|Alert(FATAL,UNEXPECTED_MESSAGE)"];
	s0 -> s1 [label="DSS_FIXED_DH_CERTIFICATE_REQUEST / CLIENT_HELLO|Alert(FATAL,UNEXPECTED_MESSAGE)"];
	s0 -> s1 [label="ECDSA_SIGN_CERTIFICATE_REQUEST / CLIENT_HELLO|Alert(FATAL,UNEXPECTED_MESSAGE)"];
	s0 -> s1 [label="SERVER_HELLO_DONE / CLIENT_HELLO|Alert(FATAL,UNEXPECTED_MESSAGE)"];
	s0 -> s3 [label="CHANGE_CIPHER_SPEC / CLIENT_HELLO"];
	s0 -> s1 [label="FINISHED / CLIENT_HELLO|Alert(FATAL,UNEXPECTED_MESSAGE)"];
	s0 -> s4 [label="APPLICATION / CLIENT_HELLO"];
	s0 -> s1 [label="CERTIFICATE / CLIENT_HELLO|Alert(FATAL,UNEXPECTED_MESSAGE)"];
	s0 -> s1 [label="EMPTY_CERTIFICATE / CLIENT_HELLO|Alert(FATAL,UNEXPECTED_MESSAGE)"];
	s0 -> s4 [label="Alert(WARNING,CLOSE_NOTIFY) / CLIENT_HELLO"];
	s0 -> s4 [label="Alert(FATAL,UNEXPECTED_MESSAGE) / CLIENT_HELLO"];
	s1 -> s1 [label="HELLO_VERIFY_REQUEST / SOCKET_CLOSED"];
	s1 -> s1 [label="ECDH_SERVER_HELLO / SOCKET_CLOSED"];
	s1 -> s1 [label="ECDH_SERVER_KEY_EXCHANGE / SOCKET_CLOSED"];
	s1 -> s1 [label="DH_SERVER_HELLO / SOCKET_CLOSED"];
	s1 -> s1 [label="DH_SERVER_KEY_EXCHANGE / SOCKET_CLOSED"];
	s1 -> s1 [label="RSA_SERVER_HELLO / SOCKET_CLOSED"];
	s1 -> s1 [label="RSA_SIGN_CERTIFICATE_REQUEST / SOCKET_CLOSED"];
	s1 -> s1 [label="RSA_FIXED_ECDH_CERTIFICATE_REQUEST / SOCKET_CLOSED"];
	s1 -> s1 [label="RSA_FIXED_DH_CERTIFICATE_REQUEST / SOCKET_CLOSED"];
	s1 -> s1 [label="DSS_SIGN_CERTIFICATE_REQUEST / SOCKET_CLOSED"];
	s1 -> s1 [label="DSS_FIXED_DH_CERTIFICATE_REQUEST / SOCKET_CLOSED"];
	s1 -> s1 [label="ECDSA_SIGN_CERTIFICATE_REQUEST / SOCKET_CLOSED"];
	s1 -> s1 [label="SERVER_HELLO_DONE / SOCKET_CLOSED"];
	s1 -> s1 [label="CHANGE_CIPHER_SPEC / SOCKET_CLOSED"];
	s1 -> s1 [label="FINISHED / SOCKET_CLOSED"];
	s1 -> s1 [label="APPLICATION / SOCKET_CLOSED"];
	s1 -> s1 [label="CERTIFICATE / SOCKET_CLOSED"];
	s1 -> s1 [label="EMPTY_CERTIFICATE / SOCKET_CLOSED"];
	s1 -> s1 [label="Alert(WARNING,CLOSE_NOTIFY) / SOCKET_CLOSED"];
	s1 -> s1 [label="Alert(FATAL,UNEXPECTED_MESSAGE) / SOCKET_CLOSED"];
	s2 -> s1 [label="HELLO_VERIFY_REQUEST / Alert(FATAL,UNEXPECTED_MESSAGE)"];
	s2 -> s1 [label="ECDH_SERVER_HELLO / Alert(FATAL,UNEXPECTED_MESSAGE)"];
	s2 -> s1 [label="ECDH_SERVER_KEY_EXCHANGE / Alert(FATAL,UNEXPECTED_MESSAGE)"];
	s2 -> s1 [label="DH_SERVER_HELLO / Alert(FATAL,UNEXPECTED_MESSAGE)"];
	s2 -> s1 [label="DH_SERVER_KEY_EXCHANGE / Alert(FATAL,UNEXPECTED_MESSAGE)"];
	s2 -> s1 [label="RSA_SERVER_HELLO / Alert(FATAL,UNEXPECTED_MESSAGE)"];
	s2 -> s1 [label="RSA_SIGN_CERTIFICATE_REQUEST / Alert(FATAL,UNEXPECTED_MESSAGE)"];
	s2 -> s1 [label="RSA_FIXED_ECDH_CERTIFICATE_REQUEST / Alert(FATAL,UNEXPECTED_MESSAGE)"];
	s2 -> s1 [label="RSA_FIXED_DH_CERTIFICATE_REQUEST / Alert(FATAL,UNEXPECTED_MESSAGE)"];
	s2 -> s1 [label="DSS_SIGN_CERTIFICATE_REQUEST / Alert(FATAL,UNEXPECTED_MESSAGE)"];
	s2 -> s1 [label="DSS_FIXED_DH_CERTIFICATE_REQUEST / Alert(FATAL,UNEXPECTED_MESSAGE)"];
	s2 -> s1 [label="ECDSA_SIGN_CERTIFICATE_REQUEST / Alert(FATAL,UNEXPECTED_MESSAGE)"];
	s2 -> s1 [label="SERVER_HELLO_DONE / Alert(FATAL,UNEXPECTED_MESSAGE)"];
	s2 -> s3 [label="CHANGE_CIPHER_SPEC / TIMEOUT"];
	s2 -> s1 [label="FINISHED / Alert(FATAL,UNEXPECTED_MESSAGE)"];
	s2 -> s2 [label="APPLICATION / TIMEOUT"];
	s2 -> s6 [label="CERTIFICATE / TIMEOUT"];
	s2 -> s1 [label="EMPTY_CERTIFICATE / Alert(FATAL,DECODE_ERROR)"];
	s2 -> s1 [label="Alert(WARNING,CLOSE_NOTIFY) / Alert(FATAL,INTERNAL_ERROR)"];
	s2 -> s1 [label="Alert(FATAL,UNEXPECTED_MESSAGE) / TIMEOUT"];
	s3 -> s3 [label="HELLO_VERIFY_REQUEST / TIMEOUT"];
	s3 -> s3 [label="ECDH_SERVER_HELLO / TIMEOUT"];
	s3 -> s3 [label="ECDH_SERVER_KEY_EXCHANGE / TIMEOUT"];
	s3 -> s3 [label="DH_SERVER_HELLO / TIMEOUT"];
	s3 -> s3 [label="DH_SERVER_KEY_EXCHANGE / TIMEOUT"];
	s3 -> s3 [label="RSA_SERVER_HELLO / TIMEOUT"];
	s3 -> s3 [label="RSA_SIGN_CERTIFICATE_REQUEST / TIMEOUT"];
	s3 -> s3 [label="RSA_FIXED_ECDH_CERTIFICATE_REQUEST / TIMEOUT"];
	s3 -> s3 [label="RSA_FIXED_DH_CERTIFICATE_REQUEST / TIMEOUT"];
	s3 -> s3 [label="DSS_SIGN_CERTIFICATE_REQUEST / TIMEOUT"];
	s3 -> s3 [label="DSS_FIXED_DH_CERTIFICATE_REQUEST / TIMEOUT"];
	s3 -> s3 [label="ECDSA_SIGN_CERTIFICATE_REQUEST / TIMEOUT"];
	s3 -> s3 [label="SERVER_HELLO_DONE / TIMEOUT"];
	s3 -> s3 [label="CHANGE_CIPHER_SPEC / TIMEOUT"];
	s3 -> s3 [label="FINISHED / TIMEOUT"];
	s3 -> s3 [label="APPLICATION / TIMEOUT"];
	s3 -> s3 [label="CERTIFICATE / TIMEOUT"];
	s3 -> s3 [label="EMPTY_CERTIFICATE / TIMEOUT"];
	s3 -> s3 [label="Alert(WARNING,CLOSE_NOTIFY) / TIMEOUT"];
	s3 -> s3 [label="Alert(FATAL,UNEXPECTED_MESSAGE) / TIMEOUT"];
	s4 -> s5 [label="HELLO_VERIFY_REQUEST / CLIENT_HELLO"];
	s4 -> s10 [label="ECDH_SERVER_HELLO / TIMEOUT"];
	s4 -> s1 [label="ECDH_SERVER_KEY_EXCHANGE / Alert(FATAL,UNEXPECTED_MESSAGE)"];
	s4 -> s19 [label="DH_SERVER_HELLO / TIMEOUT"];
	s4 -> s1 [label="DH_SERVER_KEY_EXCHANGE / Alert(FATAL,UNEXPECTED_MESSAGE)"];
	s4 -> s2 [label="RSA_SERVER_HELLO / TIMEOUT"];
	s4 -> s1 [label="RSA_SIGN_CERTIFICATE_REQUEST / Alert(FATAL,UNEXPECTED_MESSAGE)"];
	s4 -> s1 [label="RSA_FIXED_ECDH_CERTIFICATE_REQUEST / Alert(FATAL,UNEXPECTED_MESSAGE)"];
	s4 -> s1 [label="RSA_FIXED_DH_CERTIFICATE_REQUEST / Alert(FATAL,UNEXPECTED_MESSAGE)"];
	s4 -> s1 [label="DSS_SIGN_CERTIFICATE_REQUEST / Alert(FATAL,UNEXPECTED_MESSAGE)"];
	s4 -> s1 [label="DSS_FIXED_DH_CERTIFICATE_REQUEST / Alert(FATAL,UNEXPECTED_MESSAGE)"];
	s4 -> s1 [label="ECDSA_SIGN_CERTIFICATE_REQUEST / Alert(FATAL,UNEXPECTED_MESSAGE)"];
	s4 -> s1 [label="SERVER_HELLO_DONE / Alert(FATAL,UNEXPECTED_MESSAGE)"];
	s4 -> s3 [label="CHANGE_CIPHER_SPEC / TIMEOUT"];
	s4 -> s1 [label="FINISHED / Alert(FATAL,UNEXPECTED_MESSAGE)"];
	s4 -> s4 [label="APPLICATION / TIMEOUT"];
	s4 -> s1 [label="CERTIFICATE / Alert(FATAL,UNEXPECTED_MESSAGE)"];
	s4 -> s1 [label="EMPTY_CERTIFICATE / Alert(FATAL,UNEXPECTED_MESSAGE)"];
	s4 -> s1 [label="Alert(WARNING,CLOSE_NOTIFY) / Alert(FATAL,INTERNAL_ERROR)"];
	s4 -> s1 [label="Alert(FATAL,UNEXPECTED_MESSAGE) / TIMEOUT"];
	s5 -> s5 [label="HELLO_VERIFY_REQUEST / CLIENT_HELLO"];
	s5 -> s10 [label="ECDH_SERVER_HELLO / TIMEOUT"];
	s5 -> s1 [label="ECDH_SERVER_KEY_EXCHANGE / Alert(FATAL,UNEXPECTED_MESSAGE)"];
	s5 -> s19 [label="DH_SERVER_HELLO / TIMEOUT"];
	s5 -> s1 [label="DH_SERVER_KEY_EXCHANGE / Alert(FATAL,UNEXPECTED_MESSAGE)"];
	s5 -> s2 [label="RSA_SERVER_HELLO / TIMEOUT"];
	s5 -> s1 [label="RSA_SIGN_CERTIFICATE_REQUEST / Alert(FATAL,UNEXPECTED_MESSAGE)"];
	s5 -> s1 [label="RSA_FIXED_ECDH_CERTIFICATE_REQUEST / Alert(FATAL,UNEXPECTED_MESSAGE)"];
	s5 -> s1 [label="RSA_FIXED_DH_CERTIFICATE_REQUEST / Alert(FATAL,UNEXPECTED_MESSAGE)"];
	s5 -> s1 [label="DSS_SIGN_CERTIFICATE_REQUEST / Alert(FATAL,UNEXPECTED_MESSAGE)"];
	s5 -> s1 [label="DSS_FIXED_DH_CERTIFICATE_REQUEST / Alert(FATAL,UNEXPECTED_MESSAGE)"];
	s5 -> s1 [label="ECDSA_SIGN_CERTIFICATE_REQUEST / Alert(FATAL,UNEXPECTED_MESSAGE)"];
	s5 -> s1 [label="SERVER_HELLO_DONE / Alert(FATAL,UNEXPECTED_MESSAGE)"];
	s5 -> s3 [label="CHANGE_CIPHER_SPEC / TIMEOUT"];
	s5 -> s1 [label="FINISHED / Alert(FATAL,UNEXPECTED_MESSAGE)"];
	s5 -> s4 [label="APPLICATION / TIMEOUT"];
	s5 -> s1 [label="CERTIFICATE / Alert(FATAL,UNEXPECTED_MESSAGE)"];
	s5 -> s1 [label="EMPTY_CERTIFICATE / Alert(FATAL,UNEXPECTED_MESSAGE)"];
	s5 -> s4 [label="Alert(WARNING,CLOSE_NOTIFY) / TIMEOUT"];
	s5 -> s4 [label="Alert(FATAL,UNEXPECTED_MESSAGE) / TIMEOUT"];
	s6 -> s1 [label="HELLO_VERIFY_REQUEST / Alert(FATAL,UNEXPECTED_MESSAGE)"];
	s6 -> s1 [label="ECDH_SERVER_HELLO / Alert(FATAL,UNEXPECTED_MESSAGE)"];
	s6 -> s1 [label="ECDH_SERVER_KEY_EXCHANGE / Alert(FATAL,UNEXPECTED_MESSAGE)"];
	s6 -> s1 [label="DH_SERVER_HELLO / Alert(FATAL,UNEXPECTED_MESSAGE)"];
	s6 -> s1 [label="DH_SERVER_KEY_EXCHANGE / Alert(FATAL,UNEXPECTED_MESSAGE)"];
	s6 -> s1 [label="RSA_SERVER_HELLO / Alert(FATAL,UNEXPECTED_MESSAGE)"];
	s6 -> s7 [label="RSA_SIGN_CERTIFICATE_REQUEST / TIMEOUT"];
	s6 -> s1 [label="RSA_FIXED_ECDH_CERTIFICATE_REQUEST / Alert(FATAL,HANDSHAKE_FAILURE)"];
	s6 -> s1 [label="RSA_FIXED_DH_CERTIFICATE_REQUEST / Alert(FATAL,HANDSHAKE_FAILURE)"];
	s6 -> s7 [label="DSS_SIGN_CERTIFICATE_REQUEST / TIMEOUT"];
	s6 -> s1 [label="DSS_FIXED_DH_CERTIFICATE_REQUEST / Alert(FATAL,HANDSHAKE_FAILURE)"];
	s6 -> s7 [label="ECDSA_SIGN_CERTIFICATE_REQUEST / TIMEOUT"];
	s6 -> s8 [label="SERVER_HELLO_DONE / RSA_CLIENT_KEY_EXCHANGE|CHANGE_CIPHER_SPEC|FINISHED"];
	s6 -> s3 [label="CHANGE_CIPHER_SPEC / TIMEOUT"];
	s6 -> s1 [label="FINISHED / Alert(FATAL,UNEXPECTED_MESSAGE)"];
	s6 -> s6 [label="APPLICATION / TIMEOUT"];
	s6 -> s1 [label="CERTIFICATE / Alert(FATAL,UNEXPECTED_MESSAGE)"];
	s6 -> s1 [label="EMPTY_CERTIFICATE / Alert(FATAL,UNEXPECTED_MESSAGE)"];
	s6 -> s1 [label="Alert(WARNING,CLOSE_NOTIFY) / Alert(FATAL,INTERNAL_ERROR)"];
	s6 -> s1 [label="Alert(FATAL,UNEXPECTED_MESSAGE) / TIMEOUT"];
	s7 -> s1 [label="HELLO_VERIFY_REQUEST / Alert(FATAL,UNEXPECTED_MESSAGE)"];
	s7 -> s1 [label="ECDH_SERVER_HELLO / Alert(FATAL,UNEXPECTED_MESSAGE)"];
	s7 -> s1 [label="ECDH_SERVER_KEY_EXCHANGE / Alert(FATAL,UNEXPECTED_MESSAGE)"];
	s7 -> s1 [label="DH_SERVER_HELLO / Alert(FATAL,UNEXPECTED_MESSAGE)"];
	s7 -> s1 [label="DH_SERVER_KEY_EXCHANGE / Alert(FATAL,UNEXPECTED_MESSAGE)"];
	s7 -> s1 [label="RSA_SERVER_HELLO / Alert(FATAL,UNEXPECTED_MESSAGE)"];
	s7 -> s1 [label="RSA_SIGN_CERTIFICATE_REQUEST / Alert(FATAL,UNEXPECTED_MESSAGE)"];
	s7 -> s1 [label="RSA_FIXED_ECDH_CERTIFICATE_REQUEST / Alert(FATAL,UNEXPECTED_MESSAGE)"];
	s7 -> s1 [label="RSA_FIXED_DH_CERTIFICATE_REQUEST / Alert(FATAL,UNEXPECTED_MESSAGE)"];
	s7 -> s1 [label="DSS_SIGN_CERTIFICATE_REQUEST / Alert(FATAL,UNEXPECTED_MESSAGE)"];
	s7 -> s1 [label="DSS_FIXED_DH_CERTIFICATE_REQUEST / Alert(FATAL,UNEXPECTED_MESSAGE)"];
	s7 -> s1 [label="ECDSA_SIGN_CERTIFICATE_REQUEST / Alert(FATAL,UNEXPECTED_MESSAGE)"];
	s7 -> s8 [label="SERVER_HELLO_DONE / RSA_CERTIFICATE|RSA_CLIENT_KEY_EXCHANGE|CERTIFICATE_VERIFY|CHANGE_CIPHER_SPEC|FINISHED"];
	s7 -> s3 [label="CHANGE_CIPHER_SPEC / TIMEOUT"];
	s7 -> s1 [label="FINISHED / Alert(FATAL,UNEXPECTED_MESSAGE)"];
	s7 -> s7 [label="APPLICATION / TIMEOUT"];
	s7 -> s1 [label="CERTIFICATE / Alert(FATAL,UNEXPECTED_MESSAGE)"];
	s7 -> s1 [label="EMPTY_CERTIFICATE / Alert(FATAL,UNEXPECTED_MESSAGE)"];
	s7 -> s1 [label="Alert(WARNING,CLOSE_NOTIFY) / Alert(FATAL,INTERNAL_ERROR)"];
	s7 -> s1 [label="Alert(FATAL,UNEXPECTED_MESSAGE) / TIMEOUT"];
	s8 -> s13 [label="HELLO_VERIFY_REQUEST / TIMEOUT"];
	s8 -> s9 [label="ECDH_SERVER_HELLO / TIMEOUT"];
	s8 -> s13 [label="ECDH_SERVER_KEY_EXCHANGE / TIMEOUT"];
	s8 -> s18 [label="DH_SERVER_HELLO / TIMEOUT"];
	s8 -> s13 [label="DH_SERVER_KEY_EXCHANGE / TIMEOUT"];
	s8 -> s18 [label="RSA_SERVER_HELLO / TIMEOUT"];
	s8 -> s13 [label="RSA_SIGN_CERTIFICATE_REQUEST / TIMEOUT"];
	s8 -> s13 [label="RSA_FIXED_ECDH_CERTIFICATE_REQUEST / TIMEOUT"];
	s8 -> s13 [label="RSA_FIXED_DH_CERTIFICATE_REQUEST / TIMEOUT"];
	s8 -> s13 [label="DSS_SIGN_CERTIFICATE_REQUEST / TIMEOUT"];
	s8 -> s13 [label="DSS_FIXED_DH_CERTIFICATE_REQUEST / TIMEOUT"];
	s8 -> s13 [label="ECDSA_SIGN_CERTIFICATE_REQUEST / TIMEOUT"];
	s8 -> s13 [label="SERVER_HELLO_DONE / TIMEOUT"];
	s8 -> s11 [label="CHANGE_CIPHER_SPEC / TIMEOUT"];
	s8 -> s13 [label="FINISHED / TIMEOUT"];
	s8 -> s8 [label="APPLICATION / TIMEOUT"];
	s8 -> s13 [label="CERTIFICATE / TIMEOUT"];
	s8 -> s13 [label="EMPTY_CERTIFICATE / TIMEOUT"];
	s8 -> s1 [label="Alert(WARNING,CLOSE_NOTIFY) / Alert(FATAL,UNEXPECTED_MESSAGE)"];
	s8 -> s1 [label="Alert(FATAL,UNEXPECTED_MESSAGE) / TIMEOUT"];
	s9 -> s9 [label="HELLO_VERIFY_REQUEST / TIMEOUT"];
	s9 -> s9 [label="ECDH_SERVER_HELLO / TIMEOUT"];
	s9 -> s9 [label="ECDH_SERVER_KEY_EXCHANGE / TIMEOUT"];
	s9 -> s18 [label="DH_SERVER_HELLO / TIMEOUT"];
	s9 -> s9 [label="DH_SERVER_KEY_EXCHANGE / TIMEOUT"];
	s9 -> s18 [label="RSA_SERVER_HELLO / TIMEOUT"];
	s9 -> s9 [label="RSA_SIGN_CERTIFICATE_REQUEST / TIMEOUT"];
	s9 -> s9 [label="RSA_FIXED_ECDH_CERTIFICATE_REQUEST / TIMEOUT"];
	s9 -> s9 [label="RSA_FIXED_DH_CERTIFICATE_REQUEST / TIMEOUT"];
	s9 -> s9 [label="DSS_SIGN_CERTIFICATE_REQUEST / TIMEOUT"];
	s9 -> s9 [label="DSS_FIXED_DH_CERTIFICATE_REQUEST / TIMEOUT"];
	s9 -> s9 [label="ECDSA_SIGN_CERTIFICATE_REQUEST / TIMEOUT"];
	s9 -> s9 [label="SERVER_HELLO_DONE / TIMEOUT"];
	s9 -> s3 [label="CHANGE_CIPHER_SPEC / TIMEOUT"];
	s9 -> s9 [label="FINISHED / TIMEOUT"];
	s9 -> s9 [label="APPLICATION / TIMEOUT"];
	s9 -> s9 [label="CERTIFICATE / TIMEOUT"];
	s9 -> s9 [label="EMPTY_CERTIFICATE / TIMEOUT"];
	s9 -> s1 [label="Alert(WARNING,CLOSE_NOTIFY) / UNKNOWN_MESSAGE"];
	s9 -> s1 [label="Alert(FATAL,UNEXPECTED_MESSAGE) / TIMEOUT"];
	s10 -> s1 [label="HELLO_VERIFY_REQUEST / Alert(FATAL,UNEXPECTED_MESSAGE)"];
	s10 -> s1 [label="ECDH_SERVER_HELLO / Alert(FATAL,UNEXPECTED_MESSAGE)"];
	s10 -> s1 [label="ECDH_SERVER_KEY_EXCHANGE / Alert(FATAL,UNEXPECTED_MESSAGE)"];
	s10 -> s1 [label="DH_SERVER_HELLO / Alert(FATAL,UNEXPECTED_MESSAGE)"];
	s10 -> s1 [label="DH_SERVER_KEY_EXCHANGE / Alert(FATAL,UNEXPECTED_MESSAGE)"];
	s10 -> s1 [label="RSA_SERVER_HELLO / Alert(FATAL,UNEXPECTED_MESSAGE)"];
	s10 -> s1 [label="RSA_SIGN_CERTIFICATE_REQUEST / Alert(FATAL,UNEXPECTED_MESSAGE)"];
	s10 -> s1 [label="RSA_FIXED_ECDH_CERTIFICATE_REQUEST / Alert(FATAL,UNEXPECTED_MESSAGE)"];
	s10 -> s1 [label="RSA_FIXED_DH_CERTIFICATE_REQUEST / Alert(FATAL,UNEXPECTED_MESSAGE)"];
	s10 -> s1 [label="DSS_SIGN_CERTIFICATE_REQUEST / Alert(FATAL,UNEXPECTED_MESSAGE)"];
	s10 -> s1 [label="DSS_FIXED_DH_CERTIFICATE_REQUEST / Alert(FATAL,UNEXPECTED_MESSAGE)"];
	s10 -> s1 [label="ECDSA_SIGN_CERTIFICATE_REQUEST / Alert(FATAL,UNEXPECTED_MESSAGE)"];
	s10 -> s1 [label="SERVER_HELLO_DONE / Alert(FATAL,UNEXPECTED_MESSAGE)"];
	s10 -> s3 [label="CHANGE_CIPHER_SPEC / TIMEOUT"];
	s10 -> s1 [label="FINISHED / Alert(FATAL,UNEXPECTED_MESSAGE)"];
	s10 -> s10 [label="APPLICATION / TIMEOUT"];
	s10 -> s12 [label="CERTIFICATE / TIMEOUT"];
	s10 -> s1 [label="EMPTY_CERTIFICATE / Alert(FATAL,DECODE_ERROR)"];
	s10 -> s1 [label="Alert(WARNING,CLOSE_NOTIFY) / Alert(FATAL,INTERNAL_ERROR)"];
	s10 -> s1 [label="Alert(FATAL,UNEXPECTED_MESSAGE) / TIMEOUT"];
	s11 -> s1 [label="HELLO_VERIFY_REQUEST / Alert(FATAL,UNEXPECTED_MESSAGE)"];
	s11 -> s17 [label="ECDH_SERVER_HELLO / TIMEOUT"];
	s11 -> s1 [label="ECDH_SERVER_KEY_EXCHANGE / Alert(FATAL,UNEXPECTED_MESSAGE)"];
	s11 -> s1 [label="DH_SERVER_HELLO / Alert(FATAL,UNEXPECTED_MESSAGE)"];
	s11 -> s1 [label="DH_SERVER_KEY_EXCHANGE / Alert(FATAL,UNEXPECTED_MESSAGE)"];
	s11 -> s1 [label="RSA_SERVER_HELLO / Alert(FATAL,UNEXPECTED_MESSAGE)"];
	s11 -> s1 [label="RSA_SIGN_CERTIFICATE_REQUEST / Alert(FATAL,UNEXPECTED_MESSAGE)"];
	s11 -> s1 [label="RSA_FIXED_ECDH_CERTIFICATE_REQUEST / Alert(FATAL,UNEXPECTED_MESSAGE)"];
	s11 -> s1 [label="RSA_FIXED_DH_CERTIFICATE_REQUEST / Alert(FATAL,UNEXPECTED_MESSAGE)"];
	s11 -> s1 [label="DSS_SIGN_CERTIFICATE_REQUEST / Alert(FATAL,UNEXPECTED_MESSAGE)"];
	s11 -> s1 [label="DSS_FIXED_DH_CERTIFICATE_REQUEST / Alert(FATAL,UNEXPECTED_MESSAGE)"];
	s11 -> s1 [label="ECDSA_SIGN_CERTIFICATE_REQUEST / Alert(FATAL,UNEXPECTED_MESSAGE)"];
	s11 -> s1 [label="SERVER_HELLO_DONE / Alert(FATAL,UNEXPECTED_MESSAGE)"];
	s11 -> s3 [label="CHANGE_CIPHER_SPEC / TIMEOUT"];
	s11 -> s15 [label="FINISHED / TIMEOUT"];
	s11 -> s11 [label="APPLICATION / TIMEOUT"];
	s11 -> s1 [label="CERTIFICATE / Alert(FATAL,UNEXPECTED_MESSAGE)"];
	s11 -> s1 [label="EMPTY_CERTIFICATE / Alert(FATAL,UNEXPECTED_MESSAGE)"];
	s11 -> s1 [label="Alert(WARNING,CLOSE_NOTIFY) / Alert(FATAL,INTERNAL_ERROR)"];
	s11 -> s1 [label="Alert(FATAL,UNEXPECTED_MESSAGE) / TIMEOUT"];
	s12 -> s1 [label="HELLO_VERIFY_REQUEST / Alert(FATAL,UNEXPECTED_MESSAGE)"];
	s12 -> s1 [label="ECDH_SERVER_HELLO / Alert(FATAL,UNEXPECTED_MESSAGE)"];
	s12 -> s6 [label="ECDH_SERVER_KEY_EXCHANGE / TIMEOUT"];
	s12 -> s1 [label="DH_SERVER_HELLO / Alert(FATAL,UNEXPECTED_MESSAGE)"];
	s12 -> s1 [label="DH_SERVER_KEY_EXCHANGE / Alert(FATAL,HANDSHAKE_FAILURE)"];
	s12 -> s1 [label="RSA_SERVER_HELLO / Alert(FATAL,UNEXPECTED_MESSAGE)"];
	s12 -> s1 [label="RSA_SIGN_CERTIFICATE_REQUEST / Alert(FATAL,UNEXPECTED_MESSAGE)"];
	s12 -> s1 [label="RSA_FIXED_ECDH_CERTIFICATE_REQUEST / Alert(FATAL,UNEXPECTED_MESSAGE)"];
	s12 -> s1 [label="RSA_FIXED_DH_CERTIFICATE_REQUEST / Alert(FATAL,UNEXPECTED_MESSAGE)"];
	s12 -> s1 [label="DSS_SIGN_CERTIFICATE_REQUEST / Alert(FATAL,UNEXPECTED_MESSAGE)"];
	s12 -> s1 [label="DSS_FIXED_DH_CERTIFICATE_REQUEST / Alert(FATAL,UNEXPECTED_MESSAGE)"];
	s12 -> s1 [label="ECDSA_SIGN_CERTIFICATE_REQUEST / Alert(FATAL,UNEXPECTED_MESSAGE)"];
	s12 -> s1 [label="SERVER_HELLO_DONE / Alert(FATAL,UNEXPECTED_MESSAGE)"];
	s12 -> s3 [label="CHANGE_CIPHER_SPEC / TIMEOUT"];
	s12 -> s1 [label="FINISHED / Alert(FATAL,UNEXPECTED_MESSAGE)"];
	s12 -> s12 [label="APPLICATION / TIMEOUT"];
	s12 -> s1 [label="CERTIFICATE / Alert(FATAL,UNEXPECTED_MESSAGE)"];
	s12 -> s1 [label="EMPTY_CERTIFICATE / Alert(FATAL,UNEXPECTED_MESSAGE)"];
	s12 -> s1 [label="Alert(WARNING,CLOSE_NOTIFY) / Alert(FATAL,INTERNAL_ERROR)"];
	s12 -> s1 [label="Alert(FATAL,UNEXPECTED_MESSAGE) / TIMEOUT"];
	s13 -> s13 [label="HELLO_VERIFY_REQUEST / TIMEOUT"];
	s13 -> s9 [label="ECDH_SERVER_HELLO / TIMEOUT"];
	s13 -> s13 [label="ECDH_SERVER_KEY_EXCHANGE / TIMEOUT"];
	s13 -> s18 [label="DH_SERVER_HELLO / TIMEOUT"];
	s13 -> s13 [label="DH_SERVER_KEY_EXCHANGE / TIMEOUT"];
	s13 -> s18 [label="RSA_SERVER_HELLO / TIMEOUT"];
	s13 -> s13 [label="RSA_SIGN_CERTIFICATE_REQUEST / TIMEOUT"];
	s13 -> s13 [label="RSA_FIXED_ECDH_CERTIFICATE_REQUEST / TIMEOUT"];
	s13 -> s13 [label="RSA_FIXED_DH_CERTIFICATE_REQUEST / TIMEOUT"];
	s13 -> s13 [label="DSS_SIGN_CERTIFICATE_REQUEST / TIMEOUT"];
	s13 -> s13 [label="DSS_FIXED_DH_CERTIFICATE_REQUEST / TIMEOUT"];
	s13 -> s13 [label="ECDSA_SIGN_CERTIFICATE_REQUEST / TIMEOUT"];
	s13 -> s13 [label="SERVER_HELLO_DONE / TIMEOUT"];
	s13 -> s14 [label="CHANGE_CIPHER_SPEC / TIMEOUT"];
	s13 -> s13 [label="FINISHED / TIMEOUT"];
	s13 -> s13 [label="APPLICATION / TIMEOUT"];
	s13 -> s13 [label="CERTIFICATE / TIMEOUT"];
	s13 -> s13 [label="EMPTY_CERTIFICATE / TIMEOUT"];
	s13 -> s1 [label="Alert(WARNING,CLOSE_NOTIFY) / Alert(FATAL,UNEXPECTED_MESSAGE)"];
	s13 -> s1 [label="Alert(FATAL,UNEXPECTED_MESSAGE) / TIMEOUT"];
	s14 -> s14 [label="HELLO_VERIFY_REQUEST / TIMEOUT"];
	s14 -> s17 [label="ECDH_SERVER_HELLO / TIMEOUT"];
	s14 -> s21 [label="ECDH_SERVER_KEY_EXCHANGE / TIMEOUT"];
	s14 -> s14 [label="DH_SERVER_HELLO / TIMEOUT"];
	s14 -> s21 [label="DH_SERVER_KEY_EXCHANGE / TIMEOUT"];
	s14 -> s14 [label="RSA_SERVER_HELLO / TIMEOUT"];
	s14 -> s14 [label="RSA_SIGN_CERTIFICATE_REQUEST / TIMEOUT"];
	s14 -> s14 [label="RSA_FIXED_ECDH_CERTIFICATE_REQUEST / TIMEOUT"];
	s14 -> s14 [label="RSA_FIXED_DH_CERTIFICATE_REQUEST / TIMEOUT"];
	s14 -> s14 [label="DSS_SIGN_CERTIFICATE_REQUEST / TIMEOUT"];
	s14 -> s14 [label="DSS_FIXED_DH_CERTIFICATE_REQUEST / TIMEOUT"];
	s14 -> s14 [label="ECDSA_SIGN_CERTIFICATE_REQUEST / TIMEOUT"];
	s14 -> s71 [label="SERVER_HELLO_DONE / TIMEOUT"];
	s14 -> s3 [label="CHANGE_CIPHER_SPEC / TIMEOUT"];
	s14 -> s62 [label="FINISHED / TIMEOUT"];
	s14 -> s14 [label="APPLICATION / TIMEOUT"];
	s14 -> s14 [label="CERTIFICATE / TIMEOUT"];
	s14 -> s14 [label="EMPTY_CERTIFICATE / TIMEOUT"];
	s14 -> s1 [label="Alert(WARNING,CLOSE_NOTIFY) / Alert(FATAL,INTERNAL_ERROR)"];
	s14 -> s1 [label="Alert(FATAL,UNEXPECTED_MESSAGE) / TIMEOUT"];
	s15 -> s15 [label="HELLO_VERIFY_REQUEST / TIMEOUT"];
	s15 -> s16 [label="ECDH_SERVER_HELLO / TIMEOUT"];
	s15 -> s15 [label="ECDH_SERVER_KEY_EXCHANGE / TIMEOUT"];
	s15 -> s15 [label="DH_SERVER_HELLO / TIMEOUT"];
	s15 -> s15 [label="DH_SERVER_KEY_EXCHANGE / TIMEOUT"];
	s15 -> s15 [label="RSA_SERVER_HELLO / TIMEOUT"];
	s15 -> s15 [label="RSA_SIGN_CERTIFICATE_REQUEST / TIMEOUT"];
	s15 -> s15 [label="RSA_FIXED_ECDH_CERTIFICATE_REQUEST / TIMEOUT"];
	s15 -> s15 [label="RSA_FIXED_DH_CERTIFICATE_REQUEST / TIMEOUT"];
	s15 -> s15 [label="DSS_SIGN_CERTIFICATE_REQUEST / TIMEOUT"];
	s15 -> s15 [label="DSS_FIXED_DH_CERTIFICATE_REQUEST / TIMEOUT"];
	s15 -> s15 [label="ECDSA_SIGN_CERTIFICATE_REQUEST / TIMEOUT"];
	s15 -> s15 [label="SERVER_HELLO_DONE / TIMEOUT"];
	s15 -> s3 [label="CHANGE_CIPHER_SPEC / TIMEOUT"];
	s15 -> s15 [label="FINISHED / TIMEOUT"];
	s15 -> s15 [label="APPLICATION / APPLICATION"];
	s15 -> s15 [label="CERTIFICATE / TIMEOUT"];
	s15 -> s15 [label="EMPTY_CERTIFICATE / TIMEOUT"];
	s15 -> s1 [label="Alert(WARNING,CLOSE_NOTIFY) / TIMEOUT"];
	s15 -> s1 [label="Alert(FATAL,UNEXPECTED_MESSAGE) / TIMEOUT"];
	s16 -> s16 [label="HELLO_VERIFY_REQUEST / TIMEOUT"];
	s16 -> s16 [label="ECDH_SERVER_HELLO / TIMEOUT"];
	s16 -> s16 [label="ECDH_SERVER_KEY_EXCHANGE / TIMEOUT"];
	s16 -> s15 [label="DH_SERVER_HELLO / TIMEOUT"];
	s16 -> s16 [label="DH_SERVER_KEY_EXCHANGE / TIMEOUT"];
	s16 -> s15 [label="RSA_SERVER_HELLO / TIMEOUT"];
	s16 -> s16 [label="RSA_SIGN_CERTIFICATE_REQUEST / TIMEOUT"];
	s16 -> s16 [label="RSA_FIXED_ECDH_CERTIFICATE_REQUEST / TIMEOUT"];
	s16 -> s16 [label="RSA_FIXED_DH_CERTIFICATE_REQUEST / TIMEOUT"];
	s16 -> s16 [label="DSS_SIGN_CERTIFICATE_REQUEST / TIMEOUT"];
	s16 -> s16 [label="DSS_FIXED_DH_CERTIFICATE_REQUEST / TIMEOUT"];
	s16 -> s16 [label="ECDSA_SIGN_CERTIFICATE_REQUEST / TIMEOUT"];
	s16 -> s16 [label="SERVER_HELLO_DONE / TIMEOUT"];
	s16 -> s3 [label="CHANGE_CIPHER_SPEC / TIMEOUT"];
	s16 -> s16 [label="FINISHED / TIMEOUT"];
	s16 -> s16 [label="APPLICATION / TIMEOUT"];
	s16 -> s16 [label="CERTIFICATE / TIMEOUT"];
	s16 -> s16 [label="EMPTY_CERTIFICATE / TIMEOUT"];
	s16 -> s16 [label="Alert(WARNING,CLOSE_NOTIFY) / TIMEOUT"];
	s16 -> s16 [label="Alert(FATAL,UNEXPECTED_MESSAGE) / TIMEOUT"];
	s17 -> s17 [label="HELLO_VERIFY_REQUEST / TIMEOUT"];
	s17 -> s17 [label="ECDH_SERVER_HELLO / TIMEOUT"];
	s17 -> s17 [label="ECDH_SERVER_KEY_EXCHANGE / TIMEOUT"];
	s17 -> s14 [label="DH_SERVER_HELLO / TIMEOUT"];
	s17 -> s17 [label="DH_SERVER_KEY_EXCHANGE / TIMEOUT"];
	s17 -> s14 [label="RSA_SERVER_HELLO / TIMEOUT"];
	s17 -> s17 [label="RSA_SIGN_CERTIFICATE_REQUEST / TIMEOUT"];
	s17 -> s17 [label="RSA_FIXED_ECDH_CERTIFICATE_REQUEST / TIMEOUT"];
	s17 -> s17 [label="RSA_FIXED_DH_CERTIFICATE_REQUEST / TIMEOUT"];
	s17 -> s17 [label="DSS_SIGN_CERTIFICATE_REQUEST / TIMEOUT"];
	s17 -> s17 [label="DSS_FIXED_DH_CERTIFICATE_REQUEST / TIMEOUT"];
	s17 -> s17 [label="ECDSA_SIGN_CERTIFICATE_REQUEST / TIMEOUT"];
	s17 -> s17 [label="SERVER_HELLO_DONE / TIMEOUT"];
	s17 -> s3 [label="CHANGE_CIPHER_SPEC / TIMEOUT"];
	s17 -> s17 [label="FINISHED / TIMEOUT"];
	s17 -> s17 [label="APPLICATION / TIMEOUT"];
	s17 -> s17 [label="CERTIFICATE / TIMEOUT"];
	s17 -> s17 [label="EMPTY_CERTIFICATE / TIMEOUT"];
	s17 -> s17 [label="Alert(WARNING,CLOSE_NOTIFY) / TIMEOUT"];
	s17 -> s17 [label="Alert(FATAL,UNEXPECTED_MESSAGE) / TIMEOUT"];
	s18 -> s18 [label="HELLO_VERIFY_REQUEST / TIMEOUT"];
	s18 -> s9 [label="ECDH_SERVER_HELLO / TIMEOUT"];
	s18 -> s18 [label="ECDH_SERVER_KEY_EXCHANGE / TIMEOUT"];
	s18 -> s18 [label="DH_SERVER_HELLO / TIMEOUT"];
	s18 -> s18 [label="DH_SERVER_KEY_EXCHANGE / TIMEOUT"];
	s18 -> s18 [label="RSA_SERVER_HELLO / TIMEOUT"];
	s18 -> s18 [label="RSA_SIGN_CERTIFICATE_REQUEST / TIMEOUT"];
	s18 -> s18 [label="RSA_FIXED_ECDH_CERTIFICATE_REQUEST / TIMEOUT"];
	s18 -> s18 [label="RSA_FIXED_DH_CERTIFICATE_REQUEST / TIMEOUT"];
	s18 -> s18 [label="DSS_SIGN_CERTIFICATE_REQUEST / TIMEOUT"];
	s18 -> s18 [label="DSS_FIXED_DH_CERTIFICATE_REQUEST / TIMEOUT"];
	s18 -> s18 [label="ECDSA_SIGN_CERTIFICATE_REQUEST / TIMEOUT"];
	s18 -> s18 [label="SERVER_HELLO_DONE / TIMEOUT"];
	s18 -> s3 [label="CHANGE_CIPHER_SPEC / TIMEOUT"];
	s18 -> s18 [label="FINISHED / TIMEOUT"];
	s18 -> s18 [label="APPLICATION / TIMEOUT"];
	s18 -> s18 [label="CERTIFICATE / TIMEOUT"];
	s18 -> s18 [label="EMPTY_CERTIFICATE / TIMEOUT"];
	s18 -> s1 [label="Alert(WARNING,CLOSE_NOTIFY) / Alert(FATAL,UNEXPECTED_MESSAGE)"];
	s18 -> s1 [label="Alert(FATAL,UNEXPECTED_MESSAGE) / TIMEOUT"];
	s19 -> s1 [label="HELLO_VERIFY_REQUEST / Alert(FATAL,UNEXPECTED_MESSAGE)"];
	s19 -> s1 [label="ECDH_SERVER_HELLO / Alert(FATAL,UNEXPECTED_MESSAGE)"];
	s19 -> s1 [label="ECDH_SERVER_KEY_EXCHANGE / Alert(FATAL,UNEXPECTED_MESSAGE)"];
	s19 -> s1 [label="DH_SERVER_HELLO / Alert(FATAL,UNEXPECTED_MESSAGE)"];
	s19 -> s1 [label="DH_SERVER_KEY_EXCHANGE / Alert(FATAL,UNEXPECTED_MESSAGE)"];
	s19 -> s1 [label="RSA_SERVER_HELLO / Alert(FATAL,UNEXPECTED_MESSAGE)"];
	s19 -> s1 [label="RSA_SIGN_CERTIFICATE_REQUEST / Alert(FATAL,UNEXPECTED_MESSAGE)"];
	s19 -> s1 [label="RSA_FIXED_ECDH_CERTIFICATE_REQUEST / Alert(FATAL,UNEXPECTED_MESSAGE)"];
	s19 -> s1 [label="RSA_FIXED_DH_CERTIFICATE_REQUEST / Alert(FATAL,UNEXPECTED_MESSAGE)"];
	s19 -> s1 [label="DSS_SIGN_CERTIFICATE_REQUEST / Alert(FATAL,UNEXPECTED_MESSAGE)"];
	s19 -> s1 [label="DSS_FIXED_DH_CERTIFICATE_REQUEST / Alert(FATAL,UNEXPECTED_MESSAGE)"];
	s19 -> s1 [label="ECDSA_SIGN_CERTIFICATE_REQUEST / Alert(FATAL,UNEXPECTED_MESSAGE)"];
	s19 -> s1 [label="SERVER_HELLO_DONE / Alert(FATAL,UNEXPECTED_MESSAGE)"];
	s19 -> s3 [label="CHANGE_CIPHER_SPEC / TIMEOUT"];
	s19 -> s1 [label="FINISHED / Alert(FATAL,UNEXPECTED_MESSAGE)"];
	s19 -> s19 [label="APPLICATION / TIMEOUT"];
	s19 -> s20 [label="CERTIFICATE / TIMEOUT"];
	s19 -> s1 [label="EMPTY_CERTIFICATE / Alert(FATAL,DECODE_ERROR)"];
	s19 -> s1 [label="Alert(WARNING,CLOSE_NOTIFY) / Alert(FATAL,INTERNAL_ERROR)"];
	s19 -> s1 [label="Alert(FATAL,UNEXPECTED_MESSAGE) / TIMEOUT"];
	s20 -> s1 [label="HELLO_VERIFY_REQUEST / Alert(FATAL,UNEXPECTED_MESSAGE)"];
	s20 -> s1 [label="ECDH_SERVER_HELLO / Alert(FATAL,UNEXPECTED_MESSAGE)"];
	s20 -> s1 [label="ECDH_SERVER_KEY_EXCHANGE / Alert(FATAL,DECODE_ERROR)"];
	s20 -> s1 [label="DH_SERVER_HELLO / Alert(FATAL,UNEXPECTED_MESSAGE)"];
	s20 -> s6 [label="DH_SERVER_KEY_EXCHANGE / TIMEOUT"];
	s20 -> s1 [label="RSA_SERVER_HELLO / Alert(FATAL,UNEXPECTED_MESSAGE)"];
	s20 -> s1 [label="RSA_SIGN_CERTIFICATE_REQUEST / Alert(FATAL,UNEXPECTED_MESSAGE)"];
	s20 -> s1 [label="RSA_FIXED_ECDH_CERTIFICATE_REQUEST / Alert(FATAL,UNEXPECTED_MESSAGE)"];
	s20 -> s1 [label="RSA_FIXED_DH_CERTIFICATE_REQUEST / Alert(FATAL,UNEXPECTED_MESSAGE)"];
	s20 -> s1 [label="DSS_SIGN_CERTIFICATE_REQUEST / Alert(FATAL,UNEXPECTED_MESSAGE)"];
	s20 -> s1 [label="DSS_FIXED_DH_CERTIFICATE_REQUEST / Alert(FATAL,UNEXPECTED_MESSAGE)"];
	s20 -> s1 [label="ECDSA_SIGN_CERTIFICATE_REQUEST / Alert(FATAL,UNEXPECTED_MESSAGE)"];
	s20 -> s1 [label="SERVER_HELLO_DONE / Alert(FATAL,UNEXPECTED_MESSAGE)"];
	s20 -> s3 [label="CHANGE_CIPHER_SPEC / TIMEOUT"];
	s20 -> s1 [label="FINISHED / Alert(FATAL,UNEXPECTED_MESSAGE)"];
	s20 -> s20 [label="APPLICATION / TIMEOUT"];
	s20 -> s1 [label="CERTIFICATE / Alert(FATAL,UNEXPECTED_MESSAGE)"];
	s20 -> s1 [label="EMPTY_CERTIFICATE / Alert(FATAL,UNEXPECTED_MESSAGE)"];
	s20 -> s1 [label="Alert(WARNING,CLOSE_NOTIFY) / Alert(FATAL,INTERNAL_ERROR)"];
	s20 -> s1 [label="Alert(FATAL,UNEXPECTED_MESSAGE) / TIMEOUT"];
	s21 -> s21 [label="HELLO_VERIFY_REQUEST / TIMEOUT"];
	s21 -> s50 [label="ECDH_SERVER_HELLO / TIMEOUT"];
	s21 -> s21 [label="ECDH_SERVER_KEY_EXCHANGE / TIMEOUT"];
	s21 -> s21 [label="DH_SERVER_HELLO / TIMEOUT"];
	s21 -> s21 [label="DH_SERVER_KEY_EXCHANGE / TIMEOUT"];
	s21 -> s21 [label="RSA_SERVER_HELLO / TIMEOUT"];
	s21 -> s21 [label="RSA_SIGN_CERTIFICATE_REQUEST / TIMEOUT"];
	s21 -> s21 [label="RSA_FIXED_ECDH_CERTIFICATE_REQUEST / TIMEOUT"];
	s21 -> s21 [label="RSA_FIXED_DH_CERTIFICATE_REQUEST / TIMEOUT"];
	s21 -> s21 [label="DSS_SIGN_CERTIFICATE_REQUEST / TIMEOUT"];
	s21 -> s21 [label="DSS_FIXED_DH_CERTIFICATE_REQUEST / TIMEOUT"];
	s21 -> s21 [label="ECDSA_SIGN_CERTIFICATE_REQUEST / TIMEOUT"];
	s21 -> s40 [label="SERVER_HELLO_DONE / TIMEOUT"];
	s21 -> s3 [label="CHANGE_CIPHER_SPEC / TIMEOUT"];
	s21 -> s21 [label="FINISHED / TIMEOUT"];
	s21 -> s21 [label="APPLICATION / TIMEOUT"];
	s21 -> s22 [label="CERTIFICATE / TIMEOUT"];
	s21 -> s22 [label="EMPTY_CERTIFICATE / TIMEOUT"];
	s21 -> s1 [label="Alert(WARNING,CLOSE_NOTIFY) / Alert(FATAL,INTERNAL_ERROR)"];
	s21 -> s1 [label="Alert(FATAL,UNEXPECTED_MESSAGE) / TIMEOUT"];
	s22 -> s51 [label="HELLO_VERIFY_REQUEST / TIMEOUT"];
	s22 -> s54 [label="ECDH_SERVER_HELLO / TIMEOUT"];
	s22 -> s22 [label="ECDH_SERVER_KEY_EXCHANGE / TIMEOUT"];
	s22 -> s22 [label="DH_SERVER_HELLO / TIMEOUT"];
	s22 -> s22 [label="DH_SERVER_KEY_EXCHANGE / TIMEOUT"];
	s22 -> s22 [label="RSA_SERVER_HELLO / TIMEOUT"];
	s22 -> s22 [label="RSA_SIGN_CERTIFICATE_REQUEST / TIMEOUT"];
	s22 -> s22 [label="RSA_FIXED_ECDH_CERTIFICATE_REQUEST / TIMEOUT"];
	s22 -> s22 [label="RSA_FIXED_DH_CERTIFICATE_REQUEST / TIMEOUT"];
	s22 -> s22 [label="DSS_SIGN_CERTIFICATE_REQUEST / TIMEOUT"];
	s22 -> s22 [label="DSS_FIXED_DH_CERTIFICATE_REQUEST / TIMEOUT"];
	s22 -> s22 [label="ECDSA_SIGN_CERTIFICATE_REQUEST / TIMEOUT"];
	s22 -> s36 [label="SERVER_HELLO_DONE / TIMEOUT"];
	s22 -> s3 [label="CHANGE_CIPHER_SPEC / TIMEOUT"];
	s22 -> s23 [label="FINISHED / TIMEOUT"];
	s22 -> s22 [label="APPLICATION / TIMEOUT"];
	s22 -> s22 [label="CERTIFICATE / TIMEOUT"];
	s22 -> s22 [label="EMPTY_CERTIFICATE / TIMEOUT"];
	s22 -> s1 [label="Alert(WARNING,CLOSE_NOTIFY) / Alert(FATAL,INTERNAL_ERROR)"];
	s22 -> s1 [label="Alert(FATAL,UNEXPECTED_MESSAGE) / TIMEOUT"];
	s23 -> s24 [label="HELLO_VERIFY_REQUEST / TIMEOUT"];
	s23 -> s54 [label="ECDH_SERVER_HELLO / TIMEOUT"];
	s23 -> s23 [label="ECDH_SERVER_KEY_EXCHANGE / TIMEOUT"];
	s23 -> s23 [label="DH_SERVER_HELLO / TIMEOUT"];
	s23 -> s23 [label="DH_SERVER_KEY_EXCHANGE / TIMEOUT"];
	s23 -> s23 [label="RSA_SERVER_HELLO / TIMEOUT"];
	s23 -> s57 [label="RSA_SIGN_CERTIFICATE_REQUEST / TIMEOUT"];
	s23 -> s57 [label="RSA_FIXED_ECDH_CERTIFICATE_REQUEST / TIMEOUT"];
	s23 -> s57 [label="RSA_FIXED_DH_CERTIFICATE_REQUEST / TIMEOUT"];
	s23 -> s57 [label="DSS_SIGN_CERTIFICATE_REQUEST / TIMEOUT"];
	s23 -> s57 [label="DSS_FIXED_DH_CERTIFICATE_REQUEST / TIMEOUT"];
	s23 -> s57 [label="ECDSA_SIGN_CERTIFICATE_REQUEST / TIMEOUT"];
	s23 -> s33 [label="SERVER_HELLO_DONE / TIMEOUT"];
	s23 -> s3 [label="CHANGE_CIPHER_SPEC / TIMEOUT"];
	s23 -> s23 [label="FINISHED / TIMEOUT"];
	s23 -> s23 [label="APPLICATION / TIMEOUT"];
	s23 -> s23 [label="CERTIFICATE / TIMEOUT"];
	s23 -> s23 [label="EMPTY_CERTIFICATE / TIMEOUT"];
	s23 -> s1 [label="Alert(WARNING,CLOSE_NOTIFY) / Alert(FATAL,INTERNAL_ERROR)"];
	s23 -> s1 [label="Alert(FATAL,UNEXPECTED_MESSAGE) / TIMEOUT"];
	s24 -> s24 [label="HELLO_VERIFY_REQUEST / TIMEOUT"];
	s24 -> s25 [label="ECDH_SERVER_HELLO / TIMEOUT"];
	s24 -> s24 [label="ECDH_SERVER_KEY_EXCHANGE / TIMEOUT"];
	s24 -> s26 [label="DH_SERVER_HELLO / TIMEOUT"];
	s24 -> s24 [label="DH_SERVER_KEY_EXCHANGE / TIMEOUT"];
	s24 -> s26 [label="RSA_SERVER_HELLO / TIMEOUT"];
	s24 -> s59 [label="RSA_SIGN_CERTIFICATE_REQUEST / TIMEOUT"];
	s24 -> s59 [label="RSA_FIXED_ECDH_CERTIFICATE_REQUEST / TIMEOUT"];
	s24 -> s59 [label="RSA_FIXED_DH_CERTIFICATE_REQUEST / TIMEOUT"];
	s24 -> s59 [label="DSS_SIGN_CERTIFICATE_REQUEST / TIMEOUT"];
	s24 -> s59 [label="DSS_FIXED_DH_CERTIFICATE_REQUEST / TIMEOUT"];
	s24 -> s59 [label="ECDSA_SIGN_CERTIFICATE_REQUEST / TIMEOUT"];
	s24 -> s29 [label="SERVER_HELLO_DONE / TIMEOUT"];
	s24 -> s3 [label="CHANGE_CIPHER_SPEC / TIMEOUT"];
	s24 -> s24 [label="FINISHED / TIMEOUT"];
	s24 -> s24 [label="APPLICATION / TIMEOUT"];
	s24 -> s24 [label="CERTIFICATE / TIMEOUT"];
	s24 -> s24 [label="EMPTY_CERTIFICATE / TIMEOUT"];
	s24 -> s1 [label="Alert(WARNING,CLOSE_NOTIFY) / Alert(FATAL,INTERNAL_ERROR)"];
	s24 -> s1 [label="Alert(FATAL,UNEXPECTED_MESSAGE) / TIMEOUT"];
	s25 -> s25 [label="HELLO_VERIFY_REQUEST / TIMEOUT"];
	s25 -> s25 [label="ECDH_SERVER_HELLO / TIMEOUT"];
	s25 -> s25 [label="ECDH_SERVER_KEY_EXCHANGE / TIMEOUT"];
	s25 -> s26 [label="DH_SERVER_HELLO / TIMEOUT"];
	s25 -> s25 [label="DH_SERVER_KEY_EXCHANGE / TIMEOUT"];
	s25 -> s26 [label="RSA_SERVER_HELLO / TIMEOUT"];
	s25 -> s25 [label="RSA_SIGN_CERTIFICATE_REQUEST / TIMEOUT"];
	s25 -> s25 [label="RSA_FIXED_ECDH_CERTIFICATE_REQUEST / TIMEOUT"];
	s25 -> s25 [label="RSA_FIXED_DH_CERTIFICATE_REQUEST / TIMEOUT"];
	s25 -> s25 [label="DSS_SIGN_CERTIFICATE_REQUEST / TIMEOUT"];
	s25 -> s25 [label="DSS_FIXED_DH_CERTIFICATE_REQUEST / TIMEOUT"];
	s25 -> s25 [label="ECDSA_SIGN_CERTIFICATE_REQUEST / TIMEOUT"];
	s25 -> s25 [label="SERVER_HELLO_DONE / TIMEOUT"];
	s25 -> s3 [label="CHANGE_CIPHER_SPEC / TIMEOUT"];
	s25 -> s25 [label="FINISHED / TIMEOUT"];
	s25 -> s25 [label="APPLICATION / TIMEOUT"];
	s25 -> s25 [label="CERTIFICATE / TIMEOUT"];
	s25 -> s25 [label="EMPTY_CERTIFICATE / TIMEOUT"];
	s25 -> s25 [label="Alert(WARNING,CLOSE_NOTIFY) / TIMEOUT"];
	s25 -> s25 [label="Alert(FATAL,UNEXPECTED_MESSAGE) / TIMEOUT"];
	s26 -> s26 [label="HELLO_VERIFY_REQUEST / TIMEOUT"];
	s26 -> s25 [label="ECDH_SERVER_HELLO / TIMEOUT"];
	s26 -> s26 [label="ECDH_SERVER_KEY_EXCHANGE / TIMEOUT"];
	s26 -> s26 [label="DH_SERVER_HELLO / TIMEOUT"];
	s26 -> s26 [label="DH_SERVER_KEY_EXCHANGE / TIMEOUT"];
	s26 -> s26 [label="RSA_SERVER_HELLO / TIMEOUT"];
	s26 -> s27 [label="RSA_SIGN_CERTIFICATE_REQUEST / TIMEOUT"];
	s26 -> s27 [label="RSA_FIXED_ECDH_CERTIFICATE_REQUEST / TIMEOUT"];
	s26 -> s27 [label="RSA_FIXED_DH_CERTIFICATE_REQUEST / TIMEOUT"];
	s26 -> s27 [label="DSS_SIGN_CERTIFICATE_REQUEST / TIMEOUT"];
	s26 -> s27 [label="DSS_FIXED_DH_CERTIFICATE_REQUEST / TIMEOUT"];
	s26 -> s27 [label="ECDSA_SIGN_CERTIFICATE_REQUEST / TIMEOUT"];
	s26 -> s28 [label="SERVER_HELLO_DONE / TIMEOUT"];
	s26 -> s3 [label="CHANGE_CIPHER_SPEC / TIMEOUT"];
	s26 -> s26 [label="FINISHED / TIMEOUT"];
	s26 -> s26 [label="APPLICATION / TIMEOUT"];
	s26 -> s26 [label="CERTIFICATE / TIMEOUT"];
	s26 -> s26 [label="EMPTY_CERTIFICATE / TIMEOUT"];
	s26 -> s1 [label="Alert(WARNING,CLOSE_NOTIFY) / Alert(FATAL,INTERNAL_ERROR)"];
	s26 -> s1 [label="Alert(FATAL,UNEXPECTED_MESSAGE) / TIMEOUT"];
	s27 -> s27 [label="HELLO_VERIFY_REQUEST / TIMEOUT"];
	s27 -> s25 [label="ECDH_SERVER_HELLO / TIMEOUT"];
	s27 -> s27 [label="ECDH_SERVER_KEY_EXCHANGE / TIMEOUT"];
	s27 -> s27 [label="DH_SERVER_HELLO / TIMEOUT"];
	s27 -> s27 [label="DH_SERVER_KEY_EXCHANGE / TIMEOUT"];
	s27 -> s27 [label="RSA_SERVER_HELLO / TIMEOUT"];
	s27 -> s27 [label="RSA_SIGN_CERTIFICATE_REQUEST / TIMEOUT"];
	s27 -> s27 [label="RSA_FIXED_ECDH_CERTIFICATE_REQUEST / TIMEOUT"];
	s27 -> s27 [label="RSA_FIXED_DH_CERTIFICATE_REQUEST / TIMEOUT"];
	s27 -> s27 [label="DSS_SIGN_CERTIFICATE_REQUEST / TIMEOUT"];
	s27 -> s27 [label="DSS_FIXED_DH_CERTIFICATE_REQUEST / TIMEOUT"];
	s27 -> s27 [label="ECDSA_SIGN_CERTIFICATE_REQUEST / TIMEOUT"];
	s27 -> s1 [label="SERVER_HELLO_DONE / Alert(FATAL,INTERNAL_ERROR)"];
	s27 -> s3 [label="CHANGE_CIPHER_SPEC / TIMEOUT"];
	s27 -> s27 [label="FINISHED / TIMEOUT"];
	s27 -> s27 [label="APPLICATION / TIMEOUT"];
	s27 -> s27 [label="CERTIFICATE / TIMEOUT"];
	s27 -> s27 [label="EMPTY_CERTIFICATE / TIMEOUT"];
	s27 -> s1 [label="Alert(WARNING,CLOSE_NOTIFY) / Alert(FATAL,INTERNAL_ERROR)"];
	s27 -> s1 [label="Alert(FATAL,UNEXPECTED_MESSAGE) / TIMEOUT"];
	s28 -> s28 [label="HELLO_VERIFY_REQUEST / TIMEOUT"];
	s28 -> s32 [label="ECDH_SERVER_HELLO / TIMEOUT"];
	s28 -> s28 [label="ECDH_SERVER_KEY_EXCHANGE / TIMEOUT"];
	s28 -> s28 [label="DH_SERVER_HELLO / TIMEOUT"];
	s28 -> s28 [label="DH_SERVER_KEY_EXCHANGE / TIMEOUT"];
	s28 -> s28 [label="RSA_SERVER_HELLO / TIMEOUT"];
	s28 -> s1 [label="RSA_SIGN_CERTIFICATE_REQUEST / Alert(FATAL,INTERNAL_ERROR)"];
	s28 -> s1 [label="RSA_FIXED_ECDH_CERTIFICATE_REQUEST / Alert(FATAL,INTERNAL_ERROR)"];
	s28 -> s1 [label="RSA_FIXED_DH_CERTIFICATE_REQUEST / Alert(FATAL,INTERNAL_ERROR)"];
	s28 -> s1 [label="DSS_SIGN_CERTIFICATE_REQUEST / Alert(FATAL,INTERNAL_ERROR)"];
	s28 -> s1 [label="DSS_FIXED_DH_CERTIFICATE_REQUEST / Alert(FATAL,INTERNAL_ERROR)"];
	s28 -> s1 [label="ECDSA_SIGN_CERTIFICATE_REQUEST / Alert(FATAL,INTERNAL_ERROR)"];
	s28 -> s28 [label="SERVER_HELLO_DONE / TIMEOUT"];
	s28 -> s3 [label="CHANGE_CIPHER_SPEC / TIMEOUT"];
	s28 -> s28 [label="FINISHED / TIMEOUT"];
	s28 -> s28 [label="APPLICATION / TIMEOUT"];
	s28 -> s28 [label="CERTIFICATE / TIMEOUT"];
	s28 -> s28 [label="EMPTY_CERTIFICATE / TIMEOUT"];
	s28 -> s1 [label="Alert(WARNING,CLOSE_NOTIFY) / Alert(FATAL,INTERNAL_ERROR)"];
	s28 -> s1 [label="Alert(FATAL,UNEXPECTED_MESSAGE) / TIMEOUT"];
	s29 -> s29 [label="HELLO_VERIFY_REQUEST / TIMEOUT"];
	s29 -> s32 [label="ECDH_SERVER_HELLO / TIMEOUT"];
	s29 -> s29 [label="ECDH_SERVER_KEY_EXCHANGE / TIMEOUT"];
	s29 -> s28 [label="DH_SERVER_HELLO / TIMEOUT"];
	s29 -> s29 [label="DH_SERVER_KEY_EXCHANGE / TIMEOUT"];
	s29 -> s28 [label="RSA_SERVER_HELLO / TIMEOUT"];
	s29 -> s30 [label="RSA_SIGN_CERTIFICATE_REQUEST / TIMEOUT"];
	s29 -> s30 [label="RSA_FIXED_ECDH_CERTIFICATE_REQUEST / TIMEOUT"];
	s29 -> s30 [label="RSA_FIXED_DH_CERTIFICATE_REQUEST / TIMEOUT"];
	s29 -> s30 [label="DSS_SIGN_CERTIFICATE_REQUEST / TIMEOUT"];
	s29 -> s30 [label="DSS_FIXED_DH_CERTIFICATE_REQUEST / TIMEOUT"];
	s29 -> s30 [label="ECDSA_SIGN_CERTIFICATE_REQUEST / TIMEOUT"];
	s29 -> s29 [label="SERVER_HELLO_DONE / TIMEOUT"];
	s29 -> s3 [label="CHANGE_CIPHER_SPEC / TIMEOUT"];
	s29 -> s29 [label="FINISHED / TIMEOUT"];
	s29 -> s29 [label="APPLICATION / TIMEOUT"];
	s29 -> s29 [label="CERTIFICATE / TIMEOUT"];
	s29 -> s29 [label="EMPTY_CERTIFICATE / TIMEOUT"];
	s29 -> s1 [label="Alert(WARNING,CLOSE_NOTIFY) / Alert(FATAL,INTERNAL_ERROR)"];
	s29 -> s1 [label="Alert(FATAL,UNEXPECTED_MESSAGE) / TIMEOUT"];
	s30 -> s30 [label="HELLO_VERIFY_REQUEST / TIMEOUT"];
	s30 -> s31 [label="ECDH_SERVER_HELLO / TIMEOUT"];
	s30 -> s30 [label="ECDH_SERVER_KEY_EXCHANGE / TIMEOUT"];
	s30 -> s1 [label="DH_SERVER_HELLO / Alert(FATAL,INTERNAL_ERROR)"];
	s30 -> s30 [label="DH_SERVER_KEY_EXCHANGE / TIMEOUT"];
	s30 -> s1 [label="RSA_SERVER_HELLO / Alert(FATAL,INTERNAL_ERROR)"];
	s30 -> s30 [label="RSA_SIGN_CERTIFICATE_REQUEST / TIMEOUT"];
	s30 -> s30 [label="RSA_FIXED_ECDH_CERTIFICATE_REQUEST / TIMEOUT"];
	s30 -> s30 [label="RSA_FIXED_DH_CERTIFICATE_REQUEST / TIMEOUT"];
	s30 -> s30 [label="DSS_SIGN_CERTIFICATE_REQUEST / TIMEOUT"];
	s30 -> s30 [label="DSS_FIXED_DH_CERTIFICATE_REQUEST / TIMEOUT"];
	s30 -> s30 [label="ECDSA_SIGN_CERTIFICATE_REQUEST / TIMEOUT"];
	s30 -> s30 [label="SERVER_HELLO_DONE / TIMEOUT"];
	s30 -> s3 [label="CHANGE_CIPHER_SPEC / TIMEOUT"];
	s30 -> s30 [label="FINISHED / TIMEOUT"];
	s30 -> s30 [label="APPLICATION / TIMEOUT"];
	s30 -> s30 [label="CERTIFICATE / TIMEOUT"];
	s30 -> s30 [label="EMPTY_CERTIFICATE / TIMEOUT"];
	s30 -> s1 [label="Alert(WARNING,CLOSE_NOTIFY) / Alert(FATAL,INTERNAL_ERROR)"];
	s30 -> s1 [label="Alert(FATAL,UNEXPECTED_MESSAGE) / TIMEOUT"];
	s31 -> s31 [label="HELLO_VERIFY_REQUEST / TIMEOUT"];
	s31 -> s31 [label="ECDH_SERVER_HELLO / TIMEOUT"];
	s31 -> s31 [label="ECDH_SERVER_KEY_EXCHANGE / TIMEOUT"];
	s31 -> s1 [label="DH_SERVER_HELLO / Alert(FATAL,INTERNAL_ERROR)"];
	s31 -> s31 [label="DH_SERVER_KEY_EXCHANGE / TIMEOUT"];
	s31 -> s1 [label="RSA_SERVER_HELLO / Alert(FATAL,INTERNAL_ERROR)"];
	s31 -> s31 [label="RSA_SIGN_CERTIFICATE_REQUEST / TIMEOUT"];
	s31 -> s31 [label="RSA_FIXED_ECDH_CERTIFICATE_REQUEST / TIMEOUT"];
	s31 -> s31 [label="RSA_FIXED_DH_CERTIFICATE_REQUEST / TIMEOUT"];
	s31 -> s31 [label="DSS_SIGN_CERTIFICATE_REQUEST / TIMEOUT"];
	s31 -> s31 [label="DSS_FIXED_DH_CERTIFICATE_REQUEST / TIMEOUT"];
	s31 -> s31 [label="ECDSA_SIGN_CERTIFICATE_REQUEST / TIMEOUT"];
	s31 -> s31 [label="SERVER_HELLO_DONE / TIMEOUT"];
	s31 -> s3 [label="CHANGE_CIPHER_SPEC / TIMEOUT"];
	s31 -> s31 [label="FINISHED / TIMEOUT"];
	s31 -> s31 [label="APPLICATION / TIMEOUT"];
	s31 -> s31 [label="CERTIFICATE / TIMEOUT"];
	s31 -> s31 [label="EMPTY_CERTIFICATE / TIMEOUT"];
	s31 -> s31 [label="Alert(WARNING,CLOSE_NOTIFY) / TIMEOUT"];
	s31 -> s31 [label="Alert(FATAL,UNEXPECTED_MESSAGE) / TIMEOUT"];
	s32 -> s32 [label="HELLO_VERIFY_REQUEST / TIMEOUT"];
	s32 -> s32 [label="ECDH_SERVER_HELLO / TIMEOUT"];
	s32 -> s32 [label="ECDH_SERVER_KEY_EXCHANGE / TIMEOUT"];
	s32 -> s28 [label="DH_SERVER_HELLO / TIMEOUT"];
	s32 -> s32 [label="DH_SERVER_KEY_EXCHANGE / TIMEOUT"];
	s32 -> s28 [label="RSA_SERVER_HELLO / TIMEOUT"];
	s32 -> s32 [label="RSA_SIGN_CERTIFICATE_REQUEST / TIMEOUT"];
	s32 -> s32 [label="RSA_FIXED_ECDH_CERTIFICATE_REQUEST / TIMEOUT"];
	s32 -> s32 [label="RSA_FIXED_DH_CERTIFICATE_REQUEST / TIMEOUT"];
	s32 -> s32 [label="DSS_SIGN_CERTIFICATE_REQUEST / TIMEOUT"];
	s32 -> s32 [label="DSS_FIXED_DH_CERTIFICATE_REQUEST / TIMEOUT"];
	s32 -> s32 [label="ECDSA_SIGN_CERTIFICATE_REQUEST / TIMEOUT"];
	s32 -> s32 [label="SERVER_HELLO_DONE / TIMEOUT"];
	s32 -> s3 [label="CHANGE_CIPHER_SPEC / TIMEOUT"];
	s32 -> s32 [label="FINISHED / TIMEOUT"];
	s32 -> s32 [label="APPLICATION / TIMEOUT"];
	s32 -> s32 [label="CERTIFICATE / TIMEOUT"];
	s32 -> s32 [label="EMPTY_CERTIFICATE / TIMEOUT"];
	s32 -> s32 [label="Alert(WARNING,CLOSE_NOTIFY) / TIMEOUT"];
	s32 -> s32 [label="Alert(FATAL,UNEXPECTED_MESSAGE) / TIMEOUT"];
	s33 -> s29 [label="HELLO_VERIFY_REQUEST / TIMEOUT"];
	s33 -> s48 [label="ECDH_SERVER_HELLO / TIMEOUT"];
	s33 -> s33 [label="ECDH_SERVER_KEY_EXCHANGE / TIMEOUT"];
	s33 -> s33 [label="DH_SERVER_HELLO / TIMEOUT"];
	s33 -> s33 [label="DH_SERVER_KEY_EXCHANGE / TIMEOUT"];
	s33 -> s33 [label="RSA_SERVER_HELLO / TIMEOUT"];
	s33 -> s34 [label="RSA_SIGN_CERTIFICATE_REQUEST / TIMEOUT"];
	s33 -> s34 [label="RSA_FIXED_ECDH_CERTIFICATE_REQUEST / TIMEOUT"];
	s33 -> s34 [label="RSA_FIXED_DH_CERTIFICATE_REQUEST / TIMEOUT"];
	s33 -> s34 [label="DSS_SIGN_CERTIFICATE_REQUEST / TIMEOUT"];
	s33 -> s34 [label="DSS_FIXED_DH_CERTIFICATE_REQUEST / TIMEOUT"];
	s33 -> s34 [label="ECDSA_SIGN_CERTIFICATE_REQUEST / TIMEOUT"];
	s33 -> s33 [label="SERVER_HELLO_DONE / TIMEOUT"];
	s33 -> s3 [label="CHANGE_CIPHER_SPEC / TIMEOUT"];
	s33 -> s33 [label="FINISHED / TIMEOUT"];
	s33 -> s33 [label="APPLICATION / TIMEOUT"];
	s33 -> s33 [label="CERTIFICATE / TIMEOUT"];
	s33 -> s33 [label="EMPTY_CERTIFICATE / TIMEOUT"];
	s33 -> s1 [label="Alert(WARNING,CLOSE_NOTIFY) / Alert(FATAL,INTERNAL_ERROR)"];
	s33 -> s1 [label="Alert(FATAL,UNEXPECTED_MESSAGE) / TIMEOUT"];
	s34 -> s30 [label="HELLO_VERIFY_REQUEST / TIMEOUT"];
	s34 -> s45 [label="ECDH_SERVER_HELLO / TIMEOUT"];
	s34 -> s34 [label="ECDH_SERVER_KEY_EXCHANGE / TIMEOUT"];
	s34 -> s35 [label="DH_SERVER_HELLO / TIMEOUT"];
	s34 -> s34 [label="DH_SERVER_KEY_EXCHANGE / TIMEOUT"];
	s34 -> s35 [label="RSA_SERVER_HELLO / TIMEOUT"];
	s34 -> s34 [label="RSA_SIGN_CERTIFICATE_REQUEST / TIMEOUT"];
	s34 -> s34 [label="RSA_FIXED_ECDH_CERTIFICATE_REQUEST / TIMEOUT"];
	s34 -> s34 [label="RSA_FIXED_DH_CERTIFICATE_REQUEST / TIMEOUT"];
	s34 -> s34 [label="DSS_SIGN_CERTIFICATE_REQUEST / TIMEOUT"];
	s34 -> s34 [label="DSS_FIXED_DH_CERTIFICATE_REQUEST / TIMEOUT"];
	s34 -> s34 [label="ECDSA_SIGN_CERTIFICATE_REQUEST / TIMEOUT"];
	s34 -> s34 [label="SERVER_HELLO_DONE / TIMEOUT"];
	s34 -> s3 [label="CHANGE_CIPHER_SPEC / TIMEOUT"];
	s34 -> s34 [label="FINISHED / TIMEOUT"];
	s34 -> s34 [label="APPLICATION / TIMEOUT"];
	s34 -> s34 [label="CERTIFICATE / TIMEOUT"];
	s34 -> s34 [label="EMPTY_CERTIFICATE / TIMEOUT"];
	s34 -> s1 [label="Alert(WARNING,CLOSE_NOTIFY) / Alert(FATAL,INTERNAL_ERROR)"];
	s34 -> s1 [label="Alert(FATAL,UNEXPECTED_MESSAGE) / TIMEOUT"];
	s35 -> s1 [label="HELLO_VERIFY_REQUEST / Alert(FATAL,INTERNAL_ERROR)"];
	s35 -> s45 [label="ECDH_SERVER_HELLO / TIMEOUT"];
	s35 -> s35 [label="ECDH_SERVER_KEY_EXCHANGE / TIMEOUT"];
	s35 -> s35 [label="DH_SERVER_HELLO / TIMEOUT"];
	s35 -> s35 [label="DH_SERVER_KEY_EXCHANGE / TIMEOUT"];
	s35 -> s35 [label="RSA_SERVER_HELLO / TIMEOUT"];
	s35 -> s35 [label="RSA_SIGN_CERTIFICATE_REQUEST / TIMEOUT"];
	s35 -> s35 [label="RSA_FIXED_ECDH_CERTIFICATE_REQUEST / TIMEOUT"];
	s35 -> s35 [label="RSA_FIXED_DH_CERTIFICATE_REQUEST / TIMEOUT"];
	s35 -> s35 [label="DSS_SIGN_CERTIFICATE_REQUEST / TIMEOUT"];
	s35 -> s35 [label="DSS_FIXED_DH_CERTIFICATE_REQUEST / TIMEOUT"];
	s35 -> s35 [label="ECDSA_SIGN_CERTIFICATE_REQUEST / TIMEOUT"];
	s35 -> s35 [label="SERVER_HELLO_DONE / TIMEOUT"];
	s35 -> s3 [label="CHANGE_CIPHER_SPEC / TIMEOUT"];
	s35 -> s35 [label="FINISHED / TIMEOUT"];
	s35 -> s35 [label="APPLICATION / TIMEOUT"];
	s35 -> s35 [label="CERTIFICATE / TIMEOUT"];
	s35 -> s35 [label="EMPTY_CERTIFICATE / TIMEOUT"];
	s35 -> s1 [label="Alert(WARNING,CLOSE_NOTIFY) / Alert(FATAL,INTERNAL_ERROR)"];
	s35 -> s1 [label="Alert(FATAL,UNEXPECTED_MESSAGE) / TIMEOUT"];
	s36 -> s36 [label="HELLO_VERIFY_REQUEST / TIMEOUT"];
	s36 -> s48 [label="ECDH_SERVER_HELLO / TIMEOUT"];
	s36 -> s36 [label="ECDH_SERVER_KEY_EXCHANGE / TIMEOUT"];
	s36 -> s36 [label="DH_SERVER_HELLO / TIMEOUT"];
	s36 -> s36 [label="DH_SERVER_KEY_EXCHANGE / TIMEOUT"];
	s36 -> s36 [label="RSA_SERVER_HELLO / TIMEOUT"];
	s36 -> s37 [label="RSA_SIGN_CERTIFICATE_REQUEST / TIMEOUT"];
	s36 -> s37 [label="RSA_FIXED_ECDH_CERTIFICATE_REQUEST / TIMEOUT"];
	s36 -> s37 [label="RSA_FIXED_DH_CERTIFICATE_REQUEST / TIMEOUT"];
	s36 -> s37 [label="DSS_SIGN_CERTIFICATE_REQUEST / TIMEOUT"];
	s36 -> s37 [label="DSS_FIXED_DH_CERTIFICATE_REQUEST / TIMEOUT"];
	s36 -> s37 [label="ECDSA_SIGN_CERTIFICATE_REQUEST / TIMEOUT"];
	s36 -> s36 [label="SERVER_HELLO_DONE / TIMEOUT"];
	s36 -> s3 [label="CHANGE_CIPHER_SPEC / TIMEOUT"];
	s36 -> s33 [label="FINISHED / TIMEOUT"];
	s36 -> s36 [label="APPLICATION / TIMEOUT"];
	s36 -> s36 [label="CERTIFICATE / TIMEOUT"];
	s36 -> s36 [label="EMPTY_CERTIFICATE / TIMEOUT"];
	s36 -> s1 [label="Alert(WARNING,CLOSE_NOTIFY) / Alert(FATAL,INTERNAL_ERROR)"];
	s36 -> s1 [label="Alert(FATAL,UNEXPECTED_MESSAGE) / TIMEOUT"];
	s37 -> s37 [label="HELLO_VERIFY_REQUEST / TIMEOUT"];
	s37 -> s49 [label="ECDH_SERVER_HELLO / TIMEOUT"];
	s37 -> s37 [label="ECDH_SERVER_KEY_EXCHANGE / TIMEOUT"];
	s37 -> s38 [label="DH_SERVER_HELLO / TIMEOUT"];
	s37 -> s37 [label="DH_SERVER_KEY_EXCHANGE / TIMEOUT"];
	s37 -> s38 [label="RSA_SERVER_HELLO / TIMEOUT"];
	s37 -> s37 [label="RSA_SIGN_CERTIFICATE_REQUEST / TIMEOUT"];
	s37 -> s37 [label="RSA_FIXED_ECDH_CERTIFICATE_REQUEST / TIMEOUT"];
	s37 -> s37 [label="RSA_FIXED_DH_CERTIFICATE_REQUEST / TIMEOUT"];
	s37 -> s37 [label="DSS_SIGN_CERTIFICATE_REQUEST / TIMEOUT"];
	s37 -> s37 [label="DSS_FIXED_DH_CERTIFICATE_REQUEST / TIMEOUT"];
	s37 -> s37 [label="ECDSA_SIGN_CERTIFICATE_REQUEST / TIMEOUT"];
	s37 -> s37 [label="SERVER_HELLO_DONE / TIMEOUT"];
	s37 -> s3 [label="CHANGE_CIPHER_SPEC / TIMEOUT"];
	s37 -> s34 [label="FINISHED / TIMEOUT"];
	s37 -> s37 [label="APPLICATION / TIMEOUT"];
	s37 -> s37 [label="CERTIFICATE / TIMEOUT"];
	s37 -> s37 [label="EMPTY_CERTIFICATE / TIMEOUT"];
	s37 -> s1 [label="Alert(WARNING,CLOSE_NOTIFY) / Alert(FATAL,INTERNAL_ERROR)"];
	s37 -> s1 [label="Alert(FATAL,UNEXPECTED_MESSAGE) / TIMEOUT"];
	s38 -> s39 [label="HELLO_VERIFY_REQUEST / TIMEOUT"];
	s38 -> s49 [label="ECDH_SERVER_HELLO / TIMEOUT"];
	s38 -> s38 [label="ECDH_SERVER_KEY_EXCHANGE / TIMEOUT"];
	s38 -> s38 [label="DH_SERVER_HELLO / TIMEOUT"];
	s38 -> s38 [label="DH_SERVER_KEY_EXCHANGE / TIMEOUT"];
	s38 -> s38 [label="RSA_SERVER_HELLO / TIMEOUT"];
	s38 -> s38 [label="RSA_SIGN_CERTIFICATE_REQUEST / TIMEOUT"];
	s38 -> s38 [label="RSA_FIXED_ECDH_CERTIFICATE_REQUEST / TIMEOUT"];
	s38 -> s38 [label="RSA_FIXED_DH_CERTIFICATE_REQUEST / TIMEOUT"];
	s38 -> s38 [label="DSS_SIGN_CERTIFICATE_REQUEST / TIMEOUT"];
	s38 -> s38 [label="DSS_FIXED_DH_CERTIFICATE_REQUEST / TIMEOUT"];
	s38 -> s38 [label="ECDSA_SIGN_CERTIFICATE_REQUEST / TIMEOUT"];
	s38 -> s38 [label="SERVER_HELLO_DONE / TIMEOUT"];
	s38 -> s3 [label="CHANGE_CIPHER_SPEC / TIMEOUT"];
	s38 -> s35 [label="FINISHED / TIMEOUT"];
	s38 -> s38 [label="APPLICATION / TIMEOUT"];
	s38 -> s38 [label="CERTIFICATE / TIMEOUT"];
	s38 -> s38 [label="EMPTY_CERTIFICATE / TIMEOUT"];
	s38 -> s1 [label="Alert(WARNING,CLOSE_NOTIFY) / Alert(FATAL,INTERNAL_ERROR)"];
	s38 -> s1 [label="Alert(FATAL,UNEXPECTED_MESSAGE) / TIMEOUT"];
	s39 -> s39 [label="HELLO_VERIFY_REQUEST / TIMEOUT"];
	s39 -> s47 [label="ECDH_SERVER_HELLO / TIMEOUT"];
	s39 -> s39 [label="ECDH_SERVER_KEY_EXCHANGE / TIMEOUT"];
	s39 -> s39 [label="DH_SERVER_HELLO / TIMEOUT"];
	s39 -> s39 [label="DH_SERVER_KEY_EXCHANGE / TIMEOUT"];
	s39 -> s39 [label="RSA_SERVER_HELLO / TIMEOUT"];
	s39 -> s39 [label="RSA_SIGN_CERTIFICATE_REQUEST / TIMEOUT"];
	s39 -> s39 [label="RSA_FIXED_ECDH_CERTIFICATE_REQUEST / TIMEOUT"];
	s39 -> s39 [label="RSA_FIXED_DH_CERTIFICATE_REQUEST / TIMEOUT"];
	s39 -> s39 [label="DSS_SIGN_CERTIFICATE_REQUEST / TIMEOUT"];
	s39 -> s39 [label="DSS_FIXED_DH_CERTIFICATE_REQUEST / TIMEOUT"];
	s39 -> s39 [label="ECDSA_SIGN_CERTIFICATE_REQUEST / TIMEOUT"];
	s39 -> s39 [label="SERVER_HELLO_DONE / TIMEOUT"];
	s39 -> s3 [label="CHANGE_CIPHER_SPEC / TIMEOUT"];
	s39 -> s1 [label="FINISHED / Alert(FATAL,INTERNAL_ERROR)"];
	s39 -> s39 [label="APPLICATION / TIMEOUT"];
	s39 -> s39 [label="CERTIFICATE / TIMEOUT"];
	s39 -> s39 [label="EMPTY_CERTIFICATE / TIMEOUT"];
	s39 -> s1 [label="Alert(WARNING,CLOSE_NOTIFY) / Alert(FATAL,INTERNAL_ERROR)"];
	s39 -> s1 [label="Alert(FATAL,UNEXPECTED_MESSAGE) / TIMEOUT"];
	s40 -> s40 [label="HELLO_VERIFY_REQUEST / TIMEOUT"];
	s40 -> s48 [label="ECDH_SERVER_HELLO / TIMEOUT"];
	s40 -> s40 [label="ECDH_SERVER_KEY_EXCHANGE / TIMEOUT"];
	s40 -> s40 [label="DH_SERVER_HELLO / TIMEOUT"];
	s40 -> s40 [label="DH_SERVER_KEY_EXCHANGE / TIMEOUT"];
	s40 -> s40 [label="RSA_SERVER_HELLO / TIMEOUT"];
	s40 -> s41 [label="RSA_SIGN_CERTIFICATE_REQUEST / TIMEOUT"];
	s40 -> s41 [label="RSA_FIXED_ECDH_CERTIFICATE_REQUEST / TIMEOUT"];
	s40 -> s41 [label="RSA_FIXED_DH_CERTIFICATE_REQUEST / TIMEOUT"];
	s40 -> s41 [label="DSS_SIGN_CERTIFICATE_REQUEST / TIMEOUT"];
	s40 -> s41 [label="DSS_FIXED_DH_CERTIFICATE_REQUEST / TIMEOUT"];
	s40 -> s41 [label="ECDSA_SIGN_CERTIFICATE_REQUEST / TIMEOUT"];
	s40 -> s40 [label="SERVER_HELLO_DONE / TIMEOUT"];
	s40 -> s3 [label="CHANGE_CIPHER_SPEC / TIMEOUT"];
	s40 -> s68 [label="FINISHED / TIMEOUT"];
	s40 -> s40 [label="APPLICATION / TIMEOUT"];
	s40 -> s36 [label="CERTIFICATE / TIMEOUT"];
	s40 -> s36 [label="EMPTY_CERTIFICATE / TIMEOUT"];
	s40 -> s1 [label="Alert(WARNING,CLOSE_NOTIFY) / Alert(FATAL,INTERNAL_ERROR)"];
	s40 -> s1 [label="Alert(FATAL,UNEXPECTED_MESSAGE) / TIMEOUT"];
	s41 -> s55 [label="HELLO_VERIFY_REQUEST / TIMEOUT"];
	s41 -> s49 [label="ECDH_SERVER_HELLO / TIMEOUT"];
	s41 -> s41 [label="ECDH_SERVER_KEY_EXCHANGE / TIMEOUT"];
	s41 -> s42 [label="DH_SERVER_HELLO / TIMEOUT"];
	s41 -> s41 [label="DH_SERVER_KEY_EXCHANGE / TIMEOUT"];
	s41 -> s42 [label="RSA_SERVER_HELLO / TIMEOUT"];
	s41 -> s41 [label="RSA_SIGN_CERTIFICATE_REQUEST / TIMEOUT"];
	s41 -> s41 [label="RSA_FIXED_ECDH_CERTIFICATE_REQUEST / TIMEOUT"];
	s41 -> s41 [label="RSA_FIXED_DH_CERTIFICATE_REQUEST / TIMEOUT"];
	s41 -> s41 [label="DSS_SIGN_CERTIFICATE_REQUEST / TIMEOUT"];
	s41 -> s41 [label="DSS_FIXED_DH_CERTIFICATE_REQUEST / TIMEOUT"];
	s41 -> s41 [label="ECDSA_SIGN_CERTIFICATE_REQUEST / TIMEOUT"];
	s41 -> s41 [label="SERVER_HELLO_DONE / TIMEOUT"];
	s41 -> s3 [label="CHANGE_CIPHER_SPEC / TIMEOUT"];
	s41 -> s60 [label="FINISHED / TIMEOUT"];
	s41 -> s41 [label="APPLICATION / TIMEOUT"];
	s41 -> s37 [label="CERTIFICATE / TIMEOUT"];
	s41 -> s37 [label="EMPTY_CERTIFICATE / TIMEOUT"];
	s41 -> s1 [label="Alert(WARNING,CLOSE_NOTIFY) / Alert(FATAL,INTERNAL_ERROR)"];
	s41 -> s1 [label="Alert(FATAL,UNEXPECTED_MESSAGE) / TIMEOUT"];
	s42 -> s43 [label="HELLO_VERIFY_REQUEST / TIMEOUT"];
	s42 -> s49 [label="ECDH_SERVER_HELLO / TIMEOUT"];
	s42 -> s42 [label="ECDH_SERVER_KEY_EXCHANGE / TIMEOUT"];
	s42 -> s42 [label="DH_SERVER_HELLO / TIMEOUT"];
	s42 -> s42 [label="DH_SERVER_KEY_EXCHANGE / TIMEOUT"];
	s42 -> s42 [label="RSA_SERVER_HELLO / TIMEOUT"];
	s42 -> s42 [label="RSA_SIGN_CERTIFICATE_REQUEST / TIMEOUT"];
	s42 -> s42 [label="RSA_FIXED_ECDH_CERTIFICATE_REQUEST / TIMEOUT"];
	s42 -> s42 [label="RSA_FIXED_DH_CERTIFICATE_REQUEST / TIMEOUT"];
	s42 -> s42 [label="DSS_SIGN_CERTIFICATE_REQUEST / TIMEOUT"];
	s42 -> s42 [label="DSS_FIXED_DH_CERTIFICATE_REQUEST / TIMEOUT"];
	s42 -> s42 [label="ECDSA_SIGN_CERTIFICATE_REQUEST / TIMEOUT"];
	s42 -> s42 [label="SERVER_HELLO_DONE / TIMEOUT"];
	s42 -> s3 [label="CHANGE_CIPHER_SPEC / TIMEOUT"];
	s42 -> s61 [label="FINISHED / TIMEOUT"];
	s42 -> s42 [label="APPLICATION / TIMEOUT"];
	s42 -> s38 [label="CERTIFICATE / TIMEOUT"];
	s42 -> s38 [label="EMPTY_CERTIFICATE / TIMEOUT"];
	s42 -> s1 [label="Alert(WARNING,CLOSE_NOTIFY) / Alert(FATAL,INTERNAL_ERROR)"];
	s42 -> s1 [label="Alert(FATAL,UNEXPECTED_MESSAGE) / TIMEOUT"];
	s43 -> s43 [label="HELLO_VERIFY_REQUEST / TIMEOUT"];
	s43 -> s47 [label="ECDH_SERVER_HELLO / TIMEOUT"];
	s43 -> s43 [label="ECDH_SERVER_KEY_EXCHANGE / TIMEOUT"];
	s43 -> s43 [label="DH_SERVER_HELLO / TIMEOUT"];
	s43 -> s43 [label="DH_SERVER_KEY_EXCHANGE / TIMEOUT"];
	s43 -> s43 [label="RSA_SERVER_HELLO / TIMEOUT"];
	s43 -> s43 [label="RSA_SIGN_CERTIFICATE_REQUEST / TIMEOUT"];
	s43 -> s43 [label="RSA_FIXED_ECDH_CERTIFICATE_REQUEST / TIMEOUT"];
	s43 -> s43 [label="RSA_FIXED_DH_CERTIFICATE_REQUEST / TIMEOUT"];
	s43 -> s43 [label="DSS_SIGN_CERTIFICATE_REQUEST / TIMEOUT"];
	s43 -> s43 [label="DSS_FIXED_DH_CERTIFICATE_REQUEST / TIMEOUT"];
	s43 -> s43 [label="ECDSA_SIGN_CERTIFICATE_REQUEST / TIMEOUT"];
	s43 -> s43 [label="SERVER_HELLO_DONE / TIMEOUT"];
	s43 -> s3 [label="CHANGE_CIPHER_SPEC / TIMEOUT"];
	s43 -> s44 [label="FINISHED / TIMEOUT"];
	s43 -> s43 [label="APPLICATION / TIMEOUT"];
	s43 -> s39 [label="CERTIFICATE / TIMEOUT"];
	s43 -> s39 [label="EMPTY_CERTIFICATE / TIMEOUT"];
	s43 -> s1 [label="Alert(WARNING,CLOSE_NOTIFY) / Alert(FATAL,INTERNAL_ERROR)"];
	s43 -> s1 [label="Alert(FATAL,UNEXPECTED_MESSAGE) / TIMEOUT"];
	s44 -> s44 [label="HELLO_VERIFY_REQUEST / TIMEOUT"];
	s44 -> s46 [label="ECDH_SERVER_HELLO / TIMEOUT"];
	s44 -> s44 [label="ECDH_SERVER_KEY_EXCHANGE / TIMEOUT"];
	s44 -> s44 [label="DH_SERVER_HELLO / TIMEOUT"];
	s44 -> s44 [label="DH_SERVER_KEY_EXCHANGE / TIMEOUT"];
	s44 -> s44 [label="RSA_SERVER_HELLO / TIMEOUT"];
	s44 -> s44 [label="RSA_SIGN_CERTIFICATE_REQUEST / TIMEOUT"];
	s44 -> s44 [label="RSA_FIXED_ECDH_CERTIFICATE_REQUEST / TIMEOUT"];
	s44 -> s44 [label="RSA_FIXED_DH_CERTIFICATE_REQUEST / TIMEOUT"];
	s44 -> s44 [label="DSS_SIGN_CERTIFICATE_REQUEST / TIMEOUT"];
	s44 -> s44 [label="DSS_FIXED_DH_CERTIFICATE_REQUEST / TIMEOUT"];
	s44 -> s44 [label="ECDSA_SIGN_CERTIFICATE_REQUEST / TIMEOUT"];
	s44 -> s44 [label="SERVER_HELLO_DONE / TIMEOUT"];
	s44 -> s3 [label="CHANGE_CIPHER_SPEC / TIMEOUT"];
	s44 -> s44 [label="FINISHED / TIMEOUT"];
	s44 -> s44 [label="APPLICATION / TIMEOUT"];
	s44 -> s1 [label="CERTIFICATE / Alert(FATAL,INTERNAL_ERROR)"];
	s44 -> s1 [label="EMPTY_CERTIFICATE / Alert(FATAL,INTERNAL_ERROR)"];
	s44 -> s1 [label="Alert(WARNING,CLOSE_NOTIFY) / Alert(FATAL,INTERNAL_ERROR)"];
	s44 -> s1 [label="Alert(FATAL,UNEXPECTED_MESSAGE) / TIMEOUT"];
	s45 -> s45 [label="HELLO_VERIFY_REQUEST / TIMEOUT"];
	s45 -> s45 [label="ECDH_SERVER_HELLO / TIMEOUT"];
	s45 -> s45 [label="ECDH_SERVER_KEY_EXCHANGE / TIMEOUT"];
	s45 -> s35 [label="DH_SERVER_HELLO / TIMEOUT"];
	s45 -> s45 [label="DH_SERVER_KEY_EXCHANGE / TIMEOUT"];
	s45 -> s35 [label="RSA_SERVER_HELLO / TIMEOUT"];
	s45 -> s45 [label="RSA_SIGN_CERTIFICATE_REQUEST / TIMEOUT"];
	s45 -> s45 [label="RSA_FIXED_ECDH_CERTIFICATE_REQUEST / TIMEOUT"];
	s45 -> s45 [label="RSA_FIXED_DH_CERTIFICATE_REQUEST / TIMEOUT"];
	s45 -> s45 [label="DSS_SIGN_CERTIFICATE_REQUEST / TIMEOUT"];
	s45 -> s45 [label="DSS_FIXED_DH_CERTIFICATE_REQUEST / TIMEOUT"];
	s45 -> s45 [label="ECDSA_SIGN_CERTIFICATE_REQUEST / TIMEOUT"];
	s45 -> s45 [label="SERVER_HELLO_DONE / TIMEOUT"];
	s45 -> s3 [label="CHANGE_CIPHER_SPEC / TIMEOUT"];
	s45 -> s45 [label="FINISHED / TIMEOUT"];
	s45 -> s45 [label="APPLICATION / TIMEOUT"];
	s45 -> s45 [label="CERTIFICATE / TIMEOUT"];
	s45 -> s45 [label="EMPTY_CERTIFICATE / TIMEOUT"];
	s45 -> s45 [label="Alert(WARNING,CLOSE_NOTIFY) / TIMEOUT"];
	s45 -> s45 [label="Alert(FATAL,UNEXPECTED_MESSAGE) / TIMEOUT"];
	s46 -> s46 [label="HELLO_VERIFY_REQUEST / TIMEOUT"];
	s46 -> s46 [label="ECDH_SERVER_HELLO / TIMEOUT"];
	s46 -> s46 [label="ECDH_SERVER_KEY_EXCHANGE / TIMEOUT"];
	s46 -> s44 [label="DH_SERVER_HELLO / TIMEOUT"];
	s46 -> s46 [label="DH_SERVER_KEY_EXCHANGE / TIMEOUT"];
	s46 -> s44 [label="RSA_SERVER_HELLO / TIMEOUT"];
	s46 -> s46 [label="RSA_SIGN_CERTIFICATE_REQUEST / TIMEOUT"];
	s46 -> s46 [label="RSA_FIXED_ECDH_CERTIFICATE_REQUEST / TIMEOUT"];
	s46 -> s46 [label="RSA_FIXED_DH_CERTIFICATE_REQUEST / TIMEOUT"];
	s46 -> s46 [label="DSS_SIGN_CERTIFICATE_REQUEST / TIMEOUT"];
	s46 -> s46 [label="DSS_FIXED_DH_CERTIFICATE_REQUEST / TIMEOUT"];
	s46 -> s46 [label="ECDSA_SIGN_CERTIFICATE_REQUEST / TIMEOUT"];
	s46 -> s46 [label="SERVER_HELLO_DONE / TIMEOUT"];
	s46 -> s3 [label="CHANGE_CIPHER_SPEC / TIMEOUT"];
	s46 -> s46 [label="FINISHED / TIMEOUT"];
	s46 -> s46 [label="APPLICATION / TIMEOUT"];
	s46 -> s46 [label="CERTIFICATE / TIMEOUT"];
	s46 -> s46 [label="EMPTY_CERTIFICATE / TIMEOUT"];
	s46 -> s46 [label="Alert(WARNING,CLOSE_NOTIFY) / TIMEOUT"];
	s46 -> s46 [label="Alert(FATAL,UNEXPECTED_MESSAGE) / TIMEOUT"];
	s47 -> s47 [label="HELLO_VERIFY_REQUEST / TIMEOUT"];
	s47 -> s47 [label="ECDH_SERVER_HELLO / TIMEOUT"];
	s47 -> s47 [label="ECDH_SERVER_KEY_EXCHANGE / TIMEOUT"];
	s47 -> s43 [label="DH_SERVER_HELLO / TIMEOUT"];
	s47 -> s47 [label="DH_SERVER_KEY_EXCHANGE / TIMEOUT"];
	s47 -> s43 [label="RSA_SERVER_HELLO / TIMEOUT"];
	s47 -> s47 [label="RSA_SIGN_CERTIFICATE_REQUEST / TIMEOUT"];
	s47 -> s47 [label="RSA_FIXED_ECDH_CERTIFICATE_REQUEST / TIMEOUT"];
	s47 -> s47 [label="RSA_FIXED_DH_CERTIFICATE_REQUEST / TIMEOUT"];
	s47 -> s47 [label="DSS_SIGN_CERTIFICATE_REQUEST / TIMEOUT"];
	s47 -> s47 [label="DSS_FIXED_DH_CERTIFICATE_REQUEST / TIMEOUT"];
	s47 -> s47 [label="ECDSA_SIGN_CERTIFICATE_REQUEST / TIMEOUT"];
	s47 -> s47 [label="SERVER_HELLO_DONE / TIMEOUT"];
	s47 -> s3 [label="CHANGE_CIPHER_SPEC / TIMEOUT"];
	s47 -> s47 [label="FINISHED / TIMEOUT"];
	s47 -> s47 [label="APPLICATION / TIMEOUT"];
	s47 -> s47 [label="CERTIFICATE / TIMEOUT"];
	s47 -> s47 [label="EMPTY_CERTIFICATE / TIMEOUT"];
	s47 -> s47 [label="Alert(WARNING,CLOSE_NOTIFY) / TIMEOUT"];
	s47 -> s47 [label="Alert(FATAL,UNEXPECTED_MESSAGE) / TIMEOUT"];
	s48 -> s48 [label="HELLO_VERIFY_REQUEST / TIMEOUT"];
	s48 -> s48 [label="ECDH_SERVER_HELLO / TIMEOUT"];
	s48 -> s48 [label="ECDH_SERVER_KEY_EXCHANGE / TIMEOUT"];
	s48 -> s40 [label="DH_SERVER_HELLO / TIMEOUT"];
	s48 -> s48 [label="DH_SERVER_KEY_EXCHANGE / TIMEOUT"];
	s48 -> s40 [label="RSA_SERVER_HELLO / TIMEOUT"];
	s48 -> s48 [label="RSA_SIGN_CERTIFICATE_REQUEST / TIMEOUT"];
	s48 -> s48 [label="RSA_FIXED_ECDH_CERTIFICATE_REQUEST / TIMEOUT"];
	s48 -> s48 [label="RSA_FIXED_DH_CERTIFICATE_REQUEST / TIMEOUT"];
	s48 -> s48 [label="DSS_SIGN_CERTIFICATE_REQUEST / TIMEOUT"];
	s48 -> s48 [label="DSS_FIXED_DH_CERTIFICATE_REQUEST / TIMEOUT"];
	s48 -> s48 [label="ECDSA_SIGN_CERTIFICATE_REQUEST / TIMEOUT"];
	s48 -> s48 [label="SERVER_HELLO_DONE / TIMEOUT"];
	s48 -> s3 [label="CHANGE_CIPHER_SPEC / TIMEOUT"];
	s48 -> s48 [label="FINISHED / TIMEOUT"];
	s48 -> s48 [label="APPLICATION / TIMEOUT"];
	s48 -> s48 [label="CERTIFICATE / TIMEOUT"];
	s48 -> s48 [label="EMPTY_CERTIFICATE / TIMEOUT"];
	s48 -> s48 [label="Alert(WARNING,CLOSE_NOTIFY) / TIMEOUT"];
	s48 -> s48 [label="Alert(FATAL,UNEXPECTED_MESSAGE) / TIMEOUT"];
	s49 -> s49 [label="HELLO_VERIFY_REQUEST / TIMEOUT"];
	s49 -> s49 [label="ECDH_SERVER_HELLO / TIMEOUT"];
	s49 -> s49 [label="ECDH_SERVER_KEY_EXCHANGE / TIMEOUT"];
	s49 -> s42 [label="DH_SERVER_HELLO / TIMEOUT"];
	s49 -> s49 [label="DH_SERVER_KEY_EXCHANGE / TIMEOUT"];
	s49 -> s42 [label="RSA_SERVER_HELLO / TIMEOUT"];
	s49 -> s49 [label="RSA_SIGN_CERTIFICATE_REQUEST / TIMEOUT"];
	s49 -> s49 [label="RSA_FIXED_ECDH_CERTIFICATE_REQUEST / TIMEOUT"];
	s49 -> s49 [label="RSA_FIXED_DH_CERTIFICATE_REQUEST / TIMEOUT"];
	s49 -> s49 [label="DSS_SIGN_CERTIFICATE_REQUEST / TIMEOUT"];
	s49 -> s49 [label="DSS_FIXED_DH_CERTIFICATE_REQUEST / TIMEOUT"];
	s49 -> s49 [label="ECDSA_SIGN_CERTIFICATE_REQUEST / TIMEOUT"];
	s49 -> s49 [label="SERVER_HELLO_DONE / TIMEOUT"];
	s49 -> s3 [label="CHANGE_CIPHER_SPEC / TIMEOUT"];
	s49 -> s49 [label="FINISHED / TIMEOUT"];
	s49 -> s49 [label="APPLICATION / TIMEOUT"];
	s49 -> s49 [label="CERTIFICATE / TIMEOUT"];
	s49 -> s49 [label="EMPTY_CERTIFICATE / TIMEOUT"];
	s49 -> s49 [label="Alert(WARNING,CLOSE_NOTIFY) / TIMEOUT"];
	s49 -> s49 [label="Alert(FATAL,UNEXPECTED_MESSAGE) / TIMEOUT"];
	s50 -> s50 [label="HELLO_VERIFY_REQUEST / TIMEOUT"];
	s50 -> s50 [label="ECDH_SERVER_HELLO / TIMEOUT"];
	s50 -> s50 [label="ECDH_SERVER_KEY_EXCHANGE / TIMEOUT"];
	s50 -> s21 [label="DH_SERVER_HELLO / TIMEOUT"];
	s50 -> s50 [label="DH_SERVER_KEY_EXCHANGE / TIMEOUT"];
	s50 -> s21 [label="RSA_SERVER_HELLO / TIMEOUT"];
	s50 -> s50 [label="RSA_SIGN_CERTIFICATE_REQUEST / TIMEOUT"];
	s50 -> s50 [label="RSA_FIXED_ECDH_CERTIFICATE_REQUEST / TIMEOUT"];
	s50 -> s50 [label="RSA_FIXED_DH_CERTIFICATE_REQUEST / TIMEOUT"];
	s50 -> s50 [label="DSS_SIGN_CERTIFICATE_REQUEST / TIMEOUT"];
	s50 -> s50 [label="DSS_FIXED_DH_CERTIFICATE_REQUEST / TIMEOUT"];
	s50 -> s50 [label="ECDSA_SIGN_CERTIFICATE_REQUEST / TIMEOUT"];
	s50 -> s50 [label="SERVER_HELLO_DONE / TIMEOUT"];
	s50 -> s3 [label="CHANGE_CIPHER_SPEC / TIMEOUT"];
	s50 -> s50 [label="FINISHED / TIMEOUT"];
	s50 -> s50 [label="APPLICATION / TIMEOUT"];
	s50 -> s50 [label="CERTIFICATE / TIMEOUT"];
	s50 -> s50 [label="EMPTY_CERTIFICATE / TIMEOUT"];
	s50 -> s50 [label="Alert(WARNING,CLOSE_NOTIFY) / TIMEOUT"];
	s50 -> s50 [label="Alert(FATAL,UNEXPECTED_MESSAGE) / TIMEOUT"];
	s51 -> s51 [label="HELLO_VERIFY_REQUEST / TIMEOUT"];
	s51 -> s54 [label="ECDH_SERVER_HELLO / TIMEOUT"];
	s51 -> s51 [label="ECDH_SERVER_KEY_EXCHANGE / TIMEOUT"];
	s51 -> s51 [label="DH_SERVER_HELLO / TIMEOUT"];
	s51 -> s51 [label="DH_SERVER_KEY_EXCHANGE / TIMEOUT"];
	s51 -> s51 [label="RSA_SERVER_HELLO / TIMEOUT"];
	s51 -> s52 [label="RSA_SIGN_CERTIFICATE_REQUEST / TIMEOUT"];
	s51 -> s52 [label="RSA_FIXED_ECDH_CERTIFICATE_REQUEST / TIMEOUT"];
	s51 -> s52 [label="RSA_FIXED_DH_CERTIFICATE_REQUEST / TIMEOUT"];
	s51 -> s52 [label="DSS_SIGN_CERTIFICATE_REQUEST / TIMEOUT"];
	s51 -> s52 [label="DSS_FIXED_DH_CERTIFICATE_REQUEST / TIMEOUT"];
	s51 -> s52 [label="ECDSA_SIGN_CERTIFICATE_REQUEST / TIMEOUT"];
	s51 -> s36 [label="SERVER_HELLO_DONE / TIMEOUT"];
	s51 -> s3 [label="CHANGE_CIPHER_SPEC / TIMEOUT"];
	s51 -> s24 [label="FINISHED / TIMEOUT"];
	s51 -> s51 [label="APPLICATION / TIMEOUT"];
	s51 -> s51 [label="CERTIFICATE / TIMEOUT"];
	s51 -> s51 [label="EMPTY_CERTIFICATE / TIMEOUT"];
	s51 -> s1 [label="Alert(WARNING,CLOSE_NOTIFY) / Alert(FATAL,INTERNAL_ERROR)"];
	s51 -> s1 [label="Alert(FATAL,UNEXPECTED_MESSAGE) / TIMEOUT"];
	s52 -> s52 [label="HELLO_VERIFY_REQUEST / TIMEOUT"];
	s52 -> s54 [label="ECDH_SERVER_HELLO / TIMEOUT"];
	s52 -> s52 [label="ECDH_SERVER_KEY_EXCHANGE / TIMEOUT"];
	s52 -> s53 [label="DH_SERVER_HELLO / TIMEOUT"];
	s52 -> s52 [label="DH_SERVER_KEY_EXCHANGE / TIMEOUT"];
	s52 -> s53 [label="RSA_SERVER_HELLO / TIMEOUT"];
	s52 -> s52 [label="RSA_SIGN_CERTIFICATE_REQUEST / TIMEOUT"];
	s52 -> s52 [label="RSA_FIXED_ECDH_CERTIFICATE_REQUEST / TIMEOUT"];
	s52 -> s52 [label="RSA_FIXED_DH_CERTIFICATE_REQUEST / TIMEOUT"];
	s52 -> s52 [label="DSS_SIGN_CERTIFICATE_REQUEST / TIMEOUT"];
	s52 -> s52 [label="DSS_FIXED_DH_CERTIFICATE_REQUEST / TIMEOUT"];
	s52 -> s52 [label="ECDSA_SIGN_CERTIFICATE_REQUEST / TIMEOUT"];
	s52 -> s37 [label="SERVER_HELLO_DONE / TIMEOUT"];
	s52 -> s3 [label="CHANGE_CIPHER_SPEC / TIMEOUT"];
	s52 -> s59 [label="FINISHED / TIMEOUT"];
	s52 -> s52 [label="APPLICATION / TIMEOUT"];
	s52 -> s52 [label="CERTIFICATE / TIMEOUT"];
	s52 -> s52 [label="EMPTY_CERTIFICATE / TIMEOUT"];
	s52 -> s1 [label="Alert(WARNING,CLOSE_NOTIFY) / Alert(FATAL,INTERNAL_ERROR)"];
	s52 -> s1 [label="Alert(FATAL,UNEXPECTED_MESSAGE) / TIMEOUT"];
	s53 -> s53 [label="HELLO_VERIFY_REQUEST / TIMEOUT"];
	s53 -> s54 [label="ECDH_SERVER_HELLO / TIMEOUT"];
	s53 -> s53 [label="ECDH_SERVER_KEY_EXCHANGE / TIMEOUT"];
	s53 -> s53 [label="DH_SERVER_HELLO / TIMEOUT"];
	s53 -> s53 [label="DH_SERVER_KEY_EXCHANGE / TIMEOUT"];
	s53 -> s53 [label="RSA_SERVER_HELLO / TIMEOUT"];
	s53 -> s53 [label="RSA_SIGN_CERTIFICATE_REQUEST / TIMEOUT"];
	s53 -> s53 [label="RSA_FIXED_ECDH_CERTIFICATE_REQUEST / TIMEOUT"];
	s53 -> s53 [label="RSA_FIXED_DH_CERTIFICATE_REQUEST / TIMEOUT"];
	s53 -> s53 [label="DSS_SIGN_CERTIFICATE_REQUEST / TIMEOUT"];
	s53 -> s53 [label="DSS_FIXED_DH_CERTIFICATE_REQUEST / TIMEOUT"];
	s53 -> s53 [label="ECDSA_SIGN_CERTIFICATE_REQUEST / TIMEOUT"];
	s53 -> s39 [label="SERVER_HELLO_DONE / TIMEOUT"];
	s53 -> s3 [label="CHANGE_CIPHER_SPEC / TIMEOUT"];
	s53 -> s27 [label="FINISHED / TIMEOUT"];
	s53 -> s53 [label="APPLICATION / TIMEOUT"];
	s53 -> s53 [label="CERTIFICATE / TIMEOUT"];
	s53 -> s53 [label="EMPTY_CERTIFICATE / TIMEOUT"];
	s53 -> s1 [label="Alert(WARNING,CLOSE_NOTIFY) / Alert(FATAL,INTERNAL_ERROR)"];
	s53 -> s1 [label="Alert(FATAL,UNEXPECTED_MESSAGE) / TIMEOUT"];
	s54 -> s54 [label="HELLO_VERIFY_REQUEST / TIMEOUT"];
	s54 -> s54 [label="ECDH_SERVER_HELLO / TIMEOUT"];
	s54 -> s54 [label="ECDH_SERVER_KEY_EXCHANGE / TIMEOUT"];
	s54 -> s22 [label="DH_SERVER_HELLO / TIMEOUT"];
	s54 -> s54 [label="DH_SERVER_KEY_EXCHANGE / TIMEOUT"];
	s54 -> s22 [label="RSA_SERVER_HELLO / TIMEOUT"];
	s54 -> s54 [label="RSA_SIGN_CERTIFICATE_REQUEST / TIMEOUT"];
	s54 -> s54 [label="RSA_FIXED_ECDH_CERTIFICATE_REQUEST / TIMEOUT"];
	s54 -> s54 [label="RSA_FIXED_DH_CERTIFICATE_REQUEST / TIMEOUT"];
	s54 -> s54 [label="DSS_SIGN_CERTIFICATE_REQUEST / TIMEOUT"];
	s54 -> s54 [label="DSS_FIXED_DH_CERTIFICATE_REQUEST / TIMEOUT"];
	s54 -> s54 [label="ECDSA_SIGN_CERTIFICATE_REQUEST / TIMEOUT"];
	s54 -> s54 [label="SERVER_HELLO_DONE / TIMEOUT"];
	s54 -> s3 [label="CHANGE_CIPHER_SPEC / TIMEOUT"];
	s54 -> s54 [label="FINISHED / TIMEOUT"];
	s54 -> s54 [label="APPLICATION / TIMEOUT"];
	s54 -> s54 [label="CERTIFICATE / TIMEOUT"];
	s54 -> s54 [label="EMPTY_CERTIFICATE / TIMEOUT"];
	s54 -> s54 [label="Alert(WARNING,CLOSE_NOTIFY) / TIMEOUT"];
	s54 -> s54 [label="Alert(FATAL,UNEXPECTED_MESSAGE) / TIMEOUT"];
	s55 -> s55 [label="HELLO_VERIFY_REQUEST / TIMEOUT"];
	s55 -> s47 [label="ECDH_SERVER_HELLO / TIMEOUT"];
	s55 -> s55 [label="ECDH_SERVER_KEY_EXCHANGE / TIMEOUT"];
	s55 -> s43 [label="DH_SERVER_HELLO / TIMEOUT"];
	s55 -> s55 [label="DH_SERVER_KEY_EXCHANGE / TIMEOUT"];
	s55 -> s43 [label="RSA_SERVER_HELLO / TIMEOUT"];
	s55 -> s55 [label="RSA_SIGN_CERTIFICATE_REQUEST / TIMEOUT"];
	s55 -> s55 [label="RSA_FIXED_ECDH_CERTIFICATE_REQUEST / TIMEOUT"];
	s55 -> s55 [label="RSA_FIXED_DH_CERTIFICATE_REQUEST / TIMEOUT"];
	s55 -> s55 [label="DSS_SIGN_CERTIFICATE_REQUEST / TIMEOUT"];
	s55 -> s55 [label="DSS_FIXED_DH_CERTIFICATE_REQUEST / TIMEOUT"];
	s55 -> s55 [label="ECDSA_SIGN_CERTIFICATE_REQUEST / TIMEOUT"];
	s55 -> s55 [label="SERVER_HELLO_DONE / TIMEOUT"];
	s55 -> s3 [label="CHANGE_CIPHER_SPEC / TIMEOUT"];
	s55 -> s56 [label="FINISHED / TIMEOUT"];
	s55 -> s55 [label="APPLICATION / TIMEOUT"];
	s55 -> s37 [label="CERTIFICATE / TIMEOUT"];
	s55 -> s37 [label="EMPTY_CERTIFICATE / TIMEOUT"];
	s55 -> s1 [label="Alert(WARNING,CLOSE_NOTIFY) / Alert(FATAL,INTERNAL_ERROR)"];
	s55 -> s1 [label="Alert(FATAL,UNEXPECTED_MESSAGE) / TIMEOUT"];
	s56 -> s56 [label="HELLO_VERIFY_REQUEST / TIMEOUT"];
	s56 -> s46 [label="ECDH_SERVER_HELLO / TIMEOUT"];
	s56 -> s56 [label="ECDH_SERVER_KEY_EXCHANGE / TIMEOUT"];
	s56 -> s44 [label="DH_SERVER_HELLO / TIMEOUT"];
	s56 -> s56 [label="DH_SERVER_KEY_EXCHANGE / TIMEOUT"];
	s56 -> s44 [label="RSA_SERVER_HELLO / TIMEOUT"];
	s56 -> s56 [label="RSA_SIGN_CERTIFICATE_REQUEST / TIMEOUT"];
	s56 -> s56 [label="RSA_FIXED_ECDH_CERTIFICATE_REQUEST / TIMEOUT"];
	s56 -> s56 [label="RSA_FIXED_DH_CERTIFICATE_REQUEST / TIMEOUT"];
	s56 -> s56 [label="DSS_SIGN_CERTIFICATE_REQUEST / TIMEOUT"];
	s56 -> s56 [label="DSS_FIXED_DH_CERTIFICATE_REQUEST / TIMEOUT"];
	s56 -> s56 [label="ECDSA_SIGN_CERTIFICATE_REQUEST / TIMEOUT"];
	s56 -> s56 [label="SERVER_HELLO_DONE / TIMEOUT"];
	s56 -> s3 [label="CHANGE_CIPHER_SPEC / TIMEOUT"];
	s56 -> s56 [label="FINISHED / TIMEOUT"];
	s56 -> s56 [label="APPLICATION / TIMEOUT"];
	s56 -> s30 [label="CERTIFICATE / TIMEOUT"];
	s56 -> s30 [label="EMPTY_CERTIFICATE / TIMEOUT"];
	s56 -> s1 [label="Alert(WARNING,CLOSE_NOTIFY) / Alert(FATAL,INTERNAL_ERROR)"];
	s56 -> s1 [label="Alert(FATAL,UNEXPECTED_MESSAGE) / TIMEOUT"];
	s57 -> s59 [label="HELLO_VERIFY_REQUEST / TIMEOUT"];
	s57 -> s54 [label="ECDH_SERVER_HELLO / TIMEOUT"];
	s57 -> s57 [label="ECDH_SERVER_KEY_EXCHANGE / TIMEOUT"];
	s57 -> s58 [label="DH_SERVER_HELLO / TIMEOUT"];
	s57 -> s57 [label="DH_SERVER_KEY_EXCHANGE / TIMEOUT"];
	s57 -> s58 [label="RSA_SERVER_HELLO / TIMEOUT"];
	s57 -> s57 [label="RSA_SIGN_CERTIFICATE_REQUEST / TIMEOUT"];
	s57 -> s57 [label="RSA_FIXED_ECDH_CERTIFICATE_REQUEST / TIMEOUT"];
	s57 -> s57 [label="RSA_FIXED_DH_CERTIFICATE_REQUEST / TIMEOUT"];
	s57 -> s57 [label="DSS_SIGN_CERTIFICATE_REQUEST / TIMEOUT"];
	s57 -> s57 [label="DSS_FIXED_DH_CERTIFICATE_REQUEST / TIMEOUT"];
	s57 -> s57 [label="ECDSA_SIGN_CERTIFICATE_REQUEST / TIMEOUT"];
	s57 -> s34 [label="SERVER_HELLO_DONE / TIMEOUT"];
	s57 -> s3 [label="CHANGE_CIPHER_SPEC / TIMEOUT"];
	s57 -> s57 [label="FINISHED / TIMEOUT"];
	s57 -> s57 [label="APPLICATION / TIMEOUT"];
	s57 -> s57 [label="CERTIFICATE / TIMEOUT"];
	s57 -> s57 [label="EMPTY_CERTIFICATE / TIMEOUT"];
	s57 -> s1 [label="Alert(WARNING,CLOSE_NOTIFY) / Alert(FATAL,INTERNAL_ERROR)"];
	s57 -> s1 [label="Alert(FATAL,UNEXPECTED_MESSAGE) / TIMEOUT"];
	s58 -> s27 [label="HELLO_VERIFY_REQUEST / TIMEOUT"];
	s58 -> s54 [label="ECDH_SERVER_HELLO / TIMEOUT"];
	s58 -> s58 [label="ECDH_SERVER_KEY_EXCHANGE / TIMEOUT"];
	s58 -> s58 [label="DH_SERVER_HELLO / TIMEOUT"];
	s58 -> s58 [label="DH_SERVER_KEY_EXCHANGE / TIMEOUT"];
	s58 -> s58 [label="RSA_SERVER_HELLO / TIMEOUT"];
	s58 -> s58 [label="RSA_SIGN_CERTIFICATE_REQUEST / TIMEOUT"];
	s58 -> s58 [label="RSA_FIXED_ECDH_CERTIFICATE_REQUEST / TIMEOUT"];
	s58 -> s58 [label="RSA_FIXED_DH_CERTIFICATE_REQUEST / TIMEOUT"];
	s58 -> s58 [label="DSS_SIGN_CERTIFICATE_REQUEST / TIMEOUT"];
	s58 -> s58 [label="DSS_FIXED_DH_CERTIFICATE_REQUEST / TIMEOUT"];
	s58 -> s58 [label="ECDSA_SIGN_CERTIFICATE_REQUEST / TIMEOUT"];
	s58 -> s35 [label="SERVER_HELLO_DONE / TIMEOUT"];
	s58 -> s3 [label="CHANGE_CIPHER_SPEC / TIMEOUT"];
	s58 -> s58 [label="FINISHED / TIMEOUT"];
	s58 -> s58 [label="APPLICATION / TIMEOUT"];
	s58 -> s58 [label="CERTIFICATE / TIMEOUT"];
	s58 -> s58 [label="EMPTY_CERTIFICATE / TIMEOUT"];
	s58 -> s1 [label="Alert(WARNING,CLOSE_NOTIFY) / Alert(FATAL,INTERNAL_ERROR)"];
	s58 -> s1 [label="Alert(FATAL,UNEXPECTED_MESSAGE) / TIMEOUT"];
	s59 -> s59 [label="HELLO_VERIFY_REQUEST / TIMEOUT"];
	s59 -> s25 [label="ECDH_SERVER_HELLO / TIMEOUT"];
	s59 -> s59 [label="ECDH_SERVER_KEY_EXCHANGE / TIMEOUT"];
	s59 -> s27 [label="DH_SERVER_HELLO / TIMEOUT"];
	s59 -> s59 [label="DH_SERVER_KEY_EXCHANGE / TIMEOUT"];
	s59 -> s27 [label="RSA_SERVER_HELLO / TIMEOUT"];
	s59 -> s59 [label="RSA_SIGN_CERTIFICATE_REQUEST / TIMEOUT"];
	s59 -> s59 [label="RSA_FIXED_ECDH_CERTIFICATE_REQUEST / TIMEOUT"];
	s59 -> s59 [label="RSA_FIXED_DH_CERTIFICATE_REQUEST / TIMEOUT"];
	s59 -> s59 [label="DSS_SIGN_CERTIFICATE_REQUEST / TIMEOUT"];
	s59 -> s59 [label="DSS_FIXED_DH_CERTIFICATE_REQUEST / TIMEOUT"];
	s59 -> s59 [label="ECDSA_SIGN_CERTIFICATE_REQUEST / TIMEOUT"];
	s59 -> s30 [label="SERVER_HELLO_DONE / TIMEOUT"];
	s59 -> s3 [label="CHANGE_CIPHER_SPEC / TIMEOUT"];
	s59 -> s59 [label="FINISHED / TIMEOUT"];
	s59 -> s59 [label="APPLICATION / TIMEOUT"];
	s59 -> s59 [label="CERTIFICATE / TIMEOUT"];
	s59 -> s59 [label="EMPTY_CERTIFICATE / TIMEOUT"];
	s59 -> s1 [label="Alert(WARNING,CLOSE_NOTIFY) / Alert(FATAL,INTERNAL_ERROR)"];
	s59 -> s1 [label="Alert(FATAL,UNEXPECTED_MESSAGE) / TIMEOUT"];
	s60 -> s56 [label="HELLO_VERIFY_REQUEST / TIMEOUT"];
	s60 -> s49 [label="ECDH_SERVER_HELLO / TIMEOUT"];
	s60 -> s60 [label="ECDH_SERVER_KEY_EXCHANGE / TIMEOUT"];
	s60 -> s61 [label="DH_SERVER_HELLO / TIMEOUT"];
	s60 -> s60 [label="DH_SERVER_KEY_EXCHANGE / TIMEOUT"];
	s60 -> s61 [label="RSA_SERVER_HELLO / TIMEOUT"];
	s60 -> s60 [label="RSA_SIGN_CERTIFICATE_REQUEST / TIMEOUT"];
	s60 -> s60 [label="RSA_FIXED_ECDH_CERTIFICATE_REQUEST / TIMEOUT"];
	s60 -> s60 [label="RSA_FIXED_DH_CERTIFICATE_REQUEST / TIMEOUT"];
	s60 -> s60 [label="DSS_SIGN_CERTIFICATE_REQUEST / TIMEOUT"];
	s60 -> s60 [label="DSS_FIXED_DH_CERTIFICATE_REQUEST / TIMEOUT"];
	s60 -> s60 [label="ECDSA_SIGN_CERTIFICATE_REQUEST / TIMEOUT"];
	s60 -> s60 [label="SERVER_HELLO_DONE / TIMEOUT"];
	s60 -> s3 [label="CHANGE_CIPHER_SPEC / TIMEOUT"];
	s60 -> s60 [label="FINISHED / TIMEOUT"];
	s60 -> s60 [label="APPLICATION / TIMEOUT"];
	s60 -> s34 [label="CERTIFICATE / TIMEOUT"];
	s60 -> s34 [label="EMPTY_CERTIFICATE / TIMEOUT"];
	s60 -> s1 [label="Alert(WARNING,CLOSE_NOTIFY) / Alert(FATAL,INTERNAL_ERROR)"];
	s60 -> s1 [label="Alert(FATAL,UNEXPECTED_MESSAGE) / TIMEOUT"];
	s61 -> s44 [label="HELLO_VERIFY_REQUEST / TIMEOUT"];
	s61 -> s49 [label="ECDH_SERVER_HELLO / TIMEOUT"];
	s61 -> s61 [label="ECDH_SERVER_KEY_EXCHANGE / TIMEOUT"];
	s61 -> s61 [label="DH_SERVER_HELLO / TIMEOUT"];
	s61 -> s61 [label="DH_SERVER_KEY_EXCHANGE / TIMEOUT"];
	s61 -> s61 [label="RSA_SERVER_HELLO / TIMEOUT"];
	s61 -> s61 [label="RSA_SIGN_CERTIFICATE_REQUEST / TIMEOUT"];
	s61 -> s61 [label="RSA_FIXED_ECDH_CERTIFICATE_REQUEST / TIMEOUT"];
	s61 -> s61 [label="RSA_FIXED_DH_CERTIFICATE_REQUEST / TIMEOUT"];
	s61 -> s61 [label="DSS_SIGN_CERTIFICATE_REQUEST / TIMEOUT"];
	s61 -> s61 [label="DSS_FIXED_DH_CERTIFICATE_REQUEST / TIMEOUT"];
	s61 -> s61 [label="ECDSA_SIGN_CERTIFICATE_REQUEST / TIMEOUT"];
	s61 -> s61 [label="SERVER_HELLO_DONE / TIMEOUT"];
	s61 -> s3 [label="CHANGE_CIPHER_SPEC / TIMEOUT"];
	s61 -> s61 [label="FINISHED / TIMEOUT"];
	s61 -> s61 [label="APPLICATION / TIMEOUT"];
	s61 -> s35 [label="CERTIFICATE / TIMEOUT"];
	s61 -> s35 [label="EMPTY_CERTIFICATE / TIMEOUT"];
	s61 -> s1 [label="Alert(WARNING,CLOSE_NOTIFY) / Alert(FATAL,INTERNAL_ERROR)"];
	s61 -> s1 [label="Alert(FATAL,UNEXPECTED_MESSAGE) / TIMEOUT"];
	s62 -> s62 [label="HELLO_VERIFY_REQUEST / TIMEOUT"];
	s62 -> s17 [label="ECDH_SERVER_HELLO / TIMEOUT"];
	s62 -> s21 [label="ECDH_SERVER_KEY_EXCHANGE / TIMEOUT"];
	s62 -> s62 [label="DH_SERVER_HELLO / TIMEOUT"];
	s62 -> s21 [label="DH_SERVER_KEY_EXCHANGE / TIMEOUT"];
	s62 -> s62 [label="RSA_SERVER_HELLO / TIMEOUT"];
	s62 -> s72 [label="RSA_SIGN_CERTIFICATE_REQUEST / TIMEOUT"];
	s62 -> s72 [label="RSA_FIXED_ECDH_CERTIFICATE_REQUEST / TIMEOUT"];
	s62 -> s72 [label="RSA_FIXED_DH_CERTIFICATE_REQUEST / TIMEOUT"];
	s62 -> s72 [label="DSS_SIGN_CERTIFICATE_REQUEST / TIMEOUT"];
	s62 -> s72 [label="DSS_FIXED_DH_CERTIFICATE_REQUEST / TIMEOUT"];
	s62 -> s72 [label="ECDSA_SIGN_CERTIFICATE_REQUEST / TIMEOUT"];
	s62 -> s63 [label="SERVER_HELLO_DONE / TIMEOUT"];
	s62 -> s3 [label="CHANGE_CIPHER_SPEC / TIMEOUT"];
	s62 -> s62 [label="FINISHED / TIMEOUT"];
	s62 -> s62 [label="APPLICATION / TIMEOUT"];
	s62 -> s62 [label="CERTIFICATE / TIMEOUT"];
	s62 -> s62 [label="EMPTY_CERTIFICATE / TIMEOUT"];
	s62 -> s1 [label="Alert(WARNING,CLOSE_NOTIFY) / Alert(FATAL,INTERNAL_ERROR)"];
	s62 -> s1 [label="Alert(FATAL,UNEXPECTED_MESSAGE) / TIMEOUT"];
	s63 -> s63 [label="HELLO_VERIFY_REQUEST / TIMEOUT"];
	s63 -> s17 [label="ECDH_SERVER_HELLO / TIMEOUT"];
	s63 -> s68 [label="ECDH_SERVER_KEY_EXCHANGE / TIMEOUT"];
	s63 -> s63 [label="DH_SERVER_HELLO / TIMEOUT"];
	s63 -> s68 [label="DH_SERVER_KEY_EXCHANGE / TIMEOUT"];
	s63 -> s63 [label="RSA_SERVER_HELLO / TIMEOUT"];
	s63 -> s64 [label="RSA_SIGN_CERTIFICATE_REQUEST / TIMEOUT"];
	s63 -> s64 [label="RSA_FIXED_ECDH_CERTIFICATE_REQUEST / TIMEOUT"];
	s63 -> s64 [label="RSA_FIXED_DH_CERTIFICATE_REQUEST / TIMEOUT"];
	s63 -> s64 [label="DSS_SIGN_CERTIFICATE_REQUEST / TIMEOUT"];
	s63 -> s64 [label="DSS_FIXED_DH_CERTIFICATE_REQUEST / TIMEOUT"];
	s63 -> s64 [label="ECDSA_SIGN_CERTIFICATE_REQUEST / TIMEOUT"];
	s63 -> s63 [label="SERVER_HELLO_DONE / TIMEOUT"];
	s63 -> s3 [label="CHANGE_CIPHER_SPEC / TIMEOUT"];
	s63 -> s63 [label="FINISHED / TIMEOUT"];
	s63 -> s63 [label="APPLICATION / TIMEOUT"];
	s63 -> s63 [label="CERTIFICATE / TIMEOUT"];
	s63 -> s63 [label="EMPTY_CERTIFICATE / TIMEOUT"];
	s63 -> s1 [label="Alert(WARNING,CLOSE_NOTIFY) / Alert(FATAL,INTERNAL_ERROR)"];
	s63 -> s1 [label="Alert(FATAL,UNEXPECTED_MESSAGE) / TIMEOUT"];
	s64 -> s64 [label="HELLO_VERIFY_REQUEST / TIMEOUT"];
	s64 -> s17 [label="ECDH_SERVER_HELLO / TIMEOUT"];
	s64 -> s60 [label="ECDH_SERVER_KEY_EXCHANGE / TIMEOUT"];
	s64 -> s65 [label="DH_SERVER_HELLO / TIMEOUT"];
	s64 -> s60 [label="DH_SERVER_KEY_EXCHANGE / TIMEOUT"];
	s64 -> s65 [label="RSA_SERVER_HELLO / TIMEOUT"];
	s64 -> s64 [label="RSA_SIGN_CERTIFICATE_REQUEST / TIMEOUT"];
	s64 -> s64 [label="RSA_FIXED_ECDH_CERTIFICATE_REQUEST / TIMEOUT"];
	s64 -> s64 [label="RSA_FIXED_DH_CERTIFICATE_REQUEST / TIMEOUT"];
	s64 -> s64 [label="DSS_SIGN_CERTIFICATE_REQUEST / TIMEOUT"];
	s64 -> s64 [label="DSS_FIXED_DH_CERTIFICATE_REQUEST / TIMEOUT"];
	s64 -> s64 [label="ECDSA_SIGN_CERTIFICATE_REQUEST / TIMEOUT"];
	s64 -> s64 [label="SERVER_HELLO_DONE / TIMEOUT"];
	s64 -> s3 [label="CHANGE_CIPHER_SPEC / TIMEOUT"];
	s64 -> s64 [label="FINISHED / TIMEOUT"];
	s64 -> s64 [label="APPLICATION / TIMEOUT"];
	s64 -> s64 [label="CERTIFICATE / TIMEOUT"];
	s64 -> s64 [label="EMPTY_CERTIFICATE / TIMEOUT"];
	s64 -> s1 [label="Alert(WARNING,CLOSE_NOTIFY) / Alert(FATAL,INTERNAL_ERROR)"];
	s64 -> s1 [label="Alert(FATAL,UNEXPECTED_MESSAGE) / TIMEOUT"];
	s65 -> s66 [label="HELLO_VERIFY_REQUEST / TIMEOUT"];
	s65 -> s17 [label="ECDH_SERVER_HELLO / TIMEOUT"];
	s65 -> s61 [label="ECDH_SERVER_KEY_EXCHANGE / TIMEOUT"];
	s65 -> s65 [label="DH_SERVER_HELLO / TIMEOUT"];
	s65 -> s61 [label="DH_SERVER_KEY_EXCHANGE / TIMEOUT"];
	s65 -> s65 [label="RSA_SERVER_HELLO / TIMEOUT"];
	s65 -> s65 [label="RSA_SIGN_CERTIFICATE_REQUEST / TIMEOUT"];
	s65 -> s65 [label="RSA_FIXED_ECDH_CERTIFICATE_REQUEST / TIMEOUT"];
	s65 -> s65 [label="RSA_FIXED_DH_CERTIFICATE_REQUEST / TIMEOUT"];
	s65 -> s65 [label="DSS_SIGN_CERTIFICATE_REQUEST / TIMEOUT"];
	s65 -> s65 [label="DSS_FIXED_DH_CERTIFICATE_REQUEST / TIMEOUT"];
	s65 -> s65 [label="ECDSA_SIGN_CERTIFICATE_REQUEST / TIMEOUT"];
	s65 -> s65 [label="SERVER_HELLO_DONE / TIMEOUT"];
	s65 -> s3 [label="CHANGE_CIPHER_SPEC / TIMEOUT"];
	s65 -> s65 [label="FINISHED / TIMEOUT"];
	s65 -> s65 [label="APPLICATION / TIMEOUT"];
	s65 -> s65 [label="CERTIFICATE / TIMEOUT"];
	s65 -> s65 [label="EMPTY_CERTIFICATE / TIMEOUT"];
	s65 -> s1 [label="Alert(WARNING,CLOSE_NOTIFY) / Alert(FATAL,INTERNAL_ERROR)"];
	s65 -> s1 [label="Alert(FATAL,UNEXPECTED_MESSAGE) / TIMEOUT"];
	s66 -> s66 [label="HELLO_VERIFY_REQUEST / TIMEOUT"];
	s66 -> s17 [label="ECDH_SERVER_HELLO / TIMEOUT"];
	s66 -> s44 [label="ECDH_SERVER_KEY_EXCHANGE / TIMEOUT"];
	s66 -> s66 [label="DH_SERVER_HELLO / TIMEOUT"];
	s66 -> s44 [label="DH_SERVER_KEY_EXCHANGE / TIMEOUT"];
	s66 -> s66 [label="RSA_SERVER_HELLO / TIMEOUT"];
	s66 -> s66 [label="RSA_SIGN_CERTIFICATE_REQUEST / TIMEOUT"];
	s66 -> s66 [label="RSA_FIXED_ECDH_CERTIFICATE_REQUEST / TIMEOUT"];
	s66 -> s66 [label="RSA_FIXED_DH_CERTIFICATE_REQUEST / TIMEOUT"];
	s66 -> s66 [label="DSS_SIGN_CERTIFICATE_REQUEST / TIMEOUT"];
	s66 -> s66 [label="DSS_FIXED_DH_CERTIFICATE_REQUEST / TIMEOUT"];
	s66 -> s66 [label="ECDSA_SIGN_CERTIFICATE_REQUEST / TIMEOUT"];
	s66 -> s66 [label="SERVER_HELLO_DONE / TIMEOUT"];
	s66 -> s3 [label="CHANGE_CIPHER_SPEC / TIMEOUT"];
	s66 -> s66 [label="FINISHED / TIMEOUT"];
	s66 -> s66 [label="APPLICATION / TIMEOUT"];
	s66 -> s67 [label="CERTIFICATE / TIMEOUT"];
	s66 -> s67 [label="EMPTY_CERTIFICATE / TIMEOUT"];
	s66 -> s1 [label="Alert(WARNING,CLOSE_NOTIFY) / Alert(FATAL,INTERNAL_ERROR)"];
	s66 -> s1 [label="Alert(FATAL,UNEXPECTED_MESSAGE) / TIMEOUT"];
	s67 -> s67 [label="HELLO_VERIFY_REQUEST / TIMEOUT"];
	s67 -> s17 [label="ECDH_SERVER_HELLO / TIMEOUT"];
	s67 -> s1 [label="ECDH_SERVER_KEY_EXCHANGE / Alert(FATAL,INTERNAL_ERROR)"];
	s67 -> s67 [label="DH_SERVER_HELLO / TIMEOUT"];
	s67 -> s1 [label="DH_SERVER_KEY_EXCHANGE / Alert(FATAL,INTERNAL_ERROR)"];
	s67 -> s67 [label="RSA_SERVER_HELLO / TIMEOUT"];
	s67 -> s67 [label="RSA_SIGN_CERTIFICATE_REQUEST / TIMEOUT"];
	s67 -> s67 [label="RSA_FIXED_ECDH_CERTIFICATE_REQUEST / TIMEOUT"];
	s67 -> s67 [label="RSA_FIXED_DH_CERTIFICATE_REQUEST / TIMEOUT"];
	s67 -> s67 [label="DSS_SIGN_CERTIFICATE_REQUEST / TIMEOUT"];
	s67 -> s67 [label="DSS_FIXED_DH_CERTIFICATE_REQUEST / TIMEOUT"];
	s67 -> s67 [label="ECDSA_SIGN_CERTIFICATE_REQUEST / TIMEOUT"];
	s67 -> s67 [label="SERVER_HELLO_DONE / TIMEOUT"];
	s67 -> s3 [label="CHANGE_CIPHER_SPEC / TIMEOUT"];
	s67 -> s67 [label="FINISHED / TIMEOUT"];
	s67 -> s67 [label="APPLICATION / TIMEOUT"];
	s67 -> s67 [label="CERTIFICATE / TIMEOUT"];
	s67 -> s67 [label="EMPTY_CERTIFICATE / TIMEOUT"];
	s67 -> s1 [label="Alert(WARNING,CLOSE_NOTIFY) / Alert(FATAL,INTERNAL_ERROR)"];
	s67 -> s1 [label="Alert(FATAL,UNEXPECTED_MESSAGE) / TIMEOUT"];
	s68 -> s68 [label="HELLO_VERIFY_REQUEST / TIMEOUT"];
	s68 -> s48 [label="ECDH_SERVER_HELLO / TIMEOUT"];
	s68 -> s68 [label="ECDH_SERVER_KEY_EXCHANGE / TIMEOUT"];
	s68 -> s69 [label="DH_SERVER_HELLO / TIMEOUT"];
	s68 -> s68 [label="DH_SERVER_KEY_EXCHANGE / TIMEOUT"];
	s68 -> s69 [label="RSA_SERVER_HELLO / TIMEOUT"];
	s68 -> s60 [label="RSA_SIGN_CERTIFICATE_REQUEST / TIMEOUT"];
	s68 -> s60 [label="RSA_FIXED_ECDH_CERTIFICATE_REQUEST / TIMEOUT"];
	s68 -> s60 [label="RSA_FIXED_DH_CERTIFICATE_REQUEST / TIMEOUT"];
	s68 -> s60 [label="DSS_SIGN_CERTIFICATE_REQUEST / TIMEOUT"];
	s68 -> s60 [label="DSS_FIXED_DH_CERTIFICATE_REQUEST / TIMEOUT"];
	s68 -> s60 [label="ECDSA_SIGN_CERTIFICATE_REQUEST / TIMEOUT"];
	s68 -> s68 [label="SERVER_HELLO_DONE / TIMEOUT"];
	s68 -> s3 [label="CHANGE_CIPHER_SPEC / TIMEOUT"];
	s68 -> s68 [label="FINISHED / TIMEOUT"];
	s68 -> s68 [label="APPLICATION / TIMEOUT"];
	s68 -> s33 [label="CERTIFICATE / TIMEOUT"];
	s68 -> s33 [label="EMPTY_CERTIFICATE / TIMEOUT"];
	s68 -> s1 [label="Alert(WARNING,CLOSE_NOTIFY) / Alert(FATAL,INTERNAL_ERROR)"];
	s68 -> s1 [label="Alert(FATAL,UNEXPECTED_MESSAGE) / TIMEOUT"];
	s69 -> s70 [label="HELLO_VERIFY_REQUEST / TIMEOUT"];
	s69 -> s48 [label="ECDH_SERVER_HELLO / TIMEOUT"];
	s69 -> s69 [label="ECDH_SERVER_KEY_EXCHANGE / TIMEOUT"];
	s69 -> s69 [label="DH_SERVER_HELLO / TIMEOUT"];
	s69 -> s69 [label="DH_SERVER_KEY_EXCHANGE / TIMEOUT"];
	s69 -> s69 [label="RSA_SERVER_HELLO / TIMEOUT"];
	s69 -> s61 [label="RSA_SIGN_CERTIFICATE_REQUEST / TIMEOUT"];
	s69 -> s61 [label="RSA_FIXED_ECDH_CERTIFICATE_REQUEST / TIMEOUT"];
	s69 -> s61 [label="RSA_FIXED_DH_CERTIFICATE_REQUEST / TIMEOUT"];
	s69 -> s61 [label="DSS_SIGN_CERTIFICATE_REQUEST / TIMEOUT"];
	s69 -> s61 [label="DSS_FIXED_DH_CERTIFICATE_REQUEST / TIMEOUT"];
	s69 -> s61 [label="ECDSA_SIGN_CERTIFICATE_REQUEST / TIMEOUT"];
	s69 -> s69 [label="SERVER_HELLO_DONE / TIMEOUT"];
	s69 -> s3 [label="CHANGE_CIPHER_SPEC / TIMEOUT"];
	s69 -> s69 [label="FINISHED / TIMEOUT"];
	s69 -> s69 [label="APPLICATION / TIMEOUT"];
	s69 -> s33 [label="CERTIFICATE / TIMEOUT"];
	s69 -> s33 [label="EMPTY_CERTIFICATE / TIMEOUT"];
	s69 -> s1 [label="Alert(WARNING,CLOSE_NOTIFY) / Alert(FATAL,INTERNAL_ERROR)"];
	s69 -> s1 [label="Alert(FATAL,UNEXPECTED_MESSAGE) / TIMEOUT"];
	s70 -> s70 [label="HELLO_VERIFY_REQUEST / TIMEOUT"];
	s70 -> s48 [label="ECDH_SERVER_HELLO / TIMEOUT"];
	s70 -> s70 [label="ECDH_SERVER_KEY_EXCHANGE / TIMEOUT"];
	s70 -> s70 [label="DH_SERVER_HELLO / TIMEOUT"];
	s70 -> s70 [label="DH_SERVER_KEY_EXCHANGE / TIMEOUT"];
	s70 -> s70 [label="RSA_SERVER_HELLO / TIMEOUT"];
	s70 -> s44 [label="RSA_SIGN_CERTIFICATE_REQUEST / TIMEOUT"];
	s70 -> s44 [label="RSA_FIXED_ECDH_CERTIFICATE_REQUEST / TIMEOUT"];
	s70 -> s44 [label="RSA_FIXED_DH_CERTIFICATE_REQUEST / TIMEOUT"];
	s70 -> s44 [label="DSS_SIGN_CERTIFICATE_REQUEST / TIMEOUT"];
	s70 -> s44 [label="DSS_FIXED_DH_CERTIFICATE_REQUEST / TIMEOUT"];
	s70 -> s44 [label="ECDSA_SIGN_CERTIFICATE_REQUEST / TIMEOUT"];
	s70 -> s70 [label="SERVER_HELLO_DONE / TIMEOUT"];
	s70 -> s3 [label="CHANGE_CIPHER_SPEC / TIMEOUT"];
	s70 -> s70 [label="FINISHED / TIMEOUT"];
	s70 -> s70 [label="APPLICATION / TIMEOUT"];
	s70 -> s28 [label="CERTIFICATE / TIMEOUT"];
	s70 -> s28 [label="EMPTY_CERTIFICATE / TIMEOUT"];
	s70 -> s1 [label="Alert(WARNING,CLOSE_NOTIFY) / Alert(FATAL,INTERNAL_ERROR)"];
	s70 -> s1 [label="Alert(FATAL,UNEXPECTED_MESSAGE) / TIMEOUT"];
	s71 -> s71 [label="HELLO_VERIFY_REQUEST / TIMEOUT"];
	s71 -> s17 [label="ECDH_SERVER_HELLO / TIMEOUT"];
	s71 -> s40 [label="ECDH_SERVER_KEY_EXCHANGE / TIMEOUT"];
	s71 -> s71 [label="DH_SERVER_HELLO / TIMEOUT"];
	s71 -> s40 [label="DH_SERVER_KEY_EXCHANGE / TIMEOUT"];
	s71 -> s71 [label="RSA_SERVER_HELLO / TIMEOUT"];
	s71 -> s76 [label="RSA_SIGN_CERTIFICATE_REQUEST / TIMEOUT"];
	s71 -> s76 [label="RSA_FIXED_ECDH_CERTIFICATE_REQUEST / TIMEOUT"];
	s71 -> s76 [label="RSA_FIXED_DH_CERTIFICATE_REQUEST / TIMEOUT"];
	s71 -> s76 [label="DSS_SIGN_CERTIFICATE_REQUEST / TIMEOUT"];
	s71 -> s76 [label="DSS_FIXED_DH_CERTIFICATE_REQUEST / TIMEOUT"];
	s71 -> s76 [label="ECDSA_SIGN_CERTIFICATE_REQUEST / TIMEOUT"];
	s71 -> s71 [label="SERVER_HELLO_DONE / TIMEOUT"];
	s71 -> s3 [label="CHANGE_CIPHER_SPEC / TIMEOUT"];
	s71 -> s63 [label="FINISHED / TIMEOUT"];
	s71 -> s71 [label="APPLICATION / TIMEOUT"];
	s71 -> s71 [label="CERTIFICATE / TIMEOUT"];
	s71 -> s71 [label="EMPTY_CERTIFICATE / TIMEOUT"];
	s71 -> s1 [label="Alert(WARNING,CLOSE_NOTIFY) / Alert(FATAL,INTERNAL_ERROR)"];
	s71 -> s1 [label="Alert(FATAL,UNEXPECTED_MESSAGE) / TIMEOUT"];
	s72 -> s72 [label="HELLO_VERIFY_REQUEST / TIMEOUT"];
	s72 -> s17 [label="ECDH_SERVER_HELLO / TIMEOUT"];
	s72 -> s21 [label="ECDH_SERVER_KEY_EXCHANGE / TIMEOUT"];
	s72 -> s73 [label="DH_SERVER_HELLO / TIMEOUT"];
	s72 -> s21 [label="DH_SERVER_KEY_EXCHANGE / TIMEOUT"];
	s72 -> s73 [label="RSA_SERVER_HELLO / TIMEOUT"];
	s72 -> s72 [label="RSA_SIGN_CERTIFICATE_REQUEST / TIMEOUT"];
	s72 -> s72 [label="RSA_FIXED_ECDH_CERTIFICATE_REQUEST / TIMEOUT"];
	s72 -> s72 [label="RSA_FIXED_DH_CERTIFICATE_REQUEST / TIMEOUT"];
	s72 -> s72 [label="DSS_SIGN_CERTIFICATE_REQUEST / TIMEOUT"];
	s72 -> s72 [label="DSS_FIXED_DH_CERTIFICATE_REQUEST / TIMEOUT"];
	s72 -> s72 [label="ECDSA_SIGN_CERTIFICATE_REQUEST / TIMEOUT"];
	s72 -> s64 [label="SERVER_HELLO_DONE / TIMEOUT"];
	s72 -> s3 [label="CHANGE_CIPHER_SPEC / TIMEOUT"];
	s72 -> s72 [label="FINISHED / TIMEOUT"];
	s72 -> s72 [label="APPLICATION / TIMEOUT"];
	s72 -> s72 [label="CERTIFICATE / TIMEOUT"];
	s72 -> s72 [label="EMPTY_CERTIFICATE / TIMEOUT"];
	s72 -> s1 [label="Alert(WARNING,CLOSE_NOTIFY) / Alert(FATAL,INTERNAL_ERROR)"];
	s72 -> s1 [label="Alert(FATAL,UNEXPECTED_MESSAGE) / TIMEOUT"];
	s73 -> s74 [label="HELLO_VERIFY_REQUEST / TIMEOUT"];
	s73 -> s17 [label="ECDH_SERVER_HELLO / TIMEOUT"];
	s73 -> s21 [label="ECDH_SERVER_KEY_EXCHANGE / TIMEOUT"];
	s73 -> s73 [label="DH_SERVER_HELLO / TIMEOUT"];
	s73 -> s21 [label="DH_SERVER_KEY_EXCHANGE / TIMEOUT"];
	s73 -> s73 [label="RSA_SERVER_HELLO / TIMEOUT"];
	s73 -> s73 [label="RSA_SIGN_CERTIFICATE_REQUEST / TIMEOUT"];
	s73 -> s73 [label="RSA_FIXED_ECDH_CERTIFICATE_REQUEST / TIMEOUT"];
	s73 -> s73 [label="RSA_FIXED_DH_CERTIFICATE_REQUEST / TIMEOUT"];
	s73 -> s73 [label="DSS_SIGN_CERTIFICATE_REQUEST / TIMEOUT"];
	s73 -> s73 [label="DSS_FIXED_DH_CERTIFICATE_REQUEST / TIMEOUT"];
	s73 -> s73 [label="ECDSA_SIGN_CERTIFICATE_REQUEST / TIMEOUT"];
	s73 -> s65 [label="SERVER_HELLO_DONE / TIMEOUT"];
	s73 -> s3 [label="CHANGE_CIPHER_SPEC / TIMEOUT"];
	s73 -> s73 [label="FINISHED / TIMEOUT"];
	s73 -> s73 [label="APPLICATION / TIMEOUT"];
	s73 -> s73 [label="CERTIFICATE / TIMEOUT"];
	s73 -> s73 [label="EMPTY_CERTIFICATE / TIMEOUT"];
	s73 -> s1 [label="Alert(WARNING,CLOSE_NOTIFY) / Alert(FATAL,INTERNAL_ERROR)"];
	s73 -> s1 [label="Alert(FATAL,UNEXPECTED_MESSAGE) / TIMEOUT"];
	s74 -> s74 [label="HELLO_VERIFY_REQUEST / TIMEOUT"];
	s74 -> s17 [label="ECDH_SERVER_HELLO / TIMEOUT"];
	s74 -> s21 [label="ECDH_SERVER_KEY_EXCHANGE / TIMEOUT"];
	s74 -> s74 [label="DH_SERVER_HELLO / TIMEOUT"];
	s74 -> s21 [label="DH_SERVER_KEY_EXCHANGE / TIMEOUT"];
	s74 -> s74 [label="RSA_SERVER_HELLO / TIMEOUT"];
	s74 -> s74 [label="RSA_SIGN_CERTIFICATE_REQUEST / TIMEOUT"];
	s74 -> s74 [label="RSA_FIXED_ECDH_CERTIFICATE_REQUEST / TIMEOUT"];
	s74 -> s74 [label="RSA_FIXED_DH_CERTIFICATE_REQUEST / TIMEOUT"];
	s74 -> s74 [label="DSS_SIGN_CERTIFICATE_REQUEST / TIMEOUT"];
	s74 -> s74 [label="DSS_FIXED_DH_CERTIFICATE_REQUEST / TIMEOUT"];
	s74 -> s74 [label="ECDSA_SIGN_CERTIFICATE_REQUEST / TIMEOUT"];
	s74 -> s66 [label="SERVER_HELLO_DONE / TIMEOUT"];
	s74 -> s3 [label="CHANGE_CIPHER_SPEC / TIMEOUT"];
	s74 -> s74 [label="FINISHED / TIMEOUT"];
	s74 -> s74 [label="APPLICATION / TIMEOUT"];
	s74 -> s75 [label="CERTIFICATE / TIMEOUT"];
	s74 -> s75 [label="EMPTY_CERTIFICATE / TIMEOUT"];
	s74 -> s1 [label="Alert(WARNING,CLOSE_NOTIFY) / Alert(FATAL,INTERNAL_ERROR)"];
	s74 -> s1 [label="Alert(FATAL,UNEXPECTED_MESSAGE) / TIMEOUT"];
	s75 -> s75 [label="HELLO_VERIFY_REQUEST / TIMEOUT"];
	s75 -> s17 [label="ECDH_SERVER_HELLO / TIMEOUT"];
	s75 -> s27 [label="ECDH_SERVER_KEY_EXCHANGE / TIMEOUT"];
	s75 -> s75 [label="DH_SERVER_HELLO / TIMEOUT"];
	s75 -> s27 [label="DH_SERVER_KEY_EXCHANGE / TIMEOUT"];
	s75 -> s75 [label="RSA_SERVER_HELLO / TIMEOUT"];
	s75 -> s75 [label="RSA_SIGN_CERTIFICATE_REQUEST / TIMEOUT"];
	s75 -> s75 [label="RSA_FIXED_ECDH_CERTIFICATE_REQUEST / TIMEOUT"];
	s75 -> s75 [label="RSA_FIXED_DH_CERTIFICATE_REQUEST / TIMEOUT"];
	s75 -> s75 [label="DSS_SIGN_CERTIFICATE_REQUEST / TIMEOUT"];
	s75 -> s75 [label="DSS_FIXED_DH_CERTIFICATE_REQUEST / TIMEOUT"];
	s75 -> s75 [label="ECDSA_SIGN_CERTIFICATE_REQUEST / TIMEOUT"];
	s75 -> s67 [label="SERVER_HELLO_DONE / TIMEOUT"];
	s75 -> s3 [label="CHANGE_CIPHER_SPEC / TIMEOUT"];
	s75 -> s75 [label="FINISHED / TIMEOUT"];
	s75 -> s75 [label="APPLICATION / TIMEOUT"];
	s75 -> s75 [label="CERTIFICATE / TIMEOUT"];
	s75 -> s75 [label="EMPTY_CERTIFICATE / TIMEOUT"];
	s75 -> s1 [label="Alert(WARNING,CLOSE_NOTIFY) / Alert(FATAL,INTERNAL_ERROR)"];
	s75 -> s1 [label="Alert(FATAL,UNEXPECTED_MESSAGE) / TIMEOUT"];
	s76 -> s76 [label="HELLO_VERIFY_REQUEST / TIMEOUT"];
	s76 -> s17 [label="ECDH_SERVER_HELLO / TIMEOUT"];
	s76 -> s41 [label="ECDH_SERVER_KEY_EXCHANGE / TIMEOUT"];
	s76 -> s65 [label="DH_SERVER_HELLO / TIMEOUT"];
	s76 -> s41 [label="DH_SERVER_KEY_EXCHANGE / TIMEOUT"];
	s76 -> s65 [label="RSA_SERVER_HELLO / TIMEOUT"];
	s76 -> s76 [label="RSA_SIGN_CERTIFICATE_REQUEST / TIMEOUT"];
	s76 -> s76 [label="RSA_FIXED_ECDH_CERTIFICATE_REQUEST / TIMEOUT"];
	s76 -> s76 [label="RSA_FIXED_DH_CERTIFICATE_REQUEST / TIMEOUT"];
	s76 -> s76 [label="DSS_SIGN_CERTIFICATE_REQUEST / TIMEOUT"];
	s76 -> s76 [label="DSS_FIXED_DH_CERTIFICATE_REQUEST / TIMEOUT"];
	s76 -> s76 [label="ECDSA_SIGN_CERTIFICATE_REQUEST / TIMEOUT"];
	s76 -> s76 [label="SERVER_HELLO_DONE / TIMEOUT"];
	s76 -> s3 [label="CHANGE_CIPHER_SPEC / TIMEOUT"];
	s76 -> s64 [label="FINISHED / TIMEOUT"];
	s76 -> s76 [label="APPLICATION / TIMEOUT"];
	s76 -> s76 [label="CERTIFICATE / TIMEOUT"];
	s76 -> s76 [label="EMPTY_CERTIFICATE / TIMEOUT"];
	s76 -> s1 [label="Alert(WARNING,CLOSE_NOTIFY) / Alert(FATAL,INTERNAL_ERROR)"];
	s76 -> s1 [label="Alert(FATAL,UNEXPECTED_MESSAGE) / TIMEOUT"];

__start0 [label="" shape="none" width="0" height="0"];
__start0 -> s0;

}
