digraph g {

	s0 [shape="doublecircle" label="s0"];
	s1 [shape="doublecircle" label="s1"];
	s2 [shape="circle" label="s2"];
	s3 [shape="doublecircle" label="s3"];
	s4 [shape="doublecircle" label="s4"];
	s5 [shape="doublecircle" label="s5"];
	s6 [shape="doublecircle" label="s6"];
	s7 [shape="doublecircle" label="s7"];
	s8 [shape="doublecircle" label="s8"];
	s9 [shape="doublecircle" label="s9"];
	s10 [shape="doublecircle" label="s10"];
	s11 [shape="doublecircle" label="s11"];
	s12 [shape="doublecircle" label="s12"];
	s13 [shape="doublecircle" label="s13"];
	s14 [shape="doublecircle" label="s14"];
	s15 [shape="doublecircle" label="s15"];
	s16 [shape="doublecircle" label="s16"];
	s17 [shape="doublecircle" label="s17"];
	s18 [shape="doublecircle" label="s18"];
	s19 [shape="doublecircle" label="s19"];
	s20 [shape="doublecircle" label="s20"];
	s21 [shape="doublecircle" label="s21"];
	s22 [shape="doublecircle" label="s22"];
	s23 [shape="doublecircle" label="s23"];
	s24 [shape="doublecircle" label="s24"];
	s25 [shape="doublecircle" label="s25"];
	s26 [shape="doublecircle" label="s26"];
	s27 [shape="doublecircle" label="s27"];
	s28 [shape="doublecircle" label="s28"];
	s29 [shape="doublecircle" label="s29"];
	s30 [shape="doublecircle" label="s30"];
	s31 [shape="doublecircle" label="s31"];
	s32 [shape="doublecircle" label="s32"];
	s33 [shape="doublecircle" label="s33"];
	s34 [shape="doublecircle" label="s34"];
	s35 [shape="doublecircle" label="s35"];
	s36 [shape="doublecircle" label="s36"];
	s37 [shape="doublecircle" label="s37"];
	s38 [shape="doublecircle" label="s38"];
	s39 [shape="doublecircle" label="s39"];
	s40 [shape="doublecircle" label="s40"];
	s41 [shape="doublecircle" label="s41"];
	s42 [shape="doublecircle" label="s42"];
	s43 [shape="doublecircle" label="s43"];
	s44 [shape="doublecircle" label="s44"];
	s45 [shape="doublecircle" label="s45"];
	s46 [shape="doublecircle" label="s46"];
	s47 [shape="doublecircle" label="s47"];
	s48 [shape="doublecircle" label="s48"];
	s49 [shape="doublecircle" label="s49"];
	s50 [shape="doublecircle" label="s50"];
	s51 [shape="doublecircle" label="s51"];
	s0 -> s1 [label="I_PSK_CLIENT_HELLO"];
	s0 -> s46 [label="I_PSK_CLIENT_KEY_EXCHANGE"];
	s0 -> s50 [label="I_CHANGE_CIPHER_SPEC"];
	s0 -> s0 [label="I_FINISHED"];
	s0 -> s0 [label="I_APPLICATION"];
	s0 -> s0 [label="I_Alert(WARNING,CLOSE_NOTIFY)"];
	s0 -> s0 [label="I_Alert(FATAL,UNEXPECTED_MESSAGE)"];
	s0 -> s2 [label="O_HELLO_VERIFY_REQUEST"];
	s0 -> s2 [label="O_Alert(FATAL,CLOSE_NOTIFY)"];
	s0 -> s2 [label="O_SERVER_HELLO"];
	s0 -> s2 [label="O_SERVER_HELLO_DONE"];
	s0 -> s2 [label="O_CHANGE_CIPHER_SPEC"];
	s0 -> s2 [label="O_FINISHED"];
	s0 -> s2 [label="O_Alert(FATAL,UNEXPECTED_MESSAGE)"];
	s0 -> s2 [label="O_Alert(FATAL,DECRYPT_ERROR)"];
	s0 -> s2 [label="O_APPLICATION"];
	s1 -> s2 [label="I_PSK_CLIENT_HELLO"];
	s1 -> s2 [label="I_PSK_CLIENT_KEY_EXCHANGE"];
	s1 -> s2 [label="I_CHANGE_CIPHER_SPEC"];
	s1 -> s2 [label="I_FINISHED"];
	s1 -> s2 [label="I_APPLICATION"];
	s1 -> s2 [label="I_Alert(WARNING,CLOSE_NOTIFY)"];
	s1 -> s2 [label="I_Alert(FATAL,UNEXPECTED_MESSAGE)"];
	s1 -> s3 [label="O_HELLO_VERIFY_REQUEST"];
	s1 -> s2 [label="O_Alert(FATAL,CLOSE_NOTIFY)"];
	s1 -> s2 [label="O_SERVER_HELLO"];
	s1 -> s2 [label="O_SERVER_HELLO_DONE"];
	s1 -> s2 [label="O_CHANGE_CIPHER_SPEC"];
	s1 -> s2 [label="O_FINISHED"];
	s1 -> s2 [label="O_Alert(FATAL,UNEXPECTED_MESSAGE)"];
	s1 -> s2 [label="O_Alert(FATAL,DECRYPT_ERROR)"];
	s1 -> s2 [label="O_APPLICATION"];
	s2 -> s2 [label="I_PSK_CLIENT_HELLO"];
	s2 -> s2 [label="I_PSK_CLIENT_KEY_EXCHANGE"];
	s2 -> s2 [label="I_CHANGE_CIPHER_SPEC"];
	s2 -> s2 [label="I_FINISHED"];
	s2 -> s2 [label="I_APPLICATION"];
	s2 -> s2 [label="I_Alert(WARNING,CLOSE_NOTIFY)"];
	s2 -> s2 [label="I_Alert(FATAL,UNEXPECTED_MESSAGE)"];
	s2 -> s2 [label="O_HELLO_VERIFY_REQUEST"];
	s2 -> s2 [label="O_Alert(FATAL,CLOSE_NOTIFY)"];
	s2 -> s2 [label="O_SERVER_HELLO"];
	s2 -> s2 [label="O_SERVER_HELLO_DONE"];
	s2 -> s2 [label="O_CHANGE_CIPHER_SPEC"];
	s2 -> s2 [label="O_FINISHED"];
	s2 -> s2 [label="O_Alert(FATAL,UNEXPECTED_MESSAGE)"];
	s2 -> s2 [label="O_Alert(FATAL,DECRYPT_ERROR)"];
	s2 -> s2 [label="O_APPLICATION"];
	s3 -> s4 [label="I_PSK_CLIENT_HELLO"];
	s3 -> s43 [label="I_PSK_CLIENT_KEY_EXCHANGE"];
	s3 -> s45 [label="I_CHANGE_CIPHER_SPEC"];
	s3 -> s3 [label="I_FINISHED"];
	s3 -> s3 [label="I_APPLICATION"];
	s3 -> s3 [label="I_Alert(WARNING,CLOSE_NOTIFY)"];
	s3 -> s3 [label="I_Alert(FATAL,UNEXPECTED_MESSAGE)"];
	s3 -> s2 [label="O_HELLO_VERIFY_REQUEST"];
	s3 -> s2 [label="O_Alert(FATAL,CLOSE_NOTIFY)"];
	s3 -> s2 [label="O_SERVER_HELLO"];
	s3 -> s2 [label="O_SERVER_HELLO_DONE"];
	s3 -> s2 [label="O_CHANGE_CIPHER_SPEC"];
	s3 -> s2 [label="O_FINISHED"];
	s3 -> s2 [label="O_Alert(FATAL,UNEXPECTED_MESSAGE)"];
	s3 -> s2 [label="O_Alert(FATAL,DECRYPT_ERROR)"];
	s3 -> s2 [label="O_APPLICATION"];
	s4 -> s2 [label="I_PSK_CLIENT_HELLO"];
	s4 -> s2 [label="I_PSK_CLIENT_KEY_EXCHANGE"];
	s4 -> s2 [label="I_CHANGE_CIPHER_SPEC"];
	s4 -> s2 [label="I_FINISHED"];
	s4 -> s2 [label="I_APPLICATION"];
	s4 -> s2 [label="I_Alert(WARNING,CLOSE_NOTIFY)"];
	s4 -> s2 [label="I_Alert(FATAL,UNEXPECTED_MESSAGE)"];
	s4 -> s2 [label="O_HELLO_VERIFY_REQUEST"];
	s4 -> s2 [label="O_Alert(FATAL,CLOSE_NOTIFY)"];
	s4 -> s5 [label="O_SERVER_HELLO"];
	s4 -> s2 [label="O_SERVER_HELLO_DONE"];
	s4 -> s2 [label="O_CHANGE_CIPHER_SPEC"];
	s4 -> s2 [label="O_FINISHED"];
	s4 -> s2 [label="O_Alert(FATAL,UNEXPECTED_MESSAGE)"];
	s4 -> s2 [label="O_Alert(FATAL,DECRYPT_ERROR)"];
	s4 -> s2 [label="O_APPLICATION"];
	s5 -> s2 [label="I_PSK_CLIENT_HELLO"];
	s5 -> s2 [label="I_PSK_CLIENT_KEY_EXCHANGE"];
	s5 -> s2 [label="I_CHANGE_CIPHER_SPEC"];
	s5 -> s2 [label="I_FINISHED"];
	s5 -> s2 [label="I_APPLICATION"];
	s5 -> s2 [label="I_Alert(WARNING,CLOSE_NOTIFY)"];
	s5 -> s2 [label="I_Alert(FATAL,UNEXPECTED_MESSAGE)"];
	s5 -> s2 [label="O_HELLO_VERIFY_REQUEST"];
	s5 -> s2 [label="O_Alert(FATAL,CLOSE_NOTIFY)"];
	s5 -> s2 [label="O_SERVER_HELLO"];
	s5 -> s6 [label="O_SERVER_HELLO_DONE"];
	s5 -> s2 [label="O_CHANGE_CIPHER_SPEC"];
	s5 -> s2 [label="O_FINISHED"];
	s5 -> s2 [label="O_Alert(FATAL,UNEXPECTED_MESSAGE)"];
	s5 -> s2 [label="O_Alert(FATAL,DECRYPT_ERROR)"];
	s5 -> s2 [label="O_APPLICATION"];
	s6 -> s7 [label="I_PSK_CLIENT_HELLO"];
	s6 -> s16 [label="I_PSK_CLIENT_KEY_EXCHANGE"];
	s6 -> s35 [label="I_CHANGE_CIPHER_SPEC"];
	s6 -> s7 [label="I_FINISHED"];
	s6 -> s6 [label="I_APPLICATION"];
	s6 -> s42 [label="I_Alert(WARNING,CLOSE_NOTIFY)"];
	s6 -> s31 [label="I_Alert(FATAL,UNEXPECTED_MESSAGE)"];
	s6 -> s2 [label="O_HELLO_VERIFY_REQUEST"];
	s6 -> s2 [label="O_Alert(FATAL,CLOSE_NOTIFY)"];
	s6 -> s2 [label="O_SERVER_HELLO"];
	s6 -> s2 [label="O_SERVER_HELLO_DONE"];
	s6 -> s2 [label="O_CHANGE_CIPHER_SPEC"];
	s6 -> s2 [label="O_FINISHED"];
	s6 -> s2 [label="O_Alert(FATAL,UNEXPECTED_MESSAGE)"];
	s6 -> s2 [label="O_Alert(FATAL,DECRYPT_ERROR)"];
	s6 -> s2 [label="O_APPLICATION"];
	s7 -> s2 [label="I_PSK_CLIENT_HELLO"];
	s7 -> s2 [label="I_PSK_CLIENT_KEY_EXCHANGE"];
	s7 -> s2 [label="I_CHANGE_CIPHER_SPEC"];
	s7 -> s2 [label="I_FINISHED"];
	s7 -> s2 [label="I_APPLICATION"];
	s7 -> s2 [label="I_Alert(WARNING,CLOSE_NOTIFY)"];
	s7 -> s2 [label="I_Alert(FATAL,UNEXPECTED_MESSAGE)"];
	s7 -> s2 [label="O_HELLO_VERIFY_REQUEST"];
	s7 -> s2 [label="O_Alert(FATAL,CLOSE_NOTIFY)"];
	s7 -> s2 [label="O_SERVER_HELLO"];
	s7 -> s2 [label="O_SERVER_HELLO_DONE"];
	s7 -> s2 [label="O_CHANGE_CIPHER_SPEC"];
	s7 -> s2 [label="O_FINISHED"];
	s7 -> s8 [label="O_Alert(FATAL,UNEXPECTED_MESSAGE)"];
	s7 -> s2 [label="O_Alert(FATAL,DECRYPT_ERROR)"];
	s7 -> s2 [label="O_APPLICATION"];
	s8 -> s8 [label="I_PSK_CLIENT_HELLO"];
	s8 -> s9 [label="I_PSK_CLIENT_KEY_EXCHANGE"];
	s8 -> s10 [label="I_CHANGE_CIPHER_SPEC"];
	s8 -> s8 [label="I_FINISHED"];
	s8 -> s8 [label="I_APPLICATION"];
	s8 -> s31 [label="I_Alert(WARNING,CLOSE_NOTIFY)"];
	s8 -> s31 [label="I_Alert(FATAL,UNEXPECTED_MESSAGE)"];
	s8 -> s2 [label="O_HELLO_VERIFY_REQUEST"];
	s8 -> s2 [label="O_Alert(FATAL,CLOSE_NOTIFY)"];
	s8 -> s2 [label="O_SERVER_HELLO"];
	s8 -> s2 [label="O_SERVER_HELLO_DONE"];
	s8 -> s2 [label="O_CHANGE_CIPHER_SPEC"];
	s8 -> s2 [label="O_FINISHED"];
	s8 -> s2 [label="O_Alert(FATAL,UNEXPECTED_MESSAGE)"];
	s8 -> s2 [label="O_Alert(FATAL,DECRYPT_ERROR)"];
	s8 -> s2 [label="O_APPLICATION"];
	s9 -> s9 [label="I_PSK_CLIENT_HELLO"];
	s9 -> s9 [label="I_PSK_CLIENT_KEY_EXCHANGE"];
	s9 -> s10 [label="I_CHANGE_CIPHER_SPEC"];
	s9 -> s9 [label="I_FINISHED"];
	s9 -> s9 [label="I_APPLICATION"];
	s9 -> s11 [label="I_Alert(WARNING,CLOSE_NOTIFY)"];
	s9 -> s11 [label="I_Alert(FATAL,UNEXPECTED_MESSAGE)"];
	s9 -> s2 [label="O_HELLO_VERIFY_REQUEST"];
	s9 -> s2 [label="O_Alert(FATAL,CLOSE_NOTIFY)"];
	s9 -> s2 [label="O_SERVER_HELLO"];
	s9 -> s2 [label="O_SERVER_HELLO_DONE"];
	s9 -> s2 [label="O_CHANGE_CIPHER_SPEC"];
	s9 -> s2 [label="O_FINISHED"];
	s9 -> s2 [label="O_Alert(FATAL,UNEXPECTED_MESSAGE)"];
	s9 -> s2 [label="O_Alert(FATAL,DECRYPT_ERROR)"];
	s9 -> s2 [label="O_APPLICATION"];
	s10 -> s10 [label="I_PSK_CLIENT_HELLO"];
	s10 -> s10 [label="I_PSK_CLIENT_KEY_EXCHANGE"];
	s10 -> s10 [label="I_CHANGE_CIPHER_SPEC"];
	s10 -> s10 [label="I_FINISHED"];
	s10 -> s10 [label="I_APPLICATION"];
	s10 -> s10 [label="I_Alert(WARNING,CLOSE_NOTIFY)"];
	s10 -> s10 [label="I_Alert(FATAL,UNEXPECTED_MESSAGE)"];
	s10 -> s2 [label="O_HELLO_VERIFY_REQUEST"];
	s10 -> s2 [label="O_Alert(FATAL,CLOSE_NOTIFY)"];
	s10 -> s2 [label="O_SERVER_HELLO"];
	s10 -> s2 [label="O_SERVER_HELLO_DONE"];
	s10 -> s2 [label="O_CHANGE_CIPHER_SPEC"];
	s10 -> s2 [label="O_FINISHED"];
	s10 -> s2 [label="O_Alert(FATAL,UNEXPECTED_MESSAGE)"];
	s10 -> s2 [label="O_Alert(FATAL,DECRYPT_ERROR)"];
	s10 -> s2 [label="O_APPLICATION"];
	s11 -> s12 [label="I_PSK_CLIENT_HELLO"];
	s11 -> s11 [label="I_PSK_CLIENT_KEY_EXCHANGE"];
	s11 -> s10 [label="I_CHANGE_CIPHER_SPEC"];
	s11 -> s11 [label="I_FINISHED"];
	s11 -> s11 [label="I_APPLICATION"];
	s11 -> s11 [label="I_Alert(WARNING,CLOSE_NOTIFY)"];
	s11 -> s11 [label="I_Alert(FATAL,UNEXPECTED_MESSAGE)"];
	s11 -> s2 [label="O_HELLO_VERIFY_REQUEST"];
	s11 -> s2 [label="O_Alert(FATAL,CLOSE_NOTIFY)"];
	s11 -> s2 [label="O_SERVER_HELLO"];
	s11 -> s2 [label="O_SERVER_HELLO_DONE"];
	s11 -> s2 [label="O_CHANGE_CIPHER_SPEC"];
	s11 -> s2 [label="O_FINISHED"];
	s11 -> s2 [label="O_Alert(FATAL,UNEXPECTED_MESSAGE)"];
	s11 -> s2 [label="O_Alert(FATAL,DECRYPT_ERROR)"];
	s11 -> s2 [label="O_APPLICATION"];
	s12 -> s2 [label="I_PSK_CLIENT_HELLO"];
	s12 -> s2 [label="I_PSK_CLIENT_KEY_EXCHANGE"];
	s12 -> s2 [label="I_CHANGE_CIPHER_SPEC"];
	s12 -> s2 [label="I_FINISHED"];
	s12 -> s2 [label="I_APPLICATION"];
	s12 -> s2 [label="I_Alert(WARNING,CLOSE_NOTIFY)"];
	s12 -> s2 [label="I_Alert(FATAL,UNEXPECTED_MESSAGE)"];
	s12 -> s2 [label="O_HELLO_VERIFY_REQUEST"];
	s12 -> s2 [label="O_Alert(FATAL,CLOSE_NOTIFY)"];
	s12 -> s13 [label="O_SERVER_HELLO"];
	s12 -> s2 [label="O_SERVER_HELLO_DONE"];
	s12 -> s2 [label="O_CHANGE_CIPHER_SPEC"];
	s12 -> s2 [label="O_FINISHED"];
	s12 -> s2 [label="O_Alert(FATAL,UNEXPECTED_MESSAGE)"];
	s12 -> s2 [label="O_Alert(FATAL,DECRYPT_ERROR)"];
	s12 -> s2 [label="O_APPLICATION"];
	s13 -> s2 [label="I_PSK_CLIENT_HELLO"];
	s13 -> s2 [label="I_PSK_CLIENT_KEY_EXCHANGE"];
	s13 -> s2 [label="I_CHANGE_CIPHER_SPEC"];
	s13 -> s2 [label="I_FINISHED"];
	s13 -> s2 [label="I_APPLICATION"];
	s13 -> s2 [label="I_Alert(WARNING,CLOSE_NOTIFY)"];
	s13 -> s2 [label="I_Alert(FATAL,UNEXPECTED_MESSAGE)"];
	s13 -> s2 [label="O_HELLO_VERIFY_REQUEST"];
	s13 -> s2 [label="O_Alert(FATAL,CLOSE_NOTIFY)"];
	s13 -> s2 [label="O_SERVER_HELLO"];
	s13 -> s14 [label="O_SERVER_HELLO_DONE"];
	s13 -> s2 [label="O_CHANGE_CIPHER_SPEC"];
	s13 -> s2 [label="O_FINISHED"];
	s13 -> s2 [label="O_Alert(FATAL,UNEXPECTED_MESSAGE)"];
	s13 -> s2 [label="O_Alert(FATAL,DECRYPT_ERROR)"];
	s13 -> s2 [label="O_APPLICATION"];
	s14 -> s15 [label="I_PSK_CLIENT_HELLO"];
	s14 -> s16 [label="I_PSK_CLIENT_KEY_EXCHANGE"];
	s14 -> s19 [label="I_CHANGE_CIPHER_SPEC"];
	s14 -> s15 [label="I_FINISHED"];
	s14 -> s14 [label="I_APPLICATION"];
	s14 -> s30 [label="I_Alert(WARNING,CLOSE_NOTIFY)"];
	s14 -> s11 [label="I_Alert(FATAL,UNEXPECTED_MESSAGE)"];
	s14 -> s2 [label="O_HELLO_VERIFY_REQUEST"];
	s14 -> s2 [label="O_Alert(FATAL,CLOSE_NOTIFY)"];
	s14 -> s2 [label="O_SERVER_HELLO"];
	s14 -> s2 [label="O_SERVER_HELLO_DONE"];
	s14 -> s2 [label="O_CHANGE_CIPHER_SPEC"];
	s14 -> s2 [label="O_FINISHED"];
	s14 -> s2 [label="O_Alert(FATAL,UNEXPECTED_MESSAGE)"];
	s14 -> s2 [label="O_Alert(FATAL,DECRYPT_ERROR)"];
	s14 -> s2 [label="O_APPLICATION"];
	s15 -> s2 [label="I_PSK_CLIENT_HELLO"];
	s15 -> s2 [label="I_PSK_CLIENT_KEY_EXCHANGE"];
	s15 -> s2 [label="I_CHANGE_CIPHER_SPEC"];
	s15 -> s2 [label="I_FINISHED"];
	s15 -> s2 [label="I_APPLICATION"];
	s15 -> s2 [label="I_Alert(WARNING,CLOSE_NOTIFY)"];
	s15 -> s2 [label="I_Alert(FATAL,UNEXPECTED_MESSAGE)"];
	s15 -> s2 [label="O_HELLO_VERIFY_REQUEST"];
	s15 -> s2 [label="O_Alert(FATAL,CLOSE_NOTIFY)"];
	s15 -> s2 [label="O_SERVER_HELLO"];
	s15 -> s2 [label="O_SERVER_HELLO_DONE"];
	s15 -> s2 [label="O_CHANGE_CIPHER_SPEC"];
	s15 -> s2 [label="O_FINISHED"];
	s15 -> s9 [label="O_Alert(FATAL,UNEXPECTED_MESSAGE)"];
	s15 -> s2 [label="O_Alert(FATAL,DECRYPT_ERROR)"];
	s15 -> s2 [label="O_APPLICATION"];
	s16 -> s15 [label="I_PSK_CLIENT_HELLO"];
	s16 -> s15 [label="I_PSK_CLIENT_KEY_EXCHANGE"];
	s16 -> s17 [label="I_CHANGE_CIPHER_SPEC"];
	s16 -> s15 [label="I_FINISHED"];
	s16 -> s16 [label="I_APPLICATION"];
	s16 -> s30 [label="I_Alert(WARNING,CLOSE_NOTIFY)"];
	s16 -> s11 [label="I_Alert(FATAL,UNEXPECTED_MESSAGE)"];
	s16 -> s2 [label="O_HELLO_VERIFY_REQUEST"];
	s16 -> s2 [label="O_Alert(FATAL,CLOSE_NOTIFY)"];
	s16 -> s2 [label="O_SERVER_HELLO"];
	s16 -> s2 [label="O_SERVER_HELLO_DONE"];
	s16 -> s2 [label="O_CHANGE_CIPHER_SPEC"];
	s16 -> s2 [label="O_FINISHED"];
	s16 -> s2 [label="O_Alert(FATAL,UNEXPECTED_MESSAGE)"];
	s16 -> s2 [label="O_Alert(FATAL,DECRYPT_ERROR)"];
	s16 -> s2 [label="O_APPLICATION"];
	s17 -> s18 [label="I_PSK_CLIENT_HELLO"];
	s17 -> s18 [label="I_PSK_CLIENT_KEY_EXCHANGE"];
	s17 -> s19 [label="I_CHANGE_CIPHER_SPEC"];
	s17 -> s21 [label="I_FINISHED"];
	s17 -> s17 [label="I_APPLICATION"];
	s17 -> s28 [label="I_Alert(WARNING,CLOSE_NOTIFY)"];
	s17 -> s10 [label="I_Alert(FATAL,UNEXPECTED_MESSAGE)"];
	s17 -> s2 [label="O_HELLO_VERIFY_REQUEST"];
	s17 -> s2 [label="O_Alert(FATAL,CLOSE_NOTIFY)"];
	s17 -> s2 [label="O_SERVER_HELLO"];
	s17 -> s2 [label="O_SERVER_HELLO_DONE"];
	s17 -> s2 [label="O_CHANGE_CIPHER_SPEC"];
	s17 -> s2 [label="O_FINISHED"];
	s17 -> s2 [label="O_Alert(FATAL,UNEXPECTED_MESSAGE)"];
	s17 -> s2 [label="O_Alert(FATAL,DECRYPT_ERROR)"];
	s17 -> s2 [label="O_APPLICATION"];
	s18 -> s2 [label="I_PSK_CLIENT_HELLO"];
	s18 -> s2 [label="I_PSK_CLIENT_KEY_EXCHANGE"];
	s18 -> s2 [label="I_CHANGE_CIPHER_SPEC"];
	s18 -> s2 [label="I_FINISHED"];
	s18 -> s2 [label="I_APPLICATION"];
	s18 -> s2 [label="I_Alert(WARNING,CLOSE_NOTIFY)"];
	s18 -> s2 [label="I_Alert(FATAL,UNEXPECTED_MESSAGE)"];
	s18 -> s2 [label="O_HELLO_VERIFY_REQUEST"];
	s18 -> s2 [label="O_Alert(FATAL,CLOSE_NOTIFY)"];
	s18 -> s2 [label="O_SERVER_HELLO"];
	s18 -> s2 [label="O_SERVER_HELLO_DONE"];
	s18 -> s2 [label="O_CHANGE_CIPHER_SPEC"];
	s18 -> s2 [label="O_FINISHED"];
	s18 -> s10 [label="O_Alert(FATAL,UNEXPECTED_MESSAGE)"];
	s18 -> s2 [label="O_Alert(FATAL,DECRYPT_ERROR)"];
	s18 -> s2 [label="O_APPLICATION"];
	s19 -> s20 [label="I_PSK_CLIENT_HELLO"];
	s19 -> s20 [label="I_PSK_CLIENT_KEY_EXCHANGE"];
	s19 -> s20 [label="I_CHANGE_CIPHER_SPEC"];
	s19 -> s20 [label="I_FINISHED"];
	s19 -> s20 [label="I_APPLICATION"];
	s19 -> s20 [label="I_Alert(WARNING,CLOSE_NOTIFY)"];
	s19 -> s20 [label="I_Alert(FATAL,UNEXPECTED_MESSAGE)"];
	s19 -> s2 [label="O_HELLO_VERIFY_REQUEST"];
	s19 -> s2 [label="O_Alert(FATAL,CLOSE_NOTIFY)"];
	s19 -> s2 [label="O_SERVER_HELLO"];
	s19 -> s2 [label="O_SERVER_HELLO_DONE"];
	s19 -> s2 [label="O_CHANGE_CIPHER_SPEC"];
	s19 -> s2 [label="O_FINISHED"];
	s19 -> s2 [label="O_Alert(FATAL,UNEXPECTED_MESSAGE)"];
	s19 -> s2 [label="O_Alert(FATAL,DECRYPT_ERROR)"];
	s19 -> s2 [label="O_APPLICATION"];
	s20 -> s2 [label="I_PSK_CLIENT_HELLO"];
	s20 -> s2 [label="I_PSK_CLIENT_KEY_EXCHANGE"];
	s20 -> s2 [label="I_CHANGE_CIPHER_SPEC"];
	s20 -> s2 [label="I_FINISHED"];
	s20 -> s2 [label="I_APPLICATION"];
	s20 -> s2 [label="I_Alert(WARNING,CLOSE_NOTIFY)"];
	s20 -> s2 [label="I_Alert(FATAL,UNEXPECTED_MESSAGE)"];
	s20 -> s2 [label="O_HELLO_VERIFY_REQUEST"];
	s20 -> s2 [label="O_Alert(FATAL,CLOSE_NOTIFY)"];
	s20 -> s2 [label="O_SERVER_HELLO"];
	s20 -> s2 [label="O_SERVER_HELLO_DONE"];
	s20 -> s2 [label="O_CHANGE_CIPHER_SPEC"];
	s20 -> s2 [label="O_FINISHED"];
	s20 -> s2 [label="O_Alert(FATAL,UNEXPECTED_MESSAGE)"];
	s20 -> s10 [label="O_Alert(FATAL,DECRYPT_ERROR)"];
	s20 -> s2 [label="O_APPLICATION"];
	s21 -> s2 [label="I_PSK_CLIENT_HELLO"];
	s21 -> s2 [label="I_PSK_CLIENT_KEY_EXCHANGE"];
	s21 -> s2 [label="I_CHANGE_CIPHER_SPEC"];
	s21 -> s2 [label="I_FINISHED"];
	s21 -> s2 [label="I_APPLICATION"];
	s21 -> s2 [label="I_Alert(WARNING,CLOSE_NOTIFY)"];
	s21 -> s2 [label="I_Alert(FATAL,UNEXPECTED_MESSAGE)"];
	s21 -> s2 [label="O_HELLO_VERIFY_REQUEST"];
	s21 -> s2 [label="O_Alert(FATAL,CLOSE_NOTIFY)"];
	s21 -> s2 [label="O_SERVER_HELLO"];
	s21 -> s2 [label="O_SERVER_HELLO_DONE"];
	s21 -> s22 [label="O_CHANGE_CIPHER_SPEC"];
	s21 -> s2 [label="O_FINISHED"];
	s21 -> s2 [label="O_Alert(FATAL,UNEXPECTED_MESSAGE)"];
	s21 -> s2 [label="O_Alert(FATAL,DECRYPT_ERROR)"];
	s21 -> s2 [label="O_APPLICATION"];
	s22 -> s2 [label="I_PSK_CLIENT_HELLO"];
	s22 -> s2 [label="I_PSK_CLIENT_KEY_EXCHANGE"];
	s22 -> s2 [label="I_CHANGE_CIPHER_SPEC"];
	s22 -> s2 [label="I_FINISHED"];
	s22 -> s2 [label="I_APPLICATION"];
	s22 -> s2 [label="I_Alert(WARNING,CLOSE_NOTIFY)"];
	s22 -> s2 [label="I_Alert(FATAL,UNEXPECTED_MESSAGE)"];
	s22 -> s2 [label="O_HELLO_VERIFY_REQUEST"];
	s22 -> s2 [label="O_Alert(FATAL,CLOSE_NOTIFY)"];
	s22 -> s2 [label="O_SERVER_HELLO"];
	s22 -> s2 [label="O_SERVER_HELLO_DONE"];
	s22 -> s2 [label="O_CHANGE_CIPHER_SPEC"];
	s22 -> s23 [label="O_FINISHED"];
	s22 -> s2 [label="O_Alert(FATAL,UNEXPECTED_MESSAGE)"];
	s22 -> s2 [label="O_Alert(FATAL,DECRYPT_ERROR)"];
	s22 -> s2 [label="O_APPLICATION"];
	s23 -> s24 [label="I_PSK_CLIENT_HELLO"];
	s23 -> s23 [label="I_PSK_CLIENT_KEY_EXCHANGE"];
	s23 -> s10 [label="I_CHANGE_CIPHER_SPEC"];
	s23 -> s23 [label="I_FINISHED"];
	s23 -> s29 [label="I_APPLICATION"];
	s23 -> s28 [label="I_Alert(WARNING,CLOSE_NOTIFY)"];
	s23 -> s10 [label="I_Alert(FATAL,UNEXPECTED_MESSAGE)"];
	s23 -> s2 [label="O_HELLO_VERIFY_REQUEST"];
	s23 -> s2 [label="O_Alert(FATAL,CLOSE_NOTIFY)"];
	s23 -> s2 [label="O_SERVER_HELLO"];
	s23 -> s2 [label="O_SERVER_HELLO_DONE"];
	s23 -> s2 [label="O_CHANGE_CIPHER_SPEC"];
	s23 -> s2 [label="O_FINISHED"];
	s23 -> s2 [label="O_Alert(FATAL,UNEXPECTED_MESSAGE)"];
	s23 -> s2 [label="O_Alert(FATAL,DECRYPT_ERROR)"];
	s23 -> s2 [label="O_APPLICATION"];
	s24 -> s2 [label="I_PSK_CLIENT_HELLO"];
	s24 -> s2 [label="I_PSK_CLIENT_KEY_EXCHANGE"];
	s24 -> s2 [label="I_CHANGE_CIPHER_SPEC"];
	s24 -> s2 [label="I_FINISHED"];
	s24 -> s2 [label="I_APPLICATION"];
	s24 -> s2 [label="I_Alert(WARNING,CLOSE_NOTIFY)"];
	s24 -> s2 [label="I_Alert(FATAL,UNEXPECTED_MESSAGE)"];
	s24 -> s2 [label="O_HELLO_VERIFY_REQUEST"];
	s24 -> s2 [label="O_Alert(FATAL,CLOSE_NOTIFY)"];
	s24 -> s25 [label="O_SERVER_HELLO"];
	s24 -> s2 [label="O_SERVER_HELLO_DONE"];
	s24 -> s2 [label="O_CHANGE_CIPHER_SPEC"];
	s24 -> s2 [label="O_FINISHED"];
	s24 -> s2 [label="O_Alert(FATAL,UNEXPECTED_MESSAGE)"];
	s24 -> s2 [label="O_Alert(FATAL,DECRYPT_ERROR)"];
	s24 -> s2 [label="O_APPLICATION"];
	s25 -> s2 [label="I_PSK_CLIENT_HELLO"];
	s25 -> s2 [label="I_PSK_CLIENT_KEY_EXCHANGE"];
	s25 -> s2 [label="I_CHANGE_CIPHER_SPEC"];
	s25 -> s2 [label="I_FINISHED"];
	s25 -> s2 [label="I_APPLICATION"];
	s25 -> s2 [label="I_Alert(WARNING,CLOSE_NOTIFY)"];
	s25 -> s2 [label="I_Alert(FATAL,UNEXPECTED_MESSAGE)"];
	s25 -> s2 [label="O_HELLO_VERIFY_REQUEST"];
	s25 -> s2 [label="O_Alert(FATAL,CLOSE_NOTIFY)"];
	s25 -> s2 [label="O_SERVER_HELLO"];
	s25 -> s26 [label="O_SERVER_HELLO_DONE"];
	s25 -> s2 [label="O_CHANGE_CIPHER_SPEC"];
	s25 -> s2 [label="O_FINISHED"];
	s25 -> s2 [label="O_Alert(FATAL,UNEXPECTED_MESSAGE)"];
	s25 -> s2 [label="O_Alert(FATAL,DECRYPT_ERROR)"];
	s25 -> s2 [label="O_APPLICATION"];
	s26 -> s18 [label="I_PSK_CLIENT_HELLO"];
	s26 -> s27 [label="I_PSK_CLIENT_KEY_EXCHANGE"];
	s26 -> s19 [label="I_CHANGE_CIPHER_SPEC"];
	s26 -> s18 [label="I_FINISHED"];
	s26 -> s26 [label="I_APPLICATION"];
	s26 -> s28 [label="I_Alert(WARNING,CLOSE_NOTIFY)"];
	s26 -> s10 [label="I_Alert(FATAL,UNEXPECTED_MESSAGE)"];
	s26 -> s2 [label="O_HELLO_VERIFY_REQUEST"];
	s26 -> s2 [label="O_Alert(FATAL,CLOSE_NOTIFY)"];
	s26 -> s2 [label="O_SERVER_HELLO"];
	s26 -> s2 [label="O_SERVER_HELLO_DONE"];
	s26 -> s2 [label="O_CHANGE_CIPHER_SPEC"];
	s26 -> s2 [label="O_FINISHED"];
	s26 -> s2 [label="O_Alert(FATAL,UNEXPECTED_MESSAGE)"];
	s26 -> s2 [label="O_Alert(FATAL,DECRYPT_ERROR)"];
	s26 -> s2 [label="O_APPLICATION"];
	s27 -> s18 [label="I_PSK_CLIENT_HELLO"];
	s27 -> s18 [label="I_PSK_CLIENT_KEY_EXCHANGE"];
	s27 -> s17 [label="I_CHANGE_CIPHER_SPEC"];
	s27 -> s18 [label="I_FINISHED"];
	s27 -> s27 [label="I_APPLICATION"];
	s27 -> s28 [label="I_Alert(WARNING,CLOSE_NOTIFY)"];
	s27 -> s10 [label="I_Alert(FATAL,UNEXPECTED_MESSAGE)"];
	s27 -> s2 [label="O_HELLO_VERIFY_REQUEST"];
	s27 -> s2 [label="O_Alert(FATAL,CLOSE_NOTIFY)"];
	s27 -> s2 [label="O_SERVER_HELLO"];
	s27 -> s2 [label="O_SERVER_HELLO_DONE"];
	s27 -> s2 [label="O_CHANGE_CIPHER_SPEC"];
	s27 -> s2 [label="O_FINISHED"];
	s27 -> s2 [label="O_Alert(FATAL,UNEXPECTED_MESSAGE)"];
	s27 -> s2 [label="O_Alert(FATAL,DECRYPT_ERROR)"];
	s27 -> s2 [label="O_APPLICATION"];
	s28 -> s2 [label="I_PSK_CLIENT_HELLO"];
	s28 -> s2 [label="I_PSK_CLIENT_KEY_EXCHANGE"];
	s28 -> s2 [label="I_CHANGE_CIPHER_SPEC"];
	s28 -> s2 [label="I_FINISHED"];
	s28 -> s2 [label="I_APPLICATION"];
	s28 -> s2 [label="I_Alert(WARNING,CLOSE_NOTIFY)"];
	s28 -> s2 [label="I_Alert(FATAL,UNEXPECTED_MESSAGE)"];
	s28 -> s2 [label="O_HELLO_VERIFY_REQUEST"];
	s28 -> s10 [label="O_Alert(FATAL,CLOSE_NOTIFY)"];
	s28 -> s2 [label="O_SERVER_HELLO"];
	s28 -> s2 [label="O_SERVER_HELLO_DONE"];
	s28 -> s2 [label="O_CHANGE_CIPHER_SPEC"];
	s28 -> s2 [label="O_FINISHED"];
	s28 -> s2 [label="O_Alert(FATAL,UNEXPECTED_MESSAGE)"];
	s28 -> s2 [label="O_Alert(FATAL,DECRYPT_ERROR)"];
	s28 -> s2 [label="O_APPLICATION"];
	s29 -> s2 [label="I_PSK_CLIENT_HELLO"];
	s29 -> s2 [label="I_PSK_CLIENT_KEY_EXCHANGE"];
	s29 -> s2 [label="I_CHANGE_CIPHER_SPEC"];
	s29 -> s2 [label="I_FINISHED"];
	s29 -> s2 [label="I_APPLICATION"];
	s29 -> s2 [label="I_Alert(WARNING,CLOSE_NOTIFY)"];
	s29 -> s2 [label="I_Alert(FATAL,UNEXPECTED_MESSAGE)"];
	s29 -> s2 [label="O_HELLO_VERIFY_REQUEST"];
	s29 -> s2 [label="O_Alert(FATAL,CLOSE_NOTIFY)"];
	s29 -> s2 [label="O_SERVER_HELLO"];
	s29 -> s2 [label="O_SERVER_HELLO_DONE"];
	s29 -> s2 [label="O_CHANGE_CIPHER_SPEC"];
	s29 -> s2 [label="O_FINISHED"];
	s29 -> s2 [label="O_Alert(FATAL,UNEXPECTED_MESSAGE)"];
	s29 -> s2 [label="O_Alert(FATAL,DECRYPT_ERROR)"];
	s29 -> s23 [label="O_APPLICATION"];
	s30 -> s2 [label="I_PSK_CLIENT_HELLO"];
	s30 -> s2 [label="I_PSK_CLIENT_KEY_EXCHANGE"];
	s30 -> s2 [label="I_CHANGE_CIPHER_SPEC"];
	s30 -> s2 [label="I_FINISHED"];
	s30 -> s2 [label="I_APPLICATION"];
	s30 -> s2 [label="I_Alert(WARNING,CLOSE_NOTIFY)"];
	s30 -> s2 [label="I_Alert(FATAL,UNEXPECTED_MESSAGE)"];
	s30 -> s2 [label="O_HELLO_VERIFY_REQUEST"];
	s30 -> s11 [label="O_Alert(FATAL,CLOSE_NOTIFY)"];
	s30 -> s2 [label="O_SERVER_HELLO"];
	s30 -> s2 [label="O_SERVER_HELLO_DONE"];
	s30 -> s2 [label="O_CHANGE_CIPHER_SPEC"];
	s30 -> s2 [label="O_FINISHED"];
	s30 -> s2 [label="O_Alert(FATAL,UNEXPECTED_MESSAGE)"];
	s30 -> s2 [label="O_Alert(FATAL,DECRYPT_ERROR)"];
	s30 -> s2 [label="O_APPLICATION"];
	s31 -> s4 [label="I_PSK_CLIENT_HELLO"];
	s31 -> s11 [label="I_PSK_CLIENT_KEY_EXCHANGE"];
	s31 -> s32 [label="I_CHANGE_CIPHER_SPEC"];
	s31 -> s31 [label="I_FINISHED"];
	s31 -> s31 [label="I_APPLICATION"];
	s31 -> s31 [label="I_Alert(WARNING,CLOSE_NOTIFY)"];
	s31 -> s31 [label="I_Alert(FATAL,UNEXPECTED_MESSAGE)"];
	s31 -> s2 [label="O_HELLO_VERIFY_REQUEST"];
	s31 -> s2 [label="O_Alert(FATAL,CLOSE_NOTIFY)"];
	s31 -> s2 [label="O_SERVER_HELLO"];
	s31 -> s2 [label="O_SERVER_HELLO_DONE"];
	s31 -> s2 [label="O_CHANGE_CIPHER_SPEC"];
	s31 -> s2 [label="O_FINISHED"];
	s31 -> s2 [label="O_Alert(FATAL,UNEXPECTED_MESSAGE)"];
	s31 -> s2 [label="O_Alert(FATAL,DECRYPT_ERROR)"];
	s31 -> s2 [label="O_APPLICATION"];
	s32 -> s33 [label="I_PSK_CLIENT_HELLO"];
	s32 -> s38 [label="I_PSK_CLIENT_KEY_EXCHANGE"];
	s32 -> s32 [label="I_CHANGE_CIPHER_SPEC"];
	s32 -> s32 [label="I_FINISHED"];
	s32 -> s32 [label="I_APPLICATION"];
	s32 -> s32 [label="I_Alert(WARNING,CLOSE_NOTIFY)"];
	s32 -> s32 [label="I_Alert(FATAL,UNEXPECTED_MESSAGE)"];
	s32 -> s2 [label="O_HELLO_VERIFY_REQUEST"];
	s32 -> s2 [label="O_Alert(FATAL,CLOSE_NOTIFY)"];
	s32 -> s2 [label="O_SERVER_HELLO"];
	s32 -> s2 [label="O_SERVER_HELLO_DONE"];
	s32 -> s2 [label="O_CHANGE_CIPHER_SPEC"];
	s32 -> s2 [label="O_FINISHED"];
	s32 -> s2 [label="O_Alert(FATAL,UNEXPECTED_MESSAGE)"];
	s32 -> s2 [label="O_Alert(FATAL,DECRYPT_ERROR)"];
	s32 -> s2 [label="O_APPLICATION"];
	s33 -> s2 [label="I_PSK_CLIENT_HELLO"];
	s33 -> s2 [label="I_PSK_CLIENT_KEY_EXCHANGE"];
	s33 -> s2 [label="I_CHANGE_CIPHER_SPEC"];
	s33 -> s2 [label="I_FINISHED"];
	s33 -> s2 [label="I_APPLICATION"];
	s33 -> s2 [label="I_Alert(WARNING,CLOSE_NOTIFY)"];
	s33 -> s2 [label="I_Alert(FATAL,UNEXPECTED_MESSAGE)"];
	s33 -> s2 [label="O_HELLO_VERIFY_REQUEST"];
	s33 -> s2 [label="O_Alert(FATAL,CLOSE_NOTIFY)"];
	s33 -> s34 [label="O_SERVER_HELLO"];
	s33 -> s2 [label="O_SERVER_HELLO_DONE"];
	s33 -> s2 [label="O_CHANGE_CIPHER_SPEC"];
	s33 -> s2 [label="O_FINISHED"];
	s33 -> s2 [label="O_Alert(FATAL,UNEXPECTED_MESSAGE)"];
	s33 -> s2 [label="O_Alert(FATAL,DECRYPT_ERROR)"];
	s33 -> s2 [label="O_APPLICATION"];
	s34 -> s2 [label="I_PSK_CLIENT_HELLO"];
	s34 -> s2 [label="I_PSK_CLIENT_KEY_EXCHANGE"];
	s34 -> s2 [label="I_CHANGE_CIPHER_SPEC"];
	s34 -> s2 [label="I_FINISHED"];
	s34 -> s2 [label="I_APPLICATION"];
	s34 -> s2 [label="I_Alert(WARNING,CLOSE_NOTIFY)"];
	s34 -> s2 [label="I_Alert(FATAL,UNEXPECTED_MESSAGE)"];
	s34 -> s2 [label="O_HELLO_VERIFY_REQUEST"];
	s34 -> s2 [label="O_Alert(FATAL,CLOSE_NOTIFY)"];
	s34 -> s2 [label="O_SERVER_HELLO"];
	s34 -> s35 [label="O_SERVER_HELLO_DONE"];
	s34 -> s2 [label="O_CHANGE_CIPHER_SPEC"];
	s34 -> s2 [label="O_FINISHED"];
	s34 -> s2 [label="O_Alert(FATAL,UNEXPECTED_MESSAGE)"];
	s34 -> s2 [label="O_Alert(FATAL,DECRYPT_ERROR)"];
	s34 -> s2 [label="O_APPLICATION"];
	s35 -> s36 [label="I_PSK_CLIENT_HELLO"];
	s35 -> s37 [label="I_PSK_CLIENT_KEY_EXCHANGE"];
	s35 -> s36 [label="I_CHANGE_CIPHER_SPEC"];
	s35 -> s36 [label="I_FINISHED"];
	s35 -> s36 [label="I_APPLICATION"];
	s35 -> s36 [label="I_Alert(WARNING,CLOSE_NOTIFY)"];
	s35 -> s36 [label="I_Alert(FATAL,UNEXPECTED_MESSAGE)"];
	s35 -> s2 [label="O_HELLO_VERIFY_REQUEST"];
	s35 -> s2 [label="O_Alert(FATAL,CLOSE_NOTIFY)"];
	s35 -> s2 [label="O_SERVER_HELLO"];
	s35 -> s2 [label="O_SERVER_HELLO_DONE"];
	s35 -> s2 [label="O_CHANGE_CIPHER_SPEC"];
	s35 -> s2 [label="O_FINISHED"];
	s35 -> s2 [label="O_Alert(FATAL,UNEXPECTED_MESSAGE)"];
	s35 -> s2 [label="O_Alert(FATAL,DECRYPT_ERROR)"];
	s35 -> s2 [label="O_APPLICATION"];
	s36 -> s2 [label="I_PSK_CLIENT_HELLO"];
	s36 -> s2 [label="I_PSK_CLIENT_KEY_EXCHANGE"];
	s36 -> s2 [label="I_CHANGE_CIPHER_SPEC"];
	s36 -> s2 [label="I_FINISHED"];
	s36 -> s2 [label="I_APPLICATION"];
	s36 -> s2 [label="I_Alert(WARNING,CLOSE_NOTIFY)"];
	s36 -> s2 [label="I_Alert(FATAL,UNEXPECTED_MESSAGE)"];
	s36 -> s2 [label="O_HELLO_VERIFY_REQUEST"];
	s36 -> s2 [label="O_Alert(FATAL,CLOSE_NOTIFY)"];
	s36 -> s2 [label="O_SERVER_HELLO"];
	s36 -> s2 [label="O_SERVER_HELLO_DONE"];
	s36 -> s2 [label="O_CHANGE_CIPHER_SPEC"];
	s36 -> s2 [label="O_FINISHED"];
	s36 -> s2 [label="O_Alert(FATAL,UNEXPECTED_MESSAGE)"];
	s36 -> s32 [label="O_Alert(FATAL,DECRYPT_ERROR)"];
	s36 -> s2 [label="O_APPLICATION"];
	s37 -> s2 [label="I_PSK_CLIENT_HELLO"];
	s37 -> s2 [label="I_PSK_CLIENT_KEY_EXCHANGE"];
	s37 -> s2 [label="I_CHANGE_CIPHER_SPEC"];
	s37 -> s2 [label="I_FINISHED"];
	s37 -> s2 [label="I_APPLICATION"];
	s37 -> s2 [label="I_Alert(WARNING,CLOSE_NOTIFY)"];
	s37 -> s2 [label="I_Alert(FATAL,UNEXPECTED_MESSAGE)"];
	s37 -> s2 [label="O_HELLO_VERIFY_REQUEST"];
	s37 -> s2 [label="O_Alert(FATAL,CLOSE_NOTIFY)"];
	s37 -> s2 [label="O_SERVER_HELLO"];
	s37 -> s2 [label="O_SERVER_HELLO_DONE"];
	s37 -> s2 [label="O_CHANGE_CIPHER_SPEC"];
	s37 -> s2 [label="O_FINISHED"];
	s37 -> s2 [label="O_Alert(FATAL,UNEXPECTED_MESSAGE)"];
	s37 -> s38 [label="O_Alert(FATAL,DECRYPT_ERROR)"];
	s37 -> s2 [label="O_APPLICATION"];
	s38 -> s39 [label="I_PSK_CLIENT_HELLO"];
	s38 -> s38 [label="I_PSK_CLIENT_KEY_EXCHANGE"];
	s38 -> s10 [label="I_CHANGE_CIPHER_SPEC"];
	s38 -> s38 [label="I_FINISHED"];
	s38 -> s38 [label="I_APPLICATION"];
	s38 -> s38 [label="I_Alert(WARNING,CLOSE_NOTIFY)"];
	s38 -> s38 [label="I_Alert(FATAL,UNEXPECTED_MESSAGE)"];
	s38 -> s2 [label="O_HELLO_VERIFY_REQUEST"];
	s38 -> s2 [label="O_Alert(FATAL,CLOSE_NOTIFY)"];
	s38 -> s2 [label="O_SERVER_HELLO"];
	s38 -> s2 [label="O_SERVER_HELLO_DONE"];
	s38 -> s2 [label="O_CHANGE_CIPHER_SPEC"];
	s38 -> s2 [label="O_FINISHED"];
	s38 -> s2 [label="O_Alert(FATAL,UNEXPECTED_MESSAGE)"];
	s38 -> s2 [label="O_Alert(FATAL,DECRYPT_ERROR)"];
	s38 -> s2 [label="O_APPLICATION"];
	s39 -> s2 [label="I_PSK_CLIENT_HELLO"];
	s39 -> s2 [label="I_PSK_CLIENT_KEY_EXCHANGE"];
	s39 -> s2 [label="I_CHANGE_CIPHER_SPEC"];
	s39 -> s2 [label="I_FINISHED"];
	s39 -> s2 [label="I_APPLICATION"];
	s39 -> s2 [label="I_Alert(WARNING,CLOSE_NOTIFY)"];
	s39 -> s2 [label="I_Alert(FATAL,UNEXPECTED_MESSAGE)"];
	s39 -> s2 [label="O_HELLO_VERIFY_REQUEST"];
	s39 -> s2 [label="O_Alert(FATAL,CLOSE_NOTIFY)"];
	s39 -> s40 [label="O_SERVER_HELLO"];
	s39 -> s2 [label="O_SERVER_HELLO_DONE"];
	s39 -> s2 [label="O_CHANGE_CIPHER_SPEC"];
	s39 -> s2 [label="O_FINISHED"];
	s39 -> s2 [label="O_Alert(FATAL,UNEXPECTED_MESSAGE)"];
	s39 -> s2 [label="O_Alert(FATAL,DECRYPT_ERROR)"];
	s39 -> s2 [label="O_APPLICATION"];
	s40 -> s2 [label="I_PSK_CLIENT_HELLO"];
	s40 -> s2 [label="I_PSK_CLIENT_KEY_EXCHANGE"];
	s40 -> s2 [label="I_CHANGE_CIPHER_SPEC"];
	s40 -> s2 [label="I_FINISHED"];
	s40 -> s2 [label="I_APPLICATION"];
	s40 -> s2 [label="I_Alert(WARNING,CLOSE_NOTIFY)"];
	s40 -> s2 [label="I_Alert(FATAL,UNEXPECTED_MESSAGE)"];
	s40 -> s2 [label="O_HELLO_VERIFY_REQUEST"];
	s40 -> s2 [label="O_Alert(FATAL,CLOSE_NOTIFY)"];
	s40 -> s2 [label="O_SERVER_HELLO"];
	s40 -> s41 [label="O_SERVER_HELLO_DONE"];
	s40 -> s2 [label="O_CHANGE_CIPHER_SPEC"];
	s40 -> s2 [label="O_FINISHED"];
	s40 -> s2 [label="O_Alert(FATAL,UNEXPECTED_MESSAGE)"];
	s40 -> s2 [label="O_Alert(FATAL,DECRYPT_ERROR)"];
	s40 -> s2 [label="O_APPLICATION"];
	s41 -> s37 [label="I_PSK_CLIENT_HELLO"];
	s41 -> s37 [label="I_PSK_CLIENT_KEY_EXCHANGE"];
	s41 -> s20 [label="I_CHANGE_CIPHER_SPEC"];
	s41 -> s37 [label="I_FINISHED"];
	s41 -> s37 [label="I_APPLICATION"];
	s41 -> s37 [label="I_Alert(WARNING,CLOSE_NOTIFY)"];
	s41 -> s37 [label="I_Alert(FATAL,UNEXPECTED_MESSAGE)"];
	s41 -> s2 [label="O_HELLO_VERIFY_REQUEST"];
	s41 -> s2 [label="O_Alert(FATAL,CLOSE_NOTIFY)"];
	s41 -> s2 [label="O_SERVER_HELLO"];
	s41 -> s2 [label="O_SERVER_HELLO_DONE"];
	s41 -> s2 [label="O_CHANGE_CIPHER_SPEC"];
	s41 -> s2 [label="O_FINISHED"];
	s41 -> s2 [label="O_Alert(FATAL,UNEXPECTED_MESSAGE)"];
	s41 -> s2 [label="O_Alert(FATAL,DECRYPT_ERROR)"];
	s41 -> s2 [label="O_APPLICATION"];
	s42 -> s2 [label="I_PSK_CLIENT_HELLO"];
	s42 -> s2 [label="I_PSK_CLIENT_KEY_EXCHANGE"];
	s42 -> s2 [label="I_CHANGE_CIPHER_SPEC"];
	s42 -> s2 [label="I_FINISHED"];
	s42 -> s2 [label="I_APPLICATION"];
	s42 -> s2 [label="I_Alert(WARNING,CLOSE_NOTIFY)"];
	s42 -> s2 [label="I_Alert(FATAL,UNEXPECTED_MESSAGE)"];
	s42 -> s2 [label="O_HELLO_VERIFY_REQUEST"];
	s42 -> s31 [label="O_Alert(FATAL,CLOSE_NOTIFY)"];
	s42 -> s2 [label="O_SERVER_HELLO"];
	s42 -> s2 [label="O_SERVER_HELLO_DONE"];
	s42 -> s2 [label="O_CHANGE_CIPHER_SPEC"];
	s42 -> s2 [label="O_FINISHED"];
	s42 -> s2 [label="O_Alert(FATAL,UNEXPECTED_MESSAGE)"];
	s42 -> s2 [label="O_Alert(FATAL,DECRYPT_ERROR)"];
	s42 -> s2 [label="O_APPLICATION"];
	s43 -> s12 [label="I_PSK_CLIENT_HELLO"];
	s43 -> s43 [label="I_PSK_CLIENT_KEY_EXCHANGE"];
	s43 -> s44 [label="I_CHANGE_CIPHER_SPEC"];
	s43 -> s43 [label="I_FINISHED"];
	s43 -> s43 [label="I_APPLICATION"];
	s43 -> s43 [label="I_Alert(WARNING,CLOSE_NOTIFY)"];
	s43 -> s43 [label="I_Alert(FATAL,UNEXPECTED_MESSAGE)"];
	s43 -> s2 [label="O_HELLO_VERIFY_REQUEST"];
	s43 -> s2 [label="O_Alert(FATAL,CLOSE_NOTIFY)"];
	s43 -> s2 [label="O_SERVER_HELLO"];
	s43 -> s2 [label="O_SERVER_HELLO_DONE"];
	s43 -> s2 [label="O_CHANGE_CIPHER_SPEC"];
	s43 -> s2 [label="O_FINISHED"];
	s43 -> s2 [label="O_Alert(FATAL,UNEXPECTED_MESSAGE)"];
	s43 -> s2 [label="O_Alert(FATAL,DECRYPT_ERROR)"];
	s43 -> s2 [label="O_APPLICATION"];
	s44 -> s39 [label="I_PSK_CLIENT_HELLO"];
	s44 -> s44 [label="I_PSK_CLIENT_KEY_EXCHANGE"];
	s44 -> s44 [label="I_CHANGE_CIPHER_SPEC"];
	s44 -> s44 [label="I_FINISHED"];
	s44 -> s44 [label="I_APPLICATION"];
	s44 -> s44 [label="I_Alert(WARNING,CLOSE_NOTIFY)"];
	s44 -> s44 [label="I_Alert(FATAL,UNEXPECTED_MESSAGE)"];
	s44 -> s2 [label="O_HELLO_VERIFY_REQUEST"];
	s44 -> s2 [label="O_Alert(FATAL,CLOSE_NOTIFY)"];
	s44 -> s2 [label="O_SERVER_HELLO"];
	s44 -> s2 [label="O_SERVER_HELLO_DONE"];
	s44 -> s2 [label="O_CHANGE_CIPHER_SPEC"];
	s44 -> s2 [label="O_FINISHED"];
	s44 -> s2 [label="O_Alert(FATAL,UNEXPECTED_MESSAGE)"];
	s44 -> s2 [label="O_Alert(FATAL,DECRYPT_ERROR)"];
	s44 -> s2 [label="O_APPLICATION"];
	s45 -> s33 [label="I_PSK_CLIENT_HELLO"];
	s45 -> s44 [label="I_PSK_CLIENT_KEY_EXCHANGE"];
	s45 -> s45 [label="I_CHANGE_CIPHER_SPEC"];
	s45 -> s45 [label="I_FINISHED"];
	s45 -> s45 [label="I_APPLICATION"];
	s45 -> s45 [label="I_Alert(WARNING,CLOSE_NOTIFY)"];
	s45 -> s45 [label="I_Alert(FATAL,UNEXPECTED_MESSAGE)"];
	s45 -> s2 [label="O_HELLO_VERIFY_REQUEST"];
	s45 -> s2 [label="O_Alert(FATAL,CLOSE_NOTIFY)"];
	s45 -> s2 [label="O_SERVER_HELLO"];
	s45 -> s2 [label="O_SERVER_HELLO_DONE"];
	s45 -> s2 [label="O_CHANGE_CIPHER_SPEC"];
	s45 -> s2 [label="O_FINISHED"];
	s45 -> s2 [label="O_Alert(FATAL,UNEXPECTED_MESSAGE)"];
	s45 -> s2 [label="O_Alert(FATAL,DECRYPT_ERROR)"];
	s45 -> s2 [label="O_APPLICATION"];
	s46 -> s47 [label="I_PSK_CLIENT_HELLO"];
	s46 -> s46 [label="I_PSK_CLIENT_KEY_EXCHANGE"];
	s46 -> s48 [label="I_CHANGE_CIPHER_SPEC"];
	s46 -> s46 [label="I_FINISHED"];
	s46 -> s46 [label="I_APPLICATION"];
	s46 -> s46 [label="I_Alert(WARNING,CLOSE_NOTIFY)"];
	s46 -> s46 [label="I_Alert(FATAL,UNEXPECTED_MESSAGE)"];
	s46 -> s2 [label="O_HELLO_VERIFY_REQUEST"];
	s46 -> s2 [label="O_Alert(FATAL,CLOSE_NOTIFY)"];
	s46 -> s2 [label="O_SERVER_HELLO"];
	s46 -> s2 [label="O_SERVER_HELLO_DONE"];
	s46 -> s2 [label="O_CHANGE_CIPHER_SPEC"];
	s46 -> s2 [label="O_FINISHED"];
	s46 -> s2 [label="O_Alert(FATAL,UNEXPECTED_MESSAGE)"];
	s46 -> s2 [label="O_Alert(FATAL,DECRYPT_ERROR)"];
	s46 -> s2 [label="O_APPLICATION"];
	s47 -> s2 [label="I_PSK_CLIENT_HELLO"];
	s47 -> s2 [label="I_PSK_CLIENT_KEY_EXCHANGE"];
	s47 -> s2 [label="I_CHANGE_CIPHER_SPEC"];
	s47 -> s2 [label="I_FINISHED"];
	s47 -> s2 [label="I_APPLICATION"];
	s47 -> s2 [label="I_Alert(WARNING,CLOSE_NOTIFY)"];
	s47 -> s2 [label="I_Alert(FATAL,UNEXPECTED_MESSAGE)"];
	s47 -> s43 [label="O_HELLO_VERIFY_REQUEST"];
	s47 -> s2 [label="O_Alert(FATAL,CLOSE_NOTIFY)"];
	s47 -> s2 [label="O_SERVER_HELLO"];
	s47 -> s2 [label="O_SERVER_HELLO_DONE"];
	s47 -> s2 [label="O_CHANGE_CIPHER_SPEC"];
	s47 -> s2 [label="O_FINISHED"];
	s47 -> s2 [label="O_Alert(FATAL,UNEXPECTED_MESSAGE)"];
	s47 -> s2 [label="O_Alert(FATAL,DECRYPT_ERROR)"];
	s47 -> s2 [label="O_APPLICATION"];
	s48 -> s49 [label="I_PSK_CLIENT_HELLO"];
	s48 -> s48 [label="I_PSK_CLIENT_KEY_EXCHANGE"];
	s48 -> s48 [label="I_CHANGE_CIPHER_SPEC"];
	s48 -> s48 [label="I_FINISHED"];
	s48 -> s48 [label="I_APPLICATION"];
	s48 -> s48 [label="I_Alert(WARNING,CLOSE_NOTIFY)"];
	s48 -> s48 [label="I_Alert(FATAL,UNEXPECTED_MESSAGE)"];
	s48 -> s2 [label="O_HELLO_VERIFY_REQUEST"];
	s48 -> s2 [label="O_Alert(FATAL,CLOSE_NOTIFY)"];
	s48 -> s2 [label="O_SERVER_HELLO"];
	s48 -> s2 [label="O_SERVER_HELLO_DONE"];
	s48 -> s2 [label="O_CHANGE_CIPHER_SPEC"];
	s48 -> s2 [label="O_FINISHED"];
	s48 -> s2 [label="O_Alert(FATAL,UNEXPECTED_MESSAGE)"];
	s48 -> s2 [label="O_Alert(FATAL,DECRYPT_ERROR)"];
	s48 -> s2 [label="O_APPLICATION"];
	s49 -> s2 [label="I_PSK_CLIENT_HELLO"];
	s49 -> s2 [label="I_PSK_CLIENT_KEY_EXCHANGE"];
	s49 -> s2 [label="I_CHANGE_CIPHER_SPEC"];
	s49 -> s2 [label="I_FINISHED"];
	s49 -> s2 [label="I_APPLICATION"];
	s49 -> s2 [label="I_Alert(WARNING,CLOSE_NOTIFY)"];
	s49 -> s2 [label="I_Alert(FATAL,UNEXPECTED_MESSAGE)"];
	s49 -> s44 [label="O_HELLO_VERIFY_REQUEST"];
	s49 -> s2 [label="O_Alert(FATAL,CLOSE_NOTIFY)"];
	s49 -> s2 [label="O_SERVER_HELLO"];
	s49 -> s2 [label="O_SERVER_HELLO_DONE"];
	s49 -> s2 [label="O_CHANGE_CIPHER_SPEC"];
	s49 -> s2 [label="O_FINISHED"];
	s49 -> s2 [label="O_Alert(FATAL,UNEXPECTED_MESSAGE)"];
	s49 -> s2 [label="O_Alert(FATAL,DECRYPT_ERROR)"];
	s49 -> s2 [label="O_APPLICATION"];
	s50 -> s51 [label="I_PSK_CLIENT_HELLO"];
	s50 -> s48 [label="I_PSK_CLIENT_KEY_EXCHANGE"];
	s50 -> s50 [label="I_CHANGE_CIPHER_SPEC"];
	s50 -> s50 [label="I_FINISHED"];
	s50 -> s50 [label="I_APPLICATION"];
	s50 -> s50 [label="I_Alert(WARNING,CLOSE_NOTIFY)"];
	s50 -> s50 [label="I_Alert(FATAL,UNEXPECTED_MESSAGE)"];
	s50 -> s2 [label="O_HELLO_VERIFY_REQUEST"];
	s50 -> s2 [label="O_Alert(FATAL,CLOSE_NOTIFY)"];
	s50 -> s2 [label="O_SERVER_HELLO"];
	s50 -> s2 [label="O_SERVER_HELLO_DONE"];
	s50 -> s2 [label="O_CHANGE_CIPHER_SPEC"];
	s50 -> s2 [label="O_FINISHED"];
	s50 -> s2 [label="O_Alert(FATAL,UNEXPECTED_MESSAGE)"];
	s50 -> s2 [label="O_Alert(FATAL,DECRYPT_ERROR)"];
	s50 -> s2 [label="O_APPLICATION"];
	s51 -> s2 [label="I_PSK_CLIENT_HELLO"];
	s51 -> s2 [label="I_PSK_CLIENT_KEY_EXCHANGE"];
	s51 -> s2 [label="I_CHANGE_CIPHER_SPEC"];
	s51 -> s2 [label="I_FINISHED"];
	s51 -> s2 [label="I_APPLICATION"];
	s51 -> s2 [label="I_Alert(WARNING,CLOSE_NOTIFY)"];
	s51 -> s2 [label="I_Alert(FATAL,UNEXPECTED_MESSAGE)"];
	s51 -> s45 [label="O_HELLO_VERIFY_REQUEST"];
	s51 -> s2 [label="O_Alert(FATAL,CLOSE_NOTIFY)"];
	s51 -> s2 [label="O_SERVER_HELLO"];
	s51 -> s2 [label="O_SERVER_HELLO_DONE"];
	s51 -> s2 [label="O_CHANGE_CIPHER_SPEC"];
	s51 -> s2 [label="O_FINISHED"];
	s51 -> s2 [label="O_Alert(FATAL,UNEXPECTED_MESSAGE)"];
	s51 -> s2 [label="O_Alert(FATAL,DECRYPT_ERROR)"];
	s51 -> s2 [label="O_APPLICATION"];

__start0 [label="" shape="none" width="0" height="0"];
__start0 -> s0;

}
